%!PS-Adobe-3.0 EPSF-3.0
%%Title: figures/anchor_4_to_tag_2_exp6_1.eps
%%Creator: matplotlib version 1.3.1, http://matplotlib.org/
%%CreationDate: Wed Mar  1 13:35:55 2017
%%Orientation: portrait
%%BoundingBox: 18 180 594 612
%%EndComments
%%BeginProlog
/mpldict 10 dict def
mpldict begin
/m { moveto } bind def
/l { lineto } bind def
/r { rlineto } bind def
/c { curveto } bind def
/cl { closepath } bind def
/box {
m
1 index 0 r
0 exch r
neg 0 r
cl
} bind def
/clipbox {
box
clip
newpath
} bind def
%!PS-Adobe-3.0 Resource-Font
%%Title: cmr10
%%Copyright: Copyright (C) 1994, Basil K. Malyshev. All Rights Reserved.012BaKoMa Fonts Collection, Level-B.
%%Creator: Converted from TrueType to type 3 by PPR
25 dict begin
/_d{bind def}bind def
/_m{moveto}_d
/_l{lineto}_d
/_cl{closepath eofill}_d
/_c{curveto}_d
/_sc{7 -1 roll{setcachedevice}{pop pop pop pop pop pop}ifelse}_d
/_e{exec}_d
/FontName /Cmr10 def
/PaintType 0 def
/FontMatrix[.001 0 0 .001 0 0]def
/FontBBox[-44 -250 1009 750]def
/FontType 3 def
/Encoding [ /nine /zero /equal /two /three /seven ] def
/FontInfo 10 dict dup begin
/FamilyName (cmr10) def
/FullName (cmr10) def
/Notice (Copyright (C) 1994, Basil K. Malyshev. All Rights Reserved.012BaKoMa Fonts Collection, Level-B. ) def
/Weight (Regular) def
/Version (1.1/12-Nov-94) def
/ItalicAngle 0.0 def
/isFixedPitch false def
/UnderlinePosition -133 def
/UnderlineThickness 20 def
end readonly def
/CharStrings 6 dict dup begin
/nine{{500 0 42 -21 457 666 _sc
113 42 _m
131 20 162 10 208 10 _c
233 10 257 18 279 36 _c
301 53 318 74 330 99 _c
344 127 353 158 357 190 _c
361 222 363 261 363 309 _c
351 282 335 260 314 243 _c
292 225 268 217 240 217 _c
201 217 166 227 136 248 _c
106 269 82 297 66 331 _c
50 365 42 402 42 441 _c
42 481 51 518 69 553 _c
87 587 113 615 145 635 _c
}_e{177 655 213 666 255 666 _c
295 666 328 655 356 633 _c
383 611 404 582 418 548 _c
432 513 442 476 448 438 _c
454 399 457 361 457 323 _c
457 271 447 219 428 165 _c
409 111 381 67 344 32 _c
306 -3 261 -21 208 -21 _c
168 -21 135 -12 108 6 _c
80 24 67 52 67 90 _c
67 103 71 114 81 124 _c
90 133 101 138 115 138 _c
128 138 139 133 149 124 _c
}_e{158 114 163 103 163 90 _c
163 76 158 65 149 56 _c
139 46 128 42 115 42 _c
113 42 _l
244 243 _m
271 243 293 252 311 270 _c
328 288 341 311 349 339 _c
357 366 361 393 361 421 _c
361 440 _l
361 444 _l
361 494 353 538 339 578 _c
324 617 296 637 255 637 _c
228 637 206 631 190 620 _c
174 608 162 593 154 574 _c
146 554 141 534 139 512 _c
137 490 136 466 136 441 _c
}_e{136 403 137 370 141 344 _c
145 317 155 293 171 273 _c
187 253 211 243 244 243 _c
_cl}_e}_d
/zero{{500 0 39 -21 460 666 _sc
250 -21 _m
168 -21 112 12 83 79 _c
53 146 39 226 39 319 _c
39 377 44 431 55 482 _c
65 533 86 576 118 612 _c
149 648 193 666 250 666 _c
294 666 330 655 358 634 _c
386 612 407 585 422 551 _c
436 517 446 480 452 441 _c
457 402 460 361 460 319 _c
460 261 454 208 444 158 _c
433 108 412 65 381 31 _c
350 -3 306 -21 250 -21 _c
250 4 _m
}_e{287 4 315 23 333 61 _c
351 99 362 141 366 187 _c
370 233 373 283 373 335 _c
373 385 370 431 366 473 _c
362 515 351 554 333 588 _c
315 622 287 640 250 640 _c
212 640 184 622 166 588 _c
148 554 136 515 132 473 _c
128 431 126 385 126 335 _c
126 297 126 262 128 230 _c
130 197 135 163 143 128 _c
151 93 163 64 181 40 _c
198 16 221 4 250 4 _c
_cl}_e}_d
/equal{{777 0 56 133 721 367 _sc
75 133 _m
69 133 65 135 61 139 _c
57 143 56 148 56 153 _c
56 158 57 163 61 167 _c
65 171 69 173 75 173 _c
703 173 _l
707 173 711 171 715 167 _c
719 163 721 158 721 153 _c
721 148 719 143 715 139 _c
711 135 707 133 703 133 _c
75 133 _l
75 327 _m
69 327 65 329 61 333 _c
57 337 56 341 56 347 _c
56 351 57 356 61 360 _c
}_e{65 364 69 367 75 367 _c
703 367 _l
707 367 711 364 715 360 _c
719 356 721 351 721 347 _c
721 341 719 337 715 333 _c
711 329 707 327 703 327 _c
75 327 _l
_cl}_e}_d
/two{{500 0 50 0 449 666 _sc
50 0 _m
50 27 _l
50 28 50 30 52 32 _c
207 204 _l
230 229 249 250 264 268 _c
278 285 293 305 307 327 _c
321 349 333 372 341 396 _c
349 419 354 444 354 470 _c
354 497 349 523 339 548 _c
329 573 314 593 294 608 _c
274 623 249 631 221 631 _c
192 631 166 622 143 605 _c
119 587 103 565 94 537 _c
96 537 100 538 105 538 _c
}_e{119 538 132 533 143 523 _c
153 513 159 500 159 484 _c
159 468 153 455 143 445 _c
132 434 119 429 105 429 _c
89 429 76 434 66 445 _c
55 456 50 469 50 484 _c
50 508 54 532 64 554 _c
73 576 86 595 104 613 _c
122 630 142 643 164 652 _c
186 661 210 666 236 666 _c
274 666 309 658 342 642 _c
375 626 401 603 420 573 _c
439 543 449 509 449 470 _c
}_e{449 441 442 414 430 388 _c
417 362 401 338 381 317 _c
361 295 336 271 305 244 _c
274 217 254 199 244 190 _c
131 81 _l
227 81 _l
274 81 313 81 345 82 _c
377 82 394 84 396 86 _c
404 94 412 125 420 178 _c
449 178 _l
421 0 _l
50 0 _l
_cl}_e}_d
/three{{500 0 42 -21 457 666 _sc
95 77 _m
111 54 132 37 158 26 _c
184 15 213 10 243 10 _c
281 10 309 26 325 59 _c
341 92 350 130 350 172 _c
350 190 348 209 345 228 _c
341 247 335 265 327 281 _c
319 297 308 310 294 320 _c
280 330 262 335 242 335 _c
176 335 _l
170 335 167 338 167 344 _c
167 353 _l
167 358 170 361 176 361 _c
231 365 _l
254 365 273 373 289 391 _c
}_e{305 409 316 430 323 456 _c
330 481 334 505 334 528 _c
334 560 326 586 311 606 _c
296 626 273 637 243 637 _c
217 637 193 632 170 622 _c
147 612 129 598 115 579 _c
116 579 117 580 118 580 _c
119 580 120 580 122 580 _c
137 580 150 574 160 564 _c
170 554 175 541 175 527 _c
175 512 170 499 160 489 _c
150 479 137 474 122 474 _c
107 474 94 479 84 489 _c
}_e{74 499 69 512 69 527 _c
69 555 77 580 95 601 _c
112 622 134 638 161 649 _c
188 660 215 666 243 666 _c
263 666 284 663 307 657 _c
329 651 350 642 368 631 _c
386 619 401 605 413 588 _c
424 570 430 550 430 528 _c
430 500 423 474 411 450 _c
399 426 382 406 360 389 _c
338 371 314 358 288 350 _c
317 344 345 333 371 317 _c
397 301 417 280 433 255 _c
}_e{449 229 457 202 457 173 _c
457 136 446 103 426 73 _c
406 43 379 19 347 3 _c
314 -13 279 -21 243 -21 _c
211 -21 180 -15 149 -3 _c
117 8 92 25 72 49 _c
52 73 42 101 42 135 _c
42 151 47 165 58 176 _c
69 187 83 193 100 193 _c
110 193 120 190 129 185 _c
138 180 145 173 150 164 _c
155 154 158 145 158 135 _c
158 118 152 104 141 93 _c
}_e{129 82 116 77 100 77 _c
95 77 _l
_cl}_e}_d
/seven{{500 0 56 -21 485 676 _sc
174 26 _m
174 63 177 99 183 135 _c
189 170 199 205 212 240 _c
224 274 239 308 257 342 _c
275 375 294 406 316 436 _c
407 563 _l
293 563 _l
174 563 113 561 110 558 _c
101 547 93 516 85 466 _c
56 466 _l
89 676 _l
118 676 _l
118 673 _l
118 661 138 653 179 649 _c
219 645 259 644 299 644 _c
485 644 _l
485 618 _l
485 617 484 616 484 616 _c
}_e{484 616 484 615 484 615 _c
346 422 _l
312 372 290 316 282 255 _c
274 193 270 117 270 26 _c
270 12 265 1 256 -7 _c
246 -16 235 -21 222 -21 _c
208 -21 197 -16 188 -7 _c
178 1 174 12 174 26 _c
_cl}_e}_d
end readonly def

/BuildGlyph
 {exch begin
 CharStrings exch
 2 copy known not{pop /.notdef}if
 true 3 1 roll get exec
 end}_d

/BuildChar {
 1 index /Encoding get exch get
 1 index /BuildGlyph get exec
}_d

FontName currentdict end definefont pop
%!PS-Adobe-3.0 Resource-Font
%%Title: cmmi10
%%Copyright: Copyright (C) 1994, Basil K. Malyshev. All Rights Reserved.012BaKoMa Fonts Collection, Level-B.
%%Creator: Converted from TrueType to type 3 by PPR
25 dict begin
/_d{bind def}bind def
/_m{moveto}_d
/_l{lineto}_d
/_cl{closepath eofill}_d
/_c{curveto}_d
/_sc{7 -1 roll{setcachedevice}{pop pop pop pop pop pop}ifelse}_d
/_e{exec}_d
/FontName /Cmmi10 def
/PaintType 0 def
/FontMatrix[.001 0 0 .001 0 0]def
/FontBBox[-34 -250 1048 750]def
/FontType 3 def
/Encoding [ /sigma /period /d ] def
/FontInfo 10 dict dup begin
/FamilyName (cmmi10) def
/FullName (cmmi10) def
/Notice (Copyright (C) 1994, Basil K. Malyshev. All Rights Reserved.012BaKoMa Fonts Collection, Level-B. ) def
/Weight (Regular) def
/Version (1.1/12-Nov-94) def
/ItalicAngle 0.0 def
/isFixedPitch false def
/UnderlinePosition -133 def
/UnderlineThickness 20 def
end readonly def
/CharStrings 3 dict dup begin
/sigma{{571 0 36 -10 568 431 _sc
187 -10 _m
157 -10 131 -3 108 10 _c
85 24 67 43 55 67 _c
42 91 36 118 36 147 _c
36 177 43 210 57 244 _c
71 278 90 310 114 338 _c
138 366 166 389 197 406 _c
227 422 259 431 291 431 _c
543 431 _l
549 431 555 428 560 424 _c
565 419 568 413 568 406 _c
568 396 564 387 557 380 _c
550 372 542 369 532 369 _c
410 369 _l
}_e{429 340 439 305 439 265 _c
439 231 432 198 419 166 _c
406 133 388 103 365 77 _c
342 50 315 29 284 13 _c
253 -2 221 -10 187 -10 _c
188 15 _m
224 15 257 29 285 58 _c
313 86 334 121 349 162 _c
364 203 372 241 372 277 _c
372 305 364 328 348 344 _c
332 360 310 369 282 369 _c
243 369 210 356 183 330 _c
156 304 136 271 122 232 _c
108 192 102 154 102 118 _c
}_e{102 89 109 65 124 45 _c
139 25 160 15 188 15 _c
_cl}_e}_d
/period{277 0 84 0 194 110 _sc
84 55 _m
84 70 89 83 100 94 _c
111 104 124 110 139 110 _c
148 110 157 107 166 102 _c
174 97 181 90 186 82 _c
191 73 194 64 194 55 _c
194 40 188 27 178 16 _c
167 5 154 0 139 0 _c
124 0 111 5 100 16 _c
89 27 84 40 84 55 _c
_cl}_d
/d{{520 0 38 -10 519 694 _sc
174 -10 _m
132 -10 98 5 74 37 _c
50 68 38 105 38 149 _c
38 191 49 236 71 282 _c
93 328 122 366 160 396 _c
198 426 238 442 282 442 _c
302 442 319 436 335 425 _c
351 414 363 400 372 382 _c
428 605 _l
430 616 432 625 433 632 _c
433 642 411 648 368 648 _c
361 648 358 652 358 661 _c
358 663 358 666 360 670 _c
361 674 362 677 364 679 _c
}_e{366 681 368 683 372 683 _c
507 694 _l
515 694 519 689 519 681 _c
375 106 _l
370 94 368 78 368 58 _c
368 29 377 15 397 15 _c
417 15 433 28 444 55 _c
455 81 464 112 472 147 _c
473 151 476 153 480 153 _c
492 153 _l
494 153 496 151 498 149 _c
500 147 501 145 501 143 _c
489 96 476 59 462 31 _c
448 3 426 -10 395 -10 _c
372 -10 352 -3 335 9 _c
}_e{318 21 307 39 303 61 _c
260 13 217 -10 174 -10 _c
175 15 _m
199 15 222 24 245 42 _c
267 60 287 81 303 106 _c
303 106 304 108 304 110 _c
359 330 _l
355 353 346 373 333 390 _c
319 407 302 416 280 416 _c
257 416 236 406 217 388 _c
197 370 181 348 168 323 _c
154 296 142 259 130 213 _c
118 167 113 131 113 105 _c
113 81 118 60 128 42 _c
138 24 153 15 175 15 _c
}_e{_cl}_e}_d
end readonly def

/BuildGlyph
 {exch begin
 CharStrings exch
 2 copy known not{pop /.notdef}if
 true 3 1 roll get exec
 end}_d

/BuildChar {
 1 index /Encoding get exch get
 1 index /BuildGlyph get exec
}_d

FontName currentdict end definefont pop
%!PS-Adobe-3.0 Resource-Font
%%Title: Bitstream Vera Sans
%%Copyright: Copyright (c) 2003 by Bitstream, Inc. All Rights Reserved.
%%Creator: Converted from TrueType to type 3 by PPR
25 dict begin
/_d{bind def}bind def
/_m{moveto}_d
/_l{lineto}_d
/_cl{closepath eofill}_d
/_c{curveto}_d
/_sc{7 -1 roll{setcachedevice}{pop pop pop pop pop pop}ifelse}_d
/_e{exec}_d
/FontName /BitstreamVeraSans-Roman def
/PaintType 0 def
/FontMatrix[.001 0 0 .001 0 0]def
/FontBBox[-183 -236 1287 928]def
/FontType 3 def
/Encoding [ /space /period /zero /one /two /three /four /five /six /seven /eight /nine /colon /A /D /R /T /bracketleft /bracketright /a /c /d /e /g /h /i /m /n /o /r /s /t /v /w /y ] def
/FontInfo 10 dict dup begin
/FamilyName (Bitstream Vera Sans) def
/FullName (Bitstream Vera Sans) def
/Notice (Copyright (c) 2003 by Bitstream, Inc. All Rights Reserved. Bitstream Vera is a trademark of Bitstream, Inc.) def
/Weight (Roman) def
/Version (Release 1.10) def
/ItalicAngle 0.0 def
/isFixedPitch false def
/UnderlinePosition -213 def
/UnderlineThickness 143 def
end readonly def
/CharStrings 35 dict dup begin
/space{318 0 0 0 0 0 _sc
}_d
/period{318 0 107 0 210 124 _sc
107 124 _m
210 124 _l
210 0 _l
107 0 _l
107 124 _l
_cl}_d
/zero{636 0 66 -13 570 742 _sc
318 664 _m
267 664 229 639 203 589 _c
177 539 165 464 165 364 _c
165 264 177 189 203 139 _c
229 89 267 64 318 64 _c
369 64 407 89 433 139 _c
458 189 471 264 471 364 _c
471 464 458 539 433 589 _c
407 639 369 664 318 664 _c
318 742 _m
399 742 461 709 505 645 _c
548 580 570 486 570 364 _c
570 241 548 147 505 83 _c
461 19 399 -13 318 -13 _c
236 -13 173 19 130 83 _c
87 147 66 241 66 364 _c
66 486 87 580 130 645 _c
173 709 236 742 318 742 _c
_cl}_d
/one{636 0 110 0 544 729 _sc
124 83 _m
285 83 _l
285 639 _l
110 604 _l
110 694 _l
284 729 _l
383 729 _l
383 83 _l
544 83 _l
544 0 _l
124 0 _l
124 83 _l
_cl}_d
/two{{636 0 73 0 536 742 _sc
192 83 _m
536 83 _l
536 0 _l
73 0 _l
73 83 _l
110 121 161 173 226 239 _c
290 304 331 346 348 365 _c
380 400 402 430 414 455 _c
426 479 433 504 433 528 _c
433 566 419 598 392 622 _c
365 646 330 659 286 659 _c
255 659 222 653 188 643 _c
154 632 117 616 78 594 _c
78 694 _l
118 710 155 722 189 730 _c
223 738 255 742 284 742 _c
}_e{359 742 419 723 464 685 _c
509 647 532 597 532 534 _c
532 504 526 475 515 449 _c
504 422 484 390 454 354 _c
446 344 420 317 376 272 _c
332 227 271 164 192 83 _c
_cl}_e}_d
/three{{636 0 76 -13 556 742 _sc
406 393 _m
453 383 490 362 516 330 _c
542 298 556 258 556 212 _c
556 140 531 84 482 45 _c
432 6 362 -13 271 -13 _c
240 -13 208 -10 176 -4 _c
144 1 110 10 76 22 _c
76 117 _l
103 101 133 89 166 81 _c
198 73 232 69 268 69 _c
330 69 377 81 409 105 _c
441 129 458 165 458 212 _c
458 254 443 288 413 312 _c
383 336 341 349 287 349 _c
}_e{202 349 _l
202 430 _l
291 430 _l
339 430 376 439 402 459 _c
428 478 441 506 441 543 _c
441 580 427 609 401 629 _c
374 649 336 659 287 659 _c
260 659 231 656 200 650 _c
169 644 135 635 98 623 _c
98 711 _l
135 721 170 729 203 734 _c
235 739 266 742 296 742 _c
370 742 429 725 473 691 _c
517 657 539 611 539 553 _c
539 513 527 479 504 451 _c
481 423 448 403 406 393 _c
_cl}_e}_d
/four{636 0 49 0 580 729 _sc
378 643 _m
129 254 _l
378 254 _l
378 643 _l
352 729 _m
476 729 _l
476 254 _l
580 254 _l
580 172 _l
476 172 _l
476 0 _l
378 0 _l
378 172 _l
49 172 _l
49 267 _l
352 729 _l
_cl}_d
/five{{636 0 77 -13 549 729 _sc
108 729 _m
495 729 _l
495 646 _l
198 646 _l
198 467 _l
212 472 227 476 241 478 _c
255 480 270 482 284 482 _c
365 482 429 459 477 415 _c
525 370 549 310 549 234 _c
549 155 524 94 475 51 _c
426 8 357 -13 269 -13 _c
238 -13 207 -10 175 -6 _c
143 -1 111 6 77 17 _c
77 116 _l
106 100 136 88 168 80 _c
199 72 232 69 267 69 _c
}_e{323 69 368 83 401 113 _c
433 143 450 183 450 234 _c
450 284 433 324 401 354 _c
368 384 323 399 267 399 _c
241 399 214 396 188 390 _c
162 384 135 375 108 363 _c
108 729 _l
_cl}_e}_d
/six{{636 0 70 -13 573 742 _sc
330 404 _m
286 404 251 388 225 358 _c
199 328 186 286 186 234 _c
186 181 199 139 225 109 _c
251 79 286 64 330 64 _c
374 64 409 79 435 109 _c
461 139 474 181 474 234 _c
474 286 461 328 435 358 _c
409 388 374 404 330 404 _c
526 713 _m
526 623 _l
501 635 476 644 451 650 _c
425 656 400 659 376 659 _c
310 659 260 637 226 593 _c
}_e{192 549 172 482 168 394 _c
187 422 211 444 240 459 _c
269 474 301 482 336 482 _c
409 482 467 459 509 415 _c
551 371 573 310 573 234 _c
573 159 550 99 506 54 _c
462 9 403 -13 330 -13 _c
246 -13 181 19 137 83 _c
92 147 70 241 70 364 _c
70 479 97 571 152 639 _c
206 707 280 742 372 742 _c
396 742 421 739 447 735 _c
472 730 498 723 526 713 _c
_cl}_e}_d
/seven{636 0 82 0 551 729 _sc
82 729 _m
551 729 _l
551 687 _l
286 0 _l
183 0 _l
432 646 _l
82 646 _l
82 729 _l
_cl}_d
/eight{{636 0 68 -13 568 742 _sc
318 346 _m
271 346 234 333 207 308 _c
180 283 167 249 167 205 _c
167 161 180 126 207 101 _c
234 76 271 64 318 64 _c
364 64 401 76 428 102 _c
455 127 469 161 469 205 _c
469 249 455 283 429 308 _c
402 333 365 346 318 346 _c
219 388 _m
177 398 144 418 120 447 _c
96 476 85 511 85 553 _c
85 611 105 657 147 691 _c
188 725 245 742 318 742 _c
}_e{390 742 447 725 489 691 _c
530 657 551 611 551 553 _c
551 511 539 476 515 447 _c
491 418 459 398 417 388 _c
464 377 501 355 528 323 _c
554 291 568 251 568 205 _c
568 134 546 80 503 43 _c
459 5 398 -13 318 -13 _c
237 -13 175 5 132 43 _c
89 80 68 134 68 205 _c
68 251 81 291 108 323 _c
134 355 171 377 219 388 _c
183 544 _m
183 506 194 476 218 455 _c
}_e{242 434 275 424 318 424 _c
360 424 393 434 417 455 _c
441 476 453 506 453 544 _c
453 582 441 611 417 632 _c
393 653 360 664 318 664 _c
275 664 242 653 218 632 _c
194 611 183 582 183 544 _c
_cl}_e}_d
/nine{{636 0 63 -13 566 742 _sc
110 15 _m
110 105 _l
134 93 159 84 185 78 _c
210 72 235 69 260 69 _c
324 69 374 90 408 134 _c
442 178 462 244 468 334 _c
448 306 424 284 396 269 _c
367 254 335 247 300 247 _c
226 247 168 269 126 313 _c
84 357 63 417 63 494 _c
63 568 85 628 129 674 _c
173 719 232 742 306 742 _c
390 742 455 709 499 645 _c
543 580 566 486 566 364 _c
}_e{566 248 538 157 484 89 _c
429 21 356 -13 264 -13 _c
239 -13 214 -10 189 -6 _c
163 -2 137 5 110 15 _c
306 324 _m
350 324 385 339 411 369 _c
437 399 450 441 450 494 _c
450 546 437 588 411 618 _c
385 648 350 664 306 664 _c
262 664 227 648 201 618 _c
175 588 162 546 162 494 _c
162 441 175 399 201 369 _c
227 339 262 324 306 324 _c
_cl}_e}_d
/colon{337 0 117 0 220 517 _sc
117 124 _m
220 124 _l
220 0 _l
117 0 _l
117 124 _l
117 517 _m
220 517 _l
220 393 _l
117 393 _l
117 517 _l
_cl}_d
/A{684 0 8 0 676 729 _sc
342 632 _m
208 269 _l
476 269 _l
342 632 _l
286 729 _m
398 729 _l
676 0 _l
573 0 _l
507 187 _l
178 187 _l
112 0 _l
8 0 _l
286 729 _l
_cl}_d
/D{770 0 98 0 711 729 _sc
197 648 _m
197 81 _l
316 81 _l
416 81 490 103 537 149 _c
583 195 607 267 607 365 _c
607 463 583 534 537 580 _c
490 625 416 648 316 648 _c
197 648 _l
98 729 _m
301 729 _l
442 729 546 699 612 641 _c
678 582 711 490 711 365 _c
711 239 677 147 611 88 _c
545 29 441 0 301 0 _c
98 0 _l
98 729 _l
_cl}_d
/R{{695 0 98 0 666 729 _sc
444 342 _m
465 334 486 319 506 296 _c
526 272 546 240 566 199 _c
666 0 _l
560 0 _l
467 187 _l
443 235 419 268 397 284 _c
374 300 343 308 304 308 _c
197 308 _l
197 0 _l
98 0 _l
98 729 _l
321 729 _l
404 729 466 711 507 677 _c
548 642 569 589 569 519 _c
569 473 558 434 537 404 _c
515 374 484 353 444 342 _c
197 648 _m
197 389 _l
321 389 _l
}_e{368 389 404 400 428 422 _c
452 444 465 476 465 519 _c
465 561 452 593 428 615 _c
404 637 368 648 321 648 _c
197 648 _l
_cl}_e}_d
/T{611 0 -2 0 614 729 _sc
-2 729 _m
614 729 _l
614 646 _l
355 646 _l
355 0 _l
256 0 _l
256 646 _l
-2 646 _l
-2 729 _l
_cl}_d
/bracketleft{390 0 86 -131 293 760 _sc
86 760 _m
293 760 _l
293 690 _l
176 690 _l
176 -61 _l
293 -61 _l
293 -131 _l
86 -131 _l
86 760 _l
_cl}_d
/bracketright{390 0 97 -131 304 760 _sc
304 760 _m
304 -131 _l
97 -131 _l
97 -61 _l
214 -61 _l
214 690 _l
97 690 _l
97 760 _l
304 760 _l
_cl}_d
/a{{613 0 60 -13 522 560 _sc
343 275 _m
270 275 220 266 192 250 _c
164 233 150 205 150 165 _c
150 133 160 107 181 89 _c
202 70 231 61 267 61 _c
317 61 357 78 387 114 _c
417 149 432 196 432 255 _c
432 275 _l
343 275 _l
522 312 _m
522 0 _l
432 0 _l
432 83 _l
411 49 385 25 355 10 _c
325 -5 287 -13 243 -13 _c
187 -13 142 2 109 33 _c
76 64 60 106 60 159 _c
}_e{60 220 80 266 122 298 _c
163 329 224 345 306 345 _c
432 345 _l
432 354 _l
432 395 418 427 391 450 _c
364 472 326 484 277 484 _c
245 484 215 480 185 472 _c
155 464 127 453 100 439 _c
100 522 _l
132 534 164 544 195 550 _c
226 556 256 560 286 560 _c
365 560 424 539 463 498 _c
502 457 522 395 522 312 _c
_cl}_e}_d
/c{{550 0 55 -13 488 560 _sc
488 526 _m
488 442 _l
462 456 437 466 411 473 _c
385 480 360 484 334 484 _c
276 484 230 465 198 428 _c
166 391 150 339 150 273 _c
150 206 166 154 198 117 _c
230 80 276 62 334 62 _c
360 62 385 65 411 72 _c
437 79 462 90 488 104 _c
488 21 _l
462 9 436 0 410 -5 _c
383 -10 354 -13 324 -13 _c
242 -13 176 12 128 64 _c
}_e{79 115 55 185 55 273 _c
55 362 79 432 128 483 _c
177 534 244 560 330 560 _c
358 560 385 557 411 551 _c
437 545 463 537 488 526 _c
_cl}_e}_d
/d{{635 0 55 -13 544 760 _sc
454 464 _m
454 760 _l
544 760 _l
544 0 _l
454 0 _l
454 82 _l
435 49 411 25 382 10 _c
353 -5 319 -13 279 -13 _c
213 -13 159 13 117 65 _c
75 117 55 187 55 273 _c
55 359 75 428 117 481 _c
159 533 213 560 279 560 _c
319 560 353 552 382 536 _c
411 520 435 496 454 464 _c
148 273 _m
148 207 161 155 188 117 _c
215 79 253 61 301 61 _c
}_e{348 61 385 79 413 117 _c
440 155 454 207 454 273 _c
454 339 440 390 413 428 _c
385 466 348 485 301 485 _c
253 485 215 466 188 428 _c
161 390 148 339 148 273 _c
_cl}_e}_d
/e{{615 0 55 -13 562 560 _sc
562 296 _m
562 252 _l
149 252 _l
153 190 171 142 205 110 _c
238 78 284 62 344 62 _c
378 62 412 66 444 74 _c
476 82 509 95 541 113 _c
541 28 _l
509 14 476 3 442 -3 _c
408 -9 373 -13 339 -13 _c
251 -13 182 12 131 62 _c
80 112 55 181 55 268 _c
55 357 79 428 127 481 _c
175 533 241 560 323 560 _c
397 560 455 536 498 489 _c
}_e{540 441 562 377 562 296 _c
472 322 _m
471 371 457 410 431 440 _c
404 469 368 484 324 484 _c
274 484 234 469 204 441 _c
174 413 156 373 152 322 _c
472 322 _l
_cl}_e}_d
/g{{635 0 55 -207 544 560 _sc
454 280 _m
454 344 440 395 414 431 _c
387 467 349 485 301 485 _c
253 485 215 467 188 431 _c
161 395 148 344 148 280 _c
148 215 161 165 188 129 _c
215 93 253 75 301 75 _c
349 75 387 93 414 129 _c
440 165 454 215 454 280 _c
544 68 _m
544 -24 523 -93 482 -139 _c
440 -184 377 -207 292 -207 _c
260 -207 231 -204 203 -200 _c
175 -195 147 -188 121 -178 _c
}_e{121 -91 _l
147 -105 173 -115 199 -122 _c
225 -129 251 -133 278 -133 _c
336 -133 380 -117 410 -87 _c
439 -56 454 -10 454 52 _c
454 96 _l
435 64 411 40 382 24 _c
353 8 319 0 279 0 _c
211 0 157 25 116 76 _c
75 127 55 195 55 280 _c
55 364 75 432 116 483 _c
157 534 211 560 279 560 _c
319 560 353 552 382 536 _c
411 520 435 496 454 464 _c
454 547 _l
544 547 _l
}_e{544 68 _l
_cl}_e}_d
/h{634 0 91 0 549 760 _sc
549 330 _m
549 0 _l
459 0 _l
459 327 _l
459 379 448 417 428 443 _c
408 469 378 482 338 482 _c
289 482 251 466 223 435 _c
195 404 181 362 181 309 _c
181 0 _l
91 0 _l
91 760 _l
181 760 _l
181 462 _l
202 494 227 519 257 535 _c
286 551 320 560 358 560 _c
420 560 468 540 500 501 _c
532 462 549 405 549 330 _c
_cl}_d
/i{278 0 94 0 184 760 _sc
94 547 _m
184 547 _l
184 0 _l
94 0 _l
94 547 _l
94 760 _m
184 760 _l
184 646 _l
94 646 _l
94 760 _l
_cl}_d
/m{{974 0 91 0 889 560 _sc
520 442 _m
542 482 569 511 600 531 _c
631 550 668 560 711 560 _c
767 560 811 540 842 500 _c
873 460 889 403 889 330 _c
889 0 _l
799 0 _l
799 327 _l
799 379 789 418 771 444 _c
752 469 724 482 686 482 _c
639 482 602 466 575 435 _c
548 404 535 362 535 309 _c
535 0 _l
445 0 _l
445 327 _l
445 379 435 418 417 444 _c
398 469 369 482 331 482 _c
}_e{285 482 248 466 221 435 _c
194 404 181 362 181 309 _c
181 0 _l
91 0 _l
91 547 _l
181 547 _l
181 462 _l
201 495 226 520 255 536 _c
283 552 317 560 357 560 _c
397 560 430 550 458 530 _c
486 510 506 480 520 442 _c
_cl}_e}_d
/n{634 0 91 0 549 560 _sc
549 330 _m
549 0 _l
459 0 _l
459 327 _l
459 379 448 417 428 443 _c
408 469 378 482 338 482 _c
289 482 251 466 223 435 _c
195 404 181 362 181 309 _c
181 0 _l
91 0 _l
91 547 _l
181 547 _l
181 462 _l
202 494 227 519 257 535 _c
286 551 320 560 358 560 _c
420 560 468 540 500 501 _c
532 462 549 405 549 330 _c
_cl}_d
/o{612 0 55 -13 557 560 _sc
306 484 _m
258 484 220 465 192 427 _c
164 389 150 338 150 273 _c
150 207 163 156 191 118 _c
219 80 257 62 306 62 _c
354 62 392 80 420 118 _c
448 156 462 207 462 273 _c
462 337 448 389 420 427 _c
392 465 354 484 306 484 _c
306 560 _m
384 560 445 534 490 484 _c
534 433 557 363 557 273 _c
557 183 534 113 490 63 _c
445 12 384 -13 306 -13 _c
227 -13 165 12 121 63 _c
77 113 55 183 55 273 _c
55 363 77 433 121 484 _c
165 534 227 560 306 560 _c
_cl}_d
/r{411 0 91 0 411 560 _sc
411 463 _m
401 469 390 473 378 476 _c
366 478 353 480 339 480 _c
288 480 249 463 222 430 _c
194 397 181 350 181 288 _c
181 0 _l
91 0 _l
91 547 _l
181 547 _l
181 462 _l
199 495 224 520 254 536 _c
284 552 321 560 365 560 _c
371 560 378 559 386 559 _c
393 558 401 557 411 555 _c
411 463 _l
_cl}_d
/s{{521 0 54 -13 472 560 _sc
443 531 _m
443 446 _l
417 458 391 468 364 475 _c
336 481 308 485 279 485 _c
234 485 200 478 178 464 _c
156 450 145 430 145 403 _c
145 382 153 366 169 354 _c
185 342 217 330 265 320 _c
296 313 _l
360 299 405 279 432 255 _c
458 230 472 195 472 151 _c
472 100 452 60 412 31 _c
372 1 316 -13 246 -13 _c
216 -13 186 -10 154 -5 _c
}_e{122 0 89 8 54 20 _c
54 113 _l
87 95 120 82 152 74 _c
184 65 216 61 248 61 _c
290 61 323 68 346 82 _c
368 96 380 117 380 144 _c
380 168 371 187 355 200 _c
339 213 303 226 247 238 _c
216 245 _l
160 257 119 275 95 299 _c
70 323 58 356 58 399 _c
58 450 76 490 112 518 _c
148 546 200 560 268 560 _c
301 560 332 557 362 552 _c
391 547 418 540 443 531 _c
}_e{_cl}_e}_d
/t{392 0 27 0 368 702 _sc
183 702 _m
183 547 _l
368 547 _l
368 477 _l
183 477 _l
183 180 _l
183 135 189 106 201 94 _c
213 81 238 75 276 75 _c
368 75 _l
368 0 _l
276 0 _l
206 0 158 13 132 39 _c
106 65 93 112 93 180 _c
93 477 _l
27 477 _l
27 547 _l
93 547 _l
93 702 _l
183 702 _l
_cl}_d
/v{592 0 30 0 562 547 _sc
30 547 _m
125 547 _l
296 88 _l
467 547 _l
562 547 _l
357 0 _l
235 0 _l
30 547 _l
_cl}_d
/w{818 0 42 0 776 547 _sc
42 547 _m
132 547 _l
244 120 _l
356 547 _l
462 547 _l
574 120 _l
686 547 _l
776 547 _l
633 0 _l
527 0 _l
409 448 _l
291 0 _l
185 0 _l
42 547 _l
_cl}_d
/y{592 0 30 -207 562 547 _sc
322 -50 _m
296 -114 271 -157 247 -177 _c
223 -197 191 -207 151 -207 _c
79 -207 _l
79 -132 _l
132 -132 _l
156 -132 175 -126 189 -114 _c
203 -102 218 -75 235 -31 _c
251 9 _l
30 547 _l
125 547 _l
296 119 _l
467 547 _l
562 547 _l
322 -50 _l
_cl}_d
end readonly def

/BuildGlyph
 {exch begin
 CharStrings exch
 2 copy known not{pop /.notdef}if
 true 3 1 roll get exec
 end}_d

/BuildChar {
 1 index /Encoding get exch get
 1 index /BuildGlyph get exec
}_d

FontName currentdict end definefont pop
end
%%EndProlog
mpldict begin
18 180 translate
576 432 0 0 clipbox
gsave
0 0 m
576 0 l
576 432 l
0 432 l
cl
1.000 setgray
fill
grestore
gsave
72 86.4 m
518.4 86.4 l
518.4 388.8 l
72 388.8 l
cl
1.000 setgray
fill
grestore
1.000 setlinewidth
1 setlinejoin
2 setlinecap
[] 0 setdash
0.000 0.000 1.000 setrgbcolor
gsave
446.4 302.4 72 86.4 clipbox
72 341.687 m
72.1869 354.098 l
72.3739 180.349 l
72.5608 352.325 l
72.7477 189.214 l
72.9347 350.552 l
73.1216 167.938 l
73.3085 171.484 l
73.4955 185.668 l
73.6824 182.122 l
73.8693 361.19 l
74.0563 171.484 l
74.2432 355.871 l
74.4302 178.576 l
74.6171 348.779 l
74.804 176.803 l
74.991 348.779 l
75.1779 175.03 l
75.3648 355.871 l
75.5518 185.668 l
75.7387 359.417 l
75.9256 169.711 l
76.1126 350.552 l
76.2995 176.803 l
76.4864 350.552 l
76.6734 178.576 l
76.8603 354.098 l
77.0472 176.803 l
77.2342 359.417 l
77.4211 180.349 l
77.608 357.644 l
77.795 185.668 l
77.9819 348.779 l
78.1688 171.484 l
78.3558 354.098 l
78.5427 180.349 l
78.7296 348.779 l
78.9166 176.803 l
79.1035 357.644 l
79.2905 182.122 l
79.4774 352.325 l
79.6643 169.711 l
79.8513 350.552 l
80.0382 180.349 l
80.2251 347.006 l
80.4121 175.03 l
80.599 352.325 l
80.7859 182.122 l
80.9729 354.098 l
81.1598 175.03 l
81.3467 355.871 l
81.5337 178.576 l
81.7206 352.325 l
81.9075 178.576 l
82.0945 354.098 l
82.2814 185.668 l
82.4683 355.871 l
82.6553 171.484 l
82.8422 355.871 l
83.0291 176.803 l
83.2161 347.006 l
83.403 190.987 l
83.5899 173.257 l
83.9638 176.803 l
84.1508 354.098 l
84.3377 173.257 l
84.5246 348.779 l
84.7116 183.895 l
84.8985 350.552 l
85.0854 180.349 l
85.2724 355.871 l
85.4593 180.349 l
85.6462 347.006 l
85.8332 189.214 l
86.0201 354.098 l
86.207 180.349 l
86.394 359.417 l
86.5809 173.257 l
86.7678 357.644 l
86.9548 180.349 l
87.1417 359.417 l
87.3286 180.349 l
87.5156 352.325 l
87.7025 171.484 l
87.8894 352.325 l
88.0764 166.165 l
88.2633 355.871 l
88.4503 171.484 l
88.6372 348.779 l
88.8241 175.03 l
89.0111 354.098 l
89.198 176.803 l
89.3849 359.417 l
89.5719 167.938 l
89.7588 357.644 l
89.9457 176.803 l
90.1327 350.552 l
90.3196 182.122 l
90.5065 352.325 l
90.6935 185.668 l
90.8804 354.098 l
91.0673 175.03 l
91.2543 357.644 l
91.4412 185.668 l
91.6281 348.779 l
91.8151 175.03 l
92.002 352.325 l
92.1889 180.349 l
92.3759 354.098 l
92.5628 183.895 l
92.7497 354.098 l
92.9367 180.349 l
93.1236 352.325 l
93.3106 175.03 l
93.4975 348.779 l
93.6844 190.987 l
93.8714 352.325 l
94.0583 182.122 l
94.2452 343.46 l
94.4322 185.668 l
94.6191 352.325 l
94.806 176.803 l
94.993 352.325 l
95.1799 185.668 l
95.3668 343.46 l
95.5538 178.576 l
95.7407 347.006 l
95.9276 180.349 l
96.1146 355.871 l
96.3015 178.576 l
96.4884 362.963 l
96.6754 180.349 l
96.8623 352.325 l
97.0492 180.349 l
97.2362 341.687 l
97.4231 171.484 l
97.6101 348.779 l
97.797 189.214 l
97.9839 350.552 l
98.1709 185.668 l
98.3578 359.417 l
98.5447 180.349 l
98.7317 352.325 l
98.9186 166.165 l
99.1055 347.006 l
99.2925 185.668 l
99.4794 362.963 l
99.6663 183.895 l
99.8533 352.325 l
100.04 175.03 l
100.227 352.325 l
100.414 175.03 l
100.601 354.098 l
100.788 180.349 l
100.975 350.552 l
101.162 167.938 l
101.349 355.871 l
101.536 183.895 l
101.723 348.779 l
101.91 182.122 l
102.096 352.325 l
102.283 176.803 l
102.47 354.098 l
102.657 175.03 l
102.844 352.325 l
103.031 178.576 l
103.218 347.006 l
103.405 164.392 l
103.592 355.871 l
103.779 178.576 l
103.966 357.644 l
104.153 176.803 l
104.34 354.098 l
104.527 185.668 l
104.714 354.098 l
104.901 178.576 l
105.087 352.325 l
105.274 180.349 l
105.461 347.006 l
105.648 175.03 l
105.835 355.871 l
106.022 173.257 l
106.209 352.325 l
106.396 171.484 l
106.583 355.871 l
106.77 178.576 l
106.957 348.779 l
107.144 173.257 l
107.331 355.871 l
107.518 180.349 l
107.705 355.871 l
107.891 167.938 l
108.078 355.871 l
108.265 183.895 l
108.452 357.644 l
108.639 182.122 l
108.826 354.098 l
109.013 190.987 l
109.2 352.325 l
109.387 182.122 l
109.574 347.006 l
109.761 182.122 l
109.948 362.963 l
110.135 180.349 l
110.322 355.871 l
110.509 169.711 l
110.695 359.417 l
110.882 178.576 l
111.069 355.871 l
111.256 178.576 l
111.443 355.871 l
111.63 173.257 l
111.817 354.098 l
112.004 182.122 l
112.191 354.098 l
112.378 180.349 l
112.565 354.098 l
112.752 178.576 l
112.939 352.325 l
113.126 176.803 l
113.313 348.779 l
113.499 173.257 l
113.686 345.233 l
113.873 173.257 l
114.06 350.552 l
114.247 175.03 l
114.434 352.325 l
114.621 183.895 l
114.808 348.779 l
114.995 182.122 l
115.182 355.871 l
115.369 190.987 l
115.556 355.871 l
115.743 173.257 l
115.93 350.552 l
116.117 189.214 l
116.304 357.644 l
116.49 169.711 l
116.677 343.46 l
116.864 176.803 l
117.051 354.098 l
117.238 182.122 l
117.425 354.098 l
117.612 182.122 l
117.799 189.214 l
117.986 173.257 l
118.173 173.257 l
118.36 350.552 l
118.547 178.576 l
118.734 350.552 l
118.921 180.349 l
119.108 361.19 l
119.294 175.03 l
119.481 350.552 l
119.668 183.895 l
119.855 355.871 l
120.042 182.122 l
120.229 350.552 l
120.416 182.122 l
120.603 352.325 l
120.79 176.803 l
120.977 352.325 l
121.164 182.122 l
121.351 352.325 l
121.538 178.576 l
121.725 354.098 l
121.912 182.122 l
122.098 354.098 l
122.285 176.803 l
122.472 354.098 l
122.659 173.257 l
122.846 350.552 l
123.033 182.122 l
123.22 355.871 l
123.407 189.214 l
123.594 354.098 l
123.781 180.349 l
123.968 348.779 l
124.155 183.895 l
124.342 354.098 l
124.529 180.349 l
124.716 355.871 l
124.903 178.576 l
125.089 350.552 l
125.276 180.349 l
125.463 347.006 l
125.65 182.122 l
125.837 352.325 l
126.024 189.214 l
126.211 345.233 l
126.398 185.668 l
126.585 355.871 l
126.772 176.803 l
126.959 352.325 l
127.146 173.257 l
127.333 361.19 l
127.52 189.214 l
127.707 352.325 l
127.893 180.349 l
128.08 352.325 l
128.267 171.484 l
128.454 352.325 l
128.641 176.803 l
128.828 345.233 l
129.015 180.349 l
129.202 352.325 l
129.389 173.257 l
129.576 354.098 l
129.763 183.895 l
129.95 354.098 l
130.137 185.668 l
130.324 355.871 l
130.511 189.214 l
130.697 364.736 l
130.884 176.803 l
131.071 350.552 l
131.258 180.349 l
131.445 355.871 l
131.632 180.349 l
131.819 345.233 l
132.006 183.895 l
132.193 354.098 l
132.38 180.349 l
132.567 362.963 l
132.754 169.711 l
132.941 350.552 l
133.128 183.895 l
133.315 354.098 l
133.502 173.257 l
133.688 350.552 l
133.875 182.122 l
134.062 352.325 l
134.249 180.349 l
134.436 348.779 l
134.623 182.122 l
134.81 352.325 l
134.997 176.803 l
135.184 355.871 l
135.371 175.03 l
135.558 354.098 l
135.745 180.349 l
135.932 357.644 l
136.119 176.803 l
136.306 354.098 l
136.492 178.576 l
136.679 350.552 l
136.866 176.803 l
137.053 350.552 l
137.24 178.576 l
137.427 352.325 l
137.614 176.803 l
137.801 352.325 l
137.988 169.711 l
138.175 359.417 l
138.362 178.576 l
138.549 352.325 l
138.736 182.122 l
138.923 354.098 l
139.11 175.03 l
139.296 348.779 l
139.483 173.257 l
139.67 352.325 l
139.857 187.441 l
140.044 350.552 l
140.231 173.257 l
140.418 355.871 l
140.605 173.257 l
140.792 350.552 l
140.979 189.214 l
141.166 348.779 l
141.353 180.349 l
141.54 357.644 l
141.727 185.668 l
141.914 350.552 l
142.101 187.441 l
142.287 352.325 l
142.474 183.895 l
142.661 355.871 l
142.848 182.122 l
143.035 352.325 l
143.222 189.214 l
143.409 350.552 l
143.596 162.619 l
143.783 359.417 l
143.97 173.257 l
144.157 352.325 l
144.344 175.03 l
144.531 352.325 l
144.718 182.122 l
144.905 352.325 l
145.091 187.441 l
145.278 355.871 l
145.465 173.257 l
145.652 352.325 l
145.839 178.576 l
146.026 347.006 l
146.213 176.803 l
146.4 348.779 l
146.587 173.257 l
146.774 355.871 l
146.961 175.03 l
147.148 176.803 l
147.335 182.122 l
147.522 176.803 l
147.709 354.098 l
147.895 175.03 l
148.082 357.644 l
148.269 169.711 l
148.456 359.417 l
148.643 175.03 l
148.83 355.871 l
149.017 173.257 l
149.204 348.779 l
149.391 180.349 l
149.578 350.552 l
149.765 175.03 l
149.952 345.233 l
150.139 176.803 l
150.326 354.098 l
150.513 178.576 l
150.699 350.552 l
150.886 183.895 l
151.073 352.325 l
151.26 164.392 l
151.447 354.098 l
151.634 180.349 l
151.821 348.779 l
152.008 171.484 l
152.195 359.417 l
152.382 173.257 l
152.569 348.779 l
152.756 180.349 l
152.943 347.006 l
153.13 173.257 l
153.317 355.871 l
153.504 173.257 l
153.69 348.779 l
153.877 182.122 l
154.064 352.325 l
154.251 176.803 l
154.438 355.871 l
154.625 175.03 l
154.812 355.871 l
154.999 178.576 l
155.186 359.417 l
155.373 166.165 l
155.56 354.098 l
155.747 178.576 l
155.934 347.006 l
156.121 183.895 l
156.308 354.098 l
156.494 178.576 l
156.681 357.644 l
156.868 176.803 l
157.055 355.871 l
157.242 183.895 l
157.429 350.552 l
157.616 173.257 l
157.803 352.325 l
157.99 171.484 l
158.177 350.552 l
158.364 175.03 l
158.551 357.644 l
158.738 185.668 l
158.925 357.644 l
159.112 183.895 l
159.298 347.006 l
159.485 169.711 l
159.672 355.871 l
159.859 183.895 l
160.046 357.644 l
160.233 178.576 l
160.42 354.098 l
160.607 182.122 l
160.794 357.644 l
160.981 171.484 l
161.168 348.779 l
161.355 176.803 l
161.542 357.644 l
161.729 187.441 l
161.916 350.552 l
162.103 180.349 l
162.289 354.098 l
162.476 176.803 l
162.663 352.325 l
162.85 176.803 l
163.037 352.325 l
163.224 166.165 l
163.411 352.325 l
163.598 182.122 l
163.785 362.963 l
163.972 180.349 l
164.159 354.098 l
164.346 190.987 l
164.533 348.779 l
164.72 176.803 l
164.907 355.871 l
165.093 182.122 l
165.28 352.325 l
165.467 183.895 l
165.654 347.006 l
165.841 180.349 l
166.028 361.19 l
166.215 180.349 l
166.402 354.098 l
166.589 178.576 l
166.776 348.779 l
166.963 178.576 l
167.15 355.871 l
167.337 176.803 l
167.524 362.963 l
167.711 173.257 l
167.897 357.644 l
168.084 182.122 l
168.271 359.417 l
168.458 176.803 l
168.645 352.325 l
168.832 169.711 l
169.019 350.552 l
169.206 176.803 l
169.393 357.644 l
169.58 194.533 l
169.767 357.644 l
169.954 185.668 l
170.141 348.779 l
170.328 185.668 l
170.515 359.417 l
170.702 176.803 l
170.888 352.325 l
171.075 169.711 l
171.262 352.325 l
171.449 190.987 l
171.636 359.417 l
171.823 175.03 l
172.01 352.325 l
172.197 176.803 l
172.384 355.871 l
172.571 185.668 l
172.758 355.871 l
172.945 180.349 l
173.132 361.19 l
173.319 182.122 l
173.506 355.871 l
173.692 180.349 l
173.879 350.552 l
174.066 178.576 l
174.253 357.644 l
174.44 180.349 l
174.627 366.509 l
174.814 178.576 l
175.001 357.644 l
175.188 176.803 l
175.375 357.644 l
175.562 178.576 l
175.749 348.779 l
175.936 185.668 l
176.123 354.098 l
176.31 189.214 l
176.496 352.325 l
176.683 183.895 l
176.87 352.325 l
177.057 180.349 l
177.244 354.098 l
177.431 176.803 l
177.618 355.871 l
177.805 183.895 l
177.992 361.19 l
178.179 169.711 l
178.366 354.098 l
178.553 173.257 l
178.74 355.871 l
178.927 183.895 l
179.114 345.233 l
179.301 178.576 l
179.487 359.417 l
179.674 175.03 l
179.861 352.325 l
180.048 178.576 l
180.235 352.325 l
180.422 180.349 l
180.609 357.644 l
180.796 169.711 l
180.983 359.417 l
181.17 176.803 l
181.357 359.417 l
181.544 173.257 l
181.731 348.779 l
181.918 175.03 l
182.105 361.19 l
182.291 164.392 l
182.478 352.325 l
182.665 176.803 l
182.852 359.417 l
183.039 176.803 l
183.226 354.098 l
183.413 183.895 l
183.6 352.325 l
183.787 175.03 l
183.974 347.006 l
184.161 173.257 l
184.348 350.552 l
184.535 183.895 l
184.722 348.779 l
184.909 167.938 l
185.095 359.417 l
185.282 169.711 l
185.469 354.098 l
185.656 178.576 l
185.843 348.779 l
186.03 196.305 l
186.217 347.006 l
186.404 176.803 l
186.591 357.644 l
186.778 187.441 l
186.965 352.325 l
187.152 178.576 l
187.339 343.46 l
187.526 180.349 l
187.713 354.098 l
187.899 182.122 l
188.086 354.098 l
188.273 182.122 l
188.46 354.098 l
188.647 175.03 l
188.834 347.006 l
189.021 182.122 l
189.208 352.325 l
189.395 175.03 l
189.582 352.325 l
189.769 173.257 l
189.956 354.098 l
190.143 183.895 l
190.33 348.779 l
190.517 187.441 l
190.704 350.552 l
190.89 178.576 l
191.077 359.417 l
191.264 176.803 l
191.451 354.098 l
191.638 171.484 l
191.825 354.098 l
192.012 173.257 l
192.199 357.644 l
192.386 180.349 l
192.573 355.871 l
192.76 175.03 l
192.947 352.325 l
193.134 176.803 l
193.321 354.098 l
193.508 189.214 l
193.694 355.871 l
193.881 166.165 l
194.068 355.871 l
194.255 171.484 l
194.442 355.871 l
194.629 189.214 l
194.816 354.098 l
195.003 178.576 l
195.19 352.325 l
195.377 175.03 l
195.564 355.871 l
195.751 183.895 l
195.938 357.644 l
196.125 183.895 l
196.312 352.325 l
196.498 187.441 l
196.685 357.644 l
196.872 187.441 l
197.059 347.006 l
197.246 187.441 l
197.433 352.325 l
197.62 180.349 l
197.807 357.644 l
197.994 187.441 l
198.181 354.098 l
198.368 171.484 l
198.555 350.552 l
198.742 180.349 l
198.929 357.644 l
199.116 167.938 l
199.303 354.098 l
199.489 171.484 l
199.676 354.098 l
199.863 173.257 l
200.05 362.963 l
200.237 176.803 l
200.424 355.871 l
200.611 178.576 l
200.798 357.644 l
200.985 189.214 l
201.172 339.914 l
201.359 187.441 l
201.546 355.871 l
201.733 180.349 l
201.92 355.871 l
202.107 171.484 l
202.293 354.098 l
202.48 171.484 l
202.667 355.871 l
202.854 183.895 l
203.041 345.233 l
203.228 189.214 l
203.415 355.871 l
203.602 176.803 l
203.789 352.325 l
203.976 176.803 l
204.163 347.006 l
204.35 176.803 l
204.537 352.325 l
204.724 185.668 l
204.911 350.552 l
205.097 178.576 l
205.284 352.325 l
205.471 171.484 l
205.658 355.871 l
205.845 175.03 l
206.032 355.871 l
206.219 185.668 l
206.406 361.19 l
206.593 180.349 l
206.78 350.552 l
206.967 180.349 l
207.154 354.098 l
207.341 187.441 l
207.528 354.098 l
207.715 182.122 l
207.902 359.417 l
208.088 178.576 l
208.275 350.552 l
208.462 176.803 l
208.649 348.779 l
208.836 178.576 l
209.023 352.325 l
209.21 180.349 l
209.397 355.871 l
209.584 176.803 l
209.771 348.779 l
209.958 183.895 l
210.145 352.325 l
210.332 173.257 l
210.519 352.325 l
210.706 175.03 l
210.892 352.325 l
211.079 176.803 l
211.266 354.098 l
211.453 189.214 l
211.64 354.098 l
211.827 176.803 l
212.014 355.871 l
212.201 178.576 l
212.388 352.325 l
212.575 175.03 l
212.762 352.325 l
212.949 185.668 l
213.136 357.644 l
213.323 187.441 l
213.51 352.325 l
213.696 169.711 l
213.883 357.644 l
214.07 173.257 l
214.257 355.871 l
214.444 178.576 l
214.631 350.552 l
214.818 169.711 l
215.005 350.552 l
215.192 176.803 l
215.379 348.779 l
215.566 178.576 l
215.753 354.098 l
215.94 176.803 l
216.127 361.19 l
216.314 173.257 l
216.501 352.325 l
216.687 180.349 l
216.874 350.552 l
217.061 180.349 l
217.248 350.552 l
217.435 183.895 l
217.622 357.644 l
217.809 182.122 l
217.996 354.098 l
218.183 180.349 l
218.37 354.098 l
218.557 175.03 l
218.744 355.871 l
218.931 182.122 l
219.118 359.417 l
219.305 180.349 l
219.491 173.257 l
219.865 182.122 l
220.052 350.552 l
220.239 182.122 l
220.426 352.325 l
220.613 176.803 l
220.8 355.871 l
220.987 180.349 l
221.174 347.006 l
221.361 185.668 l
221.548 355.871 l
221.735 183.895 l
221.922 354.098 l
222.109 182.122 l
222.295 354.098 l
222.482 178.576 l
222.669 347.006 l
222.856 173.257 l
223.043 350.552 l
223.23 175.03 l
223.417 350.552 l
223.604 180.349 l
223.791 352.325 l
223.978 185.668 l
224.165 348.779 l
224.352 176.803 l
224.539 347.006 l
224.726 178.576 l
224.913 355.871 l
225.099 175.03 l
225.286 352.325 l
225.473 176.803 l
225.66 352.325 l
225.847 182.122 l
226.034 341.687 l
226.221 176.803 l
226.408 354.098 l
226.595 182.122 l
226.782 352.325 l
226.969 166.165 l
227.156 352.325 l
227.343 176.803 l
227.717 180.349 l
227.904 178.576 l
228.09 348.779 l
228.277 185.668 l
228.464 355.871 l
228.651 175.03 l
228.838 357.644 l
229.025 187.441 l
229.212 361.19 l
229.399 180.349 l
229.586 354.098 l
229.773 178.576 l
229.96 354.098 l
230.147 180.349 l
230.334 176.803 l
230.521 182.122 l
230.708 173.257 l
230.894 359.417 l
231.081 180.349 l
231.268 355.871 l
231.455 187.441 l
231.642 347.006 l
231.829 176.803 l
232.016 350.552 l
232.203 185.668 l
232.39 350.552 l
232.577 190.987 l
232.764 355.871 l
232.951 171.484 l
233.138 350.552 l
233.325 176.803 l
233.512 355.871 l
233.698 176.803 l
233.885 359.417 l
234.072 182.122 l
234.259 352.325 l
234.446 182.122 l
234.633 355.871 l
234.82 180.349 l
235.007 348.779 l
235.194 173.257 l
235.381 357.644 l
235.568 176.803 l
235.755 357.644 l
235.942 176.803 l
236.129 359.417 l
236.316 185.668 l
236.503 185.668 l
236.876 175.03 l
237.063 347.006 l
237.25 166.165 l
237.437 354.098 l
237.624 185.668 l
237.811 350.552 l
237.998 185.668 l
238.185 362.963 l
238.372 183.895 l
238.559 355.871 l
238.746 178.576 l
238.933 359.417 l
239.12 178.576 l
239.307 354.098 l
239.493 178.576 l
239.68 350.552 l
239.867 182.122 l
240.054 350.552 l
240.241 169.711 l
240.428 361.19 l
240.615 173.257 l
240.802 355.871 l
240.989 176.803 l
241.176 357.644 l
241.363 178.576 l
241.55 355.871 l
241.737 182.122 l
241.924 355.871 l
242.111 185.668 l
242.297 357.644 l
242.484 183.895 l
242.671 343.46 l
242.858 176.803 l
243.045 347.006 l
243.232 182.122 l
243.419 350.552 l
243.606 189.214 l
243.793 354.098 l
243.98 178.576 l
244.167 361.19 l
244.354 173.257 l
244.541 355.871 l
244.728 190.987 l
244.915 350.552 l
245.102 176.803 l
245.288 352.325 l
245.475 175.03 l
245.662 350.552 l
245.849 175.03 l
246.036 355.871 l
246.223 169.711 l
246.41 355.871 l
246.597 178.576 l
246.784 352.325 l
246.971 175.03 l
247.158 345.233 l
247.345 182.122 l
247.532 189.214 l
247.719 173.257 l
247.906 178.576 l
248.092 352.325 l
248.279 171.484 l
248.466 352.325 l
248.653 175.03 l
248.84 354.098 l
249.027 182.122 l
249.214 347.006 l
249.401 176.803 l
249.588 348.779 l
249.775 167.938 l
249.962 354.098 l
250.149 183.895 l
250.336 187.441 l
250.523 175.03 l
250.71 176.803 l
250.896 350.552 l
251.083 169.711 l
251.27 355.871 l
251.457 176.803 l
251.644 359.417 l
251.831 176.803 l
252.018 355.871 l
252.205 185.668 l
252.392 352.325 l
252.579 176.803 l
252.766 355.871 l
252.953 189.214 l
253.14 348.779 l
253.327 173.257 l
253.514 354.098 l
253.701 178.576 l
253.887 352.325 l
254.074 185.668 l
254.261 362.963 l
254.448 173.257 l
254.635 354.098 l
254.822 185.668 l
255.009 354.098 l
255.196 171.484 l
255.383 352.325 l
255.57 178.576 l
255.757 354.098 l
255.944 176.803 l
256.131 343.46 l
256.318 175.03 l
256.505 348.779 l
256.691 175.03 l
256.878 352.325 l
257.065 171.484 l
257.252 350.552 l
257.439 183.895 l
257.626 352.325 l
257.813 182.122 l
258 359.417 l
258.187 169.711 l
258.374 354.098 l
258.561 183.895 l
258.748 355.871 l
258.935 167.938 l
259.122 357.644 l
259.309 182.122 l
259.495 357.644 l
259.682 185.668 l
259.869 355.871 l
260.056 178.576 l
260.243 352.325 l
260.43 183.895 l
260.617 352.325 l
260.804 187.441 l
260.991 352.325 l
261.178 180.349 l
261.365 354.098 l
261.552 173.257 l
261.739 339.914 l
261.926 176.803 l
262.113 361.19 l
262.299 173.257 l
262.486 341.687 l
262.673 178.576 l
262.86 352.325 l
263.047 187.441 l
263.234 348.779 l
263.421 180.349 l
263.608 355.871 l
263.795 182.122 l
263.982 352.325 l
264.169 183.895 l
264.356 350.552 l
264.543 194.533 l
264.73 348.779 l
264.917 194.533 l
265.104 355.871 l
265.29 187.441 l
265.477 350.552 l
265.664 183.895 l
265.851 347.006 l
266.038 175.03 l
266.225 347.006 l
266.412 183.895 l
266.599 352.325 l
266.786 182.122 l
266.973 352.325 l
267.16 183.895 l
267.347 355.871 l
267.534 180.349 l
267.721 348.779 l
267.908 176.803 l
268.094 345.233 l
268.281 180.349 l
268.468 352.325 l
268.655 173.257 l
268.842 357.644 l
269.029 173.257 l
269.216 355.871 l
269.403 180.349 l
269.59 354.098 l
269.777 187.441 l
269.964 347.006 l
270.151 190.987 l
270.338 352.325 l
270.525 173.257 l
270.712 352.325 l
270.898 182.122 l
271.085 182.122 l
271.272 190.987 l
271.459 178.576 l
271.646 347.006 l
271.833 183.895 l
272.02 178.576 l
272.207 178.576 l
272.394 182.122 l
272.581 345.233 l
272.768 178.576 l
272.955 355.871 l
273.142 183.895 l
273.329 359.417 l
273.516 183.895 l
273.703 352.325 l
273.889 178.576 l
274.076 345.233 l
274.263 183.895 l
274.45 345.233 l
274.637 182.122 l
274.824 357.644 l
275.011 187.441 l
275.198 361.19 l
275.385 187.441 l
275.572 357.644 l
275.759 190.987 l
275.946 357.644 l
276.133 187.441 l
276.32 345.233 l
276.507 185.668 l
276.693 348.779 l
276.88 182.122 l
277.067 354.098 l
277.254 169.711 l
277.441 347.006 l
277.628 180.349 l
277.815 350.552 l
278.002 185.668 l
278.189 354.098 l
278.376 169.711 l
278.563 354.098 l
278.75 183.895 l
278.937 355.871 l
279.124 176.803 l
279.311 361.19 l
279.497 178.576 l
279.684 352.325 l
279.871 176.803 l
280.058 347.006 l
280.245 182.122 l
280.432 343.46 l
280.619 175.03 l
280.806 354.098 l
280.993 185.668 l
281.18 355.871 l
281.367 175.03 l
281.554 359.417 l
281.741 183.895 l
281.928 355.871 l
282.115 173.257 l
282.302 359.417 l
282.488 190.987 l
282.675 355.871 l
282.862 178.576 l
283.049 348.779 l
283.236 180.349 l
283.423 355.871 l
283.61 176.803 l
283.797 355.871 l
283.984 185.668 l
284.171 347.006 l
284.358 175.03 l
284.545 355.871 l
284.732 178.576 l
284.919 348.779 l
285.106 180.349 l
285.292 355.871 l
285.479 176.803 l
285.666 352.325 l
285.853 185.668 l
286.04 347.006 l
286.227 187.441 l
286.414 350.552 l
286.601 182.122 l
286.788 354.098 l
286.975 169.711 l
287.162 359.417 l
287.349 178.576 l
287.536 352.325 l
287.723 183.895 l
287.91 345.233 l
288.096 185.668 l
288.283 189.214 l
288.47 182.122 l
288.657 185.668 l
288.844 352.325 l
289.031 182.122 l
289.218 355.871 l
289.405 180.349 l
289.592 348.779 l
289.779 175.03 l
289.966 345.233 l
290.153 185.668 l
290.34 352.325 l
290.527 175.03 l
290.714 352.325 l
290.901 183.895 l
291.087 355.871 l
291.274 189.214 l
291.461 345.233 l
291.648 178.576 l
291.835 359.417 l
292.022 176.803 l
292.209 361.19 l
292.396 183.895 l
292.583 343.46 l
292.77 176.803 l
292.957 350.552 l
293.144 178.576 l
293.331 354.098 l
293.518 176.803 l
293.705 350.552 l
293.891 182.122 l
294.078 354.098 l
294.265 175.03 l
294.452 348.779 l
294.639 176.803 l
294.826 350.552 l
295.013 180.349 l
295.2 347.006 l
295.387 175.03 l
295.574 355.871 l
295.761 185.668 l
295.948 352.325 l
296.135 175.03 l
296.322 347.006 l
296.509 189.214 l
296.695 354.098 l
296.882 176.803 l
297.069 354.098 l
297.256 183.895 l
297.443 355.871 l
297.63 180.349 l
297.817 357.644 l
298.004 182.122 l
298.191 354.098 l
298.378 183.895 l
298.565 355.871 l
298.752 182.122 l
298.939 354.098 l
299.126 182.122 l
299.313 350.552 l
299.499 187.441 l
299.686 348.779 l
299.873 175.03 l
300.06 350.552 l
300.247 180.349 l
300.434 348.779 l
300.621 178.576 l
300.808 357.644 l
300.995 175.03 l
301.182 354.098 l
301.369 175.03 l
301.556 348.779 l
301.743 169.711 l
301.93 350.552 l
302.117 180.349 l
302.304 350.552 l
302.49 189.214 l
302.677 345.233 l
302.864 182.122 l
303.051 190.987 l
303.425 175.03 l
303.612 350.552 l
303.799 182.122 l
303.986 359.417 l
304.173 189.214 l
304.36 355.871 l
304.547 175.03 l
304.734 354.098 l
304.921 178.576 l
305.108 357.644 l
305.294 173.257 l
305.481 354.098 l
305.668 183.895 l
305.855 354.098 l
306.042 176.803 l
306.229 354.098 l
306.416 187.441 l
306.603 347.006 l
306.79 180.349 l
306.977 355.871 l
307.164 178.576 l
307.351 348.779 l
307.538 182.122 l
307.725 350.552 l
307.912 171.484 l
308.098 357.644 l
308.285 189.214 l
308.472 345.233 l
308.659 173.257 l
308.846 354.098 l
309.033 182.122 l
309.22 345.233 l
309.407 185.668 l
309.594 352.325 l
309.781 180.349 l
309.968 354.098 l
310.155 183.895 l
310.342 348.779 l
310.529 178.576 l
310.716 355.871 l
310.903 183.895 l
311.089 361.19 l
311.276 182.122 l
311.463 357.644 l
311.65 178.576 l
311.837 350.552 l
312.024 187.441 l
312.211 355.871 l
312.398 183.895 l
312.585 348.779 l
312.772 178.576 l
312.959 352.325 l
313.146 185.668 l
313.333 347.006 l
313.52 183.895 l
313.707 361.19 l
313.893 183.895 l
314.08 362.963 l
314.267 175.03 l
314.454 357.644 l
314.641 176.803 l
314.828 347.006 l
315.015 176.803 l
315.202 361.19 l
315.389 183.895 l
315.576 348.779 l
315.763 171.484 l
315.95 350.552 l
316.137 167.938 l
316.324 350.552 l
316.511 176.803 l
316.697 354.098 l
316.884 189.214 l
317.071 348.779 l
317.258 183.895 l
317.445 354.098 l
317.632 173.257 l
317.819 359.417 l
318.006 169.711 l
318.193 355.871 l
318.38 175.03 l
318.567 355.871 l
318.754 182.122 l
318.941 355.871 l
319.128 176.803 l
319.315 345.233 l
319.502 178.576 l
319.688 354.098 l
319.875 176.803 l
320.062 352.325 l
320.249 171.484 l
320.436 354.098 l
320.623 169.711 l
320.81 341.687 l
320.997 185.668 l
321.184 352.325 l
321.371 178.576 l
321.558 357.644 l
321.745 180.349 l
321.932 348.779 l
322.119 166.165 l
322.306 347.006 l
322.492 176.803 l
322.679 355.871 l
322.866 182.122 l
323.053 348.779 l
323.24 180.349 l
323.427 355.871 l
323.614 183.895 l
323.801 347.006 l
323.988 173.257 l
324.175 343.46 l
324.362 189.214 l
324.549 171.484 l
324.736 183.895 l
324.923 185.668 l
325.11 354.098 l
325.296 175.03 l
325.483 355.871 l
325.67 171.484 l
325.857 350.552 l
326.044 118.296 l
326.231 348.779 l
326.418 176.803 l
326.605 354.098 l
326.792 189.214 l
327.166 173.257 l
327.353 182.122 l
327.54 352.325 l
327.727 176.803 l
327.914 187.441 l
328.101 182.122 l
328.287 173.257 l
328.474 348.779 l
328.661 182.122 l
328.848 348.779 l
329.035 189.214 l
329.222 350.552 l
329.409 178.576 l
329.596 357.644 l
329.783 183.895 l
329.97 345.233 l
330.157 182.122 l
330.344 347.006 l
330.531 189.214 l
330.718 341.687 l
330.905 175.03 l
331.091 361.19 l
331.278 176.803 l
331.465 354.098 l
331.652 178.576 l
331.839 348.779 l
332.026 178.576 l
332.213 355.871 l
332.4 190.987 l
332.587 352.325 l
332.774 185.668 l
332.961 343.46 l
333.148 187.441 l
333.335 348.779 l
333.522 187.441 l
333.709 354.098 l
333.895 180.349 l
334.082 352.325 l
334.269 175.03 l
334.456 359.417 l
334.643 176.803 l
334.83 345.233 l
335.017 175.03 l
335.204 350.552 l
335.391 180.349 l
335.578 345.233 l
335.765 180.349 l
335.952 355.871 l
336.139 182.122 l
336.326 354.098 l
336.513 178.576 l
336.699 357.644 l
336.886 175.03 l
337.073 357.644 l
337.26 169.711 l
337.447 354.098 l
337.634 173.257 l
337.821 350.552 l
338.008 171.484 l
338.195 354.098 l
338.382 169.711 l
338.569 350.552 l
338.756 196.305 l
338.943 352.325 l
339.13 173.257 l
339.317 343.46 l
339.504 185.668 l
339.69 354.098 l
339.877 185.668 l
340.064 352.325 l
340.251 183.895 l
340.438 355.871 l
340.625 185.668 l
340.812 350.552 l
340.999 187.441 l
341.186 348.779 l
341.373 176.803 l
341.56 352.325 l
341.747 182.122 l
341.934 341.687 l
342.121 176.803 l
342.308 350.552 l
342.494 171.484 l
342.681 355.871 l
342.868 187.441 l
343.055 348.779 l
343.242 176.803 l
343.429 355.871 l
343.616 176.803 l
343.803 350.552 l
343.99 180.349 l
344.177 357.644 l
344.364 171.484 l
344.551 350.552 l
344.738 175.03 l
344.925 348.779 l
345.112 178.576 l
345.298 348.779 l
345.485 183.895 l
345.672 364.736 l
345.859 185.668 l
346.046 348.779 l
346.233 173.257 l
346.42 361.19 l
346.607 173.257 l
346.794 357.644 l
346.981 182.122 l
347.168 347.006 l
347.355 178.576 l
347.542 352.325 l
347.729 178.576 l
347.916 343.46 l
348.103 189.214 l
348.289 357.644 l
348.476 185.668 l
348.663 347.006 l
348.85 182.122 l
349.037 352.325 l
349.224 173.257 l
349.411 357.644 l
349.598 182.122 l
349.785 352.325 l
349.972 182.122 l
350.159 341.687 l
350.346 180.349 l
350.533 361.19 l
350.72 176.803 l
350.907 357.644 l
351.093 180.349 l
351.28 354.098 l
351.467 176.803 l
351.654 352.325 l
351.841 176.803 l
352.028 361.19 l
352.215 171.484 l
352.402 350.552 l
352.589 176.803 l
352.776 357.644 l
352.963 167.938 l
353.15 343.46 l
353.337 180.349 l
353.524 357.644 l
353.711 175.03 l
353.897 354.098 l
354.084 176.803 l
354.271 347.006 l
354.458 182.122 l
354.645 361.19 l
354.832 182.122 l
355.019 354.098 l
355.206 192.76 l
355.393 355.871 l
355.58 183.895 l
355.767 355.871 l
355.954 182.122 l
356.141 345.233 l
356.328 185.668 l
356.515 354.098 l
356.702 176.803 l
356.888 348.779 l
357.075 183.895 l
357.262 350.552 l
357.449 175.03 l
357.636 361.19 l
357.823 182.122 l
358.01 354.098 l
358.197 178.576 l
358.384 359.417 l
358.571 178.576 l
358.758 178.576 l
358.945 176.803 l
359.132 182.122 l
359.319 355.871 l
359.506 178.576 l
359.692 354.098 l
359.879 175.03 l
360.066 354.098 l
360.253 176.803 l
360.44 352.325 l
360.627 182.122 l
360.814 347.006 l
361.001 182.122 l
361.188 354.098 l
361.375 180.349 l
361.562 354.098 l
361.749 175.03 l
361.936 362.963 l
362.123 178.576 l
362.31 345.233 l
362.496 187.441 l
362.683 352.325 l
362.87 180.349 l
363.057 355.871 l
363.244 173.257 l
363.431 348.779 l
363.618 180.349 l
363.805 352.325 l
363.992 180.349 l
364.179 352.325 l
364.366 185.668 l
364.553 350.552 l
364.74 182.122 l
364.927 355.871 l
365.114 171.484 l
365.301 345.233 l
365.487 175.03 l
365.674 354.098 l
365.861 180.349 l
366.048 352.325 l
366.235 183.895 l
366.422 361.19 l
366.609 173.257 l
366.796 354.098 l
366.983 178.576 l
367.17 357.644 l
367.357 175.03 l
367.544 357.644 l
367.731 180.349 l
367.918 359.417 l
368.105 182.122 l
368.291 352.325 l
368.478 173.257 l
368.665 352.325 l
368.852 182.122 l
369.039 183.895 l
369.226 175.03 l
369.413 175.03 l
369.6 350.552 l
369.787 173.257 l
369.974 348.779 l
370.161 178.576 l
370.348 354.098 l
370.535 175.03 l
370.722 345.233 l
370.909 187.441 l
371.095 347.006 l
371.282 176.803 l
371.469 359.417 l
371.656 180.349 l
371.843 183.895 l
372.03 173.257 l
372.217 176.803 l
372.404 362.963 l
372.591 176.803 l
372.778 354.098 l
372.965 185.668 l
373.152 345.233 l
373.339 167.938 l
373.526 354.098 l
373.713 187.441 l
373.899 362.963 l
374.086 178.576 l
374.273 352.325 l
374.46 176.803 l
374.647 359.417 l
374.834 183.895 l
375.021 352.325 l
375.208 182.122 l
375.395 354.098 l
375.582 182.122 l
375.769 352.325 l
375.956 178.576 l
376.143 354.098 l
376.33 185.668 l
376.517 352.325 l
376.704 178.576 l
376.89 355.871 l
377.077 180.349 l
377.264 348.779 l
377.451 175.03 l
377.638 352.325 l
377.825 173.257 l
378.012 350.552 l
378.199 180.349 l
378.386 357.644 l
378.573 180.349 l
378.76 348.779 l
378.947 183.895 l
379.134 180.349 l
379.321 190.987 l
379.508 180.349 l
379.694 178.576 l
379.881 359.417 l
380.068 176.803 l
380.255 341.687 l
380.442 185.668 l
380.629 357.644 l
380.816 176.803 l
381.003 355.871 l
381.19 169.711 l
381.377 355.871 l
381.564 182.122 l
381.751 361.19 l
381.938 175.03 l
382.125 354.098 l
382.312 176.803 l
382.498 362.963 l
382.685 187.441 l
382.872 354.098 l
383.059 173.257 l
383.246 361.19 l
383.433 180.349 l
383.62 361.19 l
383.807 180.349 l
383.994 354.098 l
384.181 182.122 l
384.368 341.687 l
384.555 182.122 l
384.742 359.417 l
384.929 175.03 l
385.116 357.644 l
385.303 176.803 l
385.489 354.098 l
385.676 182.122 l
385.863 350.552 l
386.05 185.668 l
386.237 357.644 l
386.424 176.803 l
386.611 350.552 l
386.798 173.257 l
386.985 347.006 l
387.172 167.938 l
387.359 347.006 l
387.546 178.576 l
387.733 357.644 l
387.92 173.257 l
388.107 357.644 l
388.293 178.576 l
388.48 355.871 l
388.667 171.484 l
388.854 359.417 l
389.041 175.03 l
389.228 359.417 l
389.415 175.03 l
389.602 348.779 l
389.789 183.895 l
389.976 352.325 l
390.163 180.349 l
390.35 359.417 l
390.537 176.803 l
390.724 364.736 l
390.911 178.576 l
391.097 357.644 l
391.284 183.895 l
391.471 354.098 l
391.658 180.349 l
391.845 348.779 l
392.032 182.122 l
392.219 350.552 l
392.406 171.484 l
392.593 364.736 l
392.78 182.122 l
392.967 350.552 l
393.154 185.668 l
393.341 345.233 l
393.528 189.214 l
393.715 354.098 l
393.902 180.349 l
394.088 355.871 l
394.275 173.257 l
394.462 354.098 l
394.649 180.349 l
394.836 350.552 l
395.023 182.122 l
395.21 348.779 l
395.397 178.576 l
395.584 347.006 l
395.771 176.803 l
395.958 359.417 l
396.145 176.803 l
396.332 361.19 l
396.519 185.668 l
396.706 355.871 l
396.892 173.257 l
397.079 359.417 l
397.266 183.895 l
397.453 359.417 l
397.64 185.668 l
397.827 352.325 l
398.014 182.122 l
398.201 350.552 l
398.388 187.441 l
398.575 355.871 l
398.762 189.214 l
398.949 355.871 l
399.136 182.122 l
399.323 350.552 l
399.51 187.441 l
399.696 355.871 l
399.883 176.803 l
400.07 350.552 l
400.257 187.441 l
400.444 348.779 l
400.631 182.122 l
400.818 354.098 l
401.005 166.165 l
401.192 350.552 l
401.379 175.03 l
401.566 352.325 l
401.753 189.214 l
401.94 355.871 l
402.127 190.987 l
402.314 357.644 l
402.501 176.803 l
402.687 350.552 l
402.874 173.257 l
403.061 354.098 l
403.248 178.576 l
403.435 357.644 l
403.622 190.987 l
403.809 361.19 l
403.996 194.533 l
404.183 354.098 l
404.37 176.803 l
404.557 354.098 l
404.744 180.349 l
404.931 352.325 l
405.118 167.938 l
405.305 350.552 l
405.491 176.803 l
405.678 355.871 l
405.865 166.165 l
406.052 361.19 l
406.239 185.668 l
406.426 359.417 l
406.613 180.349 l
406.8 352.325 l
406.987 176.803 l
407.174 355.871 l
407.361 178.576 l
407.548 364.736 l
407.735 175.03 l
407.922 352.325 l
408.109 175.03 l
408.295 355.871 l
408.482 180.349 l
408.669 345.233 l
408.856 173.257 l
409.043 350.552 l
409.23 175.03 l
409.417 348.779 l
409.604 182.122 l
409.791 352.325 l
409.978 180.349 l
410.165 364.736 l
410.352 182.122 l
410.539 355.871 l
410.726 176.803 l
410.913 352.325 l
411.099 178.576 l
411.286 354.098 l
411.473 178.576 l
411.66 359.417 l
411.847 190.987 l
412.034 361.19 l
412.221 178.576 l
412.408 345.233 l
412.595 175.03 l
412.782 348.779 l
412.969 182.122 l
413.156 352.325 l
413.343 190.987 l
413.53 359.417 l
413.717 169.711 l
413.904 364.736 l
414.09 176.803 l
414.277 355.871 l
414.464 187.441 l
414.651 355.871 l
414.838 182.122 l
415.025 361.19 l
415.212 180.349 l
415.399 350.552 l
415.586 183.895 l
415.773 354.098 l
415.96 180.349 l
416.147 359.417 l
416.334 178.576 l
416.708 175.03 l
416.894 185.668 l
417.081 345.233 l
417.268 180.349 l
417.455 354.098 l
417.642 176.803 l
417.829 361.19 l
418.016 176.803 l
418.203 354.098 l
418.39 189.214 l
418.577 355.871 l
418.764 183.895 l
418.951 352.325 l
419.138 176.803 l
419.325 357.644 l
419.512 176.803 l
419.698 355.871 l
419.885 180.349 l
420.072 354.098 l
420.259 178.576 l
420.446 354.098 l
420.633 178.576 l
420.82 352.325 l
421.007 187.441 l
421.194 352.325 l
421.381 178.576 l
421.568 354.098 l
421.755 182.122 l
421.942 361.19 l
422.129 178.576 l
422.316 357.644 l
422.503 173.257 l
422.689 355.871 l
422.876 182.122 l
423.063 350.552 l
423.25 180.349 l
423.437 357.644 l
423.624 173.257 l
423.811 361.19 l
423.998 178.576 l
424.185 352.325 l
424.372 183.895 l
424.559 355.871 l
424.746 189.214 l
424.933 354.098 l
425.12 185.668 l
425.307 361.19 l
425.493 196.305 l
425.68 345.233 l
425.867 178.576 l
426.054 361.19 l
426.241 182.122 l
426.428 354.098 l
426.615 189.214 l
426.802 352.325 l
426.989 178.576 l
427.176 354.098 l
427.363 176.803 l
427.55 348.779 l
427.737 175.03 l
427.924 350.552 l
428.111 185.668 l
428.297 352.325 l
428.484 183.895 l
428.671 354.098 l
428.858 187.441 l
429.045 348.779 l
429.232 180.349 l
429.419 354.098 l
429.606 175.03 l
429.793 361.19 l
429.98 183.895 l
430.167 354.098 l
430.354 185.668 l
430.541 355.871 l
430.728 176.803 l
430.915 350.552 l
431.102 169.711 l
431.288 347.006 l
431.475 183.895 l
431.662 355.871 l
431.849 171.484 l
432.036 354.098 l
432.223 171.484 l
432.41 350.552 l
432.597 182.122 l
432.784 355.871 l
432.971 183.895 l
433.158 355.871 l
433.345 176.803 l
433.532 348.779 l
433.719 173.257 l
433.906 350.552 l
434.092 182.122 l
434.279 352.325 l
434.466 180.349 l
434.653 354.098 l
434.84 187.441 l
435.027 355.871 l
435.214 182.122 l
435.401 355.871 l
435.588 182.122 l
435.775 354.098 l
435.962 182.122 l
436.149 362.963 l
436.336 175.03 l
436.523 359.417 l
436.71 160.846 l
436.896 347.006 l
437.083 175.03 l
437.27 350.552 l
437.457 189.214 l
437.644 350.552 l
437.831 182.122 l
438.018 361.19 l
438.205 175.03 l
438.392 354.098 l
438.579 189.214 l
438.766 355.871 l
438.953 180.349 l
439.14 362.963 l
439.327 183.895 l
439.514 354.098 l
439.701 178.576 l
439.887 352.325 l
440.074 185.668 l
440.261 352.325 l
440.448 183.895 l
440.635 352.325 l
440.822 178.576 l
441.009 345.233 l
441.196 182.122 l
441.383 345.233 l
441.57 176.803 l
441.757 352.325 l
441.944 183.895 l
442.131 348.779 l
442.318 173.257 l
442.505 348.779 l
442.691 196.305 l
442.878 355.871 l
443.065 176.803 l
443.252 347.006 l
443.439 185.668 l
443.626 361.19 l
443.813 182.122 l
444 350.552 l
444.187 180.349 l
444.374 357.644 l
444.561 176.803 l
444.748 357.644 l
444.935 176.803 l
445.122 354.098 l
445.309 182.122 l
445.495 354.098 l
445.682 183.895 l
445.869 355.871 l
446.056 176.803 l
446.243 350.552 l
446.43 178.576 l
446.617 350.552 l
446.804 182.122 l
446.991 352.325 l
447.178 176.803 l
447.365 352.325 l
447.552 182.122 l
447.739 357.644 l
447.926 175.03 l
448.113 347.006 l
448.299 178.576 l
448.486 357.644 l
448.673 182.122 l
448.86 354.098 l
449.047 180.349 l
449.234 354.098 l
449.421 178.576 l
449.608 350.552 l
449.795 173.257 l
449.982 352.325 l
450.169 189.214 l
450.356 355.871 l
450.543 182.122 l
450.73 361.19 l
450.917 180.349 l
451.104 352.325 l
451.29 178.576 l
451.477 355.871 l
451.664 182.122 l
451.851 354.098 l
452.038 176.803 l
452.225 350.552 l
452.412 171.484 l
452.599 354.098 l
452.786 183.895 l
452.973 352.325 l
453.16 180.349 l
453.347 352.325 l
453.534 176.803 l
453.721 347.006 l
453.908 178.576 l
454.094 345.233 l
454.281 178.576 l
454.468 347.006 l
454.655 182.122 l
454.842 348.779 l
455.029 183.895 l
455.216 350.552 l
455.403 183.895 l
455.59 348.779 l
455.777 187.441 l
455.964 348.779 l
456.151 178.576 l
456.338 354.098 l
456.525 189.214 l
456.712 345.233 l
456.898 180.349 l
457.085 357.644 l
457.272 178.576 l
457.459 357.644 l
457.646 182.122 l
457.833 348.779 l
458.02 175.03 l
458.207 354.098 l
458.394 185.668 l
458.581 352.325 l
458.768 182.122 l
458.955 355.871 l
459.142 178.576 l
459.329 355.871 l
459.516 178.576 l
459.703 352.325 l
459.889 167.938 l
460.076 352.325 l
460.263 182.122 l
460.45 354.098 l
460.637 175.03 l
460.824 354.098 l
461.011 187.441 l
461.198 357.644 l
461.385 171.484 l
461.572 352.325 l
461.759 180.349 l
461.946 352.325 l
462.133 173.257 l
462.32 359.417 l
462.507 187.441 l
462.693 357.644 l
462.88 175.03 l
463.067 355.871 l
463.254 178.576 l
463.441 357.644 l
463.628 180.349 l
463.815 354.098 l
464.002 178.576 l
464.189 354.098 l
464.376 189.214 l
464.563 361.19 l
464.75 176.803 l
464.937 355.871 l
465.124 183.895 l
465.311 355.871 l
465.497 178.576 l
465.684 357.644 l
465.871 185.668 l
466.058 355.871 l
466.245 185.668 l
466.432 341.687 l
466.619 178.576 l
466.806 357.644 l
466.993 175.03 l
467.18 350.552 l
467.367 178.576 l
467.554 354.098 l
467.741 178.576 l
467.928 355.871 l
468.115 182.122 l
468.302 355.871 l
468.488 180.349 l
468.675 355.871 l
468.862 178.576 l
469.049 347.006 l
469.236 173.257 l
469.423 347.006 l
469.61 178.576 l
469.797 357.644 l
469.984 183.895 l
470.171 354.098 l
470.358 182.122 l
470.545 343.46 l
470.732 171.484 l
470.919 347.006 l
471.106 178.576 l
471.292 348.779 l
471.479 183.895 l
471.666 355.871 l
471.853 180.349 l
472.04 350.552 l
472.227 169.711 l
472.414 350.552 l
472.601 180.349 l
472.788 350.552 l
472.975 176.803 l
473.162 357.644 l
473.349 175.03 l
473.536 343.46 l
473.723 175.03 l
473.91 345.233 l
474.096 176.803 l
474.283 345.233 l
474.47 182.122 l
474.657 355.871 l
474.844 171.484 l
475.031 350.552 l
475.218 183.895 l
475.405 348.779 l
475.592 175.03 l
475.779 352.325 l
475.966 182.122 l
476.153 354.098 l
476.34 175.03 l
476.527 361.19 l
476.714 189.214 l
476.901 348.779 l
477.087 183.895 l
477.274 352.325 l
477.461 176.803 l
477.648 347.006 l
477.835 190.987 l
478.022 359.417 l
478.209 180.349 l
478.396 350.552 l
478.583 189.214 l
478.77 357.644 l
478.957 180.349 l
479.144 355.871 l
479.331 173.257 l
479.518 355.871 l
479.705 173.257 l
479.891 336.369 l
480.078 183.895 l
480.265 352.325 l
480.452 192.76 l
480.639 359.417 l
480.826 173.257 l
481.013 350.552 l
481.2 178.576 l
481.387 355.871 l
481.574 196.305 l
481.761 357.644 l
481.948 175.03 l
482.135 357.644 l
482.322 180.349 l
482.509 348.779 l
482.695 183.895 l
482.882 361.19 l
483.069 175.03 l
483.256 350.552 l
483.443 187.441 l
483.63 348.779 l
483.817 185.668 l
484.004 361.19 l
484.191 187.441 l
484.378 350.552 l
484.565 180.349 l
484.752 348.779 l
484.939 182.122 l
485.126 361.19 l
485.313 183.895 l
485.499 352.325 l
485.686 185.668 l
485.873 362.963 l
486.06 173.257 l
486.247 357.644 l
486.434 190.987 l
486.621 359.417 l
486.808 180.349 l
486.995 359.417 l
487.182 178.576 l
487.369 357.644 l
487.556 178.576 l
487.743 355.871 l
487.93 185.668 l
488.117 350.552 l
488.304 173.257 l
488.49 354.098 l
488.677 175.03 l
488.864 354.098 l
489.051 182.122 l
489.238 364.736 l
489.425 175.03 l
489.612 345.233 l
489.799 183.895 l
489.986 361.19 l
490.173 183.895 l
490.36 357.644 l
490.547 183.895 l
490.734 355.871 l
490.921 185.668 l
491.108 359.417 l
491.294 187.441 l
491.481 355.871 l
491.668 183.895 l
491.855 355.871 l
492.042 192.76 l
492.229 354.098 l
492.416 178.576 l
492.603 357.644 l
492.79 185.668 l
492.977 352.325 l
493.164 183.895 l
493.351 359.417 l
493.538 183.895 l
493.725 347.006 l
493.912 183.895 l
494.098 350.552 l
494.285 183.895 l
494.472 354.098 l
494.659 182.122 l
494.846 355.871 l
495.033 180.349 l
495.22 341.687 l
495.407 176.803 l
495.594 354.098 l
495.781 192.76 l
495.968 354.098 l
496.155 173.257 l
496.342 361.19 l
496.529 189.214 l
496.716 361.19 l
496.903 182.122 l
497.089 352.325 l
497.276 183.895 l
497.463 352.325 l
497.65 178.576 l
497.837 352.325 l
498.024 171.484 l
498.211 171.484 l
498.398 176.803 l
498.585 185.668 l
498.772 350.552 l
498.959 185.668 l
499.146 359.417 l
499.333 183.895 l
499.52 350.552 l
499.707 182.122 l
499.893 359.417 l
500.08 178.576 l
500.267 357.644 l
500.454 187.441 l
500.641 361.19 l
500.828 173.257 l
501.015 348.779 l
501.202 182.122 l
501.389 357.644 l
501.576 190.987 l
501.763 361.19 l
501.95 173.257 l
502.137 357.644 l
502.324 185.668 l
502.511 352.325 l
502.697 185.668 l
502.884 355.871 l
503.071 176.803 l
503.258 362.963 l
503.445 178.576 l
503.632 354.098 l
503.819 185.668 l
504.006 354.098 l
504.193 180.349 l
504.38 354.098 l
504.567 173.257 l
504.754 354.098 l
504.941 173.257 l
505.128 347.006 l
505.315 176.803 l
505.502 187.441 l
505.688 171.484 l
505.875 189.214 l
506.062 355.871 l
506.249 182.122 l
506.436 341.687 l
506.623 187.441 l
506.81 350.552 l
506.997 171.484 l
507.184 354.098 l
507.371 183.895 l
507.558 357.644 l
507.745 176.803 l
507.932 355.871 l
508.119 185.668 l
508.306 352.325 l
508.492 176.803 l
508.679 347.006 l
508.866 176.803 l
509.053 352.325 l
509.24 180.349 l
509.427 357.644 l
509.614 187.441 l
509.801 354.098 l
509.988 173.257 l
510.175 357.644 l
510.362 178.576 l
510.549 355.871 l
510.736 192.76 l
510.923 350.552 l
511.11 176.803 l
511.296 347.006 l
511.483 175.03 l
511.67 352.325 l
511.857 180.349 l
512.044 350.552 l
512.231 187.441 l
512.418 352.325 l
512.605 176.803 l
512.792 362.963 l
512.979 175.03 l
513.166 348.779 l
513.353 173.257 l
513.54 176.803 l
513.727 185.668 l
513.914 171.484 l
514.101 354.098 l
514.287 190.987 l
514.474 348.779 l
514.661 185.668 l
514.848 354.098 l
515.035 176.803 l
515.222 361.19 l
515.409 187.441 l
515.596 355.871 l
515.783 183.895 l
515.97 354.098 l
516.157 189.214 l
516.344 187.441 l
516.531 180.349 l
516.718 183.895 l
516.905 355.871 l
517.091 185.668 l
517.278 355.871 l
517.465 187.441 l
517.652 359.417 l
517.839 180.349 l
518.026 350.552 l
518.213 171.484 l
518.4 189.214 l
518.4 189.214 l
stroke
grestore
0.500 setlinewidth
0 setlinecap
[1 3] 0 setdash
0.000 setgray
gsave
446.4 302.4 72 86.4 clipbox
72 86.4 m
72 388.8 l
stroke
grestore
[] 0 setdash
gsave
/o {
gsave
newpath
translate
0.5 setlinewidth
1 setlinejoin
0 setlinecap
0 0 m
0 4 l
gsave
0.000 setgray
fill
grestore
stroke
grestore
} bind def
72 86.4 o
grestore
gsave
/o {
gsave
newpath
translate
0.5 setlinewidth
1 setlinejoin
0 setlinecap
0 0 m
0 -4 l
gsave
0.000 setgray
fill
grestore
stroke
grestore
} bind def
72 388.8 o
grestore
/BitstreamVeraSans-Roman findfont
12.000 scalefont
setfont
gsave
-13.037958 26.122518 translate
30.000000 rotate
0.000000 0.000000 m /zero glyphshow
7.634766 0.000000 m /space glyphshow
11.449219 0.000000 m /d glyphshow
19.066406 0.000000 m /a glyphshow
26.419922 0.000000 m /y glyphshow
33.521484 0.000000 m /s glyphshow
39.773438 0.000000 m /space glyphshow
43.587891 0.000000 m /zero glyphshow
51.222656 0.000000 m /zero glyphshow
58.857422 0.000000 m /colon glyphshow
62.900391 0.000000 m /zero glyphshow
70.535156 0.000000 m /zero glyphshow
78.169922 0.000000 m /colon glyphshow
82.212891 0.000000 m /zero glyphshow
89.847656 0.000000 m /zero glyphshow
grestore
[1 3] 0 setdash
gsave
446.4 302.4 72 86.4 clipbox
165.467 86.4 m
165.467 388.8 l
stroke
grestore
[] 0 setdash
gsave
/o {
gsave
newpath
translate
0.5 setlinewidth
1 setlinejoin
0 setlinecap
0 0 m
0 4 l
gsave
0.000 setgray
fill
grestore
stroke
grestore
} bind def
165.467 86.4 o
grestore
gsave
/o {
gsave
newpath
translate
0.5 setlinewidth
1 setlinejoin
0 setlinecap
0 0 m
0 -4 l
gsave
0.000 setgray
fill
grestore
stroke
grestore
} bind def
165.467 388.8 o
grestore
gsave
37.317552 1.231893 translate
30.000000 rotate
0.000000 0.000000 m /zero glyphshow
7.634766 0.000000 m /space glyphshow
11.449219 0.000000 m /d glyphshow
19.066406 0.000000 m /a glyphshow
26.419922 0.000000 m /y glyphshow
33.521484 0.000000 m /s glyphshow
39.773438 0.000000 m /space glyphshow
43.587891 0.000000 m /zero glyphshow
51.222656 0.000000 m /zero glyphshow
58.857422 0.000000 m /colon glyphshow
62.900391 0.000000 m /zero glyphshow
70.535156 0.000000 m /zero glyphshow
78.169922 0.000000 m /colon glyphshow
82.212891 0.000000 m /one glyphshow
89.847656 0.000000 m /two glyphshow
97.482422 0.000000 m /period glyphshow
101.296875 0.000000 m /nine glyphshow
108.931641 0.000000 m /six glyphshow
116.566406 0.000000 m /zero glyphshow
124.201172 0.000000 m /zero glyphshow
131.835938 0.000000 m /seven glyphshow
139.470703 0.000000 m /four glyphshow
grestore
[1 3] 0 setdash
gsave
446.4 302.4 72 86.4 clipbox
258.935 86.4 m
258.935 388.8 l
stroke
grestore
[] 0 setdash
gsave
/o {
gsave
newpath
translate
0.5 setlinewidth
1 setlinejoin
0 setlinecap
0 0 m
0 4 l
gsave
0.000 setgray
fill
grestore
stroke
grestore
} bind def
258.935 86.4 o
grestore
gsave
/o {
gsave
newpath
translate
0.5 setlinewidth
1 setlinejoin
0 setlinecap
0 0 m
0 -4 l
gsave
0.000 setgray
fill
grestore
stroke
grestore
} bind def
258.935 388.8 o
grestore
gsave
130.866078 1.278768 translate
30.000000 rotate
0.000000 0.000000 m /zero glyphshow
7.634766 0.000000 m /space glyphshow
11.449219 0.000000 m /d glyphshow
19.066406 0.000000 m /a glyphshow
26.419922 0.000000 m /y glyphshow
33.521484 0.000000 m /s glyphshow
39.773438 0.000000 m /space glyphshow
43.587891 0.000000 m /zero glyphshow
51.222656 0.000000 m /zero glyphshow
58.857422 0.000000 m /colon glyphshow
62.900391 0.000000 m /zero glyphshow
70.535156 0.000000 m /zero glyphshow
78.169922 0.000000 m /colon glyphshow
82.212891 0.000000 m /two glyphshow
89.847656 0.000000 m /six glyphshow
97.482422 0.000000 m /period glyphshow
101.296875 0.000000 m /zero glyphshow
108.931641 0.000000 m /six glyphshow
116.566406 0.000000 m /zero glyphshow
124.201172 0.000000 m /zero glyphshow
131.835938 0.000000 m /two glyphshow
139.470703 0.000000 m /six glyphshow
grestore
[1 3] 0 setdash
gsave
446.4 302.4 72 86.4 clipbox
352.402 86.4 m
352.402 388.8 l
stroke
grestore
[] 0 setdash
gsave
/o {
gsave
newpath
translate
0.5 setlinewidth
1 setlinejoin
0 setlinecap
0 0 m
0 4 l
gsave
0.000 setgray
fill
grestore
stroke
grestore
} bind def
352.402 86.4 o
grestore
gsave
/o {
gsave
newpath
translate
0.5 setlinewidth
1 setlinejoin
0 setlinecap
0 0 m
0 -4 l
gsave
0.000 setgray
fill
grestore
stroke
grestore
} bind def
352.402 388.8 o
grestore
gsave
224.563453 1.411581 translate
30.000000 rotate
0.000000 0.000000 m /zero glyphshow
7.634766 0.000000 m /space glyphshow
11.449219 0.000000 m /d glyphshow
19.066406 0.000000 m /a glyphshow
26.419922 0.000000 m /y glyphshow
33.521484 0.000000 m /s glyphshow
39.773438 0.000000 m /space glyphshow
43.587891 0.000000 m /zero glyphshow
51.222656 0.000000 m /zero glyphshow
58.857422 0.000000 m /colon glyphshow
62.900391 0.000000 m /zero glyphshow
70.535156 0.000000 m /zero glyphshow
78.169922 0.000000 m /colon glyphshow
82.212891 0.000000 m /three glyphshow
89.847656 0.000000 m /nine glyphshow
97.482422 0.000000 m /period glyphshow
101.296875 0.000000 m /two glyphshow
108.931641 0.000000 m /five glyphshow
116.566406 0.000000 m /zero glyphshow
124.201172 0.000000 m /two glyphshow
131.835938 0.000000 m /zero glyphshow
139.470703 0.000000 m /seven glyphshow
grestore
[1 3] 0 setdash
gsave
446.4 302.4 72 86.4 clipbox
445.869 86.4 m
445.869 388.8 l
stroke
grestore
[] 0 setdash
gsave
/o {
gsave
newpath
translate
0.5 setlinewidth
1 setlinejoin
0 setlinecap
0 0 m
0 4 l
gsave
0.000 setgray
fill
grestore
stroke
grestore
} bind def
445.869 86.4 o
grestore
gsave
/o {
gsave
newpath
translate
0.5 setlinewidth
1 setlinejoin
0 setlinecap
0 0 m
0 -4 l
gsave
0.000 setgray
fill
grestore
stroke
grestore
} bind def
445.869 388.8 o
grestore
gsave
318.030790 1.411581 translate
30.000000 rotate
0.000000 0.000000 m /zero glyphshow
7.634766 0.000000 m /space glyphshow
11.449219 0.000000 m /d glyphshow
19.066406 0.000000 m /a glyphshow
26.419922 0.000000 m /y glyphshow
33.521484 0.000000 m /s glyphshow
39.773438 0.000000 m /space glyphshow
43.587891 0.000000 m /zero glyphshow
51.222656 0.000000 m /zero glyphshow
58.857422 0.000000 m /colon glyphshow
62.900391 0.000000 m /zero glyphshow
70.535156 0.000000 m /zero glyphshow
78.169922 0.000000 m /colon glyphshow
82.212891 0.000000 m /five glyphshow
89.847656 0.000000 m /two glyphshow
97.482422 0.000000 m /period glyphshow
101.296875 0.000000 m /two glyphshow
108.931641 0.000000 m /nine glyphshow
116.566406 0.000000 m /zero glyphshow
124.201172 0.000000 m /one glyphshow
131.835938 0.000000 m /one glyphshow
139.470703 0.000000 m /seven glyphshow
grestore
gsave
280.825000 -15.058170 translate
0.000000 rotate
0.000000 0.000000 m /T glyphshow
6.955078 0.000000 m /i glyphshow
10.289062 0.000000 m /m glyphshow
21.978516 0.000000 m /e glyphshow
grestore
[1 3] 0 setdash
gsave
446.4 302.4 72 86.4 clipbox
72 86.4 m
518.4 86.4 l
stroke
grestore
[] 0 setdash
gsave
/o {
gsave
newpath
translate
0.5 setlinewidth
1 setlinejoin
0 setlinecap
0 0 m
4 0 l
gsave
0.000 setgray
fill
grestore
stroke
grestore
} bind def
72 86.4 o
grestore
gsave
/o {
gsave
newpath
translate
0.5 setlinewidth
1 setlinejoin
0 setlinecap
0 0 m
-4 0 l
gsave
0.000 setgray
fill
grestore
stroke
grestore
} bind def
518.4 86.4 o
grestore
gsave
50.828125 83.087500 translate
0.000000 rotate
0.000000 0.000000 m /two glyphshow
7.634766 0.000000 m /period glyphshow
11.449219 0.000000 m /five glyphshow
grestore
[1 3] 0 setdash
gsave
446.4 302.4 72 86.4 clipbox
72 124.2 m
518.4 124.2 l
stroke
grestore
[] 0 setdash
gsave
/o {
gsave
newpath
translate
0.5 setlinewidth
1 setlinejoin
0 setlinecap
0 0 m
4 0 l
gsave
0.000 setgray
fill
grestore
stroke
grestore
} bind def
72 124.2 o
grestore
gsave
/o {
gsave
newpath
translate
0.5 setlinewidth
1 setlinejoin
0 setlinecap
0 0 m
-4 0 l
gsave
0.000 setgray
fill
grestore
stroke
grestore
} bind def
518.4 124.2 o
grestore
gsave
50.546875 120.887500 translate
0.000000 rotate
0.000000 0.000000 m /two glyphshow
7.634766 0.000000 m /period glyphshow
11.449219 0.000000 m /six glyphshow
grestore
[1 3] 0 setdash
gsave
446.4 302.4 72 86.4 clipbox
72 162 m
518.4 162 l
stroke
grestore
[] 0 setdash
gsave
/o {
gsave
newpath
translate
0.5 setlinewidth
1 setlinejoin
0 setlinecap
0 0 m
4 0 l
gsave
0.000 setgray
fill
grestore
stroke
grestore
} bind def
72 162 o
grestore
gsave
/o {
gsave
newpath
translate
0.5 setlinewidth
1 setlinejoin
0 setlinecap
0 0 m
-4 0 l
gsave
0.000 setgray
fill
grestore
stroke
grestore
} bind def
518.4 162 o
grestore
gsave
50.812500 158.687500 translate
0.000000 rotate
0.000000 0.000000 m /two glyphshow
7.634766 0.000000 m /period glyphshow
11.449219 0.000000 m /seven glyphshow
grestore
[1 3] 0 setdash
gsave
446.4 302.4 72 86.4 clipbox
72 199.8 m
518.4 199.8 l
stroke
grestore
[] 0 setdash
gsave
/o {
gsave
newpath
translate
0.5 setlinewidth
1 setlinejoin
0 setlinecap
0 0 m
4 0 l
gsave
0.000 setgray
fill
grestore
stroke
grestore
} bind def
72 199.8 o
grestore
gsave
/o {
gsave
newpath
translate
0.5 setlinewidth
1 setlinejoin
0 setlinecap
0 0 m
-4 0 l
gsave
0.000 setgray
fill
grestore
stroke
grestore
} bind def
518.4 199.8 o
grestore
gsave
50.609375 196.487500 translate
0.000000 rotate
0.000000 0.000000 m /two glyphshow
7.634766 0.000000 m /period glyphshow
11.449219 0.000000 m /eight glyphshow
grestore
[1 3] 0 setdash
gsave
446.4 302.4 72 86.4 clipbox
72 237.6 m
518.4 237.6 l
stroke
grestore
[] 0 setdash
gsave
/o {
gsave
newpath
translate
0.5 setlinewidth
1 setlinejoin
0 setlinecap
0 0 m
4 0 l
gsave
0.000 setgray
fill
grestore
stroke
grestore
} bind def
72 237.6 o
grestore
gsave
/o {
gsave
newpath
translate
0.5 setlinewidth
1 setlinejoin
0 setlinecap
0 0 m
-4 0 l
gsave
0.000 setgray
fill
grestore
stroke
grestore
} bind def
518.4 237.6 o
grestore
gsave
50.625000 234.287500 translate
0.000000 rotate
0.000000 0.000000 m /two glyphshow
7.634766 0.000000 m /period glyphshow
11.449219 0.000000 m /nine glyphshow
grestore
[1 3] 0 setdash
gsave
446.4 302.4 72 86.4 clipbox
72 275.4 m
518.4 275.4 l
stroke
grestore
[] 0 setdash
gsave
/o {
gsave
newpath
translate
0.5 setlinewidth
1 setlinejoin
0 setlinecap
0 0 m
4 0 l
gsave
0.000 setgray
fill
grestore
stroke
grestore
} bind def
72 275.4 o
grestore
gsave
/o {
gsave
newpath
translate
0.5 setlinewidth
1 setlinejoin
0 setlinecap
0 0 m
-4 0 l
gsave
0.000 setgray
fill
grestore
stroke
grestore
} bind def
518.4 275.4 o
grestore
gsave
50.625000 272.087500 translate
0.000000 rotate
0.000000 0.000000 m /three glyphshow
7.634766 0.000000 m /period glyphshow
11.449219 0.000000 m /zero glyphshow
grestore
[1 3] 0 setdash
gsave
446.4 302.4 72 86.4 clipbox
72 313.2 m
518.4 313.2 l
stroke
grestore
[] 0 setdash
gsave
/o {
gsave
newpath
translate
0.5 setlinewidth
1 setlinejoin
0 setlinecap
0 0 m
4 0 l
gsave
0.000 setgray
fill
grestore
stroke
grestore
} bind def
72 313.2 o
grestore
gsave
/o {
gsave
newpath
translate
0.5 setlinewidth
1 setlinejoin
0 setlinecap
0 0 m
-4 0 l
gsave
0.000 setgray
fill
grestore
stroke
grestore
} bind def
518.4 313.2 o
grestore
gsave
50.937500 309.887500 translate
0.000000 rotate
0.000000 0.000000 m /three glyphshow
7.634766 0.000000 m /period glyphshow
11.449219 0.000000 m /one glyphshow
grestore
[1 3] 0 setdash
gsave
446.4 302.4 72 86.4 clipbox
72 351 m
518.4 351 l
stroke
grestore
[] 0 setdash
gsave
/o {
gsave
newpath
translate
0.5 setlinewidth
1 setlinejoin
0 setlinecap
0 0 m
4 0 l
gsave
0.000 setgray
fill
grestore
stroke
grestore
} bind def
72 351 o
grestore
gsave
/o {
gsave
newpath
translate
0.5 setlinewidth
1 setlinejoin
0 setlinecap
0 0 m
-4 0 l
gsave
0.000 setgray
fill
grestore
stroke
grestore
} bind def
518.4 351 o
grestore
gsave
51.031250 347.687500 translate
0.000000 rotate
0.000000 0.000000 m /three glyphshow
7.634766 0.000000 m /period glyphshow
11.449219 0.000000 m /two glyphshow
grestore
[1 3] 0 setdash
gsave
446.4 302.4 72 86.4 clipbox
72 388.8 m
518.4 388.8 l
stroke
grestore
[] 0 setdash
gsave
/o {
gsave
newpath
translate
0.5 setlinewidth
1 setlinejoin
0 setlinecap
0 0 m
4 0 l
gsave
0.000 setgray
fill
grestore
stroke
grestore
} bind def
72 388.8 o
grestore
gsave
/o {
gsave
newpath
translate
0.5 setlinewidth
1 setlinejoin
0 setlinecap
0 0 m
-4 0 l
gsave
0.000 setgray
fill
grestore
stroke
grestore
} bind def
518.4 388.8 o
grestore
gsave
50.796875 385.487500 translate
0.000000 rotate
0.000000 0.000000 m /three glyphshow
7.634766 0.000000 m /period glyphshow
11.449219 0.000000 m /three glyphshow
grestore
gsave
43.046875 199.443750 translate
90.000000 rotate
0.000000 0.000000 m /D glyphshow
9.240234 0.000000 m /i glyphshow
12.574219 0.000000 m /s glyphshow
18.826172 0.000000 m /t glyphshow
23.531250 0.000000 m /a glyphshow
30.884766 0.000000 m /n glyphshow
38.490234 0.000000 m /c glyphshow
45.087891 0.000000 m /e glyphshow
52.470703 0.000000 m /space glyphshow
56.285156 0.000000 m /bracketleft glyphshow
60.966797 0.000000 m /m glyphshow
72.656250 0.000000 m /bracketright glyphshow
grestore
1.000 setlinewidth
gsave
72 388.8 m
518.4 388.8 l
stroke
grestore
gsave
518.4 86.4 m
518.4 388.8 l
stroke
grestore
gsave
72 86.4 m
518.4 86.4 l
stroke
grestore
gsave
72 86.4 m
72 388.8 l
stroke
grestore
/BitstreamVeraSans-Roman findfont
14.400 scalefont
setfont
gsave
161.864062 393.800000 translate
0.000000 rotate
0.000000 0.000000 m /R glyphshow
9.613098 0.000000 m /a glyphshow
18.421997 0.000000 m /w glyphshow
30.178894 0.000000 m /space glyphshow
34.748291 0.000000 m /d glyphshow
43.873047 0.000000 m /i glyphshow
47.866882 0.000000 m /s glyphshow
55.356201 0.000000 m /t glyphshow
60.992493 0.000000 m /a glyphshow
69.801392 0.000000 m /n glyphshow
78.912109 0.000000 m /c glyphshow
86.815552 0.000000 m /e glyphshow
95.659546 0.000000 m /space glyphshow
100.228943 0.000000 m /d glyphshow
109.353699 0.000000 m /a glyphshow
118.162598 0.000000 m /t glyphshow
123.798889 0.000000 m /a glyphshow
132.607788 0.000000 m /colon glyphshow
137.450928 0.000000 m /space glyphshow
142.020325 0.000000 m /A glyphshow
151.854004 0.000000 m /n glyphshow
160.964722 0.000000 m /c glyphshow
168.868164 0.000000 m /h glyphshow
177.978882 0.000000 m /o glyphshow
186.773743 0.000000 m /r glyphshow
192.683777 0.000000 m /space glyphshow
197.253174 0.000000 m /four glyphshow
206.398987 0.000000 m /space glyphshow
210.968384 0.000000 m /t glyphshow
216.604675 0.000000 m /o glyphshow
225.399536 0.000000 m /space glyphshow
229.968933 0.000000 m /T glyphshow
236.374756 0.000000 m /a glyphshow
245.183655 0.000000 m /g glyphshow
254.308411 0.000000 m /space glyphshow
258.877808 0.000000 m /two glyphshow
grestore
gsave
403.200000 102.800000 translate
0.000000 rotate
/BitstreamVeraSans-Roman findfont
12.0 scalefont
setfont
0.000000 0.701875 moveto
/A glyphshow

8.208984 0.701875 moveto
/v glyphshow

15.310547 0.701875 moveto
/e glyphshow

22.693359 0.701875 moveto
/r glyphshow

27.626953 0.701875 moveto
/a glyphshow

34.980469 0.701875 moveto
/g glyphshow

42.597656 0.701875 moveto
/e glyphshow

49.980469 0.701875 moveto
/colon glyphshow

54.023438 0.701875 moveto
/space glyphshow

57.837891 10.500000 6.240234 0.750000 rectfill
/Cmmi10 findfont
12.0 scalefont
setfont
57.837891 0.921875 moveto
/d glyphshow

/Cmr10 findfont
12.0 scalefont
setfont
66.185156 0.701875 moveto
/equal glyphshow

76.260937 0.701875 moveto
/two glyphshow

/Cmmi10 findfont
12.0 scalefont
setfont
82.260937 0.701875 moveto
/period glyphshow

/Cmr10 findfont
12.0 scalefont
setfont
85.680469 0.701875 moveto
/nine glyphshow

91.680469 0.701875 moveto
/seven glyphshow


grestore
gsave
403.200000 87.800000 translate
0.000000 rotate
/BitstreamVeraSans-Roman findfont
12.0 scalefont
setfont
0.000000 0.875000 moveto
/space glyphshow

3.814453 0.875000 moveto
/s glyphshow

10.066406 0.875000 moveto
/t glyphshow

14.771484 0.875000 moveto
/period glyphshow

18.585938 0.875000 moveto
/space glyphshow

22.400391 0.875000 moveto
/d glyphshow

30.017578 0.875000 moveto
/e glyphshow

37.400391 0.875000 moveto
/v glyphshow

44.501953 0.875000 moveto
/colon glyphshow

48.544922 0.875000 moveto
/space glyphshow

/Cmmi10 findfont
12.0 scalefont
setfont
52.359375 0.875000 moveto
/sigma glyphshow

/Cmmi10 findfont
8.4 scalefont
setfont
59.208984 -2.186125 moveto
/d glyphshow

/Cmr10 findfont
12.0 scalefont
setfont
67.556250 0.875000 moveto
/equal glyphshow

77.632031 0.875000 moveto
/zero glyphshow

/Cmmi10 findfont
12.0 scalefont
setfont
83.632031 0.875000 moveto
/period glyphshow

/Cmr10 findfont
12.0 scalefont
setfont
87.051563 0.875000 moveto
/two glyphshow

93.051563 0.875000 moveto
/three glyphshow


grestore

end
showpage
