%!PS-Adobe-3.0 EPSF-3.0
%%Title: figures/anchor_1_to_tag_2_exp6_2.eps
%%Creator: matplotlib version 1.3.1, http://matplotlib.org/
%%CreationDate: Wed Mar  1 13:38:00 2017
%%Orientation: portrait
%%BoundingBox: 18 180 594 612
%%EndComments
%%BeginProlog
/mpldict 10 dict def
mpldict begin
/m { moveto } bind def
/l { lineto } bind def
/r { rlineto } bind def
/c { curveto } bind def
/cl { closepath } bind def
/box {
m
1 index 0 r
0 exch r
neg 0 r
cl
} bind def
/clipbox {
box
clip
newpath
} bind def
%!PS-Adobe-3.0 Resource-Font
%%Title: cmr10
%%Copyright: Copyright (C) 1994, Basil K. Malyshev. All Rights Reserved.012BaKoMa Fonts Collection, Level-B.
%%Creator: Converted from TrueType to type 3 by PPR
25 dict begin
/_d{bind def}bind def
/_m{moveto}_d
/_l{lineto}_d
/_cl{closepath eofill}_d
/_c{curveto}_d
/_sc{7 -1 roll{setcachedevice}{pop pop pop pop pop pop}ifelse}_d
/_e{exec}_d
/FontName /Cmr10 def
/PaintType 0 def
/FontMatrix[.001 0 0 .001 0 0]def
/FontBBox[-44 -250 1009 750]def
/FontType 3 def
/Encoding [ /zero /equal /six /one /three ] def
/FontInfo 10 dict dup begin
/FamilyName (cmr10) def
/FullName (cmr10) def
/Notice (Copyright (C) 1994, Basil K. Malyshev. All Rights Reserved.012BaKoMa Fonts Collection, Level-B. ) def
/Weight (Regular) def
/Version (1.1/12-Nov-94) def
/ItalicAngle 0.0 def
/isFixedPitch false def
/UnderlinePosition -133 def
/UnderlineThickness 20 def
end readonly def
/CharStrings 5 dict dup begin
/zero{{500 0 39 -21 460 666 _sc
250 -21 _m
168 -21 112 12 83 79 _c
53 146 39 226 39 319 _c
39 377 44 431 55 482 _c
65 533 86 576 118 612 _c
149 648 193 666 250 666 _c
294 666 330 655 358 634 _c
386 612 407 585 422 551 _c
436 517 446 480 452 441 _c
457 402 460 361 460 319 _c
460 261 454 208 444 158 _c
433 108 412 65 381 31 _c
350 -3 306 -21 250 -21 _c
250 4 _m
}_e{287 4 315 23 333 61 _c
351 99 362 141 366 187 _c
370 233 373 283 373 335 _c
373 385 370 431 366 473 _c
362 515 351 554 333 588 _c
315 622 287 640 250 640 _c
212 640 184 622 166 588 _c
148 554 136 515 132 473 _c
128 431 126 385 126 335 _c
126 297 126 262 128 230 _c
130 197 135 163 143 128 _c
151 93 163 64 181 40 _c
198 16 221 4 250 4 _c
_cl}_e}_d
/equal{{777 0 56 133 721 367 _sc
75 133 _m
69 133 65 135 61 139 _c
57 143 56 148 56 153 _c
56 158 57 163 61 167 _c
65 171 69 173 75 173 _c
703 173 _l
707 173 711 171 715 167 _c
719 163 721 158 721 153 _c
721 148 719 143 715 139 _c
711 135 707 133 703 133 _c
75 133 _l
75 327 _m
69 327 65 329 61 333 _c
57 337 56 341 56 347 _c
56 351 57 356 61 360 _c
}_e{65 364 69 367 75 367 _c
703 367 _l
707 367 711 364 715 360 _c
719 356 721 351 721 347 _c
721 341 719 337 715 333 _c
711 329 707 327 703 327 _c
75 327 _l
_cl}_e}_d
/six{{500 0 42 -21 457 666 _sc
250 -21 _m
208 -21 174 -10 146 11 _c
118 33 97 61 82 96 _c
67 131 57 168 51 206 _c
45 244 42 283 42 323 _c
42 375 52 428 73 482 _c
93 535 123 579 163 614 _c
203 648 250 666 305 666 _c
327 666 348 661 368 653 _c
388 644 403 631 415 615 _c
426 598 432 578 432 554 _c
432 540 427 529 418 520 _c
408 510 397 506 384 506 _c
}_e{370 506 359 510 350 520 _c
340 529 336 540 336 554 _c
336 567 340 578 350 588 _c
359 597 370 602 384 602 _c
389 602 _l
380 614 368 622 353 628 _c
337 634 321 637 305 637 _c
285 637 266 632 249 624 _c
232 615 217 603 203 588 _c
189 573 178 557 169 539 _c
159 521 152 500 147 477 _c
142 453 139 432 138 412 _c
136 392 136 366 136 336 _c
148 363 164 385 186 403 _c
}_e{207 420 231 429 259 429 _c
288 429 315 423 339 411 _c
363 399 384 382 402 361 _c
420 339 433 315 443 288 _c
452 260 457 233 457 205 _c
457 165 448 128 431 93 _c
413 58 389 30 357 10 _c
325 -10 290 -21 250 -21 _c
250 10 _m
276 10 296 15 312 27 _c
327 39 338 54 346 74 _c
353 93 358 112 360 132 _c
362 152 363 176 363 205 _c
363 243 361 275 357 302 _c
}_e{353 328 344 352 328 372 _c
312 392 287 403 255 403 _c
227 403 205 393 188 375 _c
170 357 158 334 150 306 _c
142 278 138 252 138 226 _c
138 217 138 210 139 206 _c
139 205 139 204 139 204 _c
139 203 138 202 138 201 _c
138 172 141 143 147 114 _c
153 84 164 60 181 40 _c
197 20 220 10 250 10 _c
_cl}_e}_d
/one{500 0 87 0 421 666 _sc
93 0 _m
93 35 _l
176 35 218 45 218 67 _c
218 592 _l
183 575 139 567 87 567 _c
87 602 _l
168 602 230 623 272 666 _c
286 666 _l
288 666 291 665 293 663 _c
295 661 296 659 296 657 _c
296 67 _l
296 45 337 35 421 35 _c
421 0 _l
93 0 _l
_cl}_d
/three{{500 0 42 -21 457 666 _sc
95 77 _m
111 54 132 37 158 26 _c
184 15 213 10 243 10 _c
281 10 309 26 325 59 _c
341 92 350 130 350 172 _c
350 190 348 209 345 228 _c
341 247 335 265 327 281 _c
319 297 308 310 294 320 _c
280 330 262 335 242 335 _c
176 335 _l
170 335 167 338 167 344 _c
167 353 _l
167 358 170 361 176 361 _c
231 365 _l
254 365 273 373 289 391 _c
}_e{305 409 316 430 323 456 _c
330 481 334 505 334 528 _c
334 560 326 586 311 606 _c
296 626 273 637 243 637 _c
217 637 193 632 170 622 _c
147 612 129 598 115 579 _c
116 579 117 580 118 580 _c
119 580 120 580 122 580 _c
137 580 150 574 160 564 _c
170 554 175 541 175 527 _c
175 512 170 499 160 489 _c
150 479 137 474 122 474 _c
107 474 94 479 84 489 _c
}_e{74 499 69 512 69 527 _c
69 555 77 580 95 601 _c
112 622 134 638 161 649 _c
188 660 215 666 243 666 _c
263 666 284 663 307 657 _c
329 651 350 642 368 631 _c
386 619 401 605 413 588 _c
424 570 430 550 430 528 _c
430 500 423 474 411 450 _c
399 426 382 406 360 389 _c
338 371 314 358 288 350 _c
317 344 345 333 371 317 _c
397 301 417 280 433 255 _c
}_e{449 229 457 202 457 173 _c
457 136 446 103 426 73 _c
406 43 379 19 347 3 _c
314 -13 279 -21 243 -21 _c
211 -21 180 -15 149 -3 _c
117 8 92 25 72 49 _c
52 73 42 101 42 135 _c
42 151 47 165 58 176 _c
69 187 83 193 100 193 _c
110 193 120 190 129 185 _c
138 180 145 173 150 164 _c
155 154 158 145 158 135 _c
158 118 152 104 141 93 _c
}_e{129 82 116 77 100 77 _c
95 77 _l
_cl}_e}_d
end readonly def

/BuildGlyph
 {exch begin
 CharStrings exch
 2 copy known not{pop /.notdef}if
 true 3 1 roll get exec
 end}_d

/BuildChar {
 1 index /Encoding get exch get
 1 index /BuildGlyph get exec
}_d

FontName currentdict end definefont pop
%!PS-Adobe-3.0 Resource-Font
%%Title: cmmi10
%%Copyright: Copyright (C) 1994, Basil K. Malyshev. All Rights Reserved.012BaKoMa Fonts Collection, Level-B.
%%Creator: Converted from TrueType to type 3 by PPR
25 dict begin
/_d{bind def}bind def
/_m{moveto}_d
/_l{lineto}_d
/_cl{closepath eofill}_d
/_c{curveto}_d
/_sc{7 -1 roll{setcachedevice}{pop pop pop pop pop pop}ifelse}_d
/_e{exec}_d
/FontName /Cmmi10 def
/PaintType 0 def
/FontMatrix[.001 0 0 .001 0 0]def
/FontBBox[-34 -250 1048 750]def
/FontType 3 def
/Encoding [ /sigma /period /d ] def
/FontInfo 10 dict dup begin
/FamilyName (cmmi10) def
/FullName (cmmi10) def
/Notice (Copyright (C) 1994, Basil K. Malyshev. All Rights Reserved.012BaKoMa Fonts Collection, Level-B. ) def
/Weight (Regular) def
/Version (1.1/12-Nov-94) def
/ItalicAngle 0.0 def
/isFixedPitch false def
/UnderlinePosition -133 def
/UnderlineThickness 20 def
end readonly def
/CharStrings 3 dict dup begin
/sigma{{571 0 36 -10 568 431 _sc
187 -10 _m
157 -10 131 -3 108 10 _c
85 24 67 43 55 67 _c
42 91 36 118 36 147 _c
36 177 43 210 57 244 _c
71 278 90 310 114 338 _c
138 366 166 389 197 406 _c
227 422 259 431 291 431 _c
543 431 _l
549 431 555 428 560 424 _c
565 419 568 413 568 406 _c
568 396 564 387 557 380 _c
550 372 542 369 532 369 _c
410 369 _l
}_e{429 340 439 305 439 265 _c
439 231 432 198 419 166 _c
406 133 388 103 365 77 _c
342 50 315 29 284 13 _c
253 -2 221 -10 187 -10 _c
188 15 _m
224 15 257 29 285 58 _c
313 86 334 121 349 162 _c
364 203 372 241 372 277 _c
372 305 364 328 348 344 _c
332 360 310 369 282 369 _c
243 369 210 356 183 330 _c
156 304 136 271 122 232 _c
108 192 102 154 102 118 _c
}_e{102 89 109 65 124 45 _c
139 25 160 15 188 15 _c
_cl}_e}_d
/period{277 0 84 0 194 110 _sc
84 55 _m
84 70 89 83 100 94 _c
111 104 124 110 139 110 _c
148 110 157 107 166 102 _c
174 97 181 90 186 82 _c
191 73 194 64 194 55 _c
194 40 188 27 178 16 _c
167 5 154 0 139 0 _c
124 0 111 5 100 16 _c
89 27 84 40 84 55 _c
_cl}_d
/d{{520 0 38 -10 519 694 _sc
174 -10 _m
132 -10 98 5 74 37 _c
50 68 38 105 38 149 _c
38 191 49 236 71 282 _c
93 328 122 366 160 396 _c
198 426 238 442 282 442 _c
302 442 319 436 335 425 _c
351 414 363 400 372 382 _c
428 605 _l
430 616 432 625 433 632 _c
433 642 411 648 368 648 _c
361 648 358 652 358 661 _c
358 663 358 666 360 670 _c
361 674 362 677 364 679 _c
}_e{366 681 368 683 372 683 _c
507 694 _l
515 694 519 689 519 681 _c
375 106 _l
370 94 368 78 368 58 _c
368 29 377 15 397 15 _c
417 15 433 28 444 55 _c
455 81 464 112 472 147 _c
473 151 476 153 480 153 _c
492 153 _l
494 153 496 151 498 149 _c
500 147 501 145 501 143 _c
489 96 476 59 462 31 _c
448 3 426 -10 395 -10 _c
372 -10 352 -3 335 9 _c
}_e{318 21 307 39 303 61 _c
260 13 217 -10 174 -10 _c
175 15 _m
199 15 222 24 245 42 _c
267 60 287 81 303 106 _c
303 106 304 108 304 110 _c
359 330 _l
355 353 346 373 333 390 _c
319 407 302 416 280 416 _c
257 416 236 406 217 388 _c
197 370 181 348 168 323 _c
154 296 142 259 130 213 _c
118 167 113 131 113 105 _c
113 81 118 60 128 42 _c
138 24 153 15 175 15 _c
}_e{_cl}_e}_d
end readonly def

/BuildGlyph
 {exch begin
 CharStrings exch
 2 copy known not{pop /.notdef}if
 true 3 1 roll get exec
 end}_d

/BuildChar {
 1 index /Encoding get exch get
 1 index /BuildGlyph get exec
}_d

FontName currentdict end definefont pop
%!PS-Adobe-3.0 Resource-Font
%%Title: Bitstream Vera Sans
%%Copyright: Copyright (c) 2003 by Bitstream, Inc. All Rights Reserved.
%%Creator: Converted from TrueType to type 3 by PPR
25 dict begin
/_d{bind def}bind def
/_m{moveto}_d
/_l{lineto}_d
/_cl{closepath eofill}_d
/_c{curveto}_d
/_sc{7 -1 roll{setcachedevice}{pop pop pop pop pop pop}ifelse}_d
/_e{exec}_d
/FontName /BitstreamVeraSans-Roman def
/PaintType 0 def
/FontMatrix[.001 0 0 .001 0 0]def
/FontBBox[-183 -236 1287 928]def
/FontType 3 def
/Encoding [ /space /period /zero /one /two /three /four /five /six /seven /eight /nine /colon /A /D /R /T /bracketleft /bracketright /a /c /d /e /g /h /i /m /n /o /r /s /t /v /w /y ] def
/FontInfo 10 dict dup begin
/FamilyName (Bitstream Vera Sans) def
/FullName (Bitstream Vera Sans) def
/Notice (Copyright (c) 2003 by Bitstream, Inc. All Rights Reserved. Bitstream Vera is a trademark of Bitstream, Inc.) def
/Weight (Roman) def
/Version (Release 1.10) def
/ItalicAngle 0.0 def
/isFixedPitch false def
/UnderlinePosition -213 def
/UnderlineThickness 143 def
end readonly def
/CharStrings 35 dict dup begin
/space{318 0 0 0 0 0 _sc
}_d
/period{318 0 107 0 210 124 _sc
107 124 _m
210 124 _l
210 0 _l
107 0 _l
107 124 _l
_cl}_d
/zero{636 0 66 -13 570 742 _sc
318 664 _m
267 664 229 639 203 589 _c
177 539 165 464 165 364 _c
165 264 177 189 203 139 _c
229 89 267 64 318 64 _c
369 64 407 89 433 139 _c
458 189 471 264 471 364 _c
471 464 458 539 433 589 _c
407 639 369 664 318 664 _c
318 742 _m
399 742 461 709 505 645 _c
548 580 570 486 570 364 _c
570 241 548 147 505 83 _c
461 19 399 -13 318 -13 _c
236 -13 173 19 130 83 _c
87 147 66 241 66 364 _c
66 486 87 580 130 645 _c
173 709 236 742 318 742 _c
_cl}_d
/one{636 0 110 0 544 729 _sc
124 83 _m
285 83 _l
285 639 _l
110 604 _l
110 694 _l
284 729 _l
383 729 _l
383 83 _l
544 83 _l
544 0 _l
124 0 _l
124 83 _l
_cl}_d
/two{{636 0 73 0 536 742 _sc
192 83 _m
536 83 _l
536 0 _l
73 0 _l
73 83 _l
110 121 161 173 226 239 _c
290 304 331 346 348 365 _c
380 400 402 430 414 455 _c
426 479 433 504 433 528 _c
433 566 419 598 392 622 _c
365 646 330 659 286 659 _c
255 659 222 653 188 643 _c
154 632 117 616 78 594 _c
78 694 _l
118 710 155 722 189 730 _c
223 738 255 742 284 742 _c
}_e{359 742 419 723 464 685 _c
509 647 532 597 532 534 _c
532 504 526 475 515 449 _c
504 422 484 390 454 354 _c
446 344 420 317 376 272 _c
332 227 271 164 192 83 _c
_cl}_e}_d
/three{{636 0 76 -13 556 742 _sc
406 393 _m
453 383 490 362 516 330 _c
542 298 556 258 556 212 _c
556 140 531 84 482 45 _c
432 6 362 -13 271 -13 _c
240 -13 208 -10 176 -4 _c
144 1 110 10 76 22 _c
76 117 _l
103 101 133 89 166 81 _c
198 73 232 69 268 69 _c
330 69 377 81 409 105 _c
441 129 458 165 458 212 _c
458 254 443 288 413 312 _c
383 336 341 349 287 349 _c
}_e{202 349 _l
202 430 _l
291 430 _l
339 430 376 439 402 459 _c
428 478 441 506 441 543 _c
441 580 427 609 401 629 _c
374 649 336 659 287 659 _c
260 659 231 656 200 650 _c
169 644 135 635 98 623 _c
98 711 _l
135 721 170 729 203 734 _c
235 739 266 742 296 742 _c
370 742 429 725 473 691 _c
517 657 539 611 539 553 _c
539 513 527 479 504 451 _c
481 423 448 403 406 393 _c
_cl}_e}_d
/four{636 0 49 0 580 729 _sc
378 643 _m
129 254 _l
378 254 _l
378 643 _l
352 729 _m
476 729 _l
476 254 _l
580 254 _l
580 172 _l
476 172 _l
476 0 _l
378 0 _l
378 172 _l
49 172 _l
49 267 _l
352 729 _l
_cl}_d
/five{{636 0 77 -13 549 729 _sc
108 729 _m
495 729 _l
495 646 _l
198 646 _l
198 467 _l
212 472 227 476 241 478 _c
255 480 270 482 284 482 _c
365 482 429 459 477 415 _c
525 370 549 310 549 234 _c
549 155 524 94 475 51 _c
426 8 357 -13 269 -13 _c
238 -13 207 -10 175 -6 _c
143 -1 111 6 77 17 _c
77 116 _l
106 100 136 88 168 80 _c
199 72 232 69 267 69 _c
}_e{323 69 368 83 401 113 _c
433 143 450 183 450 234 _c
450 284 433 324 401 354 _c
368 384 323 399 267 399 _c
241 399 214 396 188 390 _c
162 384 135 375 108 363 _c
108 729 _l
_cl}_e}_d
/six{{636 0 70 -13 573 742 _sc
330 404 _m
286 404 251 388 225 358 _c
199 328 186 286 186 234 _c
186 181 199 139 225 109 _c
251 79 286 64 330 64 _c
374 64 409 79 435 109 _c
461 139 474 181 474 234 _c
474 286 461 328 435 358 _c
409 388 374 404 330 404 _c
526 713 _m
526 623 _l
501 635 476 644 451 650 _c
425 656 400 659 376 659 _c
310 659 260 637 226 593 _c
}_e{192 549 172 482 168 394 _c
187 422 211 444 240 459 _c
269 474 301 482 336 482 _c
409 482 467 459 509 415 _c
551 371 573 310 573 234 _c
573 159 550 99 506 54 _c
462 9 403 -13 330 -13 _c
246 -13 181 19 137 83 _c
92 147 70 241 70 364 _c
70 479 97 571 152 639 _c
206 707 280 742 372 742 _c
396 742 421 739 447 735 _c
472 730 498 723 526 713 _c
_cl}_e}_d
/seven{636 0 82 0 551 729 _sc
82 729 _m
551 729 _l
551 687 _l
286 0 _l
183 0 _l
432 646 _l
82 646 _l
82 729 _l
_cl}_d
/eight{{636 0 68 -13 568 742 _sc
318 346 _m
271 346 234 333 207 308 _c
180 283 167 249 167 205 _c
167 161 180 126 207 101 _c
234 76 271 64 318 64 _c
364 64 401 76 428 102 _c
455 127 469 161 469 205 _c
469 249 455 283 429 308 _c
402 333 365 346 318 346 _c
219 388 _m
177 398 144 418 120 447 _c
96 476 85 511 85 553 _c
85 611 105 657 147 691 _c
188 725 245 742 318 742 _c
}_e{390 742 447 725 489 691 _c
530 657 551 611 551 553 _c
551 511 539 476 515 447 _c
491 418 459 398 417 388 _c
464 377 501 355 528 323 _c
554 291 568 251 568 205 _c
568 134 546 80 503 43 _c
459 5 398 -13 318 -13 _c
237 -13 175 5 132 43 _c
89 80 68 134 68 205 _c
68 251 81 291 108 323 _c
134 355 171 377 219 388 _c
183 544 _m
183 506 194 476 218 455 _c
}_e{242 434 275 424 318 424 _c
360 424 393 434 417 455 _c
441 476 453 506 453 544 _c
453 582 441 611 417 632 _c
393 653 360 664 318 664 _c
275 664 242 653 218 632 _c
194 611 183 582 183 544 _c
_cl}_e}_d
/nine{{636 0 63 -13 566 742 _sc
110 15 _m
110 105 _l
134 93 159 84 185 78 _c
210 72 235 69 260 69 _c
324 69 374 90 408 134 _c
442 178 462 244 468 334 _c
448 306 424 284 396 269 _c
367 254 335 247 300 247 _c
226 247 168 269 126 313 _c
84 357 63 417 63 494 _c
63 568 85 628 129 674 _c
173 719 232 742 306 742 _c
390 742 455 709 499 645 _c
543 580 566 486 566 364 _c
}_e{566 248 538 157 484 89 _c
429 21 356 -13 264 -13 _c
239 -13 214 -10 189 -6 _c
163 -2 137 5 110 15 _c
306 324 _m
350 324 385 339 411 369 _c
437 399 450 441 450 494 _c
450 546 437 588 411 618 _c
385 648 350 664 306 664 _c
262 664 227 648 201 618 _c
175 588 162 546 162 494 _c
162 441 175 399 201 369 _c
227 339 262 324 306 324 _c
_cl}_e}_d
/colon{337 0 117 0 220 517 _sc
117 124 _m
220 124 _l
220 0 _l
117 0 _l
117 124 _l
117 517 _m
220 517 _l
220 393 _l
117 393 _l
117 517 _l
_cl}_d
/A{684 0 8 0 676 729 _sc
342 632 _m
208 269 _l
476 269 _l
342 632 _l
286 729 _m
398 729 _l
676 0 _l
573 0 _l
507 187 _l
178 187 _l
112 0 _l
8 0 _l
286 729 _l
_cl}_d
/D{770 0 98 0 711 729 _sc
197 648 _m
197 81 _l
316 81 _l
416 81 490 103 537 149 _c
583 195 607 267 607 365 _c
607 463 583 534 537 580 _c
490 625 416 648 316 648 _c
197 648 _l
98 729 _m
301 729 _l
442 729 546 699 612 641 _c
678 582 711 490 711 365 _c
711 239 677 147 611 88 _c
545 29 441 0 301 0 _c
98 0 _l
98 729 _l
_cl}_d
/R{{695 0 98 0 666 729 _sc
444 342 _m
465 334 486 319 506 296 _c
526 272 546 240 566 199 _c
666 0 _l
560 0 _l
467 187 _l
443 235 419 268 397 284 _c
374 300 343 308 304 308 _c
197 308 _l
197 0 _l
98 0 _l
98 729 _l
321 729 _l
404 729 466 711 507 677 _c
548 642 569 589 569 519 _c
569 473 558 434 537 404 _c
515 374 484 353 444 342 _c
197 648 _m
197 389 _l
321 389 _l
}_e{368 389 404 400 428 422 _c
452 444 465 476 465 519 _c
465 561 452 593 428 615 _c
404 637 368 648 321 648 _c
197 648 _l
_cl}_e}_d
/T{611 0 -2 0 614 729 _sc
-2 729 _m
614 729 _l
614 646 _l
355 646 _l
355 0 _l
256 0 _l
256 646 _l
-2 646 _l
-2 729 _l
_cl}_d
/bracketleft{390 0 86 -131 293 760 _sc
86 760 _m
293 760 _l
293 690 _l
176 690 _l
176 -61 _l
293 -61 _l
293 -131 _l
86 -131 _l
86 760 _l
_cl}_d
/bracketright{390 0 97 -131 304 760 _sc
304 760 _m
304 -131 _l
97 -131 _l
97 -61 _l
214 -61 _l
214 690 _l
97 690 _l
97 760 _l
304 760 _l
_cl}_d
/a{{613 0 60 -13 522 560 _sc
343 275 _m
270 275 220 266 192 250 _c
164 233 150 205 150 165 _c
150 133 160 107 181 89 _c
202 70 231 61 267 61 _c
317 61 357 78 387 114 _c
417 149 432 196 432 255 _c
432 275 _l
343 275 _l
522 312 _m
522 0 _l
432 0 _l
432 83 _l
411 49 385 25 355 10 _c
325 -5 287 -13 243 -13 _c
187 -13 142 2 109 33 _c
76 64 60 106 60 159 _c
}_e{60 220 80 266 122 298 _c
163 329 224 345 306 345 _c
432 345 _l
432 354 _l
432 395 418 427 391 450 _c
364 472 326 484 277 484 _c
245 484 215 480 185 472 _c
155 464 127 453 100 439 _c
100 522 _l
132 534 164 544 195 550 _c
226 556 256 560 286 560 _c
365 560 424 539 463 498 _c
502 457 522 395 522 312 _c
_cl}_e}_d
/c{{550 0 55 -13 488 560 _sc
488 526 _m
488 442 _l
462 456 437 466 411 473 _c
385 480 360 484 334 484 _c
276 484 230 465 198 428 _c
166 391 150 339 150 273 _c
150 206 166 154 198 117 _c
230 80 276 62 334 62 _c
360 62 385 65 411 72 _c
437 79 462 90 488 104 _c
488 21 _l
462 9 436 0 410 -5 _c
383 -10 354 -13 324 -13 _c
242 -13 176 12 128 64 _c
}_e{79 115 55 185 55 273 _c
55 362 79 432 128 483 _c
177 534 244 560 330 560 _c
358 560 385 557 411 551 _c
437 545 463 537 488 526 _c
_cl}_e}_d
/d{{635 0 55 -13 544 760 _sc
454 464 _m
454 760 _l
544 760 _l
544 0 _l
454 0 _l
454 82 _l
435 49 411 25 382 10 _c
353 -5 319 -13 279 -13 _c
213 -13 159 13 117 65 _c
75 117 55 187 55 273 _c
55 359 75 428 117 481 _c
159 533 213 560 279 560 _c
319 560 353 552 382 536 _c
411 520 435 496 454 464 _c
148 273 _m
148 207 161 155 188 117 _c
215 79 253 61 301 61 _c
}_e{348 61 385 79 413 117 _c
440 155 454 207 454 273 _c
454 339 440 390 413 428 _c
385 466 348 485 301 485 _c
253 485 215 466 188 428 _c
161 390 148 339 148 273 _c
_cl}_e}_d
/e{{615 0 55 -13 562 560 _sc
562 296 _m
562 252 _l
149 252 _l
153 190 171 142 205 110 _c
238 78 284 62 344 62 _c
378 62 412 66 444 74 _c
476 82 509 95 541 113 _c
541 28 _l
509 14 476 3 442 -3 _c
408 -9 373 -13 339 -13 _c
251 -13 182 12 131 62 _c
80 112 55 181 55 268 _c
55 357 79 428 127 481 _c
175 533 241 560 323 560 _c
397 560 455 536 498 489 _c
}_e{540 441 562 377 562 296 _c
472 322 _m
471 371 457 410 431 440 _c
404 469 368 484 324 484 _c
274 484 234 469 204 441 _c
174 413 156 373 152 322 _c
472 322 _l
_cl}_e}_d
/g{{635 0 55 -207 544 560 _sc
454 280 _m
454 344 440 395 414 431 _c
387 467 349 485 301 485 _c
253 485 215 467 188 431 _c
161 395 148 344 148 280 _c
148 215 161 165 188 129 _c
215 93 253 75 301 75 _c
349 75 387 93 414 129 _c
440 165 454 215 454 280 _c
544 68 _m
544 -24 523 -93 482 -139 _c
440 -184 377 -207 292 -207 _c
260 -207 231 -204 203 -200 _c
175 -195 147 -188 121 -178 _c
}_e{121 -91 _l
147 -105 173 -115 199 -122 _c
225 -129 251 -133 278 -133 _c
336 -133 380 -117 410 -87 _c
439 -56 454 -10 454 52 _c
454 96 _l
435 64 411 40 382 24 _c
353 8 319 0 279 0 _c
211 0 157 25 116 76 _c
75 127 55 195 55 280 _c
55 364 75 432 116 483 _c
157 534 211 560 279 560 _c
319 560 353 552 382 536 _c
411 520 435 496 454 464 _c
454 547 _l
544 547 _l
}_e{544 68 _l
_cl}_e}_d
/h{634 0 91 0 549 760 _sc
549 330 _m
549 0 _l
459 0 _l
459 327 _l
459 379 448 417 428 443 _c
408 469 378 482 338 482 _c
289 482 251 466 223 435 _c
195 404 181 362 181 309 _c
181 0 _l
91 0 _l
91 760 _l
181 760 _l
181 462 _l
202 494 227 519 257 535 _c
286 551 320 560 358 560 _c
420 560 468 540 500 501 _c
532 462 549 405 549 330 _c
_cl}_d
/i{278 0 94 0 184 760 _sc
94 547 _m
184 547 _l
184 0 _l
94 0 _l
94 547 _l
94 760 _m
184 760 _l
184 646 _l
94 646 _l
94 760 _l
_cl}_d
/m{{974 0 91 0 889 560 _sc
520 442 _m
542 482 569 511 600 531 _c
631 550 668 560 711 560 _c
767 560 811 540 842 500 _c
873 460 889 403 889 330 _c
889 0 _l
799 0 _l
799 327 _l
799 379 789 418 771 444 _c
752 469 724 482 686 482 _c
639 482 602 466 575 435 _c
548 404 535 362 535 309 _c
535 0 _l
445 0 _l
445 327 _l
445 379 435 418 417 444 _c
398 469 369 482 331 482 _c
}_e{285 482 248 466 221 435 _c
194 404 181 362 181 309 _c
181 0 _l
91 0 _l
91 547 _l
181 547 _l
181 462 _l
201 495 226 520 255 536 _c
283 552 317 560 357 560 _c
397 560 430 550 458 530 _c
486 510 506 480 520 442 _c
_cl}_e}_d
/n{634 0 91 0 549 560 _sc
549 330 _m
549 0 _l
459 0 _l
459 327 _l
459 379 448 417 428 443 _c
408 469 378 482 338 482 _c
289 482 251 466 223 435 _c
195 404 181 362 181 309 _c
181 0 _l
91 0 _l
91 547 _l
181 547 _l
181 462 _l
202 494 227 519 257 535 _c
286 551 320 560 358 560 _c
420 560 468 540 500 501 _c
532 462 549 405 549 330 _c
_cl}_d
/o{612 0 55 -13 557 560 _sc
306 484 _m
258 484 220 465 192 427 _c
164 389 150 338 150 273 _c
150 207 163 156 191 118 _c
219 80 257 62 306 62 _c
354 62 392 80 420 118 _c
448 156 462 207 462 273 _c
462 337 448 389 420 427 _c
392 465 354 484 306 484 _c
306 560 _m
384 560 445 534 490 484 _c
534 433 557 363 557 273 _c
557 183 534 113 490 63 _c
445 12 384 -13 306 -13 _c
227 -13 165 12 121 63 _c
77 113 55 183 55 273 _c
55 363 77 433 121 484 _c
165 534 227 560 306 560 _c
_cl}_d
/r{411 0 91 0 411 560 _sc
411 463 _m
401 469 390 473 378 476 _c
366 478 353 480 339 480 _c
288 480 249 463 222 430 _c
194 397 181 350 181 288 _c
181 0 _l
91 0 _l
91 547 _l
181 547 _l
181 462 _l
199 495 224 520 254 536 _c
284 552 321 560 365 560 _c
371 560 378 559 386 559 _c
393 558 401 557 411 555 _c
411 463 _l
_cl}_d
/s{{521 0 54 -13 472 560 _sc
443 531 _m
443 446 _l
417 458 391 468 364 475 _c
336 481 308 485 279 485 _c
234 485 200 478 178 464 _c
156 450 145 430 145 403 _c
145 382 153 366 169 354 _c
185 342 217 330 265 320 _c
296 313 _l
360 299 405 279 432 255 _c
458 230 472 195 472 151 _c
472 100 452 60 412 31 _c
372 1 316 -13 246 -13 _c
216 -13 186 -10 154 -5 _c
}_e{122 0 89 8 54 20 _c
54 113 _l
87 95 120 82 152 74 _c
184 65 216 61 248 61 _c
290 61 323 68 346 82 _c
368 96 380 117 380 144 _c
380 168 371 187 355 200 _c
339 213 303 226 247 238 _c
216 245 _l
160 257 119 275 95 299 _c
70 323 58 356 58 399 _c
58 450 76 490 112 518 _c
148 546 200 560 268 560 _c
301 560 332 557 362 552 _c
391 547 418 540 443 531 _c
}_e{_cl}_e}_d
/t{392 0 27 0 368 702 _sc
183 702 _m
183 547 _l
368 547 _l
368 477 _l
183 477 _l
183 180 _l
183 135 189 106 201 94 _c
213 81 238 75 276 75 _c
368 75 _l
368 0 _l
276 0 _l
206 0 158 13 132 39 _c
106 65 93 112 93 180 _c
93 477 _l
27 477 _l
27 547 _l
93 547 _l
93 702 _l
183 702 _l
_cl}_d
/v{592 0 30 0 562 547 _sc
30 547 _m
125 547 _l
296 88 _l
467 547 _l
562 547 _l
357 0 _l
235 0 _l
30 547 _l
_cl}_d
/w{818 0 42 0 776 547 _sc
42 547 _m
132 547 _l
244 120 _l
356 547 _l
462 547 _l
574 120 _l
686 547 _l
776 547 _l
633 0 _l
527 0 _l
409 448 _l
291 0 _l
185 0 _l
42 547 _l
_cl}_d
/y{592 0 30 -207 562 547 _sc
322 -50 _m
296 -114 271 -157 247 -177 _c
223 -197 191 -207 151 -207 _c
79 -207 _l
79 -132 _l
132 -132 _l
156 -132 175 -126 189 -114 _c
203 -102 218 -75 235 -31 _c
251 9 _l
30 547 _l
125 547 _l
296 119 _l
467 547 _l
562 547 _l
322 -50 _l
_cl}_d
end readonly def

/BuildGlyph
 {exch begin
 CharStrings exch
 2 copy known not{pop /.notdef}if
 true 3 1 roll get exec
 end}_d

/BuildChar {
 1 index /Encoding get exch get
 1 index /BuildGlyph get exec
}_d

FontName currentdict end definefont pop
end
%%EndProlog
mpldict begin
18 180 translate
576 432 0 0 clipbox
gsave
0 0 m
576 0 l
576 432 l
0 432 l
cl
1.000 setgray
fill
grestore
gsave
72 86.4 m
518.4 86.4 l
518.4 388.8 l
72 388.8 l
cl
1.000 setgray
fill
grestore
1.000 setlinewidth
1 setlinejoin
2 setlinecap
[] 0 setdash
0.000 0.000 1.000 setrgbcolor
gsave
446.4 302.4 72 86.4 clipbox
72 251.783 m
72.3638 231.521 l
72.7276 211.258 l
73.0914 241.652 l
73.4553 211.258 l
73.8191 190.996 l
74.1829 231.521 l
74.5467 251.783 l
74.9105 261.914 l
75.2743 190.996 l
75.6381 150.472 l
76.002 221.39 l
76.3658 221.39 l
77.0934 241.652 l
77.4572 211.258 l
77.821 241.652 l
78.1848 180.865 l
78.5487 201.127 l
78.9125 211.258 l
79.2763 211.258 l
79.6401 231.521 l
80.0039 241.652 l
80.3677 261.914 l
80.7315 231.521 l
81.0954 170.734 l
81.4592 190.996 l
81.823 221.39 l
82.1868 241.652 l
82.5506 170.734 l
82.9144 221.39 l
83.2782 231.521 l
83.6421 282.176 l
84.0059 211.258 l
84.3697 211.258 l
84.7335 221.39 l
85.0973 241.652 l
85.4611 180.865 l
85.8249 201.127 l
86.1888 201.127 l
86.5526 251.783 l
86.9164 251.783 l
87.2802 221.39 l
87.644 231.521 l
88.0078 221.39 l
88.3716 190.996 l
88.7355 272.045 l
89.0993 272.045 l
89.4631 221.39 l
89.8269 251.783 l
90.1907 180.865 l
90.5545 241.652 l
90.9183 180.865 l
91.2822 261.914 l
91.646 261.914 l
92.0098 211.258 l
92.3736 221.39 l
93.1012 261.914 l
93.465 251.783 l
94.1927 180.865 l
94.5565 190.996 l
94.9203 211.258 l
95.2841 211.258 l
96.0117 190.996 l
96.3756 221.39 l
96.7394 272.045 l
97.1032 180.865 l
97.467 211.258 l
97.8308 261.914 l
98.1946 241.652 l
98.5584 211.258 l
98.9222 312.57 l
99.2861 251.783 l
99.6499 221.39 l
100.378 221.39 l
100.741 261.914 l
101.105 251.783 l
101.833 211.258 l
102.197 251.783 l
102.56 201.127 l
102.924 272.045 l
103.288 190.996 l
103.652 231.521 l
104.016 302.439 l
104.379 221.39 l
104.743 221.39 l
105.107 231.521 l
105.471 251.783 l
105.835 231.521 l
106.199 201.127 l
106.562 221.39 l
106.926 221.39 l
107.29 231.521 l
107.654 221.39 l
108.018 221.39 l
108.381 201.127 l
108.745 211.258 l
109.109 251.783 l
109.473 201.127 l
109.837 221.39 l
110.564 120.078 l
110.928 251.783 l
111.292 180.865 l
112.02 251.783 l
112.383 241.652 l
112.747 221.39 l
113.111 241.652 l
113.475 180.865 l
113.839 170.734 l
114.202 241.652 l
114.93 332.832 l
115.658 160.603 l
116.022 180.865 l
116.385 180.865 l
116.749 221.39 l
117.113 150.472 l
117.841 261.914 l
118.204 130.209 l
118.568 282.176 l
118.932 221.39 l
119.296 211.258 l
119.66 241.652 l
120.023 190.996 l
120.387 261.914 l
120.751 211.258 l
121.115 241.652 l
121.479 211.258 l
121.843 231.521 l
122.206 170.734 l
122.57 190.996 l
123.298 261.914 l
123.662 221.39 l
124.025 211.258 l
124.389 241.652 l
124.753 261.914 l
125.117 211.258 l
125.481 221.39 l
125.844 160.603 l
126.208 170.734 l
126.572 211.258 l
126.936 231.521 l
127.3 170.734 l
128.027 241.652 l
128.391 261.914 l
129.119 221.39 l
129.483 251.783 l
129.846 231.521 l
130.21 190.996 l
130.574 241.652 l
130.938 261.914 l
131.302 180.865 l
131.666 241.652 l
132.029 201.127 l
132.393 231.521 l
132.757 221.39 l
133.485 221.39 l
133.848 261.914 l
134.212 211.258 l
134.576 180.865 l
134.94 251.783 l
135.304 201.127 l
135.667 211.258 l
136.031 272.045 l
136.395 211.258 l
136.759 180.865 l
137.123 190.996 l
137.487 130.209 l
137.85 160.603 l
138.578 292.308 l
138.942 231.521 l
139.306 251.783 l
139.669 241.652 l
140.033 292.308 l
140.397 190.996 l
140.761 221.39 l
141.125 302.439 l
141.489 190.996 l
141.852 221.39 l
142.216 261.914 l
142.58 211.258 l
142.944 180.865 l
143.308 170.734 l
143.671 221.39 l
144.035 231.521 l
144.399 190.996 l
144.763 272.045 l
145.127 272.045 l
145.49 251.783 l
145.854 211.258 l
146.218 211.258 l
146.582 231.521 l
146.946 221.39 l
147.31 272.045 l
147.673 211.258 l
148.037 231.521 l
148.401 221.39 l
148.765 201.127 l
149.129 211.258 l
149.492 190.996 l
149.856 201.127 l
150.22 231.521 l
150.584 231.521 l
150.948 221.39 l
151.311 190.996 l
151.675 201.127 l
152.039 221.39 l
152.403 180.865 l
152.767 180.865 l
153.494 221.39 l
153.858 231.521 l
154.222 231.521 l
154.586 211.258 l
154.95 201.127 l
155.313 211.258 l
155.677 201.127 l
156.041 211.258 l
156.405 241.652 l
156.769 211.258 l
157.133 201.127 l
157.496 231.521 l
157.86 312.57 l
158.224 241.652 l
158.588 211.258 l
158.952 261.914 l
159.315 231.521 l
159.679 251.783 l
160.043 221.39 l
160.407 201.127 l
160.771 221.39 l
161.134 201.127 l
161.498 272.045 l
161.862 221.39 l
162.226 261.914 l
162.59 190.996 l
162.954 231.521 l
163.317 211.258 l
163.681 201.127 l
164.045 282.176 l
164.409 221.39 l
164.773 201.127 l
165.136 251.783 l
165.5 251.783 l
165.864 272.045 l
166.228 261.914 l
166.592 201.127 l
166.956 251.783 l
167.319 221.39 l
167.683 241.652 l
168.047 201.127 l
168.411 231.521 l
168.775 312.57 l
169.138 292.308 l
169.866 231.521 l
170.23 231.521 l
170.594 261.914 l
170.957 282.176 l
171.321 170.734 l
171.685 261.914 l
172.049 282.176 l
172.413 261.914 l
172.777 292.308 l
173.14 282.176 l
173.504 201.127 l
173.868 211.258 l
174.232 190.996 l
174.596 231.521 l
174.959 231.521 l
175.323 180.865 l
175.687 231.521 l
176.415 231.521 l
176.778 190.996 l
177.142 211.258 l
177.506 180.865 l
177.87 272.045 l
178.234 221.39 l
178.598 272.045 l
178.961 190.996 l
179.325 201.127 l
179.689 231.521 l
180.053 211.258 l
180.417 170.734 l
180.78 190.996 l
181.144 231.521 l
181.508 241.652 l
181.872 353.094 l
182.6 170.734 l
182.963 241.652 l
183.327 190.996 l
183.691 251.783 l
184.055 231.521 l
184.419 292.308 l
185.146 231.521 l
185.51 251.783 l
185.874 241.652 l
186.238 201.127 l
186.601 261.914 l
186.965 272.045 l
187.693 201.127 l
188.057 180.865 l
188.421 282.176 l
189.148 130.209 l
189.512 180.865 l
189.876 251.783 l
190.24 221.39 l
190.603 231.521 l
190.967 231.521 l
191.331 160.603 l
191.695 241.652 l
192.059 241.652 l
192.422 251.783 l
192.786 241.652 l
193.15 251.783 l
193.514 231.521 l
193.878 251.783 l
194.242 180.865 l
194.605 302.439 l
195.333 201.127 l
195.697 190.996 l
196.061 251.783 l
196.424 272.045 l
196.788 221.39 l
197.152 251.783 l
197.516 272.045 l
197.88 201.127 l
198.244 190.996 l
198.607 211.258 l
199.335 211.258 l
199.699 251.783 l
200.063 201.127 l
200.426 231.521 l
200.79 221.39 l
201.154 251.783 l
201.518 201.127 l
201.882 231.521 l
202.245 221.39 l
202.609 241.652 l
202.973 272.045 l
203.337 180.865 l
203.701 241.652 l
204.065 251.783 l
204.428 282.176 l
204.792 221.39 l
205.156 190.996 l
205.52 251.783 l
205.884 160.603 l
206.247 261.914 l
206.611 190.996 l
206.975 201.127 l
207.339 180.865 l
207.703 190.996 l
208.067 251.783 l
208.43 363.226 l
208.794 282.176 l
209.158 272.045 l
209.522 201.127 l
209.886 261.914 l
210.249 170.734 l
210.613 201.127 l
210.977 261.914 l
211.341 170.734 l
211.705 140.34 l
212.068 231.521 l
212.432 211.258 l
212.796 292.308 l
213.16 221.39 l
213.524 201.127 l
213.888 241.652 l
214.251 241.652 l
214.615 170.734 l
214.979 272.045 l
215.343 221.39 l
215.707 221.39 l
216.07 272.045 l
216.434 272.045 l
216.798 221.39 l
217.162 211.258 l
217.526 231.521 l
217.889 221.39 l
218.253 282.176 l
218.617 241.652 l
218.981 282.176 l
219.345 150.472 l
220.072 241.652 l
220.436 190.996 l
220.8 221.39 l
221.164 201.127 l
221.528 221.39 l
222.255 241.652 l
222.619 221.39 l
222.983 282.176 l
223.347 140.34 l
223.711 231.521 l
224.074 211.258 l
224.438 221.39 l
224.802 251.783 l
225.166 211.258 l
225.53 241.652 l
225.893 170.734 l
226.257 180.865 l
226.621 292.308 l
226.985 180.865 l
227.349 201.127 l
227.712 160.603 l
228.076 180.865 l
228.44 211.258 l
228.804 180.865 l
229.168 282.176 l
229.532 190.996 l
229.895 302.439 l
230.259 140.34 l
230.623 231.521 l
230.987 190.996 l
231.351 272.045 l
231.714 201.127 l
232.442 201.127 l
232.806 211.258 l
233.17 241.652 l
233.533 211.258 l
233.897 272.045 l
234.261 231.521 l
234.625 261.914 l
234.989 261.914 l
235.353 211.258 l
235.716 241.652 l
236.08 282.176 l
236.808 170.734 l
237.172 231.521 l
237.535 261.914 l
237.899 221.39 l
238.263 201.127 l
238.627 211.258 l
238.991 211.258 l
239.355 251.783 l
239.718 261.914 l
240.082 261.914 l
240.446 201.127 l
240.81 221.39 l
241.174 221.39 l
241.537 272.045 l
241.901 261.914 l
242.265 180.865 l
242.629 302.439 l
242.993 221.39 l
243.356 302.439 l
243.72 231.521 l
244.084 211.258 l
244.448 241.652 l
244.812 221.39 l
245.176 251.783 l
245.539 201.127 l
245.903 180.865 l
246.267 201.127 l
246.631 241.652 l
246.995 241.652 l
247.358 211.258 l
247.722 221.39 l
248.086 211.258 l
248.45 180.865 l
249.178 251.783 l
249.541 322.701 l
249.905 292.308 l
250.269 241.652 l
250.633 251.783 l
250.997 201.127 l
251.36 201.127 l
251.724 180.865 l
252.088 170.734 l
252.452 221.39 l
252.816 211.258 l
253.179 211.258 l
253.543 221.39 l
253.907 180.865 l
254.271 180.865 l
254.635 160.603 l
254.999 231.521 l
255.362 261.914 l
255.726 201.127 l
256.818 231.521 l
257.181 272.045 l
257.545 190.996 l
258.273 231.521 l
258.637 211.258 l
259 241.652 l
259.364 211.258 l
259.728 201.127 l
260.092 201.127 l
260.456 160.603 l
260.82 221.39 l
261.183 312.57 l
261.547 221.39 l
262.275 261.914 l
262.639 292.308 l
263.002 231.521 l
263.366 221.39 l
263.73 261.914 l
264.094 241.652 l
264.458 231.521 l
264.822 251.783 l
265.185 211.258 l
265.549 201.127 l
265.913 272.045 l
266.277 190.996 l
266.641 241.652 l
267.004 231.521 l
267.368 231.521 l
267.732 261.914 l
268.096 201.127 l
268.46 221.39 l
268.823 201.127 l
269.187 292.308 l
269.551 201.127 l
269.915 261.914 l
270.279 201.127 l
270.643 190.996 l
271.734 302.439 l
272.098 312.57 l
272.462 211.258 l
272.825 221.39 l
273.189 251.783 l
273.553 211.258 l
274.281 231.521 l
274.644 231.521 l
275.008 150.472 l
275.372 272.045 l
275.736 211.258 l
276.1 261.914 l
276.464 231.521 l
276.827 241.652 l
277.191 190.996 l
277.555 211.258 l
277.919 190.996 l
278.283 211.258 l
278.646 292.308 l
279.01 241.652 l
279.374 261.914 l
279.738 302.439 l
280.102 180.865 l
280.466 201.127 l
280.829 302.439 l
281.193 231.521 l
281.557 211.258 l
281.921 282.176 l
282.648 211.258 l
283.012 211.258 l
283.376 261.914 l
283.74 241.652 l
284.104 241.652 l
284.467 231.521 l
284.831 282.176 l
285.195 272.045 l
285.559 241.652 l
285.923 312.57 l
286.287 251.783 l
286.65 241.652 l
287.014 261.914 l
287.378 231.521 l
287.742 221.39 l
288.106 201.127 l
288.469 201.127 l
288.833 221.39 l
289.197 272.045 l
289.925 180.865 l
290.289 261.914 l
290.652 231.521 l
291.016 302.439 l
291.38 170.734 l
291.744 201.127 l
292.108 261.914 l
292.471 221.39 l
292.835 251.783 l
293.563 211.258 l
293.927 251.783 l
294.29 180.865 l
294.654 231.521 l
295.018 221.39 l
295.382 201.127 l
295.746 241.652 l
296.473 282.176 l
296.837 261.914 l
297.201 170.734 l
297.565 282.176 l
297.929 160.603 l
298.292 241.652 l
298.656 221.39 l
299.02 150.472 l
299.384 201.127 l
299.748 170.734 l
300.111 241.652 l
300.475 221.39 l
300.839 231.521 l
301.203 190.996 l
301.567 170.734 l
301.931 190.996 l
302.294 180.865 l
302.658 231.521 l
303.022 231.521 l
303.75 251.783 l
304.113 221.39 l
304.477 231.521 l
304.841 231.521 l
305.205 292.308 l
305.569 241.652 l
305.933 221.39 l
306.296 190.996 l
306.66 170.734 l
307.024 170.734 l
307.388 221.39 l
307.752 231.521 l
308.115 221.39 l
308.479 221.39 l
308.843 190.996 l
309.571 190.996 l
309.934 282.176 l
310.298 251.783 l
310.662 211.258 l
311.026 211.258 l
311.39 272.045 l
311.754 211.258 l
312.117 221.39 l
312.481 221.39 l
312.845 241.652 l
313.209 221.39 l
313.936 221.39 l
314.3 211.258 l
314.664 282.176 l
315.028 211.258 l
315.392 231.521 l
316.119 190.996 l
316.483 180.865 l
316.847 211.258 l
317.211 312.57 l
317.575 211.258 l
317.938 180.865 l
318.302 241.652 l
318.666 170.734 l
319.03 282.176 l
319.394 251.783 l
319.757 251.783 l
320.485 180.865 l
320.849 261.914 l
321.213 261.914 l
321.577 282.176 l
321.94 231.521 l
322.304 312.57 l
323.032 190.996 l
323.396 180.865 l
323.759 251.783 l
324.123 251.783 l
324.487 231.521 l
324.851 231.521 l
325.215 272.045 l
325.578 272.045 l
325.942 201.127 l
326.306 231.521 l
326.67 211.258 l
327.034 201.127 l
327.398 170.734 l
327.761 201.127 l
328.125 261.914 l
328.489 190.996 l
329.217 272.045 l
329.58 201.127 l
329.944 201.127 l
330.308 211.258 l
330.672 201.127 l
331.036 251.783 l
331.4 231.521 l
331.763 241.652 l
332.127 201.127 l
332.491 231.521 l
332.855 221.39 l
333.219 231.521 l
333.582 201.127 l
333.946 272.045 l
334.674 251.783 l
335.038 201.127 l
335.401 211.258 l
335.765 292.308 l
336.129 292.308 l
336.493 241.652 l
336.857 231.521 l
337.221 190.996 l
337.584 180.865 l
337.948 241.652 l
338.312 211.258 l
338.676 211.258 l
339.04 261.914 l
339.403 241.652 l
339.767 180.865 l
340.131 241.652 l
340.495 241.652 l
340.859 231.521 l
341.222 261.914 l
341.586 231.521 l
341.95 251.783 l
342.314 180.865 l
342.678 251.783 l
343.042 201.127 l
343.405 180.865 l
343.769 190.996 l
344.133 221.39 l
344.497 292.308 l
344.861 201.127 l
345.224 160.603 l
345.588 180.865 l
345.952 150.472 l
346.316 251.783 l
346.68 221.39 l
347.044 231.521 l
347.407 251.783 l
347.771 221.39 l
348.135 292.308 l
348.499 180.865 l
348.863 231.521 l
349.226 201.127 l
349.59 211.258 l
349.954 282.176 l
350.318 251.783 l
350.682 201.127 l
351.045 251.783 l
351.773 211.258 l
352.137 211.258 l
352.501 221.39 l
352.865 180.865 l
353.228 241.652 l
353.592 241.652 l
353.956 211.258 l
354.32 221.39 l
354.684 312.57 l
355.047 241.652 l
355.411 221.39 l
355.775 211.258 l
356.139 251.783 l
356.503 201.127 l
356.867 282.176 l
357.23 201.127 l
357.958 272.045 l
358.322 251.783 l
358.686 261.914 l
359.049 241.652 l
359.413 272.045 l
359.777 251.783 l
360.141 221.39 l
360.505 211.258 l
360.868 231.521 l
361.232 272.045 l
361.596 251.783 l
361.96 190.996 l
362.324 211.258 l
362.688 190.996 l
363.051 190.996 l
363.415 170.734 l
363.779 241.652 l
364.143 160.603 l
364.507 231.521 l
365.234 211.258 l
365.598 221.39 l
365.962 241.652 l
366.326 251.783 l
366.689 241.652 l
367.053 211.258 l
367.417 190.996 l
367.781 201.127 l
368.145 322.701 l
368.872 190.996 l
369.236 221.39 l
369.6 211.258 l
369.964 190.996 l
370.328 201.127 l
370.691 221.39 l
371.055 211.258 l
371.419 241.652 l
371.783 221.39 l
372.147 241.652 l
372.511 241.652 l
372.874 221.39 l
373.238 261.914 l
373.602 272.045 l
373.966 241.652 l
374.33 231.521 l
374.693 261.914 l
375.057 201.127 l
375.421 241.652 l
375.785 322.701 l
376.149 241.652 l
376.512 251.783 l
376.876 180.865 l
377.24 221.39 l
377.968 201.127 l
378.332 180.865 l
378.695 201.127 l
379.059 211.258 l
379.423 251.783 l
379.787 251.783 l
380.151 211.258 l
380.514 221.39 l
380.878 241.652 l
381.606 201.127 l
381.97 231.521 l
382.333 292.308 l
382.697 201.127 l
383.061 190.996 l
383.425 201.127 l
383.789 190.996 l
384.153 140.34 l
384.516 241.652 l
384.88 221.39 l
385.244 221.39 l
385.608 231.521 l
386.335 272.045 l
386.699 211.258 l
387.063 201.127 l
387.427 201.127 l
387.791 190.996 l
388.155 170.734 l
388.518 201.127 l
388.882 150.472 l
389.246 231.521 l
389.61 211.258 l
389.974 150.472 l
390.337 241.652 l
390.701 231.521 l
391.065 261.914 l
391.429 201.127 l
391.793 190.996 l
392.156 211.258 l
392.884 272.045 l
393.248 211.258 l
393.612 251.783 l
393.976 251.783 l
394.339 261.914 l
394.703 221.39 l
395.067 251.783 l
395.431 201.127 l
395.795 261.914 l
396.158 180.865 l
396.522 180.865 l
396.886 221.39 l
397.25 302.439 l
397.614 190.996 l
397.978 231.521 l
398.341 221.39 l
398.705 190.996 l
399.069 180.865 l
399.433 211.258 l
399.797 180.865 l
400.16 241.652 l
400.888 150.472 l
401.252 221.39 l
401.616 201.127 l
401.979 292.308 l
402.343 201.127 l
402.707 201.127 l
403.071 241.652 l
403.435 211.258 l
403.799 292.308 l
404.162 231.521 l
404.526 211.258 l
404.89 261.914 l
405.254 272.045 l
405.618 241.652 l
405.981 221.39 l
406.345 221.39 l
406.709 231.521 l
407.073 221.39 l
407.437 190.996 l
407.8 282.176 l
408.164 312.57 l
408.528 190.996 l
408.892 251.783 l
409.62 251.783 l
410.347 231.521 l
410.711 211.258 l
411.075 241.652 l
411.439 231.521 l
411.802 170.734 l
412.166 251.783 l
412.53 221.39 l
412.894 251.783 l
413.258 211.258 l
413.622 221.39 l
413.985 221.39 l
414.349 211.258 l
414.713 160.603 l
415.077 282.176 l
415.441 221.39 l
415.804 302.439 l
416.168 241.652 l
416.532 201.127 l
416.896 221.39 l
417.26 190.996 l
417.623 221.39 l
417.987 150.472 l
418.351 211.258 l
418.715 251.783 l
419.443 211.258 l
419.806 241.652 l
420.17 231.521 l
420.534 211.258 l
420.898 251.783 l
421.262 241.652 l
421.625 241.652 l
421.989 221.39 l
422.353 221.39 l
423.081 201.127 l
423.444 261.914 l
423.808 201.127 l
424.172 211.258 l
424.536 241.652 l
424.9 282.176 l
425.264 231.521 l
425.627 241.652 l
425.991 261.914 l
426.355 211.258 l
426.719 211.258 l
427.083 201.127 l
427.446 251.783 l
427.81 241.652 l
428.174 261.914 l
428.538 190.996 l
428.902 241.652 l
429.266 231.521 l
429.629 190.996 l
429.993 211.258 l
430.357 201.127 l
430.721 231.521 l
431.085 170.734 l
431.448 201.127 l
431.812 190.996 l
432.176 211.258 l
432.54 190.996 l
432.904 190.996 l
433.267 231.521 l
433.631 241.652 l
433.995 221.39 l
434.359 170.734 l
434.723 251.783 l
435.087 272.045 l
435.45 231.521 l
435.814 261.914 l
436.178 261.914 l
436.542 180.865 l
436.906 241.652 l
437.633 261.914 l
437.997 190.996 l
438.361 231.521 l
438.725 170.734 l
439.089 231.521 l
439.452 261.914 l
439.816 241.652 l
440.18 231.521 l
440.544 241.652 l
440.908 231.521 l
441.271 241.652 l
441.635 201.127 l
441.999 221.39 l
442.363 190.996 l
442.727 241.652 l
443.09 211.258 l
443.454 190.996 l
443.818 190.996 l
444.182 251.783 l
444.546 201.127 l
444.91 221.39 l
445.273 180.865 l
445.637 221.39 l
446.001 190.996 l
446.365 231.521 l
446.729 201.127 l
447.092 201.127 l
447.456 211.258 l
447.82 211.258 l
448.184 190.996 l
448.548 241.652 l
448.911 251.783 l
449.275 241.652 l
449.639 272.045 l
450.003 211.258 l
450.367 221.39 l
450.731 241.652 l
451.458 261.914 l
451.822 282.176 l
452.186 272.045 l
452.55 211.258 l
452.913 231.521 l
453.277 272.045 l
453.641 272.045 l
454.005 231.521 l
454.369 251.783 l
454.733 261.914 l
455.096 261.914 l
455.46 201.127 l
455.824 211.258 l
456.188 251.783 l
456.552 241.652 l
457.279 241.652 l
457.643 201.127 l
458.007 261.914 l
458.371 190.996 l
458.734 201.127 l
459.098 241.652 l
459.462 241.652 l
459.826 180.865 l
460.19 190.996 l
460.554 251.783 l
460.917 231.521 l
461.281 261.914 l
461.645 170.734 l
462.009 231.521 l
462.373 231.521 l
462.736 170.734 l
463.1 231.521 l
463.464 261.914 l
463.828 221.39 l
464.192 201.127 l
464.556 211.258 l
464.919 241.652 l
465.647 180.865 l
466.011 231.521 l
466.375 140.34 l
466.738 272.045 l
467.102 241.652 l
467.466 201.127 l
467.83 261.914 l
468.194 221.39 l
468.921 221.39 l
469.285 231.521 l
470.013 211.258 l
470.377 241.652 l
470.74 282.176 l
471.104 211.258 l
471.468 272.045 l
471.832 231.521 l
472.196 251.783 l
472.559 180.865 l
472.923 190.996 l
473.287 180.865 l
473.651 241.652 l
474.015 231.521 l
474.378 190.996 l
474.742 211.258 l
475.106 251.783 l
475.47 231.521 l
475.834 170.734 l
476.198 201.127 l
476.561 261.914 l
476.925 261.914 l
477.289 292.308 l
477.653 190.996 l
478.017 221.39 l
478.38 241.652 l
478.744 241.652 l
479.108 272.045 l
479.472 201.127 l
479.836 221.39 l
480.2 190.996 l
480.563 201.127 l
480.927 241.652 l
481.291 221.39 l
482.019 261.914 l
482.382 211.258 l
482.746 241.652 l
483.11 292.308 l
483.474 251.783 l
483.838 251.783 l
484.201 170.734 l
484.565 190.996 l
484.929 251.783 l
485.293 231.521 l
485.657 201.127 l
486.021 282.176 l
487.112 160.603 l
487.476 241.652 l
487.84 272.045 l
488.203 221.39 l
488.567 272.045 l
488.931 261.914 l
489.295 241.652 l
489.659 231.521 l
490.022 211.258 l
490.386 272.045 l
490.75 221.39 l
491.114 251.783 l
491.478 211.258 l
491.842 221.39 l
492.205 170.734 l
492.569 272.045 l
492.933 231.521 l
493.297 272.045 l
493.661 251.783 l
494.024 282.176 l
494.388 221.39 l
494.752 241.652 l
495.116 231.521 l
495.48 201.127 l
495.844 302.439 l
496.207 292.308 l
496.935 201.127 l
497.299 211.258 l
497.663 201.127 l
498.026 231.521 l
498.39 211.258 l
498.754 231.521 l
499.118 272.045 l
499.482 282.176 l
499.845 261.914 l
500.209 211.258 l
500.573 201.127 l
500.937 261.914 l
501.301 221.39 l
501.665 282.176 l
502.028 302.439 l
502.392 211.258 l
503.12 272.045 l
503.484 251.783 l
503.847 261.914 l
504.211 251.783 l
504.575 261.914 l
504.939 251.783 l
505.303 292.308 l
505.667 261.914 l
506.03 251.783 l
506.394 261.914 l
507.122 201.127 l
507.486 353.094 l
507.849 231.521 l
508.213 231.521 l
508.577 241.652 l
508.941 282.176 l
509.305 241.652 l
509.668 302.439 l
510.032 201.127 l
510.396 201.127 l
510.76 292.308 l
511.488 211.258 l
511.851 190.996 l
512.215 261.914 l
512.579 261.914 l
512.943 241.652 l
513.307 261.914 l
514.034 221.39 l
514.398 241.652 l
514.762 201.127 l
515.126 261.914 l
515.489 221.39 l
515.853 241.652 l
516.217 221.39 l
516.581 272.045 l
516.945 180.865 l
517.309 211.258 l
517.672 190.996 l
518.036 211.258 l
518.4 211.258 l
518.4 211.258 l
stroke
grestore
0.500 setlinewidth
0 setlinecap
[1 3] 0 setdash
0.000 setgray
gsave
446.4 302.4 72 86.4 clipbox
72 86.4 m
72 388.8 l
stroke
grestore
[] 0 setdash
gsave
/o {
gsave
newpath
translate
0.5 setlinewidth
1 setlinejoin
0 setlinecap
0 0 m
0 4 l
gsave
0.000 setgray
fill
grestore
stroke
grestore
} bind def
72 86.4 o
grestore
gsave
/o {
gsave
newpath
translate
0.5 setlinewidth
1 setlinejoin
0 setlinecap
0 0 m
0 -4 l
gsave
0.000 setgray
fill
grestore
stroke
grestore
} bind def
72 388.8 o
grestore
/BitstreamVeraSans-Roman findfont
12.000 scalefont
setfont
gsave
-13.037958 26.122518 translate
30.000000 rotate
0.000000 0.000000 m /zero glyphshow
7.634766 0.000000 m /space glyphshow
11.449219 0.000000 m /d glyphshow
19.066406 0.000000 m /a glyphshow
26.419922 0.000000 m /y glyphshow
33.521484 0.000000 m /s glyphshow
39.773438 0.000000 m /space glyphshow
43.587891 0.000000 m /zero glyphshow
51.222656 0.000000 m /zero glyphshow
58.857422 0.000000 m /colon glyphshow
62.900391 0.000000 m /zero glyphshow
70.535156 0.000000 m /zero glyphshow
78.169922 0.000000 m /colon glyphshow
82.212891 0.000000 m /zero glyphshow
89.847656 0.000000 m /zero glyphshow
grestore
[1 3] 0 setdash
gsave
446.4 302.4 72 86.4 clipbox
144.763 86.4 m
144.763 388.8 l
stroke
grestore
[] 0 setdash
gsave
/o {
gsave
newpath
translate
0.5 setlinewidth
1 setlinejoin
0 setlinecap
0 0 m
0 4 l
gsave
0.000 setgray
fill
grestore
stroke
grestore
} bind def
144.763 86.4 o
grestore
gsave
/o {
gsave
newpath
translate
0.5 setlinewidth
1 setlinejoin
0 setlinecap
0 0 m
0 -4 l
gsave
0.000 setgray
fill
grestore
stroke
grestore
} bind def
144.763 388.8 o
grestore
gsave
16.991937 1.450643 translate
30.000000 rotate
0.000000 0.000000 m /zero glyphshow
7.634766 0.000000 m /space glyphshow
11.449219 0.000000 m /d glyphshow
19.066406 0.000000 m /a glyphshow
26.419922 0.000000 m /y glyphshow
33.521484 0.000000 m /s glyphshow
39.773438 0.000000 m /space glyphshow
43.587891 0.000000 m /zero glyphshow
51.222656 0.000000 m /zero glyphshow
58.857422 0.000000 m /colon glyphshow
62.900391 0.000000 m /zero glyphshow
70.535156 0.000000 m /zero glyphshow
78.169922 0.000000 m /colon glyphshow
82.212891 0.000000 m /one glyphshow
89.847656 0.000000 m /zero glyphshow
97.482422 0.000000 m /period glyphshow
101.296875 0.000000 m /one glyphshow
108.931641 0.000000 m /one glyphshow
116.566406 0.000000 m /zero glyphshow
124.201172 0.000000 m /one glyphshow
131.835938 0.000000 m /zero glyphshow
139.470703 0.000000 m /one glyphshow
grestore
[1 3] 0 setdash
gsave
446.4 302.4 72 86.4 clipbox
217.526 86.4 m
217.526 388.8 l
stroke
grestore
[] 0 setdash
gsave
/o {
gsave
newpath
translate
0.5 setlinewidth
1 setlinejoin
0 setlinecap
0 0 m
0 4 l
gsave
0.000 setgray
fill
grestore
stroke
grestore
} bind def
217.526 86.4 o
grestore
gsave
/o {
gsave
newpath
translate
0.5 setlinewidth
1 setlinejoin
0 setlinecap
0 0 m
0 -4 l
gsave
0.000 setgray
fill
grestore
stroke
grestore
} bind def
217.526 388.8 o
grestore
gsave
89.375887 1.231893 translate
30.000000 rotate
0.000000 0.000000 m /zero glyphshow
7.634766 0.000000 m /space glyphshow
11.449219 0.000000 m /d glyphshow
19.066406 0.000000 m /a glyphshow
26.419922 0.000000 m /y glyphshow
33.521484 0.000000 m /s glyphshow
39.773438 0.000000 m /space glyphshow
43.587891 0.000000 m /zero glyphshow
51.222656 0.000000 m /zero glyphshow
58.857422 0.000000 m /colon glyphshow
62.900391 0.000000 m /zero glyphshow
70.535156 0.000000 m /zero glyphshow
78.169922 0.000000 m /colon glyphshow
82.212891 0.000000 m /two glyphshow
89.847656 0.000000 m /three glyphshow
97.482422 0.000000 m /period glyphshow
101.296875 0.000000 m /two glyphshow
108.931641 0.000000 m /six glyphshow
116.566406 0.000000 m /zero glyphshow
124.201172 0.000000 m /two glyphshow
131.835938 0.000000 m /one glyphshow
139.470703 0.000000 m /four glyphshow
grestore
[1 3] 0 setdash
gsave
446.4 302.4 72 86.4 clipbox
290.289 86.4 m
290.289 388.8 l
stroke
grestore
[] 0 setdash
gsave
/o {
gsave
newpath
translate
0.5 setlinewidth
1 setlinejoin
0 setlinecap
0 0 m
0 4 l
gsave
0.000 setgray
fill
grestore
stroke
grestore
} bind def
290.289 86.4 o
grestore
gsave
/o {
gsave
newpath
translate
0.5 setlinewidth
1 setlinejoin
0 setlinecap
0 0 m
0 -4 l
gsave
0.000 setgray
fill
grestore
stroke
grestore
} bind def
290.289 388.8 o
grestore
gsave
162.138724 1.231893 translate
30.000000 rotate
0.000000 0.000000 m /zero glyphshow
7.634766 0.000000 m /space glyphshow
11.449219 0.000000 m /d glyphshow
19.066406 0.000000 m /a glyphshow
26.419922 0.000000 m /y glyphshow
33.521484 0.000000 m /s glyphshow
39.773438 0.000000 m /space glyphshow
43.587891 0.000000 m /zero glyphshow
51.222656 0.000000 m /zero glyphshow
58.857422 0.000000 m /colon glyphshow
62.900391 0.000000 m /zero glyphshow
70.535156 0.000000 m /zero glyphshow
78.169922 0.000000 m /colon glyphshow
82.212891 0.000000 m /three glyphshow
89.847656 0.000000 m /three glyphshow
97.482422 0.000000 m /period glyphshow
101.296875 0.000000 m /four glyphshow
108.931641 0.000000 m /one glyphshow
116.566406 0.000000 m /zero glyphshow
124.201172 0.000000 m /two glyphshow
131.835938 0.000000 m /six glyphshow
139.470703 0.000000 m /four glyphshow
grestore
[1 3] 0 setdash
gsave
446.4 302.4 72 86.4 clipbox
363.051 86.4 m
363.051 388.8 l
stroke
grestore
[] 0 setdash
gsave
/o {
gsave
newpath
translate
0.5 setlinewidth
1 setlinejoin
0 setlinecap
0 0 m
0 4 l
gsave
0.000 setgray
fill
grestore
stroke
grestore
} bind def
363.051 86.4 o
grestore
gsave
/o {
gsave
newpath
translate
0.5 setlinewidth
1 setlinejoin
0 setlinecap
0 0 m
0 -4 l
gsave
0.000 setgray
fill
grestore
stroke
grestore
} bind def
363.051 388.8 o
grestore
gsave
235.280446 1.450643 translate
30.000000 rotate
0.000000 0.000000 m /zero glyphshow
7.634766 0.000000 m /space glyphshow
11.449219 0.000000 m /d glyphshow
19.066406 0.000000 m /a glyphshow
26.419922 0.000000 m /y glyphshow
33.521484 0.000000 m /s glyphshow
39.773438 0.000000 m /space glyphshow
43.587891 0.000000 m /zero glyphshow
51.222656 0.000000 m /zero glyphshow
58.857422 0.000000 m /colon glyphshow
62.900391 0.000000 m /zero glyphshow
70.535156 0.000000 m /zero glyphshow
78.169922 0.000000 m /colon glyphshow
82.212891 0.000000 m /four glyphshow
89.847656 0.000000 m /three glyphshow
97.482422 0.000000 m /period glyphshow
101.296875 0.000000 m /six glyphshow
108.931641 0.000000 m /one glyphshow
116.566406 0.000000 m /zero glyphshow
124.201172 0.000000 m /two glyphshow
131.835938 0.000000 m /four glyphshow
139.470703 0.000000 m /one glyphshow
grestore
[1 3] 0 setdash
gsave
446.4 302.4 72 86.4 clipbox
435.814 86.4 m
435.814 388.8 l
stroke
grestore
[] 0 setdash
gsave
/o {
gsave
newpath
translate
0.5 setlinewidth
1 setlinejoin
0 setlinecap
0 0 m
0 4 l
gsave
0.000 setgray
fill
grestore
stroke
grestore
} bind def
435.814 86.4 o
grestore
gsave
/o {
gsave
newpath
translate
0.5 setlinewidth
1 setlinejoin
0 setlinecap
0 0 m
0 -4 l
gsave
0.000 setgray
fill
grestore
stroke
grestore
} bind def
435.814 388.8 o
grestore
gsave
307.664396 1.231893 translate
30.000000 rotate
0.000000 0.000000 m /zero glyphshow
7.634766 0.000000 m /space glyphshow
11.449219 0.000000 m /d glyphshow
19.066406 0.000000 m /a glyphshow
26.419922 0.000000 m /y glyphshow
33.521484 0.000000 m /s glyphshow
39.773438 0.000000 m /space glyphshow
43.587891 0.000000 m /zero glyphshow
51.222656 0.000000 m /zero glyphshow
58.857422 0.000000 m /colon glyphshow
62.900391 0.000000 m /zero glyphshow
70.535156 0.000000 m /zero glyphshow
78.169922 0.000000 m /colon glyphshow
82.212891 0.000000 m /five glyphshow
89.847656 0.000000 m /three glyphshow
97.482422 0.000000 m /period glyphshow
101.296875 0.000000 m /seven glyphshow
108.931641 0.000000 m /two glyphshow
116.566406 0.000000 m /zero glyphshow
124.201172 0.000000 m /one glyphshow
131.835938 0.000000 m /one glyphshow
139.470703 0.000000 m /four glyphshow
grestore
[1 3] 0 setdash
gsave
446.4 302.4 72 86.4 clipbox
508.577 86.4 m
508.577 388.8 l
stroke
grestore
[] 0 setdash
gsave
/o {
gsave
newpath
translate
0.5 setlinewidth
1 setlinejoin
0 setlinecap
0 0 m
0 4 l
gsave
0.000 setgray
fill
grestore
stroke
grestore
} bind def
508.577 86.4 o
grestore
gsave
/o {
gsave
newpath
translate
0.5 setlinewidth
1 setlinejoin
0 setlinecap
0 0 m
0 -4 l
gsave
0.000 setgray
fill
grestore
stroke
grestore
} bind def
508.577 388.8 o
grestore
gsave
380.427232 1.231893 translate
30.000000 rotate
0.000000 0.000000 m /zero glyphshow
7.634766 0.000000 m /space glyphshow
11.449219 0.000000 m /d glyphshow
19.066406 0.000000 m /a glyphshow
26.419922 0.000000 m /y glyphshow
33.521484 0.000000 m /s glyphshow
39.773438 0.000000 m /space glyphshow
43.587891 0.000000 m /zero glyphshow
51.222656 0.000000 m /zero glyphshow
58.857422 0.000000 m /colon glyphshow
62.900391 0.000000 m /zero glyphshow
70.535156 0.000000 m /one glyphshow
78.169922 0.000000 m /colon glyphshow
82.212891 0.000000 m /zero glyphshow
89.847656 0.000000 m /three glyphshow
97.482422 0.000000 m /period glyphshow
101.296875 0.000000 m /eight glyphshow
108.931641 0.000000 m /eight glyphshow
116.566406 0.000000 m /zero glyphshow
124.201172 0.000000 m /one glyphshow
131.835938 0.000000 m /five glyphshow
139.470703 0.000000 m /four glyphshow
grestore
gsave
280.825000 -15.058170 translate
0.000000 rotate
0.000000 0.000000 m /T glyphshow
6.955078 0.000000 m /i glyphshow
10.289062 0.000000 m /m glyphshow
21.978516 0.000000 m /e glyphshow
grestore
[1 3] 0 setdash
gsave
446.4 302.4 72 86.4 clipbox
72 86.4 m
518.4 86.4 l
stroke
grestore
[] 0 setdash
gsave
/o {
gsave
newpath
translate
0.5 setlinewidth
1 setlinejoin
0 setlinecap
0 0 m
4 0 l
gsave
0.000 setgray
fill
grestore
stroke
grestore
} bind def
72 86.4 o
grestore
gsave
/o {
gsave
newpath
translate
0.5 setlinewidth
1 setlinejoin
0 setlinecap
0 0 m
-4 0 l
gsave
0.000 setgray
fill
grestore
stroke
grestore
} bind def
518.4 86.4 o
grestore
gsave
42.828125 83.087500 translate
0.000000 rotate
0.000000 0.000000 m /zero glyphshow
7.634766 0.000000 m /period glyphshow
11.449219 0.000000 m /nine glyphshow
19.083984 0.000000 m /six glyphshow
grestore
[1 3] 0 setdash
gsave
446.4 302.4 72 86.4 clipbox
72 129.6 m
518.4 129.6 l
stroke
grestore
[] 0 setdash
gsave
/o {
gsave
newpath
translate
0.5 setlinewidth
1 setlinejoin
0 setlinecap
0 0 m
4 0 l
gsave
0.000 setgray
fill
grestore
stroke
grestore
} bind def
72 129.6 o
grestore
gsave
/o {
gsave
newpath
translate
0.5 setlinewidth
1 setlinejoin
0 setlinecap
0 0 m
-4 0 l
gsave
0.000 setgray
fill
grestore
stroke
grestore
} bind def
518.4 129.6 o
grestore
gsave
42.890625 126.287500 translate
0.000000 rotate
0.000000 0.000000 m /zero glyphshow
7.634766 0.000000 m /period glyphshow
11.449219 0.000000 m /nine glyphshow
19.083984 0.000000 m /eight glyphshow
grestore
[1 3] 0 setdash
gsave
446.4 302.4 72 86.4 clipbox
72 172.8 m
518.4 172.8 l
stroke
grestore
[] 0 setdash
gsave
/o {
gsave
newpath
translate
0.5 setlinewidth
1 setlinejoin
0 setlinecap
0 0 m
4 0 l
gsave
0.000 setgray
fill
grestore
stroke
grestore
} bind def
72 172.8 o
grestore
gsave
/o {
gsave
newpath
translate
0.5 setlinewidth
1 setlinejoin
0 setlinecap
0 0 m
-4 0 l
gsave
0.000 setgray
fill
grestore
stroke
grestore
} bind def
518.4 172.8 o
grestore
gsave
43.375000 169.487500 translate
0.000000 rotate
0.000000 0.000000 m /one glyphshow
7.634766 0.000000 m /period glyphshow
11.449219 0.000000 m /zero glyphshow
19.083984 0.000000 m /zero glyphshow
grestore
[1 3] 0 setdash
gsave
446.4 302.4 72 86.4 clipbox
72 216 m
518.4 216 l
stroke
grestore
[] 0 setdash
gsave
/o {
gsave
newpath
translate
0.5 setlinewidth
1 setlinejoin
0 setlinecap
0 0 m
4 0 l
gsave
0.000 setgray
fill
grestore
stroke
grestore
} bind def
72 216 o
grestore
gsave
/o {
gsave
newpath
translate
0.5 setlinewidth
1 setlinejoin
0 setlinecap
0 0 m
-4 0 l
gsave
0.000 setgray
fill
grestore
stroke
grestore
} bind def
518.4 216 o
grestore
gsave
43.781250 212.687500 translate
0.000000 rotate
0.000000 0.000000 m /one glyphshow
7.634766 0.000000 m /period glyphshow
11.449219 0.000000 m /zero glyphshow
19.083984 0.000000 m /two glyphshow
grestore
[1 3] 0 setdash
gsave
446.4 302.4 72 86.4 clipbox
72 259.2 m
518.4 259.2 l
stroke
grestore
[] 0 setdash
gsave
/o {
gsave
newpath
translate
0.5 setlinewidth
1 setlinejoin
0 setlinecap
0 0 m
4 0 l
gsave
0.000 setgray
fill
grestore
stroke
grestore
} bind def
72 259.2 o
grestore
gsave
/o {
gsave
newpath
translate
0.5 setlinewidth
1 setlinejoin
0 setlinecap
0 0 m
-4 0 l
gsave
0.000 setgray
fill
grestore
stroke
grestore
} bind def
518.4 259.2 o
grestore
gsave
43.250000 255.887500 translate
0.000000 rotate
0.000000 0.000000 m /one glyphshow
7.634766 0.000000 m /period glyphshow
11.449219 0.000000 m /zero glyphshow
19.083984 0.000000 m /four glyphshow
grestore
[1 3] 0 setdash
gsave
446.4 302.4 72 86.4 clipbox
72 302.4 m
518.4 302.4 l
stroke
grestore
[] 0 setdash
gsave
/o {
gsave
newpath
translate
0.5 setlinewidth
1 setlinejoin
0 setlinecap
0 0 m
4 0 l
gsave
0.000 setgray
fill
grestore
stroke
grestore
} bind def
72 302.4 o
grestore
gsave
/o {
gsave
newpath
translate
0.5 setlinewidth
1 setlinejoin
0 setlinecap
0 0 m
-4 0 l
gsave
0.000 setgray
fill
grestore
stroke
grestore
} bind def
518.4 302.4 o
grestore
gsave
43.343750 299.087500 translate
0.000000 rotate
0.000000 0.000000 m /one glyphshow
7.634766 0.000000 m /period glyphshow
11.449219 0.000000 m /zero glyphshow
19.083984 0.000000 m /six glyphshow
grestore
[1 3] 0 setdash
gsave
446.4 302.4 72 86.4 clipbox
72 345.6 m
518.4 345.6 l
stroke
grestore
[] 0 setdash
gsave
/o {
gsave
newpath
translate
0.5 setlinewidth
1 setlinejoin
0 setlinecap
0 0 m
4 0 l
gsave
0.000 setgray
fill
grestore
stroke
grestore
} bind def
72 345.6 o
grestore
gsave
/o {
gsave
newpath
translate
0.5 setlinewidth
1 setlinejoin
0 setlinecap
0 0 m
-4 0 l
gsave
0.000 setgray
fill
grestore
stroke
grestore
} bind def
518.4 345.6 o
grestore
gsave
43.406250 342.287500 translate
0.000000 rotate
0.000000 0.000000 m /one glyphshow
7.634766 0.000000 m /period glyphshow
11.449219 0.000000 m /zero glyphshow
19.083984 0.000000 m /eight glyphshow
grestore
[1 3] 0 setdash
gsave
446.4 302.4 72 86.4 clipbox
72 388.8 m
518.4 388.8 l
stroke
grestore
[] 0 setdash
gsave
/o {
gsave
newpath
translate
0.5 setlinewidth
1 setlinejoin
0 setlinecap
0 0 m
4 0 l
gsave
0.000 setgray
fill
grestore
stroke
grestore
} bind def
72 388.8 o
grestore
gsave
/o {
gsave
newpath
translate
0.5 setlinewidth
1 setlinejoin
0 setlinecap
0 0 m
-4 0 l
gsave
0.000 setgray
fill
grestore
stroke
grestore
} bind def
518.4 388.8 o
grestore
gsave
43.375000 385.487500 translate
0.000000 rotate
0.000000 0.000000 m /one glyphshow
7.634766 0.000000 m /period glyphshow
11.449219 0.000000 m /one glyphshow
19.083984 0.000000 m /zero glyphshow
grestore
gsave
35.328125 199.443750 translate
90.000000 rotate
0.000000 0.000000 m /D glyphshow
9.240234 0.000000 m /i glyphshow
12.574219 0.000000 m /s glyphshow
18.826172 0.000000 m /t glyphshow
23.531250 0.000000 m /a glyphshow
30.884766 0.000000 m /n glyphshow
38.490234 0.000000 m /c glyphshow
45.087891 0.000000 m /e glyphshow
52.470703 0.000000 m /space glyphshow
56.285156 0.000000 m /bracketleft glyphshow
60.966797 0.000000 m /m glyphshow
72.656250 0.000000 m /bracketright glyphshow
grestore
1.000 setlinewidth
gsave
72 388.8 m
518.4 388.8 l
stroke
grestore
gsave
518.4 86.4 m
518.4 388.8 l
stroke
grestore
gsave
72 86.4 m
518.4 86.4 l
stroke
grestore
gsave
72 86.4 m
72 388.8 l
stroke
grestore
/BitstreamVeraSans-Roman findfont
14.400 scalefont
setfont
gsave
161.864062 393.800000 translate
0.000000 rotate
0.000000 0.000000 m /R glyphshow
9.613098 0.000000 m /a glyphshow
18.421997 0.000000 m /w glyphshow
30.178894 0.000000 m /space glyphshow
34.748291 0.000000 m /d glyphshow
43.873047 0.000000 m /i glyphshow
47.866882 0.000000 m /s glyphshow
55.356201 0.000000 m /t glyphshow
60.992493 0.000000 m /a glyphshow
69.801392 0.000000 m /n glyphshow
78.912109 0.000000 m /c glyphshow
86.815552 0.000000 m /e glyphshow
95.659546 0.000000 m /space glyphshow
100.228943 0.000000 m /d glyphshow
109.353699 0.000000 m /a glyphshow
118.162598 0.000000 m /t glyphshow
123.798889 0.000000 m /a glyphshow
132.607788 0.000000 m /colon glyphshow
137.450928 0.000000 m /space glyphshow
142.020325 0.000000 m /A glyphshow
151.854004 0.000000 m /n glyphshow
160.964722 0.000000 m /c glyphshow
168.868164 0.000000 m /h glyphshow
177.978882 0.000000 m /o glyphshow
186.773743 0.000000 m /r glyphshow
192.683777 0.000000 m /space glyphshow
197.253174 0.000000 m /one glyphshow
206.398987 0.000000 m /space glyphshow
210.968384 0.000000 m /t glyphshow
216.604675 0.000000 m /o glyphshow
225.399536 0.000000 m /space glyphshow
229.968933 0.000000 m /T glyphshow
236.374756 0.000000 m /a glyphshow
245.183655 0.000000 m /g glyphshow
254.308411 0.000000 m /space glyphshow
258.877808 0.000000 m /two glyphshow
grestore
gsave
403.200000 102.800000 translate
0.000000 rotate
/BitstreamVeraSans-Roman findfont
12.0 scalefont
setfont
0.000000 0.701875 moveto
/A glyphshow

8.208984 0.701875 moveto
/v glyphshow

15.310547 0.701875 moveto
/e glyphshow

22.693359 0.701875 moveto
/r glyphshow

27.626953 0.701875 moveto
/a glyphshow

34.980469 0.701875 moveto
/g glyphshow

42.597656 0.701875 moveto
/e glyphshow

49.980469 0.701875 moveto
/colon glyphshow

54.023438 0.701875 moveto
/space glyphshow

57.837891 10.500000 6.240234 0.750000 rectfill
/Cmmi10 findfont
12.0 scalefont
setfont
57.837891 0.921875 moveto
/d glyphshow

/Cmr10 findfont
12.0 scalefont
setfont
66.185156 0.701875 moveto
/equal glyphshow

76.260937 0.701875 moveto
/one glyphshow

/Cmmi10 findfont
12.0 scalefont
setfont
82.260937 0.701875 moveto
/period glyphshow

/Cmr10 findfont
12.0 scalefont
setfont
85.680469 0.701875 moveto
/zero glyphshow

91.680469 0.701875 moveto
/three glyphshow


grestore
gsave
403.200000 87.800000 translate
0.000000 rotate
/BitstreamVeraSans-Roman findfont
12.0 scalefont
setfont
0.000000 0.875000 moveto
/space glyphshow

3.814453 0.875000 moveto
/s glyphshow

10.066406 0.875000 moveto
/t glyphshow

14.771484 0.875000 moveto
/period glyphshow

18.585938 0.875000 moveto
/space glyphshow

22.400391 0.875000 moveto
/d glyphshow

30.017578 0.875000 moveto
/e glyphshow

37.400391 0.875000 moveto
/v glyphshow

44.501953 0.875000 moveto
/colon glyphshow

48.544922 0.875000 moveto
/space glyphshow

/Cmmi10 findfont
12.0 scalefont
setfont
52.359375 0.875000 moveto
/sigma glyphshow

/Cmmi10 findfont
8.4 scalefont
setfont
59.208984 -2.186125 moveto
/d glyphshow

/Cmr10 findfont
12.0 scalefont
setfont
67.556250 0.875000 moveto
/equal glyphshow

77.632031 0.875000 moveto
/zero glyphshow

/Cmmi10 findfont
12.0 scalefont
setfont
83.632031 0.875000 moveto
/period glyphshow

/Cmr10 findfont
12.0 scalefont
setfont
87.051563 0.875000 moveto
/zero glyphshow

93.051563 0.875000 moveto
/one glyphshow

99.051563 0.875000 moveto
/six glyphshow


grestore

end
showpage
