%!PS-Adobe-3.0 EPSF-3.0
%%Title: figures/gradient_500.eps
%%Creator: matplotlib version 2.0.0, http://matplotlib.org/
%%CreationDate: Tue Feb 28 10:49:08 2017
%%Orientation: portrait
%%BoundingBox: 75 223 536 568
%%EndComments
%%BeginProlog
/mpldict 8 dict def
mpldict begin
/m { moveto } bind def
/l { lineto } bind def
/r { rlineto } bind def
/c { curveto } bind def
/cl { closepath } bind def
/box {
m
1 index 0 r
0 exch r
neg 0 r
cl
} bind def
/clipbox {
box
clip
newpath
} bind def
%!PS-Adobe-3.0 Resource-Font
%%Title: DejaVu Sans
%%Copyright: Copyright (c) 2003 by Bitstream, Inc. All Rights Reserved. Copyright (c) 2006 by Tavmjong Bah. All Rights Reserved. DejaVu changes are in public domain 
%%Creator: Converted from TrueType to type 3 by PPR
25 dict begin
/_d{bind def}bind def
/_m{moveto}_d
/_l{lineto}_d
/_cl{closepath eofill}_d
/_c{curveto}_d
/_sc{7 -1 roll{setcachedevice}{pop pop pop pop pop pop}ifelse}_d
/_e{exec}_d
/FontName /DejaVuSans def
/PaintType 0 def
/FontMatrix[.001 0 0 .001 0 0]def
/FontBBox[-1021 -463 1793 1232]def
/FontType 3 def
/Encoding [ /space /zero /one /two /three /four /five /E /P /S /bracketleft /bracketright /a /c /d /e /g /h /i /l /m /n /o /p /r /s /t /u /w /x /y /z /minus ] def
/FontInfo 10 dict dup begin
/FamilyName (DejaVu Sans) def
/FullName (DejaVu Sans) def
/Notice (Copyright (c) 2003 by Bitstream, Inc. All Rights Reserved. Copyright (c) 2006 by Tavmjong Bah. All Rights Reserved. DejaVu changes are in public domain ) def
/Weight (Book) def
/Version (Version 2.35) def
/ItalicAngle 0.0 def
/isFixedPitch false def
/UnderlinePosition -130 def
/UnderlineThickness 90 def
end readonly def
/CharStrings 33 dict dup begin
/space{318 0 0 0 0 0 _sc
}_d
/zero{636 0 66 -13 570 742 _sc
318 664 _m
267 664 229 639 203 589 _c
177 539 165 464 165 364 _c
165 264 177 189 203 139 _c
229 89 267 64 318 64 _c
369 64 407 89 433 139 _c
458 189 471 264 471 364 _c
471 464 458 539 433 589 _c
407 639 369 664 318 664 _c
318 742 _m
399 742 461 709 505 645 _c
548 580 570 486 570 364 _c
570 241 548 147 505 83 _c
461 19 399 -13 318 -13 _c
236 -13 173 19 130 83 _c
87 147 66 241 66 364 _c
66 486 87 580 130 645 _c
173 709 236 742 318 742 _c
_cl}_d
/one{636 0 110 0 544 729 _sc
124 83 _m
285 83 _l
285 639 _l
110 604 _l
110 694 _l
284 729 _l
383 729 _l
383 83 _l
544 83 _l
544 0 _l
124 0 _l
124 83 _l
_cl}_d
/two{{636 0 73 0 536 742 _sc
192 83 _m
536 83 _l
536 0 _l
73 0 _l
73 83 _l
110 121 161 173 226 239 _c
290 304 331 346 348 365 _c
380 400 402 430 414 455 _c
426 479 433 504 433 528 _c
433 566 419 598 392 622 _c
365 646 330 659 286 659 _c
255 659 222 653 188 643 _c
154 632 117 616 78 594 _c
78 694 _l
118 710 155 722 189 730 _c
223 738 255 742 284 742 _c
}_e{359 742 419 723 464 685 _c
509 647 532 597 532 534 _c
532 504 526 475 515 449 _c
504 422 484 390 454 354 _c
446 344 420 317 376 272 _c
332 227 271 164 192 83 _c
_cl}_e}_d
/three{{636 0 76 -13 556 742 _sc
406 393 _m
453 383 490 362 516 330 _c
542 298 556 258 556 212 _c
556 140 531 84 482 45 _c
432 6 362 -13 271 -13 _c
240 -13 208 -10 176 -4 _c
144 1 110 10 76 22 _c
76 117 _l
103 101 133 89 166 81 _c
198 73 232 69 268 69 _c
330 69 377 81 409 105 _c
441 129 458 165 458 212 _c
458 254 443 288 413 312 _c
383 336 341 349 287 349 _c
}_e{202 349 _l
202 430 _l
291 430 _l
339 430 376 439 402 459 _c
428 478 441 506 441 543 _c
441 580 427 609 401 629 _c
374 649 336 659 287 659 _c
260 659 231 656 200 650 _c
169 644 135 635 98 623 _c
98 711 _l
135 721 170 729 203 734 _c
235 739 266 742 296 742 _c
370 742 429 725 473 691 _c
517 657 539 611 539 553 _c
539 513 527 479 504 451 _c
481 423 448 403 406 393 _c
_cl}_e}_d
/four{636 0 49 0 580 729 _sc
378 643 _m
129 254 _l
378 254 _l
378 643 _l
352 729 _m
476 729 _l
476 254 _l
580 254 _l
580 172 _l
476 172 _l
476 0 _l
378 0 _l
378 172 _l
49 172 _l
49 267 _l
352 729 _l
_cl}_d
/five{{636 0 77 -13 549 729 _sc
108 729 _m
495 729 _l
495 646 _l
198 646 _l
198 467 _l
212 472 227 476 241 478 _c
255 480 270 482 284 482 _c
365 482 429 459 477 415 _c
525 370 549 310 549 234 _c
549 155 524 94 475 51 _c
426 8 357 -13 269 -13 _c
238 -13 207 -10 175 -6 _c
143 -1 111 6 77 17 _c
77 116 _l
106 100 136 88 168 80 _c
199 72 232 69 267 69 _c
}_e{323 69 368 83 401 113 _c
433 143 450 183 450 234 _c
450 284 433 324 401 354 _c
368 384 323 399 267 399 _c
241 399 214 396 188 390 _c
162 384 135 375 108 363 _c
108 729 _l
_cl}_e}_d
/E{632 0 98 0 568 729 _sc
98 729 _m
559 729 _l
559 646 _l
197 646 _l
197 430 _l
544 430 _l
544 347 _l
197 347 _l
197 83 _l
568 83 _l
568 0 _l
98 0 _l
98 729 _l
_cl}_d
/P{603 0 98 0 569 729 _sc
197 648 _m
197 374 _l
321 374 _l
367 374 402 385 427 409 _c
452 433 465 467 465 511 _c
465 555 452 588 427 612 _c
402 636 367 648 321 648 _c
197 648 _l
98 729 _m
321 729 _l
402 729 464 710 506 673 _c
548 636 569 582 569 511 _c
569 439 548 384 506 348 _c
464 311 402 293 321 293 _c
197 293 _l
197 0 _l
98 0 _l
98 729 _l
_cl}_d
/S{{635 0 66 -13 579 742 _sc
535 705 _m
535 609 _l
497 627 462 640 429 649 _c
395 657 363 662 333 662 _c
279 662 237 651 208 631 _c
179 610 165 580 165 542 _c
165 510 174 485 194 469 _c
213 452 250 439 304 429 _c
364 417 _l
437 403 491 378 526 343 _c
561 307 579 260 579 201 _c
579 130 555 77 508 41 _c
460 5 391 -13 300 -13 _c
265 -13 228 -9 189 -2 _c
}_e{150 5 110 16 69 32 _c
69 134 _l
109 111 148 94 186 83 _c
224 71 262 66 300 66 _c
356 66 399 77 430 99 _c
460 121 476 152 476 194 _c
476 230 465 258 443 278 _c
421 298 385 313 335 323 _c
275 335 _l
201 349 148 372 115 404 _c
82 435 66 478 66 534 _c
66 598 88 649 134 686 _c
179 723 242 742 322 742 _c
356 742 390 739 426 733 _c
461 727 497 717 535 705 _c
}_e{_cl}_e}_d
/bracketleft{390 0 86 -131 293 760 _sc
86 760 _m
293 760 _l
293 690 _l
176 690 _l
176 -61 _l
293 -61 _l
293 -131 _l
86 -131 _l
86 760 _l
_cl}_d
/bracketright{390 0 97 -131 304 760 _sc
304 760 _m
304 -131 _l
97 -131 _l
97 -61 _l
214 -61 _l
214 690 _l
97 690 _l
97 760 _l
304 760 _l
_cl}_d
/a{{613 0 60 -13 522 560 _sc
343 275 _m
270 275 220 266 192 250 _c
164 233 150 205 150 165 _c
150 133 160 107 181 89 _c
202 70 231 61 267 61 _c
317 61 357 78 387 114 _c
417 149 432 196 432 255 _c
432 275 _l
343 275 _l
522 312 _m
522 0 _l
432 0 _l
432 83 _l
411 49 385 25 355 10 _c
325 -5 287 -13 243 -13 _c
187 -13 142 2 109 33 _c
76 64 60 106 60 159 _c
}_e{60 220 80 266 122 298 _c
163 329 224 345 306 345 _c
432 345 _l
432 354 _l
432 395 418 427 391 450 _c
364 472 326 484 277 484 _c
245 484 215 480 185 472 _c
155 464 127 453 100 439 _c
100 522 _l
132 534 164 544 195 550 _c
226 556 256 560 286 560 _c
365 560 424 539 463 498 _c
502 457 522 395 522 312 _c
_cl}_e}_d
/c{{550 0 55 -13 488 560 _sc
488 526 _m
488 442 _l
462 456 437 466 411 473 _c
385 480 360 484 334 484 _c
276 484 230 465 198 428 _c
166 391 150 339 150 273 _c
150 206 166 154 198 117 _c
230 80 276 62 334 62 _c
360 62 385 65 411 72 _c
437 79 462 90 488 104 _c
488 21 _l
462 9 436 0 410 -5 _c
383 -10 354 -13 324 -13 _c
242 -13 176 12 128 64 _c
}_e{79 115 55 185 55 273 _c
55 362 79 432 128 483 _c
177 534 244 560 330 560 _c
358 560 385 557 411 551 _c
437 545 463 537 488 526 _c
_cl}_e}_d
/d{{635 0 55 -13 544 760 _sc
454 464 _m
454 760 _l
544 760 _l
544 0 _l
454 0 _l
454 82 _l
435 49 411 25 382 10 _c
353 -5 319 -13 279 -13 _c
213 -13 159 13 117 65 _c
75 117 55 187 55 273 _c
55 359 75 428 117 481 _c
159 533 213 560 279 560 _c
319 560 353 552 382 536 _c
411 520 435 496 454 464 _c
148 273 _m
148 207 161 155 188 117 _c
215 79 253 61 301 61 _c
}_e{348 61 385 79 413 117 _c
440 155 454 207 454 273 _c
454 339 440 390 413 428 _c
385 466 348 485 301 485 _c
253 485 215 466 188 428 _c
161 390 148 339 148 273 _c
_cl}_e}_d
/e{{615 0 55 -13 562 560 _sc
562 296 _m
562 252 _l
149 252 _l
153 190 171 142 205 110 _c
238 78 284 62 344 62 _c
378 62 412 66 444 74 _c
476 82 509 95 541 113 _c
541 28 _l
509 14 476 3 442 -3 _c
408 -9 373 -13 339 -13 _c
251 -13 182 12 131 62 _c
80 112 55 181 55 268 _c
55 357 79 428 127 481 _c
175 533 241 560 323 560 _c
397 560 455 536 498 489 _c
}_e{540 441 562 377 562 296 _c
472 322 _m
471 371 457 410 431 440 _c
404 469 368 484 324 484 _c
274 484 234 469 204 441 _c
174 413 156 373 152 322 _c
472 322 _l
_cl}_e}_d
/g{{635 0 55 -207 544 560 _sc
454 280 _m
454 344 440 395 414 431 _c
387 467 349 485 301 485 _c
253 485 215 467 188 431 _c
161 395 148 344 148 280 _c
148 215 161 165 188 129 _c
215 93 253 75 301 75 _c
349 75 387 93 414 129 _c
440 165 454 215 454 280 _c
544 68 _m
544 -24 523 -93 482 -139 _c
440 -184 377 -207 292 -207 _c
260 -207 231 -204 203 -200 _c
175 -195 147 -188 121 -178 _c
}_e{121 -91 _l
147 -105 173 -115 199 -122 _c
225 -129 251 -133 278 -133 _c
336 -133 380 -117 410 -87 _c
439 -56 454 -10 454 52 _c
454 96 _l
435 64 411 40 382 24 _c
353 8 319 0 279 0 _c
211 0 157 25 116 76 _c
75 127 55 195 55 280 _c
55 364 75 432 116 483 _c
157 534 211 560 279 560 _c
319 560 353 552 382 536 _c
411 520 435 496 454 464 _c
454 547 _l
544 547 _l
}_e{544 68 _l
_cl}_e}_d
/h{634 0 91 0 549 760 _sc
549 330 _m
549 0 _l
459 0 _l
459 327 _l
459 379 448 417 428 443 _c
408 469 378 482 338 482 _c
289 482 251 466 223 435 _c
195 404 181 362 181 309 _c
181 0 _l
91 0 _l
91 760 _l
181 760 _l
181 462 _l
202 494 227 519 257 535 _c
286 551 320 560 358 560 _c
420 560 468 540 500 501 _c
532 462 549 405 549 330 _c
_cl}_d
/i{278 0 94 0 184 760 _sc
94 547 _m
184 547 _l
184 0 _l
94 0 _l
94 547 _l
94 760 _m
184 760 _l
184 646 _l
94 646 _l
94 760 _l
_cl}_d
/l{278 0 94 0 184 760 _sc
94 760 _m
184 760 _l
184 0 _l
94 0 _l
94 760 _l
_cl}_d
/m{{974 0 91 0 889 560 _sc
520 442 _m
542 482 569 511 600 531 _c
631 550 668 560 711 560 _c
767 560 811 540 842 500 _c
873 460 889 403 889 330 _c
889 0 _l
799 0 _l
799 327 _l
799 379 789 418 771 444 _c
752 469 724 482 686 482 _c
639 482 602 466 575 435 _c
548 404 535 362 535 309 _c
535 0 _l
445 0 _l
445 327 _l
445 379 435 418 417 444 _c
398 469 369 482 331 482 _c
}_e{285 482 248 466 221 435 _c
194 404 181 362 181 309 _c
181 0 _l
91 0 _l
91 547 _l
181 547 _l
181 462 _l
201 495 226 520 255 536 _c
283 552 317 560 357 560 _c
397 560 430 550 458 530 _c
486 510 506 480 520 442 _c
_cl}_e}_d
/n{634 0 91 0 549 560 _sc
549 330 _m
549 0 _l
459 0 _l
459 327 _l
459 379 448 417 428 443 _c
408 469 378 482 338 482 _c
289 482 251 466 223 435 _c
195 404 181 362 181 309 _c
181 0 _l
91 0 _l
91 547 _l
181 547 _l
181 462 _l
202 494 227 519 257 535 _c
286 551 320 560 358 560 _c
420 560 468 540 500 501 _c
532 462 549 405 549 330 _c
_cl}_d
/o{612 0 55 -13 557 560 _sc
306 484 _m
258 484 220 465 192 427 _c
164 389 150 338 150 273 _c
150 207 163 156 191 118 _c
219 80 257 62 306 62 _c
354 62 392 80 420 118 _c
448 156 462 207 462 273 _c
462 337 448 389 420 427 _c
392 465 354 484 306 484 _c
306 560 _m
384 560 445 534 490 484 _c
534 433 557 363 557 273 _c
557 183 534 113 490 63 _c
445 12 384 -13 306 -13 _c
227 -13 165 12 121 63 _c
77 113 55 183 55 273 _c
55 363 77 433 121 484 _c
165 534 227 560 306 560 _c
_cl}_d
/p{{635 0 91 -207 580 560 _sc
181 82 _m
181 -207 _l
91 -207 _l
91 547 _l
181 547 _l
181 464 _l
199 496 223 520 252 536 _c
281 552 316 560 356 560 _c
422 560 476 533 518 481 _c
559 428 580 359 580 273 _c
580 187 559 117 518 65 _c
476 13 422 -13 356 -13 _c
316 -13 281 -5 252 10 _c
223 25 199 49 181 82 _c
487 273 _m
487 339 473 390 446 428 _c
418 466 381 485 334 485 _c
}_e{286 485 249 466 222 428 _c
194 390 181 339 181 273 _c
181 207 194 155 222 117 _c
249 79 286 61 334 61 _c
381 61 418 79 446 117 _c
473 155 487 207 487 273 _c
_cl}_e}_d
/r{411 0 91 0 411 560 _sc
411 463 _m
401 469 390 473 378 476 _c
366 478 353 480 339 480 _c
288 480 249 463 222 430 _c
194 397 181 350 181 288 _c
181 0 _l
91 0 _l
91 547 _l
181 547 _l
181 462 _l
199 495 224 520 254 536 _c
284 552 321 560 365 560 _c
371 560 378 559 386 559 _c
393 558 401 557 411 555 _c
411 463 _l
_cl}_d
/s{{521 0 54 -13 472 560 _sc
443 531 _m
443 446 _l
417 458 391 468 364 475 _c
336 481 308 485 279 485 _c
234 485 200 478 178 464 _c
156 450 145 430 145 403 _c
145 382 153 366 169 354 _c
185 342 217 330 265 320 _c
296 313 _l
360 299 405 279 432 255 _c
458 230 472 195 472 151 _c
472 100 452 60 412 31 _c
372 1 316 -13 246 -13 _c
216 -13 186 -10 154 -5 _c
}_e{122 0 89 8 54 20 _c
54 113 _l
87 95 120 82 152 74 _c
184 65 216 61 248 61 _c
290 61 323 68 346 82 _c
368 96 380 117 380 144 _c
380 168 371 187 355 200 _c
339 213 303 226 247 238 _c
216 245 _l
160 257 119 275 95 299 _c
70 323 58 356 58 399 _c
58 450 76 490 112 518 _c
148 546 200 560 268 560 _c
301 560 332 557 362 552 _c
391 547 418 540 443 531 _c
}_e{_cl}_e}_d
/t{392 0 27 0 368 702 _sc
183 702 _m
183 547 _l
368 547 _l
368 477 _l
183 477 _l
183 180 _l
183 135 189 106 201 94 _c
213 81 238 75 276 75 _c
368 75 _l
368 0 _l
276 0 _l
206 0 158 13 132 39 _c
106 65 93 112 93 180 _c
93 477 _l
27 477 _l
27 547 _l
93 547 _l
93 702 _l
183 702 _l
_cl}_d
/u{634 0 85 -13 543 560 _sc
85 216 _m
85 547 _l
175 547 _l
175 219 _l
175 167 185 129 205 103 _c
225 77 255 64 296 64 _c
344 64 383 79 411 110 _c
439 141 453 183 453 237 _c
453 547 _l
543 547 _l
543 0 _l
453 0 _l
453 84 _l
431 50 405 26 377 10 _c
348 -5 315 -13 277 -13 _c
214 -13 166 6 134 45 _c
101 83 85 140 85 216 _c
311 560 _m
311 560 _l
_cl}_d
/w{818 0 42 0 776 547 _sc
42 547 _m
132 547 _l
244 120 _l
356 547 _l
462 547 _l
574 120 _l
686 547 _l
776 547 _l
633 0 _l
527 0 _l
409 448 _l
291 0 _l
185 0 _l
42 547 _l
_cl}_d
/x{592 0 29 0 559 547 _sc
549 547 _m
351 281 _l
559 0 _l
453 0 _l
294 215 _l
135 0 _l
29 0 _l
241 286 _l
47 547 _l
153 547 _l
298 352 _l
443 547 _l
549 547 _l
_cl}_d
/y{592 0 30 -207 562 547 _sc
322 -50 _m
296 -114 271 -157 247 -177 _c
223 -197 191 -207 151 -207 _c
79 -207 _l
79 -132 _l
132 -132 _l
156 -132 175 -126 189 -114 _c
203 -102 218 -75 235 -31 _c
251 9 _l
30 547 _l
125 547 _l
296 119 _l
467 547 _l
562 547 _l
322 -50 _l
_cl}_d
/z{525 0 43 0 482 547 _sc
55 547 _m
482 547 _l
482 465 _l
144 72 _l
482 72 _l
482 0 _l
43 0 _l
43 82 _l
381 475 _l
55 475 _l
55 547 _l
_cl}_d
/minus{838 0 106 272 732 355 _sc
106 355 _m
732 355 _l
732 272 _l
106 272 _l
106 355 _l
_cl}_d
end readonly def

/BuildGlyph
 {exch begin
 CharStrings exch
 2 copy known not{pop /.notdef}if
 true 3 1 roll get exec
 end}_d

/BuildChar {
 1 index /Encoding get exch get
 1 index /BuildGlyph get exec
}_d

FontName currentdict end definefont pop
end
%%EndProlog
mpldict begin
75.6 223.2 translate
460.8 345.6 0 0 clipbox
gsave
0 0 m
460.8 0 l
460.8 345.6 l
0 345.6 l
cl
1.000 setgray
fill
grestore
gsave
57.6 183.168 m
414.72 183.168 l
414.72 304.128 l
57.6 304.128 l
cl
1.000 setgray
fill
grestore
0.800 setlinewidth
1 setlinejoin
2 setlinecap
[] 0 setdash
0.690 setgray
gsave
357.1 121 57.6 183.2 clipbox
73.832727 183.168 m
73.832727 304.128 l
stroke
grestore
0 setlinecap
0.000 setgray
gsave
/o {
gsave
newpath
translate
0.8 setlinewidth
1 setlinejoin
0 setlinecap
0 0 m
0 -3.5 l

gsave
0.000 setgray
fill
grestore
stroke
grestore
} bind def
73.8327 183.168 o
grestore
/DejaVuSans findfont
10.000 scalefont
setfont
gsave
70.653040 168.574250 translate
0.000000 rotate
0.000000 0.000000 m /zero glyphshow
grestore
2 setlinecap
0.690 setgray
gsave
357.1 121 57.6 183.2 clipbox
138.893758 183.168 m
138.893758 304.128 l
stroke
grestore
0 setlinecap
0.000 setgray
gsave
/o {
gsave
newpath
translate
0.8 setlinewidth
1 setlinejoin
0 setlinecap
0 0 m
0 -3.5 l

gsave
0.000 setgray
fill
grestore
stroke
grestore
} bind def
138.894 183.168 o
grestore
gsave
129.354696 168.574250 translate
0.000000 rotate
0.000000 0.000000 m /one glyphshow
6.362305 0.000000 m /zero glyphshow
12.724609 0.000000 m /zero glyphshow
grestore
2 setlinecap
0.690 setgray
gsave
357.1 121 57.6 183.2 clipbox
203.95479 183.168 m
203.95479 304.128 l
stroke
grestore
0 setlinecap
0.000 setgray
gsave
/o {
gsave
newpath
translate
0.8 setlinewidth
1 setlinejoin
0 setlinecap
0 0 m
0 -3.5 l

gsave
0.000 setgray
fill
grestore
stroke
grestore
} bind def
203.955 183.168 o
grestore
gsave
194.415727 168.574250 translate
0.000000 rotate
0.000000 0.000000 m /two glyphshow
6.362305 0.000000 m /zero glyphshow
12.724609 0.000000 m /zero glyphshow
grestore
2 setlinecap
0.690 setgray
gsave
357.1 121 57.6 183.2 clipbox
269.015821 183.168 m
269.015821 304.128 l
stroke
grestore
0 setlinecap
0.000 setgray
gsave
/o {
gsave
newpath
translate
0.8 setlinewidth
1 setlinejoin
0 setlinecap
0 0 m
0 -3.5 l

gsave
0.000 setgray
fill
grestore
stroke
grestore
} bind def
269.016 183.168 o
grestore
gsave
259.476758 168.574250 translate
0.000000 rotate
0.000000 0.000000 m /three glyphshow
6.362305 0.000000 m /zero glyphshow
12.724609 0.000000 m /zero glyphshow
grestore
2 setlinecap
0.690 setgray
gsave
357.1 121 57.6 183.2 clipbox
334.076852 183.168 m
334.076852 304.128 l
stroke
grestore
0 setlinecap
0.000 setgray
gsave
/o {
gsave
newpath
translate
0.8 setlinewidth
1 setlinejoin
0 setlinecap
0 0 m
0 -3.5 l

gsave
0.000 setgray
fill
grestore
stroke
grestore
} bind def
334.077 183.168 o
grestore
gsave
324.537789 168.574250 translate
0.000000 rotate
0.000000 0.000000 m /four glyphshow
6.362305 0.000000 m /zero glyphshow
12.724609 0.000000 m /zero glyphshow
grestore
2 setlinecap
0.690 setgray
gsave
357.1 121 57.6 183.2 clipbox
399.137883 183.168 m
399.137883 304.128 l
stroke
grestore
0 setlinecap
0.000 setgray
gsave
/o {
gsave
newpath
translate
0.8 setlinewidth
1 setlinejoin
0 setlinecap
0 0 m
0 -3.5 l

gsave
0.000 setgray
fill
grestore
stroke
grestore
} bind def
399.138 183.168 o
grestore
gsave
389.598821 168.574250 translate
0.000000 rotate
0.000000 0.000000 m /five glyphshow
6.362305 0.000000 m /zero glyphshow
12.724609 0.000000 m /zero glyphshow
grestore
gsave
217.410000 154.902375 translate
0.000000 rotate
0.000000 0.000000 m /S glyphshow
6.347656 0.000000 m /a glyphshow
12.475586 0.000000 m /m glyphshow
22.216797 0.000000 m /p glyphshow
28.564453 0.000000 m /l glyphshow
31.342773 0.000000 m /e glyphshow
grestore
2 setlinecap
0.690 setgray
gsave
357.1 121 57.6 183.2 clipbox
57.6 208.495605 m
414.72 208.495605 l
stroke
grestore
0 setlinecap
0.000 setgray
gsave
/o {
gsave
newpath
translate
0.8 setlinewidth
1 setlinejoin
0 setlinecap
0 0 m
-3.5 0 l

gsave
0.000 setgray
fill
grestore
stroke
grestore
} bind def
57.6 208.496 o
grestore
gsave
35.865625 204.698730 translate
0.000000 rotate
0.000000 0.000000 m /minus glyphshow
8.378906 0.000000 m /five glyphshow
grestore
2 setlinecap
0.690 setgray
gsave
357.1 121 57.6 183.2 clipbox
57.6 237.412184 m
414.72 237.412184 l
stroke
grestore
0 setlinecap
0.000 setgray
gsave
/o {
gsave
newpath
translate
0.8 setlinewidth
1 setlinejoin
0 setlinecap
0 0 m
-3.5 0 l

gsave
0.000 setgray
fill
grestore
stroke
grestore
} bind def
57.6 237.412 o
grestore
gsave
44.240625 233.615309 translate
0.000000 rotate
0.000000 0.000000 m /zero glyphshow
grestore
2 setlinecap
0.690 setgray
gsave
357.1 121 57.6 183.2 clipbox
57.6 266.328763 m
414.72 266.328763 l
stroke
grestore
0 setlinecap
0.000 setgray
gsave
/o {
gsave
newpath
translate
0.8 setlinewidth
1 setlinejoin
0 setlinecap
0 0 m
-3.5 0 l

gsave
0.000 setgray
fill
grestore
stroke
grestore
} bind def
57.6 266.329 o
grestore
gsave
44.240625 262.531888 translate
0.000000 rotate
0.000000 0.000000 m /five glyphshow
grestore
2 setlinecap
0.690 setgray
gsave
357.1 121 57.6 183.2 clipbox
57.6 295.245342 m
414.72 295.245342 l
stroke
grestore
0 setlinecap
0.000 setgray
gsave
/o {
gsave
newpath
translate
0.8 setlinewidth
1 setlinejoin
0 setlinecap
0 0 m
-3.5 0 l

gsave
0.000 setgray
fill
grestore
stroke
grestore
} bind def
57.6 295.245 o
grestore
gsave
37.881250 291.448467 translate
0.000000 rotate
0.000000 0.000000 m /one glyphshow
6.362305 0.000000 m /zero glyphshow
grestore
gsave
29.787500 213.608937 translate
90.000000 rotate
0.000000 0.000000 m /P glyphshow
6.030273 0.000000 m /o glyphshow
12.148438 0.000000 m /s glyphshow
17.358398 0.000000 m /i glyphshow
20.136719 0.000000 m /t glyphshow
24.057617 0.000000 m /i glyphshow
26.835938 0.000000 m /o glyphshow
32.954102 0.000000 m /n glyphshow
39.291992 0.000000 m /space glyphshow
42.470703 0.000000 m /bracketleft glyphshow
46.372070 0.000000 m /m glyphshow
56.113281 0.000000 m /bracketright glyphshow
grestore
1.000 setlinewidth
0.122 0.467 0.706 setrgbcolor
gsave
357.1 121 57.6 183.2 clipbox
/o {
gsave
newpath
translate
1.0 setlinewidth
1 setlinejoin
0 setlinecap
0 -1.5 m
0.397805 -1.5 0.77937 -1.341951 1.06066 -1.06066 c
1.341951 -0.77937 1.5 -0.397805 1.5 0 c
1.5 0.397805 1.341951 0.77937 1.06066 1.06066 c
0.77937 1.341951 0.397805 1.5 0 1.5 c
-0.397805 1.5 -0.77937 1.341951 -1.06066 1.06066 c
-1.341951 0.77937 -1.5 0.397805 -1.5 0 c
-1.5 -0.397805 -1.341951 -0.77937 -1.06066 -1.06066 c
-0.77937 -1.341951 -0.397805 -1.5 0 -1.5 c
cl

gsave
0.122 0.467 0.706 setrgbcolor
fill
grestore
stroke
grestore
} bind def
73.8327 240.45 o
74.4833 240.556 o
75.1339 240.531 o
75.7846 240.622 o
76.4352 240.884 o
77.0858 240.939 o
77.7364 241.009 o
78.387 241 o
79.0376 241.246 o
79.6882 241.366 o
80.3388 241.502 o
80.9894 241.429 o
81.6401 241.788 o
82.2907 241.702 o
82.9413 241.92 o
83.5919 241.893 o
84.2425 242.089 o
84.8931 242.116 o
85.5437 242.238 o
86.1943 242.306 o
86.8449 242.471 o
87.4955 242.448 o
88.1462 242.693 o
88.7968 242.75 o
89.4474 242.834 o
90.098 242.909 o
90.7486 242.996 o
91.3992 243.167 o
92.0498 243.111 o
92.7004 243.279 o
93.351 243.369 o
94.0016 243.404 o
94.6523 243.479 o
95.3029 243.491 o
95.9535 243.659 o
96.6041 243.808 o
97.2547 243.758 o
97.9053 243.872 o
98.5559 243.808 o
99.2065 243.87 o
99.8571 243.94 o
100.508 244.084 o
101.158 244.071 o
101.809 244.08 o
102.46 244.125 o
103.11 244.273 o
103.761 244.407 o
104.411 244.344 o
105.062 244.308 o
105.713 244.363 o
106.363 244.44 o
107.014 244.45 o
107.664 244.64 o
108.315 244.586 o
108.966 244.375 o
109.616 244.703 o
110.267 244.543 o
110.918 244.504 o
111.568 244.588 o
112.219 244.765 o
112.869 244.592 o
113.52 244.514 o
114.171 244.839 o
114.821 244.639 o
115.472 244.614 o
116.122 244.341 o
116.773 244.443 o
117.424 244.378 o
118.074 244.579 o
118.725 244.706 o
119.375 244.159 o
120.026 244.139 o
120.677 244.418 o
121.327 244.176 o
121.978 244.403 o
122.629 244.352 o
123.279 244.217 o
123.93 244.288 o
124.58 244.196 o
125.231 243.824 o
125.882 243.902 o
126.532 243.684 o
127.183 243.625 o
127.833 243.862 o
128.484 243.621 o
129.135 243.476 o
129.785 243.713 o
130.436 243.417 o
131.086 243.313 o
131.737 243.15 o
132.388 242.908 o
133.038 242.952 o
133.689 242.974 o
134.339 242.778 o
134.99 242.416 o
135.641 242.524 o
136.291 242.137 o
136.942 242.16 o
137.593 242.259 o
138.243 241.965 o
138.894 241.944 o
139.544 241.447 o
140.195 241.716 o
140.846 241.454 o
141.496 241.149 o
142.147 240.955 o
142.797 240.919 o
143.448 240.76 o
144.099 240.668 o
144.749 240.311 o
145.4 240.286 o
146.05 239.913 o
146.701 239.886 o
147.352 239.896 o
148.002 239.836 o
148.653 239.278 o
149.304 239.075 o
149.954 238.873 o
150.605 238.922 o
151.255 238.943 o
151.906 238.207 o
152.557 238.063 o
153.207 238.692 o
153.858 237.918 o
154.508 237.398 o
155.159 237.543 o
155.81 236.845 o
156.46 236.731 o
157.111 236.849 o
157.761 236.534 o
158.412 235.9 o
159.063 235.833 o
159.713 235.491 o
160.364 235.434 o
161.015 235.405 o
161.665 235.025 o
162.316 235.398 o
162.966 234.195 o
163.617 233.958 o
164.268 233.882 o
164.918 233.903 o
165.569 233.455 o
166.219 233.128 o
166.87 232.967 o
167.521 232.227 o
168.171 232.466 o
168.822 232.012 o
169.472 231.942 o
170.123 231.717 o
170.774 231.28 o
171.424 231.132 o
172.075 231.043 o
172.725 230.738 o
173.376 229.795 o
174.027 229.761 o
174.677 229.413 o
175.328 229.203 o
175.979 229.237 o
176.629 229.042 o
177.28 228.321 o
177.93 228.073 o
178.581 228.181 o
179.232 227.938 o
179.882 227.923 o
180.533 227.174 o
181.183 226.9 o
181.834 226.498 o
182.485 225.608 o
183.135 226.166 o
183.786 225.236 o
184.436 225.536 o
185.087 224.866 o
185.738 224.44 o
186.388 224.091 o
187.039 224.131 o
187.69 223.744 o
188.34 223.401 o
188.991 223.531 o
189.641 222.981 o
190.292 222.833 o
190.943 222.122 o
191.593 222.368 o
192.244 222.307 o
192.894 221.346 o
193.545 220.717 o
194.196 220.77 o
194.846 220.612 o
195.497 220.144 o
196.147 219.896 o
196.798 219.79 o
197.449 219.467 o
198.099 218.891 o
198.75 218.639 o
199.401 218.514 o
200.051 217.733 o
200.702 217.212 o
201.352 217.131 o
202.003 217.272 o
202.654 216.605 o
203.304 216.571 o
203.955 216.369 o
204.605 216.002 o
205.256 216.128 o
205.907 215.029 o
206.557 215.502 o
207.208 215.223 o
207.858 214.23 o
208.509 214.061 o
209.16 213.886 o
209.81 214.025 o
210.461 213.284 o
211.112 213.166 o
211.762 213.251 o
212.413 212.475 o
213.063 212.803 o
213.714 212.552 o
214.365 211.988 o
215.015 211.698 o
215.666 211.473 o
216.316 210.939 o
216.967 210.987 o
217.618 210.546 o
218.268 210.41 o
218.919 210.082 o
219.569 210.81 o
220.22 210.055 o
220.871 209.273 o
221.521 209.234 o
222.172 209.57 o
222.822 209.15 o
223.473 208.118 o
224.124 207.622 o
224.774 207.937 o
225.425 208.6 o
226.076 207.391 o
226.726 207.637 o
227.377 208.305 o
228.027 207.608 o
228.678 207.62 o
229.329 206.832 o
229.979 207.088 o
230.63 207.056 o
231.28 206.229 o
231.931 206.951 o
232.582 206.645 o
233.232 206.035 o
233.883 206.066 o
234.533 206.036 o
235.184 206.063 o
235.835 205.317 o
236.485 205.589 o
237.136 205.451 o
237.787 205.112 o
238.437 204.851 o
239.088 205.459 o
239.738 204.938 o
240.389 204.684 o
241.04 204.631 o
241.69 204.694 o
242.341 204.798 o
242.991 204.36 o
243.642 204.132 o
244.293 204.081 o
244.943 205.318 o
245.594 204.141 o
246.244 204.556 o
246.895 204.429 o
247.546 204.775 o
248.196 204.737 o
248.847 204.647 o
249.498 203.978 o
250.148 204.725 o
250.799 204.778 o
251.449 204.27 o
252.1 204.134 o
252.751 204.437 o
253.401 204.198 o
254.052 204.648 o
254.702 204.61 o
255.353 205.366 o
256.004 203.902 o
256.654 204.894 o
257.305 204.172 o
257.955 204.311 o
258.606 205.946 o
259.257 205.332 o
259.907 204.574 o
260.558 204.364 o
261.208 204.589 o
261.859 204.779 o
262.51 205.65 o
263.16 205.037 o
263.811 205.567 o
264.462 205.329 o
265.112 206.077 o
265.763 206.437 o
266.413 206.143 o
267.064 206.276 o
267.715 207.31 o
268.365 206.438 o
269.016 207.385 o
269.666 207.915 o
270.317 208.093 o
270.968 207.38 o
271.618 207.675 o
272.269 207.721 o
272.919 208.116 o
273.57 208.718 o
274.221 209.265 o
274.871 209.603 o
275.522 209.307 o
276.173 209.619 o
276.823 211.223 o
277.474 210.099 o
278.124 209.743 o
278.775 210.559 o
279.426 210.615 o
280.076 211.402 o
280.727 211.374 o
281.377 212.155 o
282.028 211.3 o
282.679 212.714 o
283.329 214.138 o
283.98 213.454 o
284.63 214.701 o
285.281 214.942 o
285.932 214.819 o
286.582 213.863 o
287.233 214.882 o
287.884 216.249 o
288.534 215 o
289.185 215.776 o
289.835 217.543 o
290.486 215.62 o
291.137 217.183 o
291.787 218.19 o
292.438 216.916 o
293.088 218.154 o
293.739 216.971 o
294.39 218.994 o
295.04 219.436 o
295.691 220.646 o
296.341 221.265 o
296.992 221.122 o
297.643 222.116 o
298.293 221.347 o
298.944 222.523 o
299.595 224.12 o
300.245 223.446 o
300.896 224.517 o
301.546 223.998 o
302.197 225.498 o
302.848 224.922 o
303.498 224.848 o
304.149 226.859 o
304.799 226.566 o
305.45 226.953 o
306.101 227.512 o
306.751 227.877 o
307.402 229.186 o
308.052 229.668 o
308.703 229.485 o
309.354 230.834 o
310.004 231.287 o
310.655 231.08 o
311.305 231.702 o
311.956 231.798 o
312.607 233.342 o
313.257 233.454 o
313.908 234.352 o
314.559 234.901 o
315.209 236.93 o
315.86 236.3 o
316.51 236.522 o
317.161 237.027 o
317.812 237.123 o
318.462 239.451 o
319.113 238.8 o
319.763 240.419 o
320.414 241.123 o
321.065 240.521 o
321.715 241.147 o
322.366 242.137 o
323.016 242.93 o
323.667 242.521 o
324.318 244.519 o
324.968 245.046 o
325.619 244.187 o
326.27 245.642 o
326.92 246.499 o
327.571 245.728 o
328.221 247.03 o
328.872 247.733 o
329.523 249.616 o
330.173 248.021 o
330.824 249.665 o
331.474 250.733 o
332.125 251.243 o
332.776 252.386 o
333.426 252.067 o
334.077 252.177 o
334.727 253.564 o
335.378 254.822 o
336.029 254.303 o
336.679 255.837 o
337.33 255.641 o
337.981 257.015 o
338.631 258.02 o
339.282 257.661 o
339.932 259.2 o
340.583 259.832 o
341.234 259.467 o
341.884 260.012 o
342.535 260.915 o
343.185 261.432 o
343.836 261.695 o
344.487 263.044 o
345.137 263.399 o
345.788 263.933 o
346.438 265.515 o
347.089 265.828 o
347.74 265.757 o
348.39 266.158 o
349.041 267.23 o
349.691 268.333 o
350.342 268.358 o
350.993 268.852 o
351.643 269.622 o
352.294 270.764 o
352.945 270.647 o
353.595 271.832 o
354.246 272.309 o
354.896 271.766 o
355.547 274.133 o
356.198 274.776 o
356.848 274.981 o
357.499 274.882 o
358.149 274.028 o
358.8 275.726 o
359.451 275.603 o
360.101 277.489 o
360.752 277.57 o
361.402 278.299 o
362.053 279.534 o
362.704 279.82 o
363.354 279.7 o
364.005 280.844 o
364.656 281.13 o
365.306 281.225 o
365.957 281.34 o
366.607 282.916 o
367.258 282.345 o
367.909 282.711 o
368.559 283.543 o
369.21 284.127 o
369.86 284.686 o
370.511 285.426 o
371.162 284.465 o
371.812 285.789 o
372.463 286.893 o
373.113 286.74 o
373.764 287.401 o
374.415 286.941 o
375.065 287.948 o
375.716 288.374 o
376.367 289.537 o
377.017 289.672 o
377.668 289.838 o
378.318 290.255 o
378.969 291.508 o
379.62 290.599 o
380.27 291.192 o
380.921 291.328 o
381.571 291.88 o
382.222 291.427 o
382.873 293.477 o
383.523 292.949 o
384.174 292.979 o
384.824 293.293 o
385.475 293.638 o
386.126 293.762 o
386.776 294.63 o
387.427 294.747 o
388.078 295.154 o
388.728 295.219 o
389.379 295.67 o
390.029 296.257 o
390.68 296.355 o
391.331 296.449 o
391.981 295.915 o
392.632 297.013 o
393.282 296.545 o
393.933 297.159 o
394.584 297.069 o
395.234 297.935 o
395.885 298.41 o
396.535 297.96 o
397.186 298.177 o
397.837 298.016 o
398.487 298.63 o
grestore
1.000 0.498 0.055 setrgbcolor
gsave
357.1 121 57.6 183.2 clipbox
/o {
gsave
newpath
translate
1.0 setlinewidth
1 setlinejoin
0 setlinecap
0 -1.5 m
0.397805 -1.5 0.77937 -1.341951 1.06066 -1.06066 c
1.341951 -0.77937 1.5 -0.397805 1.5 0 c
1.5 0.397805 1.341951 0.77937 1.06066 1.06066 c
0.77937 1.341951 0.397805 1.5 0 1.5 c
-0.397805 1.5 -0.77937 1.341951 -1.06066 1.06066 c
-1.341951 0.77937 -1.5 0.397805 -1.5 0 c
-1.5 -0.397805 -1.341951 -0.77937 -1.06066 -1.06066 c
-0.77937 -1.341951 -0.397805 -1.5 0 -1.5 c
cl

gsave
1.000 0.498 0.055 setrgbcolor
fill
grestore
stroke
grestore
} bind def
73.8327 237.139 o
74.4833 237.627 o
75.1339 237.393 o
75.7846 237.613 o
76.4352 237.424 o
77.0858 237.686 o
77.7364 237.802 o
78.387 237.835 o
79.0376 237.828 o
79.6882 237.903 o
80.3388 237.845 o
80.9894 238.092 o
81.6401 237.997 o
82.2907 238.055 o
82.9413 238.158 o
83.5919 238.466 o
84.2425 238.344 o
84.8931 238.339 o
85.5437 238.499 o
86.1943 238.68 o
86.8449 238.553 o
87.4955 238.799 o
88.1462 238.933 o
88.7968 238.925 o
89.4474 239.214 o
90.098 239.201 o
90.7486 239.28 o
91.3992 239.457 o
92.0498 239.519 o
92.7004 239.747 o
93.351 239.728 o
94.0016 239.854 o
94.6523 239.832 o
95.3029 240.167 o
95.9535 240.283 o
96.6041 240.331 o
97.2547 240.512 o
97.9053 240.469 o
98.5559 240.826 o
99.2065 240.924 o
99.8571 241.22 o
100.508 241.133 o
101.158 241.372 o
101.809 241.476 o
102.46 241.69 o
103.11 241.767 o
103.761 241.93 o
104.411 242.037 o
105.062 242.142 o
105.713 242.473 o
106.363 242.507 o
107.014 242.604 o
107.664 242.793 o
108.315 242.965 o
108.966 243.121 o
109.616 243.271 o
110.267 243.526 o
110.918 243.542 o
111.568 243.889 o
112.219 244.087 o
112.869 244.131 o
113.52 244.394 o
114.171 244.381 o
114.821 244.819 o
115.472 244.885 o
116.122 244.925 o
116.773 245.321 o
117.424 245.484 o
118.074 245.45 o
118.725 245.628 o
119.375 246.098 o
120.026 246.169 o
120.677 246.319 o
121.327 246.476 o
121.978 246.625 o
122.629 246.77 o
123.279 246.855 o
123.93 247.123 o
124.58 247.226 o
125.231 247.664 o
125.882 247.777 o
126.532 247.932 o
127.183 248.13 o
127.833 248.067 o
128.484 248.397 o
129.135 248.664 o
129.785 248.693 o
130.436 249.006 o
131.086 248.963 o
131.737 249.31 o
132.388 249.377 o
133.038 249.684 o
133.689 249.81 o
134.339 250.231 o
134.99 250.143 o
135.641 250.357 o
136.291 250.447 o
136.942 250.891 o
137.593 250.824 o
138.243 251.158 o
138.894 251.164 o
139.544 251.446 o
140.195 251.444 o
140.846 251.595 o
141.496 251.985 o
142.147 252.035 o
142.797 252.219 o
143.448 252.111 o
144.099 252.449 o
144.749 252.589 o
145.4 252.831 o
146.05 252.91 o
146.701 252.947 o
147.352 253.289 o
148.002 253.27 o
148.653 253.269 o
149.304 253.601 o
149.954 253.649 o
150.605 254.026 o
151.255 254.161 o
151.906 254.383 o
152.557 254.433 o
153.207 254.368 o
153.858 254.662 o
154.508 254.671 o
155.159 254.786 o
155.81 255.108 o
156.46 254.877 o
157.111 254.992 o
157.761 255.374 o
158.412 255.459 o
159.063 255.392 o
159.713 255.631 o
160.364 255.817 o
161.015 255.527 o
161.665 255.925 o
162.316 255.908 o
162.966 256.098 o
163.617 256.055 o
164.268 255.952 o
164.918 256.076 o
165.569 256.314 o
166.219 256.319 o
166.87 256.353 o
167.521 256.439 o
168.171 256.772 o
168.822 256.625 o
169.472 256.792 o
170.123 256.493 o
170.774 256.49 o
171.424 256.794 o
172.075 256.633 o
172.725 256.474 o
173.376 256.605 o
174.027 256.975 o
174.677 257.082 o
175.328 256.597 o
175.979 256.994 o
176.629 256.731 o
177.28 256.859 o
177.93 256.583 o
178.581 256.597 o
179.232 256.792 o
179.882 257.008 o
180.533 256.713 o
181.183 256.91 o
181.834 256.648 o
182.485 256.501 o
183.135 256.459 o
183.786 256.718 o
184.436 256.671 o
185.087 256.347 o
185.738 256.221 o
186.388 256.236 o
187.039 255.836 o
187.69 256.03 o
188.34 256.094 o
188.991 255.733 o
189.641 255.788 o
190.292 256.045 o
190.943 255.307 o
191.593 255.541 o
192.244 255.534 o
192.894 255.222 o
193.545 255.388 o
194.196 255.176 o
194.846 255.245 o
195.497 254.771 o
196.147 254.756 o
196.798 254.72 o
197.449 254.079 o
198.099 254.011 o
198.75 254.023 o
199.401 254.335 o
200.051 253.549 o
200.702 252.983 o
201.352 253.064 o
202.003 253.484 o
202.654 253.473 o
203.304 252.9 o
203.955 252.477 o
204.605 252.024 o
205.256 252.077 o
205.907 252.198 o
206.557 252.135 o
207.208 252.055 o
207.858 251.321 o
208.509 251.211 o
209.16 250.746 o
209.81 250.323 o
210.461 250.842 o
211.112 250.086 o
211.762 250.232 o
212.413 249.804 o
213.063 250.289 o
213.714 249.501 o
214.365 248.57 o
215.015 248.773 o
215.666 248.426 o
216.316 248.131 o
216.967 247.756 o
217.618 247.627 o
218.268 247.036 o
218.919 246.388 o
219.569 247.061 o
220.22 246.312 o
220.871 246.276 o
221.521 245.52 o
222.172 245.146 o
222.822 244.647 o
223.473 243.977 o
224.124 243.599 o
224.774 243.554 o
225.425 243.106 o
226.076 243.053 o
226.726 242.703 o
227.377 243.097 o
228.027 242.244 o
228.678 242.026 o
229.329 241.317 o
229.979 241.327 o
230.63 240.731 o
231.28 240.501 o
231.931 240.607 o
232.582 240.624 o
233.232 239.213 o
233.883 238.314 o
234.533 237.567 o
235.184 238.485 o
235.835 237.833 o
236.485 236.191 o
237.136 236.827 o
237.787 236.251 o
238.437 236.096 o
239.088 234.801 o
239.738 235.731 o
240.389 234.866 o
241.04 233.91 o
241.69 234.626 o
242.341 234.025 o
242.991 233.329 o
243.642 232.276 o
244.293 232.348 o
244.943 232.427 o
245.594 231.931 o
246.244 230.239 o
246.895 229.538 o
247.546 229.627 o
248.196 230.546 o
248.847 228.875 o
249.498 228.772 o
250.148 229.027 o
250.799 228.328 o
251.449 226.348 o
252.1 227.028 o
252.751 226.93 o
253.401 227.053 o
254.052 225.502 o
254.702 225.552 o
255.353 225.388 o
256.004 224.352 o
256.654 224.269 o
257.305 224.169 o
257.955 223.136 o
258.606 221.597 o
259.257 222.067 o
259.907 221.858 o
260.558 221.79 o
261.208 221.086 o
261.859 219.324 o
262.51 219.894 o
263.16 218.657 o
263.811 217.352 o
264.462 218.092 o
265.112 217.225 o
265.763 217.098 o
266.413 216.804 o
267.064 216.52 o
267.715 216.12 o
268.365 215.193 o
269.016 215.441 o
269.666 213.511 o
270.317 213.43 o
270.968 212.656 o
271.618 213.33 o
272.269 211.626 o
272.919 212.681 o
273.57 211.298 o
274.221 210.962 o
274.871 209.712 o
275.522 209.906 o
276.173 210.674 o
276.823 208.738 o
277.474 209.928 o
278.124 209.197 o
278.775 208.585 o
279.426 208.072 o
280.076 207.28 o
280.727 206.3 o
281.377 207.157 o
282.028 206.852 o
282.679 205.39 o
283.329 205.631 o
283.98 206.238 o
284.63 203.674 o
285.281 204.239 o
285.932 204.529 o
286.582 203.84 o
287.233 203.163 o
287.884 202.291 o
288.534 202.373 o
289.185 202.12 o
289.835 201.675 o
290.486 201.306 o
291.137 201.019 o
291.787 200.473 o
292.438 200.678 o
293.088 200.686 o
293.739 199.839 o
294.39 200.067 o
295.04 198.966 o
295.691 198.501 o
296.341 198.162 o
296.992 197.389 o
297.643 198.102 o
298.293 197.392 o
298.944 197.603 o
299.595 196.546 o
300.245 196.437 o
300.896 196.162 o
301.546 195.297 o
302.197 195.399 o
302.848 195.508 o
303.498 194.769 o
304.149 194.583 o
304.799 195.149 o
305.45 193.878 o
306.101 193.92 o
306.751 194.942 o
307.402 193.322 o
308.052 193.423 o
308.703 193.746 o
309.354 193.161 o
310.004 191.729 o
310.655 192.858 o
311.305 191.96 o
311.956 192.301 o
312.607 192.839 o
313.257 191.705 o
313.908 191.247 o
314.559 191.595 o
315.209 191.596 o
315.86 191.301 o
316.51 191.236 o
317.161 189.647 o
317.812 190.032 o
318.462 190.839 o
319.113 190.384 o
319.763 190.063 o
320.414 191.063 o
321.065 191.587 o
321.715 191.072 o
322.366 191.336 o
323.016 190.447 o
323.667 188.666 o
324.318 190.338 o
324.968 191.342 o
325.619 189.552 o
326.27 190.185 o
326.92 190.981 o
327.571 191.017 o
328.221 189.185 o
328.872 189.083 o
329.523 191.36 o
330.173 189.348 o
330.824 190.97 o
331.474 190.702 o
332.125 190.461 o
332.776 191.378 o
333.426 190.316 o
334.077 190.199 o
334.727 191.026 o
335.378 190.908 o
336.029 191.553 o
336.679 191.733 o
337.33 191.289 o
337.981 190.624 o
338.631 192.422 o
339.282 191.765 o
339.932 191.564 o
340.583 191.889 o
341.234 191.335 o
341.884 191.622 o
342.535 192.455 o
343.185 192.908 o
343.836 192.224 o
344.487 193.029 o
345.137 193.585 o
345.788 194.313 o
346.438 193.063 o
347.089 195.519 o
347.74 194.362 o
348.39 195.936 o
349.041 194.527 o
349.691 195.852 o
350.342 195.221 o
350.993 195.014 o
351.643 195.603 o
352.294 197.732 o
352.945 196.594 o
353.595 198.439 o
354.246 197.153 o
354.896 198.262 o
355.547 197.426 o
356.198 197.91 o
356.848 199.698 o
357.499 197.541 o
358.149 201.118 o
358.8 199.699 o
359.451 200.25 o
360.101 199.724 o
360.752 199.532 o
361.402 200.94 o
362.053 203.535 o
362.704 201.766 o
363.354 204.224 o
364.005 204.572 o
364.656 204.181 o
365.306 204.103 o
365.957 205.274 o
366.607 206.131 o
367.258 206.944 o
367.909 206.273 o
368.559 207.217 o
369.21 206.22 o
369.86 209.756 o
370.511 207.994 o
371.162 208.224 o
371.812 209.05 o
372.463 209.763 o
373.113 211.226 o
373.764 212.541 o
374.415 213.833 o
375.065 212.486 o
375.716 213.886 o
376.367 213.758 o
377.017 215.416 o
377.668 215.2 o
378.318 216.849 o
378.969 215.374 o
379.62 216.274 o
380.27 218.248 o
380.921 218.962 o
381.571 218.393 o
382.222 219.366 o
382.873 219.313 o
383.523 220.904 o
384.174 221.057 o
384.824 222.089 o
385.475 223.273 o
386.126 224.406 o
386.776 223.19 o
387.427 225.141 o
388.078 225.525 o
388.728 226.193 o
389.379 226.464 o
390.029 229.371 o
390.68 228.079 o
391.331 230.095 o
391.981 229.978 o
392.632 230.153 o
393.282 231.95 o
393.933 232.87 o
394.584 232.777 o
395.234 231.936 o
395.885 233.581 o
396.535 233.674 o
397.186 234.624 o
397.837 237.014 o
398.487 236.915 o
grestore
0.173 0.627 0.173 setrgbcolor
gsave
357.1 121 57.6 183.2 clipbox
/o {
gsave
newpath
translate
1.0 setlinewidth
1 setlinejoin
0 setlinecap
0 -1.5 m
0.397805 -1.5 0.77937 -1.341951 1.06066 -1.06066 c
1.341951 -0.77937 1.5 -0.397805 1.5 0 c
1.5 0.397805 1.341951 0.77937 1.06066 1.06066 c
0.77937 1.341951 0.397805 1.5 0 1.5 c
-0.397805 1.5 -0.77937 1.341951 -1.06066 1.06066 c
-1.341951 0.77937 -1.5 0.397805 -1.5 0 c
-1.5 -0.397805 -1.341951 -0.77937 -1.06066 -1.06066 c
-0.77937 -1.341951 -0.397805 -1.5 0 -1.5 c
cl

gsave
0.173 0.627 0.173 setrgbcolor
fill
grestore
stroke
grestore
} bind def
73.8327 240.401 o
74.4833 240.429 o
75.1339 240.585 o
75.7846 240.574 o
76.4352 240.771 o
77.0858 240.939 o
77.7364 241.183 o
78.387 241.099 o
79.0376 241.354 o
79.6882 241.527 o
80.3388 241.391 o
80.9894 241.62 o
81.6401 241.577 o
82.2907 241.895 o
82.9413 241.825 o
83.5919 241.993 o
84.2425 242.133 o
84.8931 242.298 o
85.5437 242.313 o
86.1943 242.487 o
86.8449 242.623 o
87.4955 242.696 o
88.1462 242.848 o
88.7968 242.923 o
89.4474 243.057 o
90.098 243.332 o
90.7486 243.274 o
91.3992 243.515 o
92.0498 243.452 o
92.7004 243.761 o
93.351 243.823 o
94.0016 243.902 o
94.6523 244.013 o
95.3029 244.301 o
95.9535 244.184 o
96.6041 244.391 o
97.2547 244.528 o
97.9053 244.661 o
98.5559 244.788 o
99.2065 244.782 o
99.8571 244.969 o
100.508 245.035 o
101.158 245.098 o
101.809 245.254 o
102.46 245.394 o
103.11 245.454 o
103.761 245.62 o
104.411 245.772 o
105.062 245.91 o
105.713 245.983 o
106.363 246.188 o
107.014 246.235 o
107.664 246.319 o
108.315 246.518 o
108.966 246.572 o
109.616 246.716 o
110.267 246.88 o
110.918 247.011 o
111.568 247.105 o
112.219 246.969 o
112.869 247.278 o
113.52 247.308 o
114.171 247.552 o
114.821 247.557 o
115.472 247.708 o
116.122 247.894 o
116.773 247.897 o
117.424 248.103 o
118.074 248.369 o
118.725 248.253 o
119.375 248.439 o
120.026 248.494 o
120.677 248.568 o
121.327 248.743 o
121.978 248.833 o
122.629 248.873 o
123.279 249.139 o
123.93 249.186 o
124.58 249.401 o
125.231 249.402 o
125.882 249.599 o
126.532 249.708 o
127.183 249.755 o
127.833 250.008 o
128.484 250.087 o
129.135 250.13 o
129.785 250.28 o
130.436 250.423 o
131.086 250.759 o
131.737 250.576 o
132.388 250.84 o
133.038 250.88 o
133.689 250.869 o
134.339 250.876 o
134.99 251.16 o
135.641 251.34 o
136.291 251.442 o
136.942 251.483 o
137.593 251.555 o
138.243 251.713 o
138.894 251.934 o
139.544 251.925 o
140.195 252.201 o
140.846 252.253 o
141.496 252.274 o
142.147 252.384 o
142.797 252.546 o
143.448 252.799 o
144.099 252.877 o
144.749 253.004 o
145.4 253.048 o
146.05 253.109 o
146.701 253.291 o
147.352 253.273 o
148.002 253.618 o
148.653 253.837 o
149.304 253.739 o
149.954 253.887 o
150.605 253.844 o
151.255 254.131 o
151.906 253.966 o
152.557 254.326 o
153.207 254.66 o
153.858 254.479 o
154.508 254.778 o
155.159 254.81 o
155.81 254.667 o
156.46 255.031 o
157.111 255.211 o
157.761 255.223 o
158.412 255.067 o
159.063 255.437 o
159.713 255.423 o
160.364 255.704 o
161.015 255.976 o
161.665 255.961 o
162.316 256.304 o
162.966 255.888 o
163.617 256.218 o
164.268 256.401 o
164.918 256.614 o
165.569 256.549 o
166.219 256.73 o
166.87 256.817 o
167.521 256.679 o
168.171 256.901 o
168.822 257.111 o
169.472 257.2 o
170.123 257.57 o
170.774 257.555 o
171.424 257.733 o
172.075 257.971 o
172.725 258.168 o
173.376 257.885 o
174.027 257.93 o
174.677 257.903 o
175.328 258.381 o
175.979 258.407 o
176.629 258.799 o
177.28 258.626 o
177.93 259.029 o
178.581 259.119 o
179.232 259.221 o
179.882 259.409 o
180.533 259.434 o
181.183 259.393 o
181.834 259.649 o
182.485 259.199 o
183.135 260.039 o
183.786 259.449 o
184.436 260.128 o
185.087 260.157 o
185.738 260.12 o
186.388 260.242 o
187.039 260.811 o
187.69 260.702 o
188.34 260.727 o
188.991 261.313 o
189.641 261.129 o
190.292 261.22 o
190.943 261.351 o
191.593 261.651 o
192.244 262.009 o
192.894 261.569 o
193.545 261.323 o
194.196 261.865 o
194.846 261.835 o
195.497 262.008 o
196.147 262.122 o
196.798 262.348 o
197.449 262.754 o
198.099 262.607 o
198.75 262.706 o
199.401 262.712 o
200.051 262.785 o
200.702 262.597 o
201.352 262.875 o
202.003 263.195 o
202.654 262.9 o
203.304 263.442 o
203.955 263.604 o
204.605 263.88 o
205.256 264.325 o
205.907 263.418 o
206.557 264.162 o
207.208 264.276 o
207.858 263.84 o
208.509 264.039 o
209.16 264.33 o
209.81 264.895 o
210.461 264.422 o
211.112 264.916 o
211.762 265.137 o
212.413 264.691 o
213.063 265.013 o
213.714 265.261 o
214.365 265.526 o
215.015 265.506 o
215.666 265.424 o
216.316 265.54 o
216.967 265.793 o
217.618 265.646 o
218.268 265.828 o
218.919 265.974 o
219.569 266.867 o
220.22 266.929 o
220.871 266.005 o
221.521 266.344 o
222.172 267.164 o
222.822 267.224 o
223.473 266.344 o
224.124 266.055 o
224.774 266.693 o
225.425 267.988 o
226.076 266.811 o
226.726 267.391 o
227.377 268.303 o
228.027 267.928 o
228.678 268.254 o
229.329 267.539 o
229.979 268.473 o
230.63 268.696 o
231.28 267.961 o
231.931 268.898 o
232.582 268.944 o
233.232 268.492 o
233.883 268.878 o
234.533 268.886 o
235.184 269.372 o
235.835 268.689 o
236.485 269.234 o
237.136 269.279 o
237.787 269.174 o
238.437 269.419 o
239.088 270.061 o
239.738 269.787 o
240.389 269.706 o
241.04 269.647 o
241.69 270.126 o
242.341 270.548 o
242.991 270.204 o
243.642 269.821 o
244.293 270.236 o
244.943 271.872 o
245.594 270.721 o
246.244 271.022 o
246.895 270.823 o
247.546 271.421 o
248.196 272.118 o
248.847 271.706 o
249.498 271.347 o
250.148 272.236 o
250.799 272.485 o
251.449 271.379 o
252.1 271.58 o
252.751 272.338 o
253.401 272.648 o
254.052 272.607 o
254.702 272.96 o
255.353 273.881 o
256.004 272.096 o
256.654 273.184 o
257.305 273.062 o
257.955 272.706 o
258.606 273.938 o
259.257 273.733 o
259.907 273.428 o
260.558 273.209 o
261.208 273.325 o
261.859 272.721 o
262.51 274.312 o
263.16 273.04 o
263.811 273.03 o
264.462 273.616 o
265.112 274.025 o
265.763 274.466 o
266.413 274.185 o
267.064 274.503 o
267.715 275.506 o
268.365 274.326 o
269.016 275.371 o
269.666 274.861 o
270.317 275.132 o
270.968 274.129 o
271.618 275.507 o
272.269 274.378 o
272.919 275.958 o
273.57 275.327 o
274.221 275.989 o
274.871 275.549 o
275.522 275.689 o
276.173 276.744 o
276.823 276.596 o
277.474 277.042 o
278.124 276.547 o
278.775 276.87 o
279.426 276.635 o
280.076 276.772 o
280.727 276.007 o
281.377 277.88 o
282.028 277.082 o
282.679 277.17 o
283.329 278.606 o
283.98 278.897 o
284.63 277.64 o
285.281 278.591 o
285.932 278.987 o
286.582 277.992 o
287.233 278.166 o
287.884 278.523 o
288.534 277.889 o
289.185 278.563 o
289.835 279.057 o
290.486 277.903 o
291.137 279.166 o
291.787 279.284 o
292.438 278.933 o
293.088 279.859 o
293.739 278.716 o
294.39 280.186 o
295.04 279.457 o
295.691 279.992 o
296.341 280.026 o
296.992 279.371 o
297.643 280.97 o
298.293 279.961 o
298.944 280.725 o
299.595 280.691 o
300.245 280.665 o
300.896 281.028 o
301.546 280.05 o
302.197 280.861 o
302.848 281.052 o
303.498 280.483 o
304.149 281.066 o
304.799 281.794 o
305.45 280.769 o
306.101 281.498 o
306.751 282.623 o
307.402 281.658 o
308.052 282.044 o
308.703 282.557 o
309.354 282.384 o
310.004 281.184 o
310.655 282.667 o
311.305 281.891 o
311.956 282.457 o
312.607 283.498 o
313.257 282.487 o
313.908 282.184 o
314.559 282.954 o
315.209 283.478 o
315.86 283.359 o
316.51 283.346 o
317.161 281.992 o
317.812 282.604 o
318.462 283.874 o
319.113 283.511 o
319.763 283.238 o
320.414 284.668 o
321.065 285.329 o
321.715 285.08 o
322.366 285.609 o
323.016 284.633 o
323.667 282.915 o
324.318 284.95 o
324.968 286.032 o
325.619 284.394 o
326.27 285.131 o
326.92 286.094 o
327.571 286.443 o
328.221 284.425 o
328.872 284.395 o
329.523 286.83 o
330.173 285.063 o
330.824 286.729 o
331.474 286.437 o
332.125 286.249 o
332.776 287.163 o
333.426 286.321 o
334.077 286.362 o
334.727 286.963 o
335.378 286.651 o
336.029 287.807 o
336.679 287.64 o
337.33 287.43 o
337.981 286.45 o
338.631 288.007 o
339.282 287.88 o
339.932 287.209 o
340.583 287.476 o
341.234 287.31 o
341.884 287.45 o
342.535 288.187 o
343.185 288.696 o
343.836 287.925 o
344.487 288.464 o
345.137 289.037 o
345.788 289.526 o
346.438 287.626 o
347.089 290.176 o
347.74 289.15 o
348.39 290.462 o
349.041 288.977 o
349.691 289.746 o
350.342 289.461 o
350.993 289.072 o
351.643 289.235 o
352.294 290.747 o
352.945 289.952 o
353.595 290.953 o
354.246 289.802 o
354.896 291.268 o
355.547 289.319 o
356.198 289.39 o
356.848 290.894 o
357.499 289.388 o
358.149 292.875 o
358.8 290.894 o
359.451 291.648 o
360.101 290.085 o
360.752 289.924 o
361.402 290.727 o
362.053 291.943 o
362.704 290.622 o
363.354 292.714 o
364.005 292.235 o
364.656 291.921 o
365.306 291.907 o
365.957 292.83 o
366.607 292.438 o
367.258 293.521 o
367.909 293.023 o
368.559 293.006 o
369.21 292.09 o
369.86 294.08 o
370.511 292.691 o
371.162 293.587 o
371.812 293.124 o
372.463 292.887 o
373.113 294.029 o
373.764 294.205 o
374.415 295.478 o
375.065 294.104 o
375.716 294.648 o
376.367 293.831 o
377.017 294.653 o
377.668 294.517 o
378.318 294.984 o
378.969 293.415 o
379.62 294.893 o
380.27 295.338 o
380.921 295.638 o
381.571 295.069 o
382.222 296.032 o
382.873 294.309 o
383.523 295.685 o
384.174 295.81 o
384.824 295.968 o
385.475 296.244 o
386.126 296.716 o
386.776 295.717 o
387.427 296.352 o
388.078 296.283 o
388.728 296.546 o
389.379 296.188 o
390.029 296.498 o
390.68 296.401 o
391.331 296.816 o
391.981 297.614 o
392.632 296.731 o
393.282 297.568 o
393.933 297.369 o
394.584 297.748 o
395.234 296.78 o
395.885 296.92 o
396.535 297.488 o
397.186 297.507 o
397.837 297.886 o
398.487 297.63 o
grestore
1.500 setlinewidth
2 setlinecap
0.839 0.153 0.157 setrgbcolor
gsave
357.1 121 57.6 183.2 clipbox
73.832727 240.303842 m
84.893103 242.163147 l
92.700426 243.252636 l
99.206529 243.948018 l
105.062022 244.369158 l
110.917515 244.566992 l
116.122398 244.536162 l
121.32728 244.296961 l
126.532163 243.839687 l
131.737045 243.158356 l
136.941927 242.250865 l
142.14681 241.119106 l
147.351692 239.769022 l
153.207185 238.001803 l
159.062678 235.991254 l
165.568781 233.50421 l
172.725495 230.512688 l
181.183429 226.726381 l
208.509062 214.287888 l
215.015165 211.686047 l
220.870658 209.591581 l
226.07554 207.970146 l
230.629812 206.765453 l
235.184085 205.783437 l
239.738357 205.044282 l
243.642019 204.617961 l
247.54568 204.393878 l
251.449342 204.381108 l
255.353004 204.58739 l
259.256666 205.019038 l
263.160328 205.680864 l
267.06399 206.576108 l
270.967652 207.706379 l
274.871314 209.071606 l
278.774975 210.670008 l
282.678637 212.498063 l
286.582299 214.550499 l
291.136571 217.219139 l
295.690844 220.169429 l
300.245116 223.384082 l
305.449998 227.355437 l
310.654881 231.610328 l
316.510373 236.686285 l
323.667087 243.216339 l
333.426242 252.478006 l
349.040889 267.316602 l
355.546992 273.190728 l
361.402485 278.180182 l
366.607367 282.308972 l
371.16164 285.638656 l
375.065302 288.253353 l
378.968963 290.623973 l
382.872625 292.729737 l
386.776287 294.551157 l
390.029339 295.838734 l
393.28239 296.906687 l
396.535442 297.746234 l
398.487273 298.137 l
398.487273 298.137 l
stroke
grestore
0.580 0.404 0.741 setrgbcolor
gsave
357.1 121 57.6 183.2 clipbox
73.832727 237.412184 m
79.68822 237.857131 l
85.543713 238.530763 l
91.399206 239.41992 l
97.905309 240.637504 l
105.062022 242.216724 l
113.519956 244.332986 l
125.881552 247.695282 l
139.544369 251.361676 l
147.351692 253.225662 l
153.857796 254.555147 l
159.713288 255.52665 l
164.918171 256.17821 l
170.123053 256.603923 l
174.677326 256.773361 l
179.231598 256.739386 l
183.78587 256.490796 l
188.340142 256.018557 l
192.894414 255.315956 l
197.448686 254.378738 l
202.002959 253.20521 l
206.557231 251.796327 l
211.111503 250.155744 l
215.665775 248.28985 l
220.870658 245.893329 l
226.07554 243.232448 l
231.280423 240.329619 l
237.135915 236.808164 l
243.642019 232.630016 l
251.449342 227.342619 l
267.06399 216.402043 l
276.172534 210.185296 l
282.678637 205.997351 l
288.53413 202.496209 l
293.739013 199.653367 l
298.293285 197.41099 l
302.847557 195.42775 l
306.751219 193.954847 l
310.654881 192.708538 l
314.558543 191.703752 l
318.462204 190.954117 l
321.715256 190.533179 l
324.968308 190.304183 l
328.221359 190.272596 l
331.474411 190.443058 l
334.727462 190.819351 l
337.980514 191.404361 l
341.233565 192.200052 l
344.486617 193.207442 l
347.739668 194.426579 l
350.99272 195.856528 l
354.245772 197.49536 l
358.149433 199.73348 l
362.053095 202.261134 l
365.956757 205.069263 l
369.860419 208.146754 l
373.764081 211.480475 l
378.318353 215.673401 l
382.872625 220.167189 l
388.077508 225.631927 l
393.933001 232.138188 l
398.487273 237.412184 l
398.487273 237.412184 l
stroke
grestore
0.549 0.337 0.294 setrgbcolor
gsave
357.1 121 57.6 183.2 clipbox
73.832727 240.303842 m
398.487273 298.137 l
398.487273 298.137 l
stroke
grestore
0.800 setlinewidth
0 setlinejoin
[] 0 setdash
0.000 setgray
gsave
57.6 183.168 m
57.6 304.128 l
stroke
grestore
gsave
414.72 183.168 m
414.72 304.128 l
stroke
grestore
gsave
57.6 183.168 m
414.72 183.168 l
stroke
grestore
gsave
57.6 304.128 m
414.72 304.128 l
stroke
grestore
1.000 setlinewidth
0 setlinecap
0.800 setgray
gsave
64.6 252.112375 m
102.521875 252.112375 l
103.855208 252.112375 104.521875 252.779042 104.521875 254.112375 c
104.521875 297.128 l
104.521875 298.461333 103.855208 299.128 102.521875 299.128 c
64.6 299.128 l
63.266667 299.128 62.6 298.461333 62.6 297.128 c
62.6 254.112375 l
62.6 252.779042 63.266667 252.112375 64.6 252.112375 c
cl
gsave
1.000 setgray
fill
grestore
stroke
grestore
1 setlinejoin
[] 0 setdash
0.122 0.467 0.706 setrgbcolor
gsave
/o {
gsave
newpath
translate
1.0 setlinewidth
1 setlinejoin
0 setlinecap
0 -1.5 m
0.397805 -1.5 0.77937 -1.341951 1.06066 -1.06066 c
1.341951 -0.77937 1.5 -0.397805 1.5 0 c
1.5 0.397805 1.341951 0.77937 1.06066 1.06066 c
0.77937 1.341951 0.397805 1.5 0 1.5 c
-0.397805 1.5 -0.77937 1.341951 -1.06066 1.06066 c
-1.341951 0.77937 -1.5 0.397805 -1.5 0 c
-1.5 -0.397805 -1.341951 -0.77937 -1.06066 -1.06066 c
-0.77937 -1.341951 -0.397805 -1.5 0 -1.5 c
cl

gsave
0.122 0.467 0.706 setrgbcolor
fill
grestore
stroke
grestore
} bind def
76.6 291.034 o
grestore
0.000 setgray
gsave
94.600000 287.534250 translate
0.000000 rotate
0.000000 0.000000 m /x glyphshow
grestore
1.000 0.498 0.055 setrgbcolor
gsave
/o {
gsave
newpath
translate
1.0 setlinewidth
1 setlinejoin
0 setlinecap
0 -1.5 m
0.397805 -1.5 0.77937 -1.341951 1.06066 -1.06066 c
1.341951 -0.77937 1.5 -0.397805 1.5 0 c
1.5 0.397805 1.341951 0.77937 1.06066 1.06066 c
0.77937 1.341951 0.397805 1.5 0 1.5 c
-0.397805 1.5 -0.77937 1.341951 -1.06066 1.06066 c
-1.341951 0.77937 -1.5 0.397805 -1.5 0 c
-1.5 -0.397805 -1.341951 -0.77937 -1.06066 -1.06066 c
-0.77937 -1.341951 -0.397805 -1.5 0 -1.5 c
cl

gsave
1.000 0.498 0.055 setrgbcolor
fill
grestore
stroke
grestore
} bind def
76.6 276.362 o
grestore
0.000 setgray
gsave
94.600000 272.862375 translate
0.000000 rotate
0.000000 0.000000 m /y glyphshow
grestore
0.173 0.627 0.173 setrgbcolor
gsave
/o {
gsave
newpath
translate
1.0 setlinewidth
1 setlinejoin
0 setlinecap
0 -1.5 m
0.397805 -1.5 0.77937 -1.341951 1.06066 -1.06066 c
1.341951 -0.77937 1.5 -0.397805 1.5 0 c
1.5 0.397805 1.341951 0.77937 1.06066 1.06066 c
0.77937 1.341951 0.397805 1.5 0 1.5 c
-0.397805 1.5 -0.77937 1.341951 -1.06066 1.06066 c
-1.341951 0.77937 -1.5 0.397805 -1.5 0 c
-1.5 -0.397805 -1.341951 -0.77937 -1.06066 -1.06066 c
-0.77937 -1.341951 -0.397805 -1.5 0 -1.5 c
cl

gsave
0.173 0.627 0.173 setrgbcolor
fill
grestore
stroke
grestore
} bind def
76.6 261.69 o
grestore
0.000 setgray
gsave
94.600000 258.190500 translate
0.000000 rotate
0.000000 0.000000 m /z glyphshow
grestore
gsave
57.6 38.016 m
414.72 38.016 l
414.72 158.976 l
57.6 158.976 l
cl
1.000 setgray
fill
grestore
0.800 setlinewidth
2 setlinecap
0.690 setgray
gsave
357.1 121 57.6 38.02 clipbox
73.832727 38.016 m
73.832727 158.976 l
stroke
grestore
0 setlinecap
0.000 setgray
gsave
/o {
gsave
newpath
translate
0.8 setlinewidth
1 setlinejoin
0 setlinecap
0 0 m
0 -3.5 l

gsave
0.000 setgray
fill
grestore
stroke
grestore
} bind def
73.8327 38.016 o
grestore
gsave
70.653040 23.422250 translate
0.000000 rotate
0.000000 0.000000 m /zero glyphshow
grestore
2 setlinecap
0.690 setgray
gsave
357.1 121 57.6 38.02 clipbox
138.893758 38.016 m
138.893758 158.976 l
stroke
grestore
0 setlinecap
0.000 setgray
gsave
/o {
gsave
newpath
translate
0.8 setlinewidth
1 setlinejoin
0 setlinecap
0 0 m
0 -3.5 l

gsave
0.000 setgray
fill
grestore
stroke
grestore
} bind def
138.894 38.016 o
grestore
gsave
129.354696 23.422250 translate
0.000000 rotate
0.000000 0.000000 m /one glyphshow
6.362305 0.000000 m /zero glyphshow
12.724609 0.000000 m /zero glyphshow
grestore
2 setlinecap
0.690 setgray
gsave
357.1 121 57.6 38.02 clipbox
203.95479 38.016 m
203.95479 158.976 l
stroke
grestore
0 setlinecap
0.000 setgray
gsave
/o {
gsave
newpath
translate
0.8 setlinewidth
1 setlinejoin
0 setlinecap
0 0 m
0 -3.5 l

gsave
0.000 setgray
fill
grestore
stroke
grestore
} bind def
203.955 38.016 o
grestore
gsave
194.415727 23.422250 translate
0.000000 rotate
0.000000 0.000000 m /two glyphshow
6.362305 0.000000 m /zero glyphshow
12.724609 0.000000 m /zero glyphshow
grestore
2 setlinecap
0.690 setgray
gsave
357.1 121 57.6 38.02 clipbox
269.015821 38.016 m
269.015821 158.976 l
stroke
grestore
0 setlinecap
0.000 setgray
gsave
/o {
gsave
newpath
translate
0.8 setlinewidth
1 setlinejoin
0 setlinecap
0 0 m
0 -3.5 l

gsave
0.000 setgray
fill
grestore
stroke
grestore
} bind def
269.016 38.016 o
grestore
gsave
259.476758 23.422250 translate
0.000000 rotate
0.000000 0.000000 m /three glyphshow
6.362305 0.000000 m /zero glyphshow
12.724609 0.000000 m /zero glyphshow
grestore
2 setlinecap
0.690 setgray
gsave
357.1 121 57.6 38.02 clipbox
334.076852 38.016 m
334.076852 158.976 l
stroke
grestore
0 setlinecap
0.000 setgray
gsave
/o {
gsave
newpath
translate
0.8 setlinewidth
1 setlinejoin
0 setlinecap
0 0 m
0 -3.5 l

gsave
0.000 setgray
fill
grestore
stroke
grestore
} bind def
334.077 38.016 o
grestore
gsave
324.537789 23.422250 translate
0.000000 rotate
0.000000 0.000000 m /four glyphshow
6.362305 0.000000 m /zero glyphshow
12.724609 0.000000 m /zero glyphshow
grestore
2 setlinecap
0.690 setgray
gsave
357.1 121 57.6 38.02 clipbox
399.137883 38.016 m
399.137883 158.976 l
stroke
grestore
0 setlinecap
0.000 setgray
gsave
/o {
gsave
newpath
translate
0.8 setlinewidth
1 setlinejoin
0 setlinecap
0 0 m
0 -3.5 l

gsave
0.000 setgray
fill
grestore
stroke
grestore
} bind def
399.138 38.016 o
grestore
gsave
389.598821 23.422250 translate
0.000000 rotate
0.000000 0.000000 m /five glyphshow
6.362305 0.000000 m /zero glyphshow
12.724609 0.000000 m /zero glyphshow
grestore
gsave
217.410000 9.750375 translate
0.000000 rotate
0.000000 0.000000 m /S glyphshow
6.347656 0.000000 m /a glyphshow
12.475586 0.000000 m /m glyphshow
22.216797 0.000000 m /p glyphshow
28.564453 0.000000 m /l glyphshow
31.342773 0.000000 m /e glyphshow
grestore
2 setlinecap
0.690 setgray
gsave
357.1 121 57.6 38.02 clipbox
57.6 39.963318 m
414.72 39.963318 l
stroke
grestore
0 setlinecap
0.000 setgray
gsave
/o {
gsave
newpath
translate
0.8 setlinewidth
1 setlinejoin
0 setlinecap
0 0 m
-3.5 0 l

gsave
0.000 setgray
fill
grestore
stroke
grestore
} bind def
57.6 39.9633 o
grestore
gsave
23.146875 36.166443 translate
0.000000 rotate
0.000000 0.000000 m /minus glyphshow
8.378906 0.000000 m /one glyphshow
14.741211 0.000000 m /zero glyphshow
21.103516 0.000000 m /zero glyphshow
grestore
2 setlinecap
0.690 setgray
gsave
357.1 121 57.6 38.02 clipbox
57.6 60.380004 m
414.72 60.380004 l
stroke
grestore
0 setlinecap
0.000 setgray
gsave
/o {
gsave
newpath
translate
0.8 setlinewidth
1 setlinejoin
0 setlinecap
0 0 m
-3.5 0 l

gsave
0.000 setgray
fill
grestore
stroke
grestore
} bind def
57.6 60.38 o
grestore
gsave
29.506250 56.583129 translate
0.000000 rotate
0.000000 0.000000 m /minus glyphshow
8.378906 0.000000 m /five glyphshow
14.741211 0.000000 m /zero glyphshow
grestore
2 setlinecap
0.690 setgray
gsave
357.1 121 57.6 38.02 clipbox
57.6 80.796689 m
414.72 80.796689 l
stroke
grestore
0 setlinecap
0.000 setgray
gsave
/o {
gsave
newpath
translate
0.8 setlinewidth
1 setlinejoin
0 setlinecap
0 0 m
-3.5 0 l

gsave
0.000 setgray
fill
grestore
stroke
grestore
} bind def
57.6 80.7967 o
grestore
gsave
44.240625 76.999814 translate
0.000000 rotate
0.000000 0.000000 m /zero glyphshow
grestore
2 setlinecap
0.690 setgray
gsave
357.1 121 57.6 38.02 clipbox
57.6 101.213374 m
414.72 101.213374 l
stroke
grestore
0 setlinecap
0.000 setgray
gsave
/o {
gsave
newpath
translate
0.8 setlinewidth
1 setlinejoin
0 setlinecap
0 0 m
-3.5 0 l

gsave
0.000 setgray
fill
grestore
stroke
grestore
} bind def
57.6 101.213 o
grestore
gsave
37.881250 97.416499 translate
0.000000 rotate
0.000000 0.000000 m /five glyphshow
6.362305 0.000000 m /zero glyphshow
grestore
2 setlinecap
0.690 setgray
gsave
357.1 121 57.6 38.02 clipbox
57.6 121.630059 m
414.72 121.630059 l
stroke
grestore
0 setlinecap
0.000 setgray
gsave
/o {
gsave
newpath
translate
0.8 setlinewidth
1 setlinejoin
0 setlinecap
0 0 m
-3.5 0 l

gsave
0.000 setgray
fill
grestore
stroke
grestore
} bind def
57.6 121.63 o
grestore
gsave
31.521875 117.833184 translate
0.000000 rotate
0.000000 0.000000 m /one glyphshow
6.362305 0.000000 m /zero glyphshow
12.724609 0.000000 m /zero glyphshow
grestore
2 setlinecap
0.690 setgray
gsave
357.1 121 57.6 38.02 clipbox
57.6 142.046744 m
414.72 142.046744 l
stroke
grestore
0 setlinecap
0.000 setgray
gsave
/o {
gsave
newpath
translate
0.8 setlinewidth
1 setlinejoin
0 setlinecap
0 0 m
-3.5 0 l

gsave
0.000 setgray
fill
grestore
stroke
grestore
} bind def
57.6 142.047 o
grestore
gsave
31.521875 138.249869 translate
0.000000 rotate
0.000000 0.000000 m /one glyphshow
6.362305 0.000000 m /five glyphshow
12.724609 0.000000 m /zero glyphshow
grestore
gsave
17.068750 51.050687 translate
90.000000 rotate
0.000000 0.000000 m /E glyphshow
6.318359 0.000000 m /u glyphshow
12.656250 0.000000 m /l glyphshow
15.434570 0.000000 m /e glyphshow
21.586914 0.000000 m /r glyphshow
25.698242 0.000000 m /space glyphshow
28.876953 0.000000 m /a glyphshow
35.004883 0.000000 m /n glyphshow
41.342773 0.000000 m /g glyphshow
47.690430 0.000000 m /l glyphshow
50.468750 0.000000 m /e glyphshow
56.621094 0.000000 m /s glyphshow
61.831055 0.000000 m /space glyphshow
65.009766 0.000000 m /space glyphshow
68.188477 0.000000 m /bracketleft glyphshow
72.089844 0.000000 m /d glyphshow
78.437500 0.000000 m /e glyphshow
84.589844 0.000000 m /g glyphshow
90.937500 0.000000 m /bracketright glyphshow
grestore
1.000 setlinewidth
0.122 0.467 0.706 setrgbcolor
gsave
357.1 121 57.6 38.02 clipbox
/o {
gsave
newpath
translate
1.0 setlinewidth
1 setlinejoin
0 setlinecap
0 -1.5 m
0.397805 -1.5 0.77937 -1.341951 1.06066 -1.06066 c
1.341951 -0.77937 1.5 -0.397805 1.5 0 c
1.5 0.397805 1.341951 0.77937 1.06066 1.06066 c
0.77937 1.341951 0.397805 1.5 0 1.5 c
-0.397805 1.5 -0.77937 1.341951 -1.06066 1.06066 c
-1.341951 0.77937 -1.5 0.397805 -1.5 0 c
-1.5 -0.397805 -1.341951 -0.77937 -1.06066 -1.06066 c
-0.77937 -1.341951 -0.397805 -1.5 0 -1.5 c
cl

gsave
0.122 0.467 0.706 setrgbcolor
fill
grestore
stroke
grestore
} bind def
73.8327 79.2235 o
74.4833 82.31 o
75.1339 79.9936 o
75.7846 82.2028 o
76.4352 79.0811 o
77.0858 79.7272 o
77.7364 80.3205 o
78.387 80.4671 o
79.0376 79.124 o
79.6882 79.0187 o
80.3388 78.8168 o
80.9894 79.2237 o
81.6401 80.4572 o
82.2907 79.5798 o
82.9413 81.129 o
83.5919 80.8761 o
84.2425 80.1511 o
84.8931 79.746 o
85.5437 80.097 o
86.1943 78.9009 o
86.8449 78.8888 o
87.4955 79.366 o
88.1462 79.5856 o
88.7968 79.5982 o
89.4474 78.902 o
90.098 77.3235 o
90.7486 78.4663 o
91.3992 78.6085 o
92.0498 78.6533 o
92.7004 78.4225 o
93.351 76.9189 o
94.0016 78.028 o
94.6523 79.0209 o
95.3029 77.6332 o
95.9535 78.6103 o
96.6041 77.6894 o
97.2547 77.3813 o
97.9053 76.4595 o
98.5559 77.1511 o
99.2065 77.5905 o
99.8571 76.7429 o
100.508 78.0247 o
101.158 78.3194 o
101.809 78.4686 o
102.46 77.1478 o
103.11 78.0134 o
103.761 77.4571 o
104.411 76.3453 o
105.062 77.5503 o
105.713 76.7605 o
106.363 76.4829 o
107.014 76.9599 o
107.664 75.1724 o
108.315 75.5719 o
108.966 76.7415 o
109.616 76.9565 o
110.267 75.964 o
110.918 75.9223 o
111.568 74.6373 o
112.219 78.2095 o
112.869 76.4927 o
113.52 76.0686 o
114.171 75.0362 o
114.821 75.5995 o
115.472 76.0787 o
116.122 75.5213 o
116.773 75.8153 o
117.424 75.2942 o
118.074 74.2838 o
118.725 75.0617 o
119.375 75.3157 o
120.026 74.261 o
120.677 75.7567 o
121.327 74.9039 o
121.978 74.9102 o
122.629 74.5293 o
123.279 75.1651 o
123.93 74.3368 o
124.58 74.5325 o
125.231 74.1285 o
125.882 74.5289 o
126.532 74.3521 o
127.183 74.839 o
127.833 74.4421 o
128.484 74.429 o
129.135 74.1072 o
129.785 74.1978 o
130.436 73.1334 o
131.086 73.4009 o
131.737 74.2448 o
132.388 73.9285 o
133.038 72.9522 o
133.689 73.3471 o
134.339 73.2249 o
134.99 72.417 o
135.641 72.7395 o
136.291 72.3143 o
136.942 72.1553 o
137.593 73.734 o
138.243 72.539 o
138.894 72.7754 o
139.544 72.9723 o
140.195 72.2333 o
140.846 73.0992 o
141.496 72.1514 o
142.147 72.8177 o
142.797 71.5603 o
143.448 72.3059 o
144.099 71.8865 o
144.749 71.9083 o
145.4 71.9567 o
146.05 72.0528 o
146.701 71.9422 o
147.352 71.9079 o
148.002 71.9017 o
148.653 72.3492 o
149.304 72.4673 o
149.954 71.6087 o
150.605 70.9491 o
151.255 70.2544 o
151.906 71.2976 o
152.557 70.7389 o
153.207 70.9696 o
153.858 69.7356 o
154.508 69.9776 o
155.159 70.781 o
155.81 69.9578 o
156.46 71.831 o
157.111 69.4093 o
157.761 69.6351 o
158.412 70.701 o
159.063 69.751 o
159.713 70.4769 o
160.364 67.9945 o
161.015 70.713 o
161.665 69.8946 o
162.316 69.68 o
162.966 69.4111 o
163.617 70.218 o
164.268 69.0174 o
164.918 68.2615 o
165.569 69.2405 o
166.219 68.3552 o
166.87 70.7073 o
167.521 69.7809 o
168.171 69.4057 o
168.822 68.5716 o
169.472 69.6389 o
170.123 69.9712 o
170.774 67.5109 o
171.424 68.5935 o
172.075 68.7199 o
172.725 67.9435 o
173.376 69.8182 o
174.027 67.7081 o
174.677 70.3308 o
175.328 69.1995 o
175.979 66.6361 o
176.629 66.4379 o
177.28 68.1577 o
177.93 65.5828 o
178.581 67.2063 o
179.232 65.8717 o
179.882 64.7409 o
180.533 65.2888 o
181.183 68.5743 o
181.834 65.9108 o
182.485 69.5077 o
183.135 66.4432 o
183.786 68.8688 o
184.436 65.4036 o
185.087 66.3539 o
185.738 65.4779 o
186.388 66.3156 o
187.039 66.2129 o
187.69 66.3445 o
188.34 65.9418 o
188.991 68.0646 o
189.641 68.4107 o
190.292 65.3958 o
190.943 67.7721 o
191.593 63.7062 o
192.244 62.9791 o
192.894 67.7564 o
193.545 64.8545 o
194.196 63.5832 o
194.846 63.2441 o
195.497 66.2334 o
196.147 64.7871 o
196.798 63.7734 o
197.449 66.2201 o
198.099 65.6555 o
198.75 61.9062 o
199.401 63.7428 o
200.051 67.5523 o
200.702 70.4584 o
201.352 63.382 o
202.003 64.3186 o
202.654 64.6019 o
203.304 65.6994 o
203.955 66.0357 o
204.605 64.3565 o
205.256 61.4993 o
205.907 66.3092 o
206.557 61.8294 o
207.208 58.714 o
207.858 66.6879 o
208.509 64.4185 o
209.16 67.4932 o
209.81 64.7731 o
210.461 63.8928 o
211.112 62.3735 o
211.762 60.121 o
212.413 65.8077 o
213.063 55.5262 o
213.714 65.3581 o
214.365 66.7913 o
215.015 59.7874 o
215.666 65.6047 o
216.316 64.474 o
216.967 61.321 o
217.618 64.6208 o
218.268 62.1593 o
218.919 58.3882 o
219.569 60.1105 o
220.22 57.6675 o
220.871 59.3941 o
221.521 63.7766 o
222.172 60.8735 o
222.822 64.2892 o
223.473 66.1775 o
224.124 67.6283 o
224.774 63.8248 o
225.425 62.8945 o
226.076 60.0216 o
226.726 57.4905 o
227.377 53.9064 o
228.027 60.978 o
228.678 61.0951 o
229.329 62.9673 o
229.979 57.5783 o
230.63 63.8571 o
231.28 57.6532 o
231.931 59.4808 o
232.582 57.7508 o
233.232 66.8392 o
233.883 66.6598 o
234.533 66.989 o
235.184 63.0725 o
235.835 65.3447 o
236.485 65.2507 o
237.136 65.4682 o
237.787 60.0334 o
238.437 54.7165 o
239.088 62.7675 o
239.738 63.9696 o
240.389 67.6172 o
241.04 60.893 o
241.69 59.3413 o
242.341 59.6271 o
242.991 54.199 o
243.642 61.5201 o
244.293 72.1875 o
244.943 56.5536 o
245.594 56.8206 o
246.244 64.2 o
246.895 67.166 o
247.546 58.4701 o
248.196 52.3589 o
248.847 58.3555 o
249.498 63.433 o
250.148 48.5858 o
250.799 58.6576 o
251.449 69.5089 o
252.1 67.0102 o
252.751 63.3652 o
253.401 51.635 o
254.052 61.0974 o
254.702 53.5197 o
255.353 57.8945 o
256.004 58.8483 o
256.654 59.0315 o
257.305 50.4671 o
257.955 57.7886 o
258.606 61.7328 o
259.257 61.5411 o
259.907 62.5984 o
260.558 57.794 o
261.208 52.6323 o
261.859 61.6901 o
262.51 63.5348 o
263.16 68.7855 o
263.811 65.3759 o
264.462 61.5343 o
265.112 53.7411 o
265.763 58.2826 o
266.413 63.4339 o
267.064 58.7437 o
267.715 58.3585 o
268.365 59.2697 o
269.016 61.5145 o
269.666 62.7549 o
270.317 69.6909 o
270.968 61.4841 o
271.618 53.064 o
272.269 68.7178 o
272.919 56.2586 o
273.57 66.3361 o
274.221 64.2545 o
274.871 61.7761 o
275.522 59.6774 o
276.173 58.9886 o
276.823 58.3862 o
277.474 54.4424 o
278.124 56.5483 o
278.775 49.4566 o
279.426 58.1243 o
280.076 59.7103 o
280.727 65.4628 o
281.377 62.1502 o
282.028 54.8902 o
282.679 61.9447 o
283.329 57.8716 o
283.98 44.4571 o
284.63 60.9844 o
285.281 53.8238 o
285.932 55.7695 o
286.582 61.5076 o
287.233 61.7046 o
287.884 58.1203 o
288.534 62.2803 o
289.185 57.5104 o
289.835 60.6706 o
290.486 58.935 o
291.137 57.5517 o
291.787 57.0326 o
292.438 53.8476 o
293.088 53.9959 o
293.739 54.7945 o
294.39 45.0554 o
295.04 58.1608 o
295.691 52.3499 o
296.341 58.2867 o
296.992 55.4825 o
297.643 52.5797 o
298.293 57.1632 o
298.944 58.0459 o
299.595 59.9176 o
300.245 57.2812 o
300.896 60.784 o
301.546 60.4088 o
302.197 56.3602 o
302.848 46.7042 o
303.498 55.7035 o
304.149 58.0355 o
304.799 50.2205 o
305.45 56.1649 o
306.101 57.6263 o
306.751 49.3843 o
307.402 57.2748 o
308.052 55.0645 o
308.703 56.2092 o
309.354 53.6233 o
310.004 57.0222 o
310.655 47.1025 o
311.305 56.8207 o
311.956 53.1886 o
312.607 55.1229 o
313.257 56.0093 o
313.908 57.6109 o
314.559 57.1379 o
315.209 56.2995 o
315.86 57.2246 o
316.51 55.7118 o
317.161 57.1661 o
317.812 50.375 o
318.462 55.5915 o
319.113 56.2108 o
319.763 57.432 o
320.414 54.4882 o
321.065 54.4187 o
321.715 53.8224 o
322.366 54.712 o
323.016 56.786 o
323.667 55.9961 o
324.318 54.3782 o
324.968 54.1671 o
325.619 43.5142 o
326.27 55.8422 o
326.92 52.6142 o
327.571 55.7282 o
328.221 56.5499 o
328.872 55.4114 o
329.523 52.354 o
330.173 54.7739 o
330.824 55.0348 o
331.474 55.7259 o
332.125 54.364 o
332.776 51.6831 o
333.426 53.2773 o
334.077 55.479 o
334.727 55.8003 o
335.378 53.3941 o
336.029 54.1104 o
336.679 54.3736 o
337.33 55.1175 o
337.981 55.3238 o
338.631 55.3743 o
339.282 54.0017 o
339.932 55.8782 o
340.583 55.3213 o
341.234 55.8229 o
341.884 54.2894 o
342.535 55.2159 o
343.185 55.0704 o
343.836 54.8452 o
344.487 53.8065 o
345.137 53.5259 o
345.788 55.0142 o
346.438 55.5433 o
347.089 55.495 o
347.74 54.5711 o
348.39 55.324 o
349.041 54.5069 o
349.691 54.7439 o
350.342 54.9409 o
350.993 55.1408 o
351.643 55.915 o
352.294 55.5289 o
352.945 55.9483 o
353.595 56.1517 o
354.246 55.9514 o
354.896 57.8265 o
355.547 53.887 o
356.198 52.5861 o
356.848 57.348 o
357.499 46.1599 o
358.149 53.9489 o
358.8 52.3677 o
359.451 55.9378 o
360.101 52.2115 o
360.752 53.5937 o
361.402 53.7932 o
362.053 55.1129 o
362.704 60.8676 o
363.354 58.4504 o
364.005 53.7568 o
364.656 54.26 o
365.306 57.8183 o
365.957 57.9644 o
366.607 46.6288 o
367.258 57.1858 o
367.909 56.5499 o
368.559 58.9722 o
369.21 53.6054 o
369.86 57.2625 o
370.511 59.6353 o
371.162 53.1368 o
371.812 52.3006 o
372.463 53.5947 o
373.113 49.4678 o
373.764 52.0494 o
374.415 59.5685 o
375.065 51.1742 o
375.716 60.6466 o
376.367 51.67 o
377.017 54.7903 o
377.668 52.287 o
378.318 72.3728 o
378.969 47.3373 o
379.62 59.8389 o
380.27 52.2892 o
380.921 57.6255 o
381.571 54.3944 o
382.222 57.9658 o
382.873 51.7091 o
383.523 54.0756 o
384.174 57.1091 o
384.824 52.2933 o
385.475 57.8415 o
386.126 61.5453 o
386.776 50.6227 o
387.427 53.2052 o
388.078 58.5105 o
388.728 58.8018 o
389.379 56.3915 o
390.029 56.6004 o
390.68 48.9335 o
391.331 54.4524 o
391.981 83.6469 o
392.632 56.5083 o
393.282 70.7382 o
393.933 56.0238 o
394.584 53.6836 o
395.234 51.7661 o
395.885 49.8619 o
396.535 50.5824 o
397.186 44.8292 o
397.837 56.0466 o
398.487 52.1161 o
grestore
1.000 0.498 0.055 setrgbcolor
gsave
357.1 121 57.6 38.02 clipbox
/o {
gsave
newpath
translate
1.0 setlinewidth
1 setlinejoin
0 setlinecap
0 -1.5 m
0.397805 -1.5 0.77937 -1.341951 1.06066 -1.06066 c
1.341951 -0.77937 1.5 -0.397805 1.5 0 c
1.5 0.397805 1.341951 0.77937 1.06066 1.06066 c
0.77937 1.341951 0.397805 1.5 0 1.5 c
-0.397805 1.5 -0.77937 1.341951 -1.06066 1.06066 c
-1.341951 0.77937 -1.5 0.397805 -1.5 0 c
-1.5 -0.397805 -1.341951 -0.77937 -1.06066 -1.06066 c
-0.77937 -1.341951 -0.397805 -1.5 0 -1.5 c
cl

gsave
1.000 0.498 0.055 setrgbcolor
fill
grestore
stroke
grestore
} bind def
73.8327 81.0208 o
74.4833 80.1722 o
75.1339 81.7557 o
75.7846 81.0131 o
76.4352 79.7686 o
77.0858 80.1656 o
77.7364 81.244 o
78.387 81.574 o
79.0376 81.5181 o
79.6882 80.6872 o
80.3388 79.5443 o
80.9894 80.7384 o
81.6401 80.2585 o
82.2907 81.7499 o
82.9413 80.7142 o
83.5919 80.7025 o
84.2425 81.1196 o
84.8931 81.863 o
85.5437 81.6124 o
86.1943 80.6671 o
86.8449 81.2248 o
87.4955 82.1251 o
88.1462 80.8313 o
88.7968 82.0333 o
89.4474 81.0087 o
90.098 81.6203 o
90.7486 81.8406 o
91.3992 81.9558 o
92.0498 81.2036 o
92.7004 82.5036 o
93.351 81.5735 o
94.0016 79.9435 o
94.6523 82.5349 o
95.3029 83.0045 o
95.9535 83.0676 o
96.6041 81.91 o
97.2547 81.9901 o
97.9053 82.0019 o
98.5559 81.7631 o
99.2065 81.9906 o
99.8571 81.1313 o
100.508 82.1738 o
101.158 82.48 o
101.809 82.3436 o
102.46 81.9316 o
103.11 82.96 o
103.761 82.5195 o
104.411 80.648 o
105.062 82.7867 o
105.713 81.4756 o
106.363 81.6616 o
107.014 82.9216 o
107.664 82.0328 o
108.315 81.88 o
108.966 82.7897 o
109.616 82.7048 o
110.267 82.1045 o
110.918 83.602 o
111.568 82.9439 o
112.219 82.9293 o
112.869 82.3872 o
113.52 83.4406 o
114.171 81.9882 o
114.821 83.0453 o
115.472 82.4895 o
116.122 80.7483 o
116.773 82.7558 o
117.424 82.0666 o
118.074 82.5363 o
118.725 81.7568 o
119.375 82.1045 o
120.026 81.79 o
120.677 82.514 o
121.327 81.8352 o
121.978 82.1155 o
122.629 81.7083 o
123.279 83.3016 o
123.93 82.2041 o
124.58 83.0666 o
125.231 83.4971 o
125.882 84.3855 o
126.532 82.7428 o
127.183 81.9597 o
127.833 83.1574 o
128.484 83.2496 o
129.135 82.3081 o
129.785 82.3946 o
130.436 82.7121 o
131.086 82.3168 o
131.737 82.5144 o
132.388 83.537 o
133.038 81.8722 o
133.689 82.4005 o
134.339 81.3598 o
134.99 79.8492 o
135.641 82.6238 o
136.291 81.2636 o
136.942 81.4112 o
137.593 82.7029 o
138.243 81.6783 o
138.894 83.6591 o
139.544 80.8144 o
140.195 83.972 o
140.846 83.351 o
141.496 82.9616 o
142.147 82.248 o
142.797 81.4609 o
143.448 81.2275 o
144.099 82.7688 o
144.749 81.2252 o
145.4 83.0311 o
146.05 81.1825 o
146.701 81.7194 o
147.352 84.0011 o
148.002 83.0108 o
148.653 81.3627 o
149.304 82.2307 o
149.954 80.7641 o
150.605 83.196 o
151.255 83.2338 o
151.906 80.4287 o
152.557 81.5227 o
153.207 83.7664 o
153.858 82.6956 o
154.508 81.1101 o
155.159 83.1838 o
155.81 83.3676 o
156.46 81.2372 o
157.111 82.2123 o
157.761 81.7461 o
158.412 81.0685 o
159.063 83.1292 o
159.713 80.8323 o
160.364 83.0694 o
161.015 81.4093 o
161.665 82.9548 o
162.316 83.0138 o
162.966 81.5196 o
163.617 81.9895 o
164.268 82.3068 o
164.918 83.2484 o
165.569 82.2593 o
166.219 81.6513 o
166.87 82.0361 o
167.521 81.8911 o
168.171 82.0301 o
168.822 82.2534 o
169.472 81.5899 o
170.123 81.7684 o
170.774 82.7725 o
171.424 83.068 o
172.075 81.1155 o
172.725 81.9462 o
173.376 82.1639 o
174.027 81.7752 o
174.677 80.1313 o
175.328 81.4693 o
175.979 81.9996 o
176.629 82.0311 o
177.28 81.3633 o
177.93 82.0565 o
178.581 81.371 o
179.232 81.8211 o
179.882 83.5088 o
180.533 81.5974 o
181.183 80.5778 o
181.834 82.4369 o
182.485 79.4603 o
183.135 80.9204 o
183.786 80.4568 o
184.436 81.7569 o
185.087 81.3292 o
185.738 80.4161 o
186.388 81.5371 o
187.039 81.4662 o
187.69 81.515 o
188.34 81.1076 o
188.991 81.5868 o
189.641 81.3198 o
190.292 81.3595 o
190.943 80.1959 o
191.593 81.668 o
192.244 80.4307 o
192.894 80.4658 o
193.545 80.1831 o
194.196 82.3061 o
194.846 80.6211 o
195.497 81.4695 o
196.147 80.6416 o
196.798 80.8773 o
197.449 80.3358 o
198.099 79.85 o
198.75 80.1211 o
199.401 81.6852 o
200.051 81.3073 o
200.702 80.438 o
201.352 78.6575 o
202.003 79.9294 o
202.654 81.0172 o
203.304 81.1155 o
203.955 80.3086 o
204.605 80.7743 o
205.256 78.9447 o
205.907 80.8437 o
206.557 78.3369 o
207.208 78.0682 o
207.858 80.6317 o
208.509 79.3444 o
209.16 81.7373 o
209.81 79.8055 o
210.461 81.1625 o
211.112 80.101 o
211.762 77.4524 o
212.413 80.0401 o
213.063 75.6927 o
213.714 78.7434 o
214.365 82.2052 o
215.015 77.6711 o
215.666 79.9172 o
216.316 80.1173 o
216.967 76.307 o
217.618 79.4496 o
218.268 78.0736 o
218.919 75.8404 o
219.569 78.5974 o
220.22 76.3364 o
220.871 75.5993 o
221.521 79.4086 o
222.172 76.8059 o
222.822 80.166 o
223.473 80.5105 o
224.124 79.7863 o
224.774 77.0736 o
225.425 78.1918 o
226.076 76.7883 o
226.726 75.6535 o
227.377 71.543 o
228.027 77.9515 o
228.678 77.0368 o
229.329 79.2896 o
229.979 75.8247 o
230.63 79.5738 o
231.28 76.4404 o
231.931 74.3494 o
232.582 74.3361 o
233.232 80.1977 o
233.883 81.5787 o
234.533 80.1864 o
235.184 79.0907 o
235.835 79.8675 o
236.485 81.1969 o
237.136 80.1387 o
237.787 76.1397 o
238.437 75.047 o
239.088 78.8946 o
239.738 79.9402 o
240.389 82.8102 o
241.04 75.5934 o
241.69 76.153 o
242.341 76.3314 o
242.991 73.2408 o
243.642 75.432 o
244.293 85.124 o
244.943 73.5746 o
245.594 75.7452 o
246.244 80.4658 o
246.895 81.4057 o
247.546 73.9106 o
248.196 70.3641 o
248.847 74.5734 o
249.498 79.2538 o
250.148 64.7431 o
250.799 75.3694 o
251.449 83.0057 o
252.1 79.945 o
252.751 78.3533 o
253.401 69.3234 o
254.052 76.8334 o
254.702 71.1634 o
255.353 74.5594 o
256.004 74.5857 o
256.654 74.9672 o
257.305 70.2888 o
257.955 74.2843 o
258.606 77.8586 o
259.257 78.5023 o
259.907 81.1481 o
260.558 74.7547 o
261.208 71.0926 o
261.859 77.3681 o
262.51 80.9878 o
263.16 84.7691 o
263.811 83.4882 o
264.462 77.5962 o
265.112 70.7154 o
265.763 71.0186 o
266.413 78.3196 o
267.064 74.9518 o
267.715 74.2306 o
268.365 75.9697 o
269.016 77.2169 o
269.666 77.6398 o
270.317 86.9756 o
270.968 76.9602 o
271.618 68.3635 o
272.269 86.6985 o
272.919 72.4216 o
273.57 84.9924 o
274.221 82.8949 o
274.871 76.3561 o
275.522 76.8825 o
276.173 74.9409 o
276.823 70.5591 o
277.474 68.7761 o
278.124 73.6978 o
278.775 63.4372 o
279.426 71.9747 o
280.076 76.2656 o
280.727 81.8165 o
281.377 80.5788 o
282.028 69.8654 o
282.679 79.1896 o
283.329 73.4613 o
283.98 59.2322 o
284.63 77.1162 o
285.281 67.8571 o
285.932 68.2274 o
286.582 78.7953 o
287.233 82.0276 o
287.884 71.9945 o
288.534 82.8712 o
289.185 74.2091 o
289.835 75.0143 o
290.486 75.4963 o
291.137 75.9058 o
291.787 73.3958 o
292.438 67.0145 o
293.088 66.0708 o
293.739 68.1476 o
294.39 59.5767 o
295.04 73.1281 o
295.691 67.2173 o
296.341 74.7929 o
296.992 69.2124 o
297.643 65.9616 o
298.293 73.1743 o
298.944 71.5976 o
299.595 77.7219 o
300.245 73.4631 o
300.896 87.1466 o
301.546 78.116 o
302.197 68.2043 o
302.848 57.4774 o
303.498 70.2614 o
304.149 72.5593 o
304.799 62.6262 o
305.45 69.2361 o
306.101 77.9492 o
306.751 60.544 o
307.402 75.9875 o
308.052 71.4218 o
308.703 69.6955 o
309.354 63.1083 o
310.004 76.6992 o
310.655 60.2925 o
311.305 66.8992 o
311.956 65.7186 o
312.607 70.2688 o
313.257 70.9652 o
313.908 66.643 o
314.559 71.7412 o
315.209 69.0365 o
315.86 76.3369 o
316.51 70.9916 o
317.161 96.7111 o
317.812 61.9862 o
318.462 69.4687 o
319.113 83.8233 o
319.763 74.2862 o
320.414 64.3924 o
321.065 66.4517 o
321.715 65.2598 o
322.366 67.737 o
323.016 68.4793 o
323.667 91.5083 o
324.318 69.2681 o
324.968 61.855 o
325.619 52.0812 o
326.27 69.1445 o
326.92 58.8322 o
327.571 68.9761 o
328.221 71.8612 o
328.872 82.8515 o
329.523 59.3598 o
330.173 82.9778 o
330.824 65.3297 o
331.474 67.6476 o
332.125 61.0317 o
332.776 55.3226 o
333.426 68.0624 o
334.077 75.4959 o
334.727 65.7304 o
335.378 81.9563 o
336.029 63.9428 o
336.679 64.1676 o
337.33 63.9243 o
337.981 73.3117 o
338.631 69.5531 o
339.282 69.6248 o
339.932 71.6222 o
340.583 58.368 o
341.234 64.4687 o
341.884 55.4537 o
342.535 59.4295 o
343.185 65.3213 o
343.836 55.1602 o
344.487 70.895 o
345.137 67.1482 o
345.788 57.5351 o
346.438 72.0803 o
347.089 61.9921 o
347.74 56.3302 o
348.39 61.4169 o
349.041 67.7432 o
349.691 64.2269 o
350.342 59.7652 o
350.993 68.4919 o
351.643 62.7628 o
352.294 60.3366 o
352.945 61.7286 o
353.595 60.3973 o
354.246 62.535 o
354.896 57.5833 o
355.547 67.0692 o
356.198 71.9829 o
356.848 60.3535 o
357.499 84.8708 o
358.149 67.9839 o
358.8 70.1153 o
359.451 59.8508 o
360.101 71.9225 o
360.752 68.9414 o
361.402 65.0794 o
362.053 61.9247 o
362.704 57.359 o
363.354 56.0966 o
364.005 63.3831 o
364.656 65.8028 o
365.306 55.0634 o
365.957 58.6008 o
366.607 77.1812 o
367.258 54.3194 o
367.909 60.8501 o
368.559 58.0525 o
369.21 61.0288 o
369.86 58.6876 o
370.511 55.7296 o
371.162 65.8656 o
371.812 67.6114 o
372.463 62.7846 o
373.113 68.064 o
373.764 65.3963 o
374.415 55.9229 o
375.065 65.8876 o
375.716 57.0301 o
376.367 64.1771 o
377.017 61.9443 o
377.668 66.1946 o
378.318 50.986 o
378.969 71.8776 o
379.62 55.4773 o
380.27 63.9981 o
380.921 58.4763 o
381.571 61.8194 o
382.222 57.6978 o
382.873 65.1444 o
383.523 57.8985 o
384.174 58.6641 o
384.824 61.833 o
385.475 58.1773 o
386.126 52.9454 o
386.776 64.0702 o
387.427 62.1822 o
388.078 58.3568 o
388.728 58.9661 o
389.379 60.9783 o
390.029 58.7553 o
390.68 66.8608 o
391.331 62.0919 o
391.981 51.5629 o
392.632 58.6809 o
393.282 52.6817 o
393.933 59.4961 o
394.584 59.2718 o
395.234 64.1335 o
395.885 64.5188 o
396.535 62.9978 o
397.186 67.9083 o
397.837 60.6047 o
398.487 62.6496 o
grestore
0.173 0.627 0.173 setrgbcolor
gsave
357.1 121 57.6 38.02 clipbox
/o {
gsave
newpath
translate
1.0 setlinewidth
1 setlinejoin
0 setlinecap
0 -1.5 m
0.397805 -1.5 0.77937 -1.341951 1.06066 -1.06066 c
1.341951 -0.77937 1.5 -0.397805 1.5 0 c
1.5 0.397805 1.341951 0.77937 1.06066 1.06066 c
0.77937 1.341951 0.397805 1.5 0 1.5 c
-0.397805 1.5 -0.77937 1.341951 -1.06066 1.06066 c
-1.341951 0.77937 -1.5 0.397805 -1.5 0 c
-1.5 -0.397805 -1.341951 -0.77937 -1.06066 -1.06066 c
-0.77937 -1.341951 -0.397805 -1.5 0 -1.5 c
cl

gsave
0.173 0.627 0.173 setrgbcolor
fill
grestore
stroke
grestore
} bind def
73.8327 82.3749 o
74.4833 80.8236 o
75.1339 80.3369 o
75.7846 80.9226 o
76.4352 82.096 o
77.0858 81.7992 o
77.7364 81.0714 o
78.387 81.1715 o
79.0376 82.0172 o
79.6882 82.2202 o
80.3388 82.2076 o
80.9894 81.0199 o
81.6401 82.8016 o
82.2907 82.1361 o
82.9413 81.78 o
83.5919 82.2656 o
84.2425 82.0786 o
84.8931 83.2121 o
85.5437 83.4994 o
86.1943 82.5858 o
86.8449 84.102 o
87.4955 83.6425 o
88.1462 83.1002 o
88.7968 83.0445 o
89.4474 82.8318 o
90.098 83.8578 o
90.7486 83.785 o
91.3992 84.514 o
92.0498 84.0018 o
92.7004 84.313 o
93.351 83.4419 o
94.0016 83.2641 o
94.6523 84.7099 o
95.3029 84.5973 o
95.9535 86.1202 o
96.6041 84.8837 o
97.2547 85.8488 o
97.9053 85.1814 o
98.5559 84.1159 o
99.2065 83.7426 o
99.8571 86.3793 o
100.508 85.7963 o
101.158 84.6618 o
101.809 85.1319 o
102.46 85.4316 o
103.11 85.7509 o
103.761 85.9895 o
104.411 85.9796 o
105.062 87.0766 o
105.713 86.4429 o
106.363 87.8548 o
107.014 86.5406 o
107.664 86.7477 o
108.315 86.6166 o
108.966 86.1725 o
109.616 87.6036 o
110.267 88.859 o
110.918 87.2256 o
111.568 87.4969 o
112.219 89.2779 o
112.869 88.7354 o
113.52 87.5645 o
114.171 90.35 o
114.821 88.8976 o
115.472 88.933 o
116.122 87.0898 o
116.773 87.7598 o
117.424 87.9905 o
118.074 88.5737 o
118.725 89.1723 o
119.375 88.5769 o
120.026 86.837 o
120.677 91.2683 o
121.327 88.0416 o
121.978 90.554 o
122.629 89.8448 o
123.279 89.9182 o
123.93 89.8726 o
124.58 89.0994 o
125.231 89.4578 o
125.882 89.1882 o
126.532 91.5174 o
127.183 89.0471 o
127.833 90.8961 o
128.484 91.7514 o
129.135 92.2901 o
129.785 90.304 o
130.436 90.3847 o
131.086 89.7693 o
131.737 92.2267 o
132.388 89.4942 o
133.038 90.2331 o
133.689 90.6946 o
134.339 91.6002 o
134.99 89.3286 o
135.641 94.0352 o
136.291 90.6759 o
136.942 90.7524 o
137.593 91.5317 o
138.243 91.659 o
138.894 92.3351 o
139.544 88.2695 o
140.195 94.405 o
140.846 95.2648 o
141.496 93.6258 o
142.147 93.381 o
142.797 94.0352 o
143.448 92.2902 o
144.099 92.8916 o
144.749 93.2564 o
145.4 93.5573 o
146.05 90.1579 o
146.701 93.7375 o
147.352 95.0992 o
148.002 93.9537 o
148.653 93.3251 o
149.304 94.9728 o
149.954 92.4498 o
150.605 95.4664 o
151.255 95.0951 o
151.906 93.4187 o
152.557 91.1936 o
153.207 95.1083 o
153.858 96.6087 o
154.508 92.4776 o
155.159 97.2381 o
155.81 98.103 o
156.46 93.1908 o
157.111 99.7951 o
157.761 95.0643 o
158.412 93.9622 o
159.063 96.0604 o
159.713 94.263 o
160.364 96.3648 o
161.015 95.6596 o
161.665 94.9803 o
162.316 95.9628 o
162.966 97.6562 o
163.617 96.1284 o
164.268 98.1748 o
164.918 100.662 o
165.569 96.7264 o
166.219 99.1109 o
166.87 95.8119 o
167.521 95.6058 o
168.171 95.3931 o
168.822 98.695 o
169.472 95.7031 o
170.123 94.9798 o
170.774 101.831 o
171.424 97.5691 o
172.075 98.8422 o
172.725 100.377 o
173.376 97.3155 o
174.027 98.229 o
174.677 94.5124 o
175.328 96.1845 o
175.979 101.885 o
176.629 102.52 o
177.28 98.6193 o
177.93 102.275 o
178.581 102.596 o
179.232 102.711 o
179.882 102.935 o
180.533 105.129 o
181.183 97.7783 o
181.834 101.694 o
182.485 96.6311 o
183.135 103.041 o
183.786 98.2305 o
184.436 102.588 o
185.087 101.069 o
185.738 103.079 o
186.388 101.067 o
187.039 103.152 o
187.69 101.95 o
188.34 101.518 o
188.991 99.387 o
189.641 98.5644 o
190.292 103.017 o
190.943 99.0458 o
191.593 105.913 o
192.244 105.892 o
192.894 99.7096 o
193.545 102.847 o
194.196 103.992 o
194.846 104.634 o
195.497 101.949 o
196.147 104.218 o
196.798 105.18 o
197.449 102.833 o
198.099 102.84 o
198.75 106.395 o
199.401 104.458 o
200.051 99.3561 o
200.702 99.1653 o
201.352 107.611 o
202.003 104.339 o
202.654 102.959 o
203.304 103.551 o
203.955 104.03 o
204.605 104.168 o
205.256 107.655 o
205.907 101.758 o
206.557 106.824 o
207.208 110.185 o
207.858 101.483 o
208.509 104.412 o
209.16 101.967 o
209.81 105.274 o
210.461 102.83 o
211.112 105.476 o
211.762 108.479 o
212.413 103.375 o
213.063 113.296 o
213.714 106.152 o
214.365 102.421 o
215.015 108.02 o
215.666 105.136 o
216.316 103.053 o
216.967 108.388 o
217.618 105.104 o
218.268 108.215 o
218.919 111.215 o
219.569 110.492 o
220.22 109.776 o
220.871 109.175 o
221.521 107.164 o
222.172 109.011 o
222.822 105.166 o
223.473 104.332 o
224.124 102.786 o
224.774 107.823 o
225.425 107.54 o
226.076 109.183 o
226.726 110.815 o
227.377 114.169 o
228.027 109.076 o
228.678 109.085 o
229.329 109.332 o
229.979 109.266 o
230.63 106.665 o
231.28 109.431 o
231.931 112.391 o
232.582 111.505 o
233.232 106.112 o
233.883 106.259 o
234.533 106.529 o
235.184 108.058 o
235.835 107.587 o
236.485 106.603 o
237.136 107.539 o
237.787 110.65 o
238.437 109.619 o
239.088 109.146 o
239.738 108.195 o
240.389 105.898 o
241.04 109.977 o
241.69 110.907 o
242.341 110.959 o
242.991 111.093 o
243.642 109.648 o
244.293 102.765 o
244.943 112.772 o
245.594 110.913 o
246.244 109.478 o
246.895 108.418 o
247.546 113.069 o
248.196 112.732 o
248.847 112.053 o
249.498 109.112 o
250.148 113.743 o
250.799 112.173 o
251.449 108.037 o
252.1 110.743 o
252.751 111.136 o
253.401 111.551 o
254.052 111.986 o
254.702 111.626 o
255.353 112.564 o
256.004 110.851 o
256.654 113.941 o
257.305 110.874 o
257.955 112.347 o
258.606 112.538 o
259.257 112.253 o
259.907 109.439 o
260.558 112.459 o
261.208 111.503 o
261.859 112.501 o
262.51 112.62 o
263.16 110.548 o
263.811 111.917 o
264.462 112.802 o
265.112 114.056 o
265.763 115.354 o
266.413 113.692 o
267.064 114.138 o
267.715 114.203 o
268.365 113.944 o
269.016 115.431 o
269.666 114.85 o
270.317 112.814 o
270.968 115.228 o
271.618 112.408 o
272.269 112.675 o
272.919 114.05 o
273.57 115.44 o
274.221 114.543 o
274.871 115.811 o
275.522 115.323 o
276.173 116.077 o
276.823 117.342 o
277.474 114.875 o
278.124 114.079 o
278.775 111.854 o
279.426 116.307 o
280.076 116.879 o
280.727 117.143 o
281.377 116.188 o
282.028 115.309 o
282.679 116.933 o
283.329 117.463 o
283.98 109.697 o
284.63 117.534 o
285.281 115.686 o
285.932 116.369 o
286.582 117.26 o
287.233 118.288 o
287.884 118.065 o
288.534 118.541 o
289.185 117.708 o
289.835 120.451 o
290.486 118.397 o
291.137 117.251 o
291.787 117.902 o
292.438 115.234 o
293.088 116.454 o
293.739 115.536 o
294.39 109.324 o
295.04 119.978 o
295.691 115.836 o
296.341 120.101 o
296.992 117.824 o
297.643 115.787 o
298.293 119.177 o
298.944 121.478 o
299.595 121.833 o
300.245 119.459 o
300.896 122.077 o
301.546 120.91 o
302.197 119.041 o
302.848 110.545 o
303.498 118.735 o
304.149 121.652 o
304.799 114.685 o
305.45 119.714 o
306.101 120.895 o
306.751 114.75 o
307.402 121.336 o
308.052 119.987 o
308.703 120.158 o
309.354 118.362 o
310.004 122.333 o
310.655 110.97 o
311.305 119.865 o
311.956 117.396 o
312.607 121.918 o
313.257 121.098 o
313.908 122.372 o
314.559 123.42 o
315.209 122.546 o
315.86 123.613 o
316.51 121.594 o
317.161 129.685 o
317.812 114.851 o
318.462 122.376 o
319.113 126.886 o
319.763 125.358 o
320.414 120.426 o
321.065 121.486 o
321.715 120.473 o
322.366 121.648 o
323.016 124.268 o
323.667 129.335 o
324.318 122.814 o
324.968 120.822 o
325.619 106.921 o
326.27 123.825 o
326.92 119.059 o
327.571 123.857 o
328.221 125.762 o
328.872 129.972 o
329.523 118.978 o
330.173 128.783 o
330.824 122.581 o
331.474 123.719 o
332.125 121.389 o
332.776 117.625 o
333.426 122.266 o
334.077 126.993 o
334.727 125.476 o
335.378 130.693 o
336.029 122.573 o
336.679 123.051 o
337.33 123.484 o
337.981 127.551 o
338.631 127.816 o
339.282 125.371 o
339.932 127.382 o
340.583 122.696 o
341.234 124.225 o
341.884 119.704 o
342.535 123.403 o
343.185 125.002 o
343.836 121.39 o
344.487 126.779 o
345.137 125.052 o
345.788 122.06 o
346.438 130.505 o
347.089 125.54 o
347.74 122.245 o
348.39 125.726 o
349.041 128.023 o
349.691 126.568 o
350.342 123.389 o
350.993 129.2 o
351.643 126.584 o
352.294 125.937 o
352.945 126.836 o
353.595 127.25 o
354.246 127.504 o
354.896 127.339 o
355.547 128.291 o
356.198 131.145 o
356.848 128.592 o
357.499 137.392 o
358.149 129.707 o
358.8 130.247 o
359.451 126.182 o
360.101 131.586 o
360.752 131.407 o
361.402 128.959 o
362.053 128.564 o
362.704 130.399 o
363.354 128.207 o
364.005 129.435 o
364.656 131.08 o
365.306 127.856 o
365.957 129.686 o
366.607 134.052 o
367.258 127.013 o
367.909 128.962 o
368.559 131.294 o
369.21 127.674 o
369.86 130.027 o
370.511 129.027 o
371.162 131.243 o
371.812 132.877 o
372.463 130.873 o
373.113 131.345 o
373.764 132.117 o
374.415 133.13 o
375.065 131.514 o
375.716 134.461 o
376.367 130.521 o
377.017 131.481 o
377.668 132.546 o
378.318 141.358 o
378.969 134.426 o
379.62 132.908 o
380.27 132.917 o
380.921 134.21 o
381.571 132.147 o
382.222 133.572 o
382.873 133.183 o
383.523 129.406 o
384.174 133.255 o
384.824 132.275 o
385.475 133.436 o
386.126 134.033 o
386.776 132.57 o
387.427 133.3 o
388.078 134.269 o
388.728 136.411 o
389.379 136.311 o
390.029 135.957 o
390.68 133.096 o
391.331 135.661 o
391.981 153.478 o
392.632 135.086 o
393.282 143.749 o
393.933 135.519 o
394.584 132.905 o
395.234 135.417 o
395.885 132.852 o
396.535 132.893 o
397.186 133.2 o
397.837 138.579 o
398.487 135.087 o
grestore
1.500 setlinewidth
2 setlinecap
0.839 0.153 0.157 setrgbcolor
gsave
357.1 121 57.6 38.02 clipbox
73.832727 80.796689 m
97.905309 77.916116 l
131.737045 73.61663 l
177.930377 67.766709 l
202.002959 64.94954 l
223.473099 62.656598 l
243.642019 60.724745 l
263.160328 59.07941 l
282.028027 57.712455 l
300.245116 56.615301 l
317.811594 55.783043 l
334.076852 55.234387 l
349.040889 54.948397 l
362.703706 54.905621 l
375.065302 55.085004 l
386.125677 55.460383 l
396.535442 56.040777 l
398.487273 56.17798 l
398.487273 56.17798 l
stroke
grestore
0.580 0.404 0.741 setrgbcolor
gsave
357.1 121 57.6 38.02 clipbox
73.832727 80.796689 m
90.097985 81.617108 l
105.712633 82.1772 l
120.67667 82.493558 l
135.640707 82.587597 l
150.604744 82.457351 l
165.568781 82.105538 l
181.183429 81.509991 l
196.798076 80.693572 l
213.063334 79.625589 l
230.629812 78.246554 l
249.497511 76.535631 l
269.666431 74.482528 l
292.437792 71.937721 l
319.112815 68.726428 l
356.848213 63.935026 l
398.487273 58.667892 l
398.487273 58.667892 l
stroke
grestore
0.549 0.337 0.294 setrgbcolor
gsave
357.1 121 57.6 38.02 clipbox
73.832727 80.796689 m
103.760802 86.076439 l
208.509062 104.791857 l
235.834695 109.287876 l
265.762769 113.978385 l
353.595161 127.559394 l
369.860419 130.418058 l
382.872625 132.919159 l
393.933001 135.254308 l
398.487273 136.286075 l
398.487273 136.286075 l
stroke
grestore
0.800 setlinewidth
0 setlinejoin
[] 0 setdash
0.000 setgray
gsave
57.6 38.016 m
57.6 158.976 l
stroke
grestore
gsave
414.72 38.016 m
414.72 158.976 l
stroke
grestore
gsave
57.6 38.016 m
414.72 38.016 l
stroke
grestore
gsave
57.6 158.976 m
414.72 158.976 l
stroke
grestore
1.000 setlinewidth
0 setlinecap
0.800 setgray
gsave
64.6 106.960375 m
121.490625 106.960375 l
122.823958 106.960375 123.490625 107.627042 123.490625 108.960375 c
123.490625 151.976 l
123.490625 153.309333 122.823958 153.976 121.490625 153.976 c
64.6 153.976 l
63.266667 153.976 62.6 153.309333 62.6 151.976 c
62.6 108.960375 l
62.6 107.627042 63.266667 106.960375 64.6 106.960375 c
cl
gsave
1.000 setgray
fill
grestore
stroke
grestore
1 setlinejoin
[] 0 setdash
0.122 0.467 0.706 setrgbcolor
gsave
/o {
gsave
newpath
translate
1.0 setlinewidth
1 setlinejoin
0 setlinecap
0 -1.5 m
0.397805 -1.5 0.77937 -1.341951 1.06066 -1.06066 c
1.341951 -0.77937 1.5 -0.397805 1.5 0 c
1.5 0.397805 1.341951 0.77937 1.06066 1.06066 c
0.77937 1.341951 0.397805 1.5 0 1.5 c
-0.397805 1.5 -0.77937 1.341951 -1.06066 1.06066 c
-1.341951 0.77937 -1.5 0.397805 -1.5 0 c
-1.5 -0.397805 -1.341951 -0.77937 -1.06066 -1.06066 c
-0.77937 -1.341951 -0.397805 -1.5 0 -1.5 c
cl

gsave
0.122 0.467 0.706 setrgbcolor
fill
grestore
stroke
grestore
} bind def
76.6 145.882 o
grestore
0.000 setgray
gsave
94.600000 142.382250 translate
0.000000 rotate
0.000000 0.000000 m /r glyphshow
4.111328 0.000000 m /o glyphshow
10.229492 0.000000 m /l glyphshow
13.007812 0.000000 m /l glyphshow
grestore
1.000 0.498 0.055 setrgbcolor
gsave
/o {
gsave
newpath
translate
1.0 setlinewidth
1 setlinejoin
0 setlinecap
0 -1.5 m
0.397805 -1.5 0.77937 -1.341951 1.06066 -1.06066 c
1.341951 -0.77937 1.5 -0.397805 1.5 0 c
1.5 0.397805 1.341951 0.77937 1.06066 1.06066 c
0.77937 1.341951 0.397805 1.5 0 1.5 c
-0.397805 1.5 -0.77937 1.341951 -1.06066 1.06066 c
-1.341951 0.77937 -1.5 0.397805 -1.5 0 c
-1.5 -0.397805 -1.341951 -0.77937 -1.06066 -1.06066 c
-0.77937 -1.341951 -0.397805 -1.5 0 -1.5 c
cl

gsave
1.000 0.498 0.055 setrgbcolor
fill
grestore
stroke
grestore
} bind def
76.6 131.21 o
grestore
0.000 setgray
gsave
94.600000 127.710375 translate
0.000000 rotate
0.000000 0.000000 m /p glyphshow
6.347656 0.000000 m /i glyphshow
9.125977 0.000000 m /t glyphshow
13.046875 0.000000 m /c glyphshow
18.544922 0.000000 m /h glyphshow
grestore
0.173 0.627 0.173 setrgbcolor
gsave
/o {
gsave
newpath
translate
1.0 setlinewidth
1 setlinejoin
0 setlinecap
0 -1.5 m
0.397805 -1.5 0.77937 -1.341951 1.06066 -1.06066 c
1.341951 -0.77937 1.5 -0.397805 1.5 0 c
1.5 0.397805 1.341951 0.77937 1.06066 1.06066 c
0.77937 1.341951 0.397805 1.5 0 1.5 c
-0.397805 1.5 -0.77937 1.341951 -1.06066 1.06066 c
-1.341951 0.77937 -1.5 0.397805 -1.5 0 c
-1.5 -0.397805 -1.341951 -0.77937 -1.06066 -1.06066 c
-0.77937 -1.341951 -0.397805 -1.5 0 -1.5 c
cl

gsave
0.173 0.627 0.173 setrgbcolor
fill
grestore
stroke
grestore
} bind def
76.6 116.538 o
grestore
0.000 setgray
gsave
94.600000 113.038500 translate
0.000000 rotate
0.000000 0.000000 m /y glyphshow
5.917969 0.000000 m /a glyphshow
12.045898 0.000000 m /w glyphshow
grestore

end
showpage
