%!PS-Adobe-3.0 EPSF-3.0
%%Title: figures/gradient.eps
%%Creator: matplotlib version 2.0.0, http://matplotlib.org/
%%CreationDate: Mon Feb 27 22:22:47 2017
%%Orientation: portrait
%%BoundingBox: 75 223 536 568
%%EndComments
%%BeginProlog
/mpldict 8 dict def
mpldict begin
/m { moveto } bind def
/l { lineto } bind def
/r { rlineto } bind def
/c { curveto } bind def
/cl { closepath } bind def
/box {
m
1 index 0 r
0 exch r
neg 0 r
cl
} bind def
/clipbox {
box
clip
newpath
} bind def
%!PS-Adobe-3.0 Resource-Font
%%Title: DejaVu Sans
%%Copyright: Copyright (c) 2003 by Bitstream, Inc. All Rights Reserved. Copyright (c) 2006 by Tavmjong Bah. All Rights Reserved. DejaVu changes are in public domain 
%%Creator: Converted from TrueType to type 3 by PPR
25 dict begin
/_d{bind def}bind def
/_m{moveto}_d
/_l{lineto}_d
/_cl{closepath eofill}_d
/_c{curveto}_d
/_sc{7 -1 roll{setcachedevice}{pop pop pop pop pop pop}ifelse}_d
/_e{exec}_d
/FontName /DejaVuSans def
/PaintType 0 def
/FontMatrix[.001 0 0 .001 0 0]def
/FontBBox[-1021 -463 1793 1232]def
/FontType 3 def
/Encoding [ /space /zero /one /two /five /seven /E /P /S /bracketleft /bracketright /a /c /d /e /g /h /i /l /m /n /o /p /r /s /t /u /w /x /y /z /minus ] def
/FontInfo 10 dict dup begin
/FamilyName (DejaVu Sans) def
/FullName (DejaVu Sans) def
/Notice (Copyright (c) 2003 by Bitstream, Inc. All Rights Reserved. Copyright (c) 2006 by Tavmjong Bah. All Rights Reserved. DejaVu changes are in public domain ) def
/Weight (Book) def
/Version (Version 2.35) def
/ItalicAngle 0.0 def
/isFixedPitch false def
/UnderlinePosition -130 def
/UnderlineThickness 90 def
end readonly def
/CharStrings 32 dict dup begin
/space{318 0 0 0 0 0 _sc
}_d
/zero{636 0 66 -13 570 742 _sc
318 664 _m
267 664 229 639 203 589 _c
177 539 165 464 165 364 _c
165 264 177 189 203 139 _c
229 89 267 64 318 64 _c
369 64 407 89 433 139 _c
458 189 471 264 471 364 _c
471 464 458 539 433 589 _c
407 639 369 664 318 664 _c
318 742 _m
399 742 461 709 505 645 _c
548 580 570 486 570 364 _c
570 241 548 147 505 83 _c
461 19 399 -13 318 -13 _c
236 -13 173 19 130 83 _c
87 147 66 241 66 364 _c
66 486 87 580 130 645 _c
173 709 236 742 318 742 _c
_cl}_d
/one{636 0 110 0 544 729 _sc
124 83 _m
285 83 _l
285 639 _l
110 604 _l
110 694 _l
284 729 _l
383 729 _l
383 83 _l
544 83 _l
544 0 _l
124 0 _l
124 83 _l
_cl}_d
/two{{636 0 73 0 536 742 _sc
192 83 _m
536 83 _l
536 0 _l
73 0 _l
73 83 _l
110 121 161 173 226 239 _c
290 304 331 346 348 365 _c
380 400 402 430 414 455 _c
426 479 433 504 433 528 _c
433 566 419 598 392 622 _c
365 646 330 659 286 659 _c
255 659 222 653 188 643 _c
154 632 117 616 78 594 _c
78 694 _l
118 710 155 722 189 730 _c
223 738 255 742 284 742 _c
}_e{359 742 419 723 464 685 _c
509 647 532 597 532 534 _c
532 504 526 475 515 449 _c
504 422 484 390 454 354 _c
446 344 420 317 376 272 _c
332 227 271 164 192 83 _c
_cl}_e}_d
/five{{636 0 77 -13 549 729 _sc
108 729 _m
495 729 _l
495 646 _l
198 646 _l
198 467 _l
212 472 227 476 241 478 _c
255 480 270 482 284 482 _c
365 482 429 459 477 415 _c
525 370 549 310 549 234 _c
549 155 524 94 475 51 _c
426 8 357 -13 269 -13 _c
238 -13 207 -10 175 -6 _c
143 -1 111 6 77 17 _c
77 116 _l
106 100 136 88 168 80 _c
199 72 232 69 267 69 _c
}_e{323 69 368 83 401 113 _c
433 143 450 183 450 234 _c
450 284 433 324 401 354 _c
368 384 323 399 267 399 _c
241 399 214 396 188 390 _c
162 384 135 375 108 363 _c
108 729 _l
_cl}_e}_d
/seven{636 0 82 0 551 729 _sc
82 729 _m
551 729 _l
551 687 _l
286 0 _l
183 0 _l
432 646 _l
82 646 _l
82 729 _l
_cl}_d
/E{632 0 98 0 568 729 _sc
98 729 _m
559 729 _l
559 646 _l
197 646 _l
197 430 _l
544 430 _l
544 347 _l
197 347 _l
197 83 _l
568 83 _l
568 0 _l
98 0 _l
98 729 _l
_cl}_d
/P{603 0 98 0 569 729 _sc
197 648 _m
197 374 _l
321 374 _l
367 374 402 385 427 409 _c
452 433 465 467 465 511 _c
465 555 452 588 427 612 _c
402 636 367 648 321 648 _c
197 648 _l
98 729 _m
321 729 _l
402 729 464 710 506 673 _c
548 636 569 582 569 511 _c
569 439 548 384 506 348 _c
464 311 402 293 321 293 _c
197 293 _l
197 0 _l
98 0 _l
98 729 _l
_cl}_d
/S{{635 0 66 -13 579 742 _sc
535 705 _m
535 609 _l
497 627 462 640 429 649 _c
395 657 363 662 333 662 _c
279 662 237 651 208 631 _c
179 610 165 580 165 542 _c
165 510 174 485 194 469 _c
213 452 250 439 304 429 _c
364 417 _l
437 403 491 378 526 343 _c
561 307 579 260 579 201 _c
579 130 555 77 508 41 _c
460 5 391 -13 300 -13 _c
265 -13 228 -9 189 -2 _c
}_e{150 5 110 16 69 32 _c
69 134 _l
109 111 148 94 186 83 _c
224 71 262 66 300 66 _c
356 66 399 77 430 99 _c
460 121 476 152 476 194 _c
476 230 465 258 443 278 _c
421 298 385 313 335 323 _c
275 335 _l
201 349 148 372 115 404 _c
82 435 66 478 66 534 _c
66 598 88 649 134 686 _c
179 723 242 742 322 742 _c
356 742 390 739 426 733 _c
461 727 497 717 535 705 _c
}_e{_cl}_e}_d
/bracketleft{390 0 86 -131 293 760 _sc
86 760 _m
293 760 _l
293 690 _l
176 690 _l
176 -61 _l
293 -61 _l
293 -131 _l
86 -131 _l
86 760 _l
_cl}_d
/bracketright{390 0 97 -131 304 760 _sc
304 760 _m
304 -131 _l
97 -131 _l
97 -61 _l
214 -61 _l
214 690 _l
97 690 _l
97 760 _l
304 760 _l
_cl}_d
/a{{613 0 60 -13 522 560 _sc
343 275 _m
270 275 220 266 192 250 _c
164 233 150 205 150 165 _c
150 133 160 107 181 89 _c
202 70 231 61 267 61 _c
317 61 357 78 387 114 _c
417 149 432 196 432 255 _c
432 275 _l
343 275 _l
522 312 _m
522 0 _l
432 0 _l
432 83 _l
411 49 385 25 355 10 _c
325 -5 287 -13 243 -13 _c
187 -13 142 2 109 33 _c
76 64 60 106 60 159 _c
}_e{60 220 80 266 122 298 _c
163 329 224 345 306 345 _c
432 345 _l
432 354 _l
432 395 418 427 391 450 _c
364 472 326 484 277 484 _c
245 484 215 480 185 472 _c
155 464 127 453 100 439 _c
100 522 _l
132 534 164 544 195 550 _c
226 556 256 560 286 560 _c
365 560 424 539 463 498 _c
502 457 522 395 522 312 _c
_cl}_e}_d
/c{{550 0 55 -13 488 560 _sc
488 526 _m
488 442 _l
462 456 437 466 411 473 _c
385 480 360 484 334 484 _c
276 484 230 465 198 428 _c
166 391 150 339 150 273 _c
150 206 166 154 198 117 _c
230 80 276 62 334 62 _c
360 62 385 65 411 72 _c
437 79 462 90 488 104 _c
488 21 _l
462 9 436 0 410 -5 _c
383 -10 354 -13 324 -13 _c
242 -13 176 12 128 64 _c
}_e{79 115 55 185 55 273 _c
55 362 79 432 128 483 _c
177 534 244 560 330 560 _c
358 560 385 557 411 551 _c
437 545 463 537 488 526 _c
_cl}_e}_d
/d{{635 0 55 -13 544 760 _sc
454 464 _m
454 760 _l
544 760 _l
544 0 _l
454 0 _l
454 82 _l
435 49 411 25 382 10 _c
353 -5 319 -13 279 -13 _c
213 -13 159 13 117 65 _c
75 117 55 187 55 273 _c
55 359 75 428 117 481 _c
159 533 213 560 279 560 _c
319 560 353 552 382 536 _c
411 520 435 496 454 464 _c
148 273 _m
148 207 161 155 188 117 _c
215 79 253 61 301 61 _c
}_e{348 61 385 79 413 117 _c
440 155 454 207 454 273 _c
454 339 440 390 413 428 _c
385 466 348 485 301 485 _c
253 485 215 466 188 428 _c
161 390 148 339 148 273 _c
_cl}_e}_d
/e{{615 0 55 -13 562 560 _sc
562 296 _m
562 252 _l
149 252 _l
153 190 171 142 205 110 _c
238 78 284 62 344 62 _c
378 62 412 66 444 74 _c
476 82 509 95 541 113 _c
541 28 _l
509 14 476 3 442 -3 _c
408 -9 373 -13 339 -13 _c
251 -13 182 12 131 62 _c
80 112 55 181 55 268 _c
55 357 79 428 127 481 _c
175 533 241 560 323 560 _c
397 560 455 536 498 489 _c
}_e{540 441 562 377 562 296 _c
472 322 _m
471 371 457 410 431 440 _c
404 469 368 484 324 484 _c
274 484 234 469 204 441 _c
174 413 156 373 152 322 _c
472 322 _l
_cl}_e}_d
/g{{635 0 55 -207 544 560 _sc
454 280 _m
454 344 440 395 414 431 _c
387 467 349 485 301 485 _c
253 485 215 467 188 431 _c
161 395 148 344 148 280 _c
148 215 161 165 188 129 _c
215 93 253 75 301 75 _c
349 75 387 93 414 129 _c
440 165 454 215 454 280 _c
544 68 _m
544 -24 523 -93 482 -139 _c
440 -184 377 -207 292 -207 _c
260 -207 231 -204 203 -200 _c
175 -195 147 -188 121 -178 _c
}_e{121 -91 _l
147 -105 173 -115 199 -122 _c
225 -129 251 -133 278 -133 _c
336 -133 380 -117 410 -87 _c
439 -56 454 -10 454 52 _c
454 96 _l
435 64 411 40 382 24 _c
353 8 319 0 279 0 _c
211 0 157 25 116 76 _c
75 127 55 195 55 280 _c
55 364 75 432 116 483 _c
157 534 211 560 279 560 _c
319 560 353 552 382 536 _c
411 520 435 496 454 464 _c
454 547 _l
544 547 _l
}_e{544 68 _l
_cl}_e}_d
/h{634 0 91 0 549 760 _sc
549 330 _m
549 0 _l
459 0 _l
459 327 _l
459 379 448 417 428 443 _c
408 469 378 482 338 482 _c
289 482 251 466 223 435 _c
195 404 181 362 181 309 _c
181 0 _l
91 0 _l
91 760 _l
181 760 _l
181 462 _l
202 494 227 519 257 535 _c
286 551 320 560 358 560 _c
420 560 468 540 500 501 _c
532 462 549 405 549 330 _c
_cl}_d
/i{278 0 94 0 184 760 _sc
94 547 _m
184 547 _l
184 0 _l
94 0 _l
94 547 _l
94 760 _m
184 760 _l
184 646 _l
94 646 _l
94 760 _l
_cl}_d
/l{278 0 94 0 184 760 _sc
94 760 _m
184 760 _l
184 0 _l
94 0 _l
94 760 _l
_cl}_d
/m{{974 0 91 0 889 560 _sc
520 442 _m
542 482 569 511 600 531 _c
631 550 668 560 711 560 _c
767 560 811 540 842 500 _c
873 460 889 403 889 330 _c
889 0 _l
799 0 _l
799 327 _l
799 379 789 418 771 444 _c
752 469 724 482 686 482 _c
639 482 602 466 575 435 _c
548 404 535 362 535 309 _c
535 0 _l
445 0 _l
445 327 _l
445 379 435 418 417 444 _c
398 469 369 482 331 482 _c
}_e{285 482 248 466 221 435 _c
194 404 181 362 181 309 _c
181 0 _l
91 0 _l
91 547 _l
181 547 _l
181 462 _l
201 495 226 520 255 536 _c
283 552 317 560 357 560 _c
397 560 430 550 458 530 _c
486 510 506 480 520 442 _c
_cl}_e}_d
/n{634 0 91 0 549 560 _sc
549 330 _m
549 0 _l
459 0 _l
459 327 _l
459 379 448 417 428 443 _c
408 469 378 482 338 482 _c
289 482 251 466 223 435 _c
195 404 181 362 181 309 _c
181 0 _l
91 0 _l
91 547 _l
181 547 _l
181 462 _l
202 494 227 519 257 535 _c
286 551 320 560 358 560 _c
420 560 468 540 500 501 _c
532 462 549 405 549 330 _c
_cl}_d
/o{612 0 55 -13 557 560 _sc
306 484 _m
258 484 220 465 192 427 _c
164 389 150 338 150 273 _c
150 207 163 156 191 118 _c
219 80 257 62 306 62 _c
354 62 392 80 420 118 _c
448 156 462 207 462 273 _c
462 337 448 389 420 427 _c
392 465 354 484 306 484 _c
306 560 _m
384 560 445 534 490 484 _c
534 433 557 363 557 273 _c
557 183 534 113 490 63 _c
445 12 384 -13 306 -13 _c
227 -13 165 12 121 63 _c
77 113 55 183 55 273 _c
55 363 77 433 121 484 _c
165 534 227 560 306 560 _c
_cl}_d
/p{{635 0 91 -207 580 560 _sc
181 82 _m
181 -207 _l
91 -207 _l
91 547 _l
181 547 _l
181 464 _l
199 496 223 520 252 536 _c
281 552 316 560 356 560 _c
422 560 476 533 518 481 _c
559 428 580 359 580 273 _c
580 187 559 117 518 65 _c
476 13 422 -13 356 -13 _c
316 -13 281 -5 252 10 _c
223 25 199 49 181 82 _c
487 273 _m
487 339 473 390 446 428 _c
418 466 381 485 334 485 _c
}_e{286 485 249 466 222 428 _c
194 390 181 339 181 273 _c
181 207 194 155 222 117 _c
249 79 286 61 334 61 _c
381 61 418 79 446 117 _c
473 155 487 207 487 273 _c
_cl}_e}_d
/r{411 0 91 0 411 560 _sc
411 463 _m
401 469 390 473 378 476 _c
366 478 353 480 339 480 _c
288 480 249 463 222 430 _c
194 397 181 350 181 288 _c
181 0 _l
91 0 _l
91 547 _l
181 547 _l
181 462 _l
199 495 224 520 254 536 _c
284 552 321 560 365 560 _c
371 560 378 559 386 559 _c
393 558 401 557 411 555 _c
411 463 _l
_cl}_d
/s{{521 0 54 -13 472 560 _sc
443 531 _m
443 446 _l
417 458 391 468 364 475 _c
336 481 308 485 279 485 _c
234 485 200 478 178 464 _c
156 450 145 430 145 403 _c
145 382 153 366 169 354 _c
185 342 217 330 265 320 _c
296 313 _l
360 299 405 279 432 255 _c
458 230 472 195 472 151 _c
472 100 452 60 412 31 _c
372 1 316 -13 246 -13 _c
216 -13 186 -10 154 -5 _c
}_e{122 0 89 8 54 20 _c
54 113 _l
87 95 120 82 152 74 _c
184 65 216 61 248 61 _c
290 61 323 68 346 82 _c
368 96 380 117 380 144 _c
380 168 371 187 355 200 _c
339 213 303 226 247 238 _c
216 245 _l
160 257 119 275 95 299 _c
70 323 58 356 58 399 _c
58 450 76 490 112 518 _c
148 546 200 560 268 560 _c
301 560 332 557 362 552 _c
391 547 418 540 443 531 _c
}_e{_cl}_e}_d
/t{392 0 27 0 368 702 _sc
183 702 _m
183 547 _l
368 547 _l
368 477 _l
183 477 _l
183 180 _l
183 135 189 106 201 94 _c
213 81 238 75 276 75 _c
368 75 _l
368 0 _l
276 0 _l
206 0 158 13 132 39 _c
106 65 93 112 93 180 _c
93 477 _l
27 477 _l
27 547 _l
93 547 _l
93 702 _l
183 702 _l
_cl}_d
/u{634 0 85 -13 543 560 _sc
85 216 _m
85 547 _l
175 547 _l
175 219 _l
175 167 185 129 205 103 _c
225 77 255 64 296 64 _c
344 64 383 79 411 110 _c
439 141 453 183 453 237 _c
453 547 _l
543 547 _l
543 0 _l
453 0 _l
453 84 _l
431 50 405 26 377 10 _c
348 -5 315 -13 277 -13 _c
214 -13 166 6 134 45 _c
101 83 85 140 85 216 _c
311 560 _m
311 560 _l
_cl}_d
/w{818 0 42 0 776 547 _sc
42 547 _m
132 547 _l
244 120 _l
356 547 _l
462 547 _l
574 120 _l
686 547 _l
776 547 _l
633 0 _l
527 0 _l
409 448 _l
291 0 _l
185 0 _l
42 547 _l
_cl}_d
/x{592 0 29 0 559 547 _sc
549 547 _m
351 281 _l
559 0 _l
453 0 _l
294 215 _l
135 0 _l
29 0 _l
241 286 _l
47 547 _l
153 547 _l
298 352 _l
443 547 _l
549 547 _l
_cl}_d
/y{592 0 30 -207 562 547 _sc
322 -50 _m
296 -114 271 -157 247 -177 _c
223 -197 191 -207 151 -207 _c
79 -207 _l
79 -132 _l
132 -132 _l
156 -132 175 -126 189 -114 _c
203 -102 218 -75 235 -31 _c
251 9 _l
30 547 _l
125 547 _l
296 119 _l
467 547 _l
562 547 _l
322 -50 _l
_cl}_d
/z{525 0 43 0 482 547 _sc
55 547 _m
482 547 _l
482 465 _l
144 72 _l
482 72 _l
482 0 _l
43 0 _l
43 82 _l
381 475 _l
55 475 _l
55 547 _l
_cl}_d
/minus{838 0 106 272 732 355 _sc
106 355 _m
732 355 _l
732 272 _l
106 272 _l
106 355 _l
_cl}_d
end readonly def

/BuildGlyph
 {exch begin
 CharStrings exch
 2 copy known not{pop /.notdef}if
 true 3 1 roll get exec
 end}_d

/BuildChar {
 1 index /Encoding get exch get
 1 index /BuildGlyph get exec
}_d

FontName currentdict end definefont pop
end
%%EndProlog
mpldict begin
75.6 223.2 translate
460.8 345.6 0 0 clipbox
gsave
0 0 m
460.8 0 l
460.8 345.6 l
0 345.6 l
cl
1.000 setgray
fill
grestore
gsave
57.6 183.168 m
414.72 183.168 l
414.72 304.128 l
57.6 304.128 l
cl
1.000 setgray
fill
grestore
0.800 setlinewidth
1 setlinejoin
2 setlinecap
[] 0 setdash
0.690 setgray
gsave
357.1 121 57.6 183.2 clipbox
73.832727 183.168 m
73.832727 304.128 l
stroke
grestore
0 setlinecap
0.000 setgray
gsave
/o {
gsave
newpath
translate
0.8 setlinewidth
1 setlinejoin
0 setlinecap
0 0 m
0 -3.5 l

gsave
0.000 setgray
fill
grestore
stroke
grestore
} bind def
73.8327 183.168 o
grestore
/DejaVuSans findfont
10.000 scalefont
setfont
gsave
70.653040 168.574250 translate
0.000000 rotate
0.000000 0.000000 m /zero glyphshow
grestore
2 setlinecap
0.690 setgray
gsave
357.1 121 57.6 183.2 clipbox
114.618474 183.168 m
114.618474 304.128 l
stroke
grestore
0 setlinecap
0.000 setgray
gsave
/o {
gsave
newpath
translate
0.8 setlinewidth
1 setlinejoin
0 setlinecap
0 0 m
0 -3.5 l

gsave
0.000 setgray
fill
grestore
stroke
grestore
} bind def
114.618 183.168 o
grestore
gsave
108.259099 168.574250 translate
0.000000 rotate
0.000000 0.000000 m /two glyphshow
6.362305 0.000000 m /five glyphshow
grestore
2 setlinecap
0.690 setgray
gsave
357.1 121 57.6 183.2 clipbox
155.404221 183.168 m
155.404221 304.128 l
stroke
grestore
0 setlinecap
0.000 setgray
gsave
/o {
gsave
newpath
translate
0.8 setlinewidth
1 setlinejoin
0 setlinecap
0 0 m
0 -3.5 l

gsave
0.000 setgray
fill
grestore
stroke
grestore
} bind def
155.404 183.168 o
grestore
gsave
149.044846 168.574250 translate
0.000000 rotate
0.000000 0.000000 m /five glyphshow
6.362305 0.000000 m /zero glyphshow
grestore
2 setlinecap
0.690 setgray
gsave
357.1 121 57.6 183.2 clipbox
196.189968 183.168 m
196.189968 304.128 l
stroke
grestore
0 setlinecap
0.000 setgray
gsave
/o {
gsave
newpath
translate
0.8 setlinewidth
1 setlinejoin
0 setlinecap
0 0 m
0 -3.5 l

gsave
0.000 setgray
fill
grestore
stroke
grestore
} bind def
196.19 183.168 o
grestore
gsave
189.830593 168.574250 translate
0.000000 rotate
0.000000 0.000000 m /seven glyphshow
6.362305 0.000000 m /five glyphshow
grestore
2 setlinecap
0.690 setgray
gsave
357.1 121 57.6 183.2 clipbox
236.975715 183.168 m
236.975715 304.128 l
stroke
grestore
0 setlinecap
0.000 setgray
gsave
/o {
gsave
newpath
translate
0.8 setlinewidth
1 setlinejoin
0 setlinecap
0 0 m
0 -3.5 l

gsave
0.000 setgray
fill
grestore
stroke
grestore
} bind def
236.976 183.168 o
grestore
gsave
227.436652 168.574250 translate
0.000000 rotate
0.000000 0.000000 m /one glyphshow
6.362305 0.000000 m /zero glyphshow
12.724609 0.000000 m /zero glyphshow
grestore
2 setlinecap
0.690 setgray
gsave
357.1 121 57.6 183.2 clipbox
277.761462 183.168 m
277.761462 304.128 l
stroke
grestore
0 setlinecap
0.000 setgray
gsave
/o {
gsave
newpath
translate
0.8 setlinewidth
1 setlinejoin
0 setlinecap
0 0 m
0 -3.5 l

gsave
0.000 setgray
fill
grestore
stroke
grestore
} bind def
277.761 183.168 o
grestore
gsave
268.222399 168.574250 translate
0.000000 rotate
0.000000 0.000000 m /one glyphshow
6.362305 0.000000 m /two glyphshow
12.724609 0.000000 m /five glyphshow
grestore
2 setlinecap
0.690 setgray
gsave
357.1 121 57.6 183.2 clipbox
318.547209 183.168 m
318.547209 304.128 l
stroke
grestore
0 setlinecap
0.000 setgray
gsave
/o {
gsave
newpath
translate
0.8 setlinewidth
1 setlinejoin
0 setlinecap
0 0 m
0 -3.5 l

gsave
0.000 setgray
fill
grestore
stroke
grestore
} bind def
318.547 183.168 o
grestore
gsave
309.008146 168.574250 translate
0.000000 rotate
0.000000 0.000000 m /one glyphshow
6.362305 0.000000 m /five glyphshow
12.724609 0.000000 m /zero glyphshow
grestore
2 setlinecap
0.690 setgray
gsave
357.1 121 57.6 183.2 clipbox
359.332956 183.168 m
359.332956 304.128 l
stroke
grestore
0 setlinecap
0.000 setgray
gsave
/o {
gsave
newpath
translate
0.8 setlinewidth
1 setlinejoin
0 setlinecap
0 0 m
0 -3.5 l

gsave
0.000 setgray
fill
grestore
stroke
grestore
} bind def
359.333 183.168 o
grestore
gsave
349.793893 168.574250 translate
0.000000 rotate
0.000000 0.000000 m /one glyphshow
6.362305 0.000000 m /seven glyphshow
12.724609 0.000000 m /five glyphshow
grestore
2 setlinecap
0.690 setgray
gsave
357.1 121 57.6 183.2 clipbox
400.118703 183.168 m
400.118703 304.128 l
stroke
grestore
0 setlinecap
0.000 setgray
gsave
/o {
gsave
newpath
translate
0.8 setlinewidth
1 setlinejoin
0 setlinecap
0 0 m
0 -3.5 l

gsave
0.000 setgray
fill
grestore
stroke
grestore
} bind def
400.119 183.168 o
grestore
gsave
390.579640 168.574250 translate
0.000000 rotate
0.000000 0.000000 m /two glyphshow
6.362305 0.000000 m /zero glyphshow
12.724609 0.000000 m /zero glyphshow
grestore
gsave
217.410000 154.902375 translate
0.000000 rotate
0.000000 0.000000 m /S glyphshow
6.347656 0.000000 m /a glyphshow
12.475586 0.000000 m /m glyphshow
22.216797 0.000000 m /p glyphshow
28.564453 0.000000 m /l glyphshow
31.342773 0.000000 m /e glyphshow
grestore
2 setlinecap
0.690 setgray
gsave
357.1 121 57.6 183.2 clipbox
57.6 208.60837 m
414.72 208.60837 l
stroke
grestore
0 setlinecap
0.000 setgray
gsave
/o {
gsave
newpath
translate
0.8 setlinewidth
1 setlinejoin
0 setlinecap
0 0 m
-3.5 0 l

gsave
0.000 setgray
fill
grestore
stroke
grestore
} bind def
57.6 208.608 o
grestore
gsave
35.865625 204.811495 translate
0.000000 rotate
0.000000 0.000000 m /minus glyphshow
8.378906 0.000000 m /five glyphshow
grestore
2 setlinecap
0.690 setgray
gsave
357.1 121 57.6 183.2 clipbox
57.6 237.194266 m
414.72 237.194266 l
stroke
grestore
0 setlinecap
0.000 setgray
gsave
/o {
gsave
newpath
translate
0.8 setlinewidth
1 setlinejoin
0 setlinecap
0 0 m
-3.5 0 l

gsave
0.000 setgray
fill
grestore
stroke
grestore
} bind def
57.6 237.194 o
grestore
gsave
44.240625 233.397391 translate
0.000000 rotate
0.000000 0.000000 m /zero glyphshow
grestore
2 setlinecap
0.690 setgray
gsave
357.1 121 57.6 183.2 clipbox
57.6 265.780161 m
414.72 265.780161 l
stroke
grestore
0 setlinecap
0.000 setgray
gsave
/o {
gsave
newpath
translate
0.8 setlinewidth
1 setlinejoin
0 setlinecap
0 0 m
-3.5 0 l

gsave
0.000 setgray
fill
grestore
stroke
grestore
} bind def
57.6 265.78 o
grestore
gsave
44.240625 261.983286 translate
0.000000 rotate
0.000000 0.000000 m /five glyphshow
grestore
2 setlinecap
0.690 setgray
gsave
357.1 121 57.6 183.2 clipbox
57.6 294.366056 m
414.72 294.366056 l
stroke
grestore
0 setlinecap
0.000 setgray
gsave
/o {
gsave
newpath
translate
0.8 setlinewidth
1 setlinejoin
0 setlinecap
0 0 m
-3.5 0 l

gsave
0.000 setgray
fill
grestore
stroke
grestore
} bind def
57.6 294.366 o
grestore
gsave
37.881250 290.569181 translate
0.000000 rotate
0.000000 0.000000 m /one glyphshow
6.362305 0.000000 m /zero glyphshow
grestore
gsave
29.787500 213.608937 translate
90.000000 rotate
0.000000 0.000000 m /P glyphshow
6.030273 0.000000 m /o glyphshow
12.148438 0.000000 m /s glyphshow
17.358398 0.000000 m /i glyphshow
20.136719 0.000000 m /t glyphshow
24.057617 0.000000 m /i glyphshow
26.835938 0.000000 m /o glyphshow
32.954102 0.000000 m /n glyphshow
39.291992 0.000000 m /space glyphshow
42.470703 0.000000 m /bracketleft glyphshow
46.372070 0.000000 m /m glyphshow
56.113281 0.000000 m /bracketright glyphshow
grestore
1.500 setlinewidth
2 setlinecap
0.122 0.467 0.706 setrgbcolor
gsave
357.1 121 57.6 183.2 clipbox
73.832727 240.052855 m
85.252736 241.945469 l
93.409886 243.053153 l
99.935605 243.718316 l
106.461325 244.139447 l
112.987044 244.279044 l
117.881334 244.18046 l
122.775624 243.896491 l
127.669913 243.420083 l
132.564203 242.747098 l
137.458492 241.876419 l
142.352782 240.81003 l
147.247072 239.553046 l
152.141361 238.113711 l
158.667081 235.930944 l
165.1928 233.479529 l
171.71852 230.803405 l
179.875669 227.222225 l
209.241407 214.032777 l
215.767127 211.482263 l
220.661416 209.761193 l
225.555706 208.237899 l
230.449995 206.940987 l
235.344285 205.897329 l
240.238575 205.131688 l
245.132864 204.666357 l
250.027154 204.520823 l
253.290014 204.609684 l
256.552873 204.852041 l
259.815733 205.251208 l
263.078593 205.809763 l
266.341453 206.52952 l
269.604312 207.411507 l
272.867172 208.455948 l
276.130032 209.662241 l
281.024322 211.771789 l
285.918611 214.233691 l
290.812901 217.03528 l
295.70719 220.159646 l
300.60148 223.585708 l
305.49577 227.288347 l
310.390059 231.238578 l
316.915779 236.83381 l
323.441498 242.724276 l
333.230078 251.901702 l
347.912947 265.723063 l
354.438666 271.595839 l
360.964386 277.138595 l
365.858675 281.010362 l
370.752965 284.585544 l
375.647254 287.81921 l
378.910114 289.764101 l
382.172974 291.526256 l
385.435834 293.094348 l
388.698693 294.457728 l
391.961553 295.606496 l
395.224413 296.531551 l
398.487273 297.224646 l
398.487273 297.224646 l
stroke
grestore
1.000 0.498 0.055 setrgbcolor
gsave
357.1 121 57.6 183.2 clipbox
73.832727 237.194266 m
80.358447 237.699083 l
86.884166 238.483055 l
93.409886 239.526812 l
99.935605 240.802382 l
108.092755 242.667371 l
117.881334 245.18697 l
142.352782 251.674659 l
148.878502 253.155905 l
155.404221 254.41709 l
161.929941 255.401643 l
166.82423 255.926951 l
171.71852 256.247318 l
176.61281 256.345019 l
181.507099 256.204791 l
186.401389 255.8141 l
191.295678 255.163371 l
196.189968 254.246198 l
201.084258 253.059509 l
205.978547 251.60369 l
210.872837 249.882681 l
215.767127 247.904019 l
220.661416 245.678838 l
225.555706 243.221835 l
230.449995 240.55118 l
236.975715 236.695608 l
243.501434 232.558514 l
251.658584 227.096818 l
279.392892 208.196175 l
285.918611 204.187986 l
290.812901 201.413428 l
295.70719 198.879633 l
300.60148 196.623113 l
305.49577 194.678484 l
308.75863 193.57139 l
312.021489 192.626224 l
315.284349 191.85129 l
318.547209 191.254245 l
321.810069 190.842048 l
325.072928 190.620913 l
328.335788 190.596269 l
331.598648 190.772717 l
334.861508 191.153996 l
338.124367 191.74295 l
341.387227 192.541498 l
344.650087 193.55061 l
347.912947 194.770289 l
351.175806 196.199551 l
354.438666 197.836414 l
357.701526 199.677896 l
360.964386 201.720005 l
364.227245 203.957749 l
367.490105 206.385137 l
372.384395 210.366284 l
377.278684 214.730625 l
382.172974 219.445854 l
387.067264 224.475181 l
391.961553 229.777607 l
398.487273 237.194266 l
398.487273 237.194266 l
stroke
grestore
0.173 0.627 0.173 setrgbcolor
gsave
357.1 121 57.6 183.2 clipbox
73.832727 240.052855 m
398.487273 297.224646 l
398.487273 297.224646 l
stroke
grestore
1.000 setlinewidth
0 setlinecap
0.839 0.153 0.157 setrgbcolor
gsave
357.1 121 57.6 183.2 clipbox
/o {
gsave
newpath
translate
1.0 setlinewidth
1 setlinejoin
0 setlinecap
0 -1.5 m
0.397805 -1.5 0.77937 -1.341951 1.06066 -1.06066 c
1.341951 -0.77937 1.5 -0.397805 1.5 0 c
1.5 0.397805 1.341951 0.77937 1.06066 1.06066 c
0.77937 1.341951 0.397805 1.5 0 1.5 c
-0.397805 1.5 -0.77937 1.341951 -1.06066 1.06066 c
-1.341951 0.77937 -1.5 0.397805 -1.5 0 c
-1.5 -0.397805 -1.341951 -0.77937 -1.06066 -1.06066 c
-0.77937 -1.341951 -0.397805 -1.5 0 -1.5 c
cl

gsave
0.839 0.153 0.157 setrgbcolor
fill
grestore
stroke
grestore
} bind def
73.8327 239.93 o
75.4642 240.396 o
77.0956 240.385 o
78.727 240.991 o
80.3584 240.97 o
81.9899 241.241 o
83.6213 241.828 o
85.2527 242.033 o
86.8842 242.239 o
88.5156 242.373 o
90.147 242.911 o
91.7785 243.199 o
93.4099 243.162 o
95.0413 243.224 o
96.6727 243.512 o
98.3042 243.677 o
99.9356 243.493 o
101.567 243.683 o
103.198 243.837 o
104.83 244.049 o
106.461 243.786 o
108.093 243.939 o
109.724 244.599 o
111.356 244.286 o
112.987 244.565 o
114.618 244.236 o
116.25 244.643 o
117.881 244.06 o
119.513 244.264 o
121.144 243.851 o
122.776 244.275 o
124.407 243.865 o
126.038 243.768 o
127.67 243.748 o
129.301 242.833 o
130.933 243.011 o
132.564 242.753 o
134.196 242.716 o
135.827 242.336 o
137.458 241.856 o
139.09 241.363 o
140.721 241.528 o
142.353 240.415 o
143.984 240.424 o
145.616 239.905 o
147.247 239.643 o
148.879 238.77 o
150.51 237.716 o
152.141 238.087 o
153.773 237.003 o
155.404 236.552 o
157.036 237.118 o
158.667 235.924 o
160.299 234.714 o
161.93 234.371 o
163.561 233.593 o
165.193 233.498 o
166.824 232.831 o
168.456 231.897 o
170.087 232.203 o
171.719 230.513 o
173.35 229.94 o
174.981 229.452 o
176.613 227.961 o
178.244 227.686 o
179.876 226.616 o
181.507 227.511 o
183.139 226.147 o
184.77 225.325 o
186.401 224.062 o
188.033 224.124 o
189.664 222.322 o
191.296 221.643 o
192.927 220.538 o
194.559 219.465 o
196.19 219.943 o
197.821 220.393 o
199.453 218.348 o
201.084 217.338 o
202.716 217.799 o
204.347 215.193 o
205.979 216.585 o
207.61 214.598 o
209.241 214.236 o
210.873 213.279 o
212.504 211.501 o
214.136 211.311 o
215.767 210.568 o
217.399 210.398 o
219.03 209.063 o
220.661 209.511 o
222.293 209.211 o
223.924 209.583 o
225.556 208.143 o
227.187 207.104 o
228.819 205.67 o
230.45 207.677 o
232.081 207.8 o
233.713 206.375 o
235.344 205.047 o
236.976 205.549 o
238.607 205.852 o
240.239 205.336 o
241.87 205.538 o
243.501 204.393 o
245.133 204.986 o
246.764 204.109 o
248.396 205.438 o
250.027 205.223 o
251.659 203.465 o
253.29 203.925 o
254.921 204.818 o
256.553 204.174 o
258.184 204.851 o
259.816 205.162 o
261.447 205.886 o
263.079 204.495 o
264.71 206.455 o
266.341 207.203 o
267.973 206.084 o
269.604 207.223 o
271.236 207.266 o
272.867 207.858 o
274.499 209.625 o
276.13 210.273 o
277.761 209.002 o
279.393 211.631 o
281.024 211.909 o
282.656 213.011 o
284.287 213.364 o
285.919 214.464 o
287.55 215.354 o
289.181 214.493 o
290.813 216.871 o
292.444 217.902 o
294.076 218.615 o
295.707 220.816 o
297.339 222.065 o
298.97 223.28 o
300.601 223.531 o
302.233 224.432 o
303.864 224.894 o
305.496 226.46 o
307.127 227.157 o
308.759 231.024 o
310.39 230.906 o
312.021 232.066 o
313.653 232.997 o
315.284 233.055 o
316.916 237.588 o
318.547 237.148 o
320.179 238.137 o
321.81 240.374 o
323.441 243.672 o
325.073 243.869 o
326.704 245.597 o
328.336 248.96 o
329.967 248.332 o
331.599 249.738 o
333.23 250.935 o
334.862 254.01 o
336.493 252.319 o
338.124 255.4 o
339.756 257.115 o
341.387 260.001 o
343.019 261.57 o
344.65 262.747 o
346.282 263.166 o
347.913 264.215 o
349.544 267.82 o
351.176 268.737 o
352.807 270.882 o
354.439 270.243 o
356.07 273.321 o
357.702 274.097 o
359.333 275.693 o
360.964 276.48 o
362.596 278.782 o
364.227 279.412 o
365.859 281.196 o
367.49 282.969 o
369.122 283.168 o
370.753 285.567 o
372.384 286.469 o
374.016 287.661 o
375.647 287.609 o
377.279 288.6 o
378.91 289.862 o
380.542 288.916 o
382.173 291.704 o
383.804 291.716 o
385.436 292.377 o
387.067 294.315 o
388.699 293.861 o
390.33 295.643 o
391.962 296.008 o
393.593 296.429 o
395.224 297.65 o
396.856 297.377 o
398.487 298.63 o
grestore
0.580 0.404 0.741 setrgbcolor
gsave
357.1 121 57.6 183.2 clipbox
/o {
gsave
newpath
translate
1.0 setlinewidth
1 setlinejoin
0 setlinecap
0 -1.5 m
0.397805 -1.5 0.77937 -1.341951 1.06066 -1.06066 c
1.341951 -0.77937 1.5 -0.397805 1.5 0 c
1.5 0.397805 1.341951 0.77937 1.06066 1.06066 c
0.77937 1.341951 0.397805 1.5 0 1.5 c
-0.397805 1.5 -0.77937 1.341951 -1.06066 1.06066 c
-1.341951 0.77937 -1.5 0.397805 -1.5 0 c
-1.5 -0.397805 -1.341951 -0.77937 -1.06066 -1.06066 c
-0.77937 -1.341951 -0.397805 -1.5 0 -1.5 c
cl

gsave
0.580 0.404 0.741 setrgbcolor
fill
grestore
stroke
grestore
} bind def
73.8327 237.393 o
75.4642 237.42 o
77.0956 237.478 o
78.727 237.605 o
80.3584 237.98 o
81.9899 238.066 o
83.6213 237.766 o
85.2527 238.179 o
86.8842 238.443 o
88.5156 238.688 o
90.147 238.815 o
91.7785 239.182 o
93.4099 239.606 o
95.0413 239.958 o
96.6727 240.087 o
98.3042 240.346 o
99.9356 240.89 o
101.567 241.029 o
103.198 241.609 o
104.83 242.065 o
106.461 242.562 o
108.093 242.962 o
109.724 242.785 o
111.356 243.737 o
112.987 243.736 o
114.618 244.346 o
116.25 244.741 o
117.881 245.151 o
119.513 245.343 o
121.144 246.122 o
122.776 246.147 o
124.407 246.956 o
126.038 247.336 o
127.67 247.728 o
129.301 248.407 o
130.933 248.874 o
132.564 249.437 o
134.196 249.534 o
135.827 249.809 o
137.458 250.541 o
139.09 250.676 o
140.721 251.183 o
142.353 251.637 o
143.984 252.282 o
145.616 252.821 o
147.247 252.792 o
148.879 253.036 o
150.51 253.49 o
152.141 253.903 o
153.773 254.088 o
155.404 254.53 o
157.036 254.446 o
158.667 255.159 o
160.299 255.252 o
161.93 255.483 o
163.561 255.454 o
165.193 255.658 o
166.824 256.419 o
168.456 255.397 o
170.087 256.163 o
171.719 256.366 o
173.35 256.744 o
174.981 256.277 o
176.613 256.185 o
178.244 256.676 o
179.876 256.45 o
181.507 256.516 o
183.139 256.158 o
184.77 256.228 o
186.401 255.718 o
188.033 255.713 o
189.664 255.613 o
191.296 255.297 o
192.927 254.825 o
194.559 254.692 o
196.19 254.53 o
197.821 253.859 o
199.453 253.979 o
201.084 253.029 o
202.716 253.243 o
204.347 252.352 o
205.979 251.667 o
207.61 250.831 o
209.241 249.55 o
210.873 249.874 o
212.504 248.946 o
214.136 247.774 o
215.767 247.956 o
217.399 246.769 o
219.03 245.774 o
220.661 245.47 o
222.293 244.654 o
223.924 244.246 o
225.556 243.839 o
227.187 241.786 o
228.819 240.667 o
230.45 240.656 o
232.081 240.845 o
233.713 238.969 o
235.344 237.919 o
236.976 236.372 o
238.607 234.528 o
240.239 233.31 o
241.87 234.627 o
243.501 232.4 o
245.133 230.436 o
246.764 229.729 o
248.396 229.864 o
250.027 229.286 o
251.659 226.56 o
253.29 226.192 o
254.921 222.526 o
256.553 223.069 o
258.184 222.17 o
259.816 222.311 o
261.447 221.773 o
263.079 218.926 o
264.71 218.682 o
266.341 216.631 o
267.973 216.431 o
269.604 213.422 o
271.236 214.073 o
272.867 213.225 o
274.499 210.58 o
276.13 211.852 o
277.761 208.765 o
279.393 207.343 o
281.024 208.521 o
282.656 205.42 o
284.287 206.205 o
285.919 203.753 o
287.55 204.107 o
289.181 200.637 o
290.813 201.716 o
292.444 201.026 o
294.076 200.472 o
295.707 199.283 o
297.339 196.641 o
298.97 197.408 o
300.601 197.171 o
302.233 198.147 o
303.864 195.606 o
305.496 195.787 o
307.127 193.716 o
308.759 193.351 o
310.39 193.319 o
312.021 192.877 o
313.653 192.549 o
315.284 192.439 o
316.916 191.104 o
318.547 191.178 o
320.179 189.815 o
321.81 189.735 o
323.441 189.758 o
325.073 190.736 o
326.704 191.543 o
328.336 192.825 o
329.967 191.469 o
331.599 190.287 o
333.23 188.739 o
334.862 191.93 o
336.493 188.666 o
338.124 191.124 o
339.756 194.185 o
341.387 193.564 o
343.019 193.431 o
344.65 193.651 o
346.282 193.948 o
347.913 193.588 o
349.544 193.8 o
351.176 195.363 o
352.807 197.084 o
354.439 196.809 o
356.07 198.814 o
357.702 200.235 o
359.333 199.783 o
360.964 202.453 o
362.596 203.446 o
364.227 204.072 o
365.859 205.466 o
367.49 205.035 o
369.122 207.974 o
370.753 210.392 o
372.384 210.537 o
374.016 212.72 o
375.647 211.642 o
377.279 213.402 o
378.91 215.788 o
380.542 216.707 o
382.173 218.922 o
383.804 220.065 o
385.436 222.411 o
387.067 224.016 o
388.699 227.506 o
390.33 226.394 o
391.962 226.368 o
393.593 231.24 o
395.224 232.869 o
396.856 233.467 o
398.487 233.19 o
grestore
0.549 0.337 0.294 setrgbcolor
gsave
357.1 121 57.6 183.2 clipbox
/o {
gsave
newpath
translate
1.0 setlinewidth
1 setlinejoin
0 setlinecap
0 -1.5 m
0.397805 -1.5 0.77937 -1.341951 1.06066 -1.06066 c
1.341951 -0.77937 1.5 -0.397805 1.5 0 c
1.5 0.397805 1.341951 0.77937 1.06066 1.06066 c
0.77937 1.341951 0.397805 1.5 0 1.5 c
-0.397805 1.5 -0.77937 1.341951 -1.06066 1.06066 c
-1.341951 0.77937 -1.5 0.397805 -1.5 0 c
-1.5 -0.397805 -1.341951 -0.77937 -1.06066 -1.06066 c
-0.77937 -1.341951 -0.397805 -1.5 0 -1.5 c
cl

gsave
0.549 0.337 0.294 setrgbcolor
fill
grestore
stroke
grestore
} bind def
73.8327 239.871 o
75.4642 240.325 o
77.0956 240.449 o
78.727 241.192 o
80.3584 241.281 o
81.9899 241.472 o
83.6213 241.59 o
85.2527 241.864 o
86.8842 242.553 o
88.5156 242.756 o
90.147 242.916 o
91.7785 243.14 o
93.4099 243.396 o
95.0413 244.006 o
96.6727 244.026 o
98.3042 244.43 o
99.9356 244.807 o
101.567 245.098 o
103.198 245.371 o
104.83 245.638 o
106.461 245.814 o
108.093 246.13 o
109.724 246.444 o
111.356 246.474 o
112.987 246.879 o
114.618 247.239 o
116.25 247.318 o
117.881 247.833 o
119.513 248.139 o
121.144 248.375 o
122.776 248.48 o
124.407 248.966 o
126.038 249.237 o
127.67 249.619 o
129.301 249.854 o
130.933 250.053 o
132.564 250.092 o
134.196 250.655 o
135.827 251.133 o
137.458 251.146 o
139.09 251.756 o
140.721 251.865 o
142.353 252.441 o
143.984 252.234 o
145.616 252.24 o
147.247 253.032 o
148.879 253.133 o
150.51 253.521 o
152.141 253.706 o
153.773 254.057 o
155.404 254.356 o
157.036 255.012 o
158.667 254.732 o
160.299 255.091 o
161.93 255.316 o
163.561 255.855 o
165.193 256.338 o
166.824 256.116 o
168.456 256.986 o
170.087 257.151 o
171.719 256.977 o
173.35 257.133 o
174.981 257.853 o
176.613 257.649 o
178.244 257.93 o
179.876 258.258 o
181.507 259.548 o
183.139 259.636 o
184.77 259.32 o
186.401 259.904 o
188.033 260.708 o
189.664 259.826 o
191.296 260.278 o
192.927 260.754 o
194.559 260.238 o
196.19 261.815 o
197.821 263.103 o
199.453 262.195 o
201.084 262.279 o
202.716 263.441 o
204.347 261.995 o
205.979 264.343 o
207.61 263.407 o
209.241 264.616 o
210.873 264.08 o
212.504 263.539 o
214.136 264.127 o
215.767 264.103 o
217.399 264.668 o
219.03 264.077 o
220.661 265.442 o
222.293 265.971 o
223.924 267.333 o
225.556 266.742 o
227.187 266.405 o
228.819 265.267 o
230.45 268.379 o
232.081 269.497 o
233.713 268.109 o
235.344 267.741 o
236.976 268.834 o
238.607 269.478 o
240.239 269.401 o
241.87 270.728 o
243.501 269.368 o
245.133 270.253 o
246.764 269.657 o
248.396 272.127 o
250.027 272.256 o
251.659 269.739 o
253.29 271.103 o
254.921 270.729 o
256.553 271.268 o
258.184 272.073 o
259.816 273.38 o
261.447 274.413 o
263.079 271.885 o
264.71 274.372 o
266.341 274.529 o
267.973 273.852 o
269.604 273.575 o
271.236 274.511 o
272.867 275.012 o
274.499 275.404 o
276.13 277.587 o
277.761 274.638 o
279.393 275.979 o
281.024 277.766 o
282.656 276.412 o
284.287 278.186 o
285.919 276.982 o
287.55 278.449 o
289.181 274.921 o
290.813 278.692 o
292.444 278.852 o
294.076 279.472 o
295.707 279.819 o
297.339 278.022 o
298.97 279.854 o
300.601 280.654 o
302.233 282.31 o
303.864 280.477 o
305.496 281.803 o
307.127 280.208 o
308.759 281.623 o
310.39 281.898 o
312.021 282.202 o
313.653 282.648 o
315.284 282.89 o
316.916 282.373 o
318.547 283.022 o
320.179 281.97 o
321.81 282.367 o
323.441 282.815 o
325.073 284.335 o
326.704 285.569 o
328.336 286.808 o
329.967 286.122 o
331.599 285.119 o
333.23 283.431 o
334.862 286.652 o
336.493 284.109 o
338.124 286.513 o
339.756 289.223 o
341.387 288.034 o
343.019 287.696 o
344.65 287.728 o
346.282 288.312 o
347.913 287.925 o
349.544 286.768 o
351.176 288.085 o
352.807 288.695 o
354.439 289.404 o
356.07 289.672 o
357.702 290.732 o
359.333 289.616 o
360.964 291.623 o
362.596 290.961 o
364.227 291.528 o
365.859 291.326 o
367.49 290.245 o
369.122 292.492 o
370.753 292.399 o
372.384 292.143 o
374.016 292.776 o
375.647 292.664 o
377.279 293.09 o
378.91 293.529 o
380.542 295.276 o
382.173 293.968 o
383.804 294.825 o
385.436 295.42 o
387.067 294.598 o
388.699 296.658 o
390.33 294.819 o
391.962 295.013 o
393.593 295.843 o
395.224 295.56 o
396.856 296.356 o
398.487 295.495 o
grestore
0.800 setlinewidth
0 setlinejoin
2 setlinecap
[] 0 setdash
0.000 setgray
gsave
57.6 183.168 m
57.6 304.128 l
stroke
grestore
gsave
414.72 183.168 m
414.72 304.128 l
stroke
grestore
gsave
57.6 183.168 m
414.72 183.168 l
stroke
grestore
gsave
57.6 304.128 m
414.72 304.128 l
stroke
grestore
1.000 setlinewidth
0 setlinecap
0.800 setgray
gsave
64.6 252.112375 m
102.521875 252.112375 l
103.855208 252.112375 104.521875 252.779042 104.521875 254.112375 c
104.521875 297.128 l
104.521875 298.461333 103.855208 299.128 102.521875 299.128 c
64.6 299.128 l
63.266667 299.128 62.6 298.461333 62.6 297.128 c
62.6 254.112375 l
62.6 252.779042 63.266667 252.112375 64.6 252.112375 c
cl
gsave
1.000 setgray
fill
grestore
stroke
grestore
1.500 setlinewidth
1 setlinejoin
2 setlinecap
[] 0 setdash
0.122 0.467 0.706 setrgbcolor
gsave
66.6 291.03425 m
86.6 291.03425 l
stroke
grestore
0.000 setgray
gsave
94.600000 287.534250 translate
0.000000 rotate
0.000000 0.000000 m /x glyphshow
grestore
1.000 0.498 0.055 setrgbcolor
gsave
66.6 276.362375 m
86.6 276.362375 l
stroke
grestore
0.000 setgray
gsave
94.600000 272.862375 translate
0.000000 rotate
0.000000 0.000000 m /y glyphshow
grestore
0.173 0.627 0.173 setrgbcolor
gsave
66.6 261.6905 m
86.6 261.6905 l
stroke
grestore
0.000 setgray
gsave
94.600000 258.190500 translate
0.000000 rotate
0.000000 0.000000 m /z glyphshow
grestore
gsave
57.6 38.016 m
414.72 38.016 l
414.72 158.976 l
57.6 158.976 l
cl
1.000 setgray
fill
grestore
0.800 setlinewidth
0.690 setgray
gsave
357.1 121 57.6 38.02 clipbox
73.832727 38.016 m
73.832727 158.976 l
stroke
grestore
0 setlinecap
0.000 setgray
gsave
/o {
gsave
newpath
translate
0.8 setlinewidth
1 setlinejoin
0 setlinecap
0 0 m
0 -3.5 l

gsave
0.000 setgray
fill
grestore
stroke
grestore
} bind def
73.8327 38.016 o
grestore
gsave
70.653040 23.422250 translate
0.000000 rotate
0.000000 0.000000 m /zero glyphshow
grestore
2 setlinecap
0.690 setgray
gsave
357.1 121 57.6 38.02 clipbox
114.618474 38.016 m
114.618474 158.976 l
stroke
grestore
0 setlinecap
0.000 setgray
gsave
/o {
gsave
newpath
translate
0.8 setlinewidth
1 setlinejoin
0 setlinecap
0 0 m
0 -3.5 l

gsave
0.000 setgray
fill
grestore
stroke
grestore
} bind def
114.618 38.016 o
grestore
gsave
108.259099 23.422250 translate
0.000000 rotate
0.000000 0.000000 m /two glyphshow
6.362305 0.000000 m /five glyphshow
grestore
2 setlinecap
0.690 setgray
gsave
357.1 121 57.6 38.02 clipbox
155.404221 38.016 m
155.404221 158.976 l
stroke
grestore
0 setlinecap
0.000 setgray
gsave
/o {
gsave
newpath
translate
0.8 setlinewidth
1 setlinejoin
0 setlinecap
0 0 m
0 -3.5 l

gsave
0.000 setgray
fill
grestore
stroke
grestore
} bind def
155.404 38.016 o
grestore
gsave
149.044846 23.422250 translate
0.000000 rotate
0.000000 0.000000 m /five glyphshow
6.362305 0.000000 m /zero glyphshow
grestore
2 setlinecap
0.690 setgray
gsave
357.1 121 57.6 38.02 clipbox
196.189968 38.016 m
196.189968 158.976 l
stroke
grestore
0 setlinecap
0.000 setgray
gsave
/o {
gsave
newpath
translate
0.8 setlinewidth
1 setlinejoin
0 setlinecap
0 0 m
0 -3.5 l

gsave
0.000 setgray
fill
grestore
stroke
grestore
} bind def
196.19 38.016 o
grestore
gsave
189.830593 23.422250 translate
0.000000 rotate
0.000000 0.000000 m /seven glyphshow
6.362305 0.000000 m /five glyphshow
grestore
2 setlinecap
0.690 setgray
gsave
357.1 121 57.6 38.02 clipbox
236.975715 38.016 m
236.975715 158.976 l
stroke
grestore
0 setlinecap
0.000 setgray
gsave
/o {
gsave
newpath
translate
0.8 setlinewidth
1 setlinejoin
0 setlinecap
0 0 m
0 -3.5 l

gsave
0.000 setgray
fill
grestore
stroke
grestore
} bind def
236.976 38.016 o
grestore
gsave
227.436652 23.422250 translate
0.000000 rotate
0.000000 0.000000 m /one glyphshow
6.362305 0.000000 m /zero glyphshow
12.724609 0.000000 m /zero glyphshow
grestore
2 setlinecap
0.690 setgray
gsave
357.1 121 57.6 38.02 clipbox
277.761462 38.016 m
277.761462 158.976 l
stroke
grestore
0 setlinecap
0.000 setgray
gsave
/o {
gsave
newpath
translate
0.8 setlinewidth
1 setlinejoin
0 setlinecap
0 0 m
0 -3.5 l

gsave
0.000 setgray
fill
grestore
stroke
grestore
} bind def
277.761 38.016 o
grestore
gsave
268.222399 23.422250 translate
0.000000 rotate
0.000000 0.000000 m /one glyphshow
6.362305 0.000000 m /two glyphshow
12.724609 0.000000 m /five glyphshow
grestore
2 setlinecap
0.690 setgray
gsave
357.1 121 57.6 38.02 clipbox
318.547209 38.016 m
318.547209 158.976 l
stroke
grestore
0 setlinecap
0.000 setgray
gsave
/o {
gsave
newpath
translate
0.8 setlinewidth
1 setlinejoin
0 setlinecap
0 0 m
0 -3.5 l

gsave
0.000 setgray
fill
grestore
stroke
grestore
} bind def
318.547 38.016 o
grestore
gsave
309.008146 23.422250 translate
0.000000 rotate
0.000000 0.000000 m /one glyphshow
6.362305 0.000000 m /five glyphshow
12.724609 0.000000 m /zero glyphshow
grestore
2 setlinecap
0.690 setgray
gsave
357.1 121 57.6 38.02 clipbox
359.332956 38.016 m
359.332956 158.976 l
stroke
grestore
0 setlinecap
0.000 setgray
gsave
/o {
gsave
newpath
translate
0.8 setlinewidth
1 setlinejoin
0 setlinecap
0 0 m
0 -3.5 l

gsave
0.000 setgray
fill
grestore
stroke
grestore
} bind def
359.333 38.016 o
grestore
gsave
349.793893 23.422250 translate
0.000000 rotate
0.000000 0.000000 m /one glyphshow
6.362305 0.000000 m /seven glyphshow
12.724609 0.000000 m /five glyphshow
grestore
2 setlinecap
0.690 setgray
gsave
357.1 121 57.6 38.02 clipbox
400.118703 38.016 m
400.118703 158.976 l
stroke
grestore
0 setlinecap
0.000 setgray
gsave
/o {
gsave
newpath
translate
0.8 setlinewidth
1 setlinejoin
0 setlinecap
0 0 m
0 -3.5 l

gsave
0.000 setgray
fill
grestore
stroke
grestore
} bind def
400.119 38.016 o
grestore
gsave
390.579640 23.422250 translate
0.000000 rotate
0.000000 0.000000 m /two glyphshow
6.362305 0.000000 m /zero glyphshow
12.724609 0.000000 m /zero glyphshow
grestore
gsave
217.410000 9.750375 translate
0.000000 rotate
0.000000 0.000000 m /S glyphshow
6.347656 0.000000 m /a glyphshow
12.475586 0.000000 m /m glyphshow
22.216797 0.000000 m /p glyphshow
28.564453 0.000000 m /l glyphshow
31.342773 0.000000 m /e glyphshow
grestore
2 setlinecap
0.690 setgray
gsave
357.1 121 57.6 38.02 clipbox
57.6 68.068111 m
414.72 68.068111 l
stroke
grestore
0 setlinecap
0.000 setgray
gsave
/o {
gsave
newpath
translate
0.8 setlinewidth
1 setlinejoin
0 setlinecap
0 0 m
-3.5 0 l

gsave
0.000 setgray
fill
grestore
stroke
grestore
} bind def
57.6 68.0681 o
grestore
gsave
23.146875 64.271236 translate
0.000000 rotate
0.000000 0.000000 m /minus glyphshow
8.378906 0.000000 m /one glyphshow
14.741211 0.000000 m /zero glyphshow
21.103516 0.000000 m /zero glyphshow
grestore
2 setlinecap
0.690 setgray
gsave
357.1 121 57.6 38.02 clipbox
57.6 100.068436 m
414.72 100.068436 l
stroke
grestore
0 setlinecap
0.000 setgray
gsave
/o {
gsave
newpath
translate
0.8 setlinewidth
1 setlinejoin
0 setlinecap
0 0 m
-3.5 0 l

gsave
0.000 setgray
fill
grestore
stroke
grestore
} bind def
57.6 100.068 o
grestore
gsave
44.240625 96.271561 translate
0.000000 rotate
0.000000 0.000000 m /zero glyphshow
grestore
2 setlinecap
0.690 setgray
gsave
357.1 121 57.6 38.02 clipbox
57.6 132.068761 m
414.72 132.068761 l
stroke
grestore
0 setlinecap
0.000 setgray
gsave
/o {
gsave
newpath
translate
0.8 setlinewidth
1 setlinejoin
0 setlinecap
0 0 m
-3.5 0 l

gsave
0.000 setgray
fill
grestore
stroke
grestore
} bind def
57.6 132.069 o
grestore
gsave
31.521875 128.271886 translate
0.000000 rotate
0.000000 0.000000 m /one glyphshow
6.362305 0.000000 m /zero glyphshow
12.724609 0.000000 m /zero glyphshow
grestore
gsave
17.068750 51.050687 translate
90.000000 rotate
0.000000 0.000000 m /E glyphshow
6.318359 0.000000 m /u glyphshow
12.656250 0.000000 m /l glyphshow
15.434570 0.000000 m /e glyphshow
21.586914 0.000000 m /r glyphshow
25.698242 0.000000 m /space glyphshow
28.876953 0.000000 m /a glyphshow
35.004883 0.000000 m /n glyphshow
41.342773 0.000000 m /g glyphshow
47.690430 0.000000 m /l glyphshow
50.468750 0.000000 m /e glyphshow
56.621094 0.000000 m /s glyphshow
61.831055 0.000000 m /space glyphshow
65.009766 0.000000 m /space glyphshow
68.188477 0.000000 m /bracketleft glyphshow
72.089844 0.000000 m /d glyphshow
78.437500 0.000000 m /e glyphshow
84.589844 0.000000 m /g glyphshow
90.937500 0.000000 m /bracketright glyphshow
grestore
1.500 setlinewidth
2 setlinecap
0.122 0.467 0.706 setrgbcolor
gsave
357.1 121 57.6 38.02 clipbox
73.832727 100.068436 m
101.567035 97.462752 l
147.247072 92.897685 l
184.769959 89.243033 l
210.872837 86.920101 l
233.712855 85.09764 l
256.552873 83.500992 l
277.761462 82.237704 l
298.97005 81.201459 l
318.547209 80.465724 l
336.492937 80.002928 l
352.807236 79.789599 l
367.490105 79.803332 l
380.541544 80.018616 l
391.961553 80.40238 l
398.487273 80.720523 l
398.487273 80.720523 l
stroke
grestore
1.000 0.498 0.055 setrgbcolor
gsave
357.1 121 57.6 38.02 clipbox
73.832727 100.068436 m
91.778456 100.765449 l
109.724185 101.231564 l
126.038483 101.44379 l
142.352782 101.449113 l
158.667081 101.247403 l
176.61281 100.792406 l
194.558538 100.105775 l
212.504267 99.205507 l
232.081425 98.004943 l
253.290014 96.481066 l
277.761462 94.483593 l
305.49577 91.979841 l
339.755797 88.651801 l
398.487273 82.81953 l
398.487273 82.81953 l
stroke
grestore
0.173 0.627 0.173 setrgbcolor
gsave
357.1 121 57.6 38.02 clipbox
73.832727 100.068436 m
108.092755 104.802764 l
204.347117 118.268633 l
235.344285 122.27356 l
269.604312 126.462765 l
352.807236 136.501163 l
370.752965 138.955747 l
385.435834 141.174334 l
398.487273 143.378103 l
398.487273 143.378103 l
stroke
grestore
1.000 setlinewidth
0 setlinecap
0.839 0.153 0.157 setrgbcolor
gsave
357.1 121 57.6 38.02 clipbox
/o {
gsave
newpath
translate
1.0 setlinewidth
1 setlinejoin
0 setlinecap
0 -1.5 m
0.397805 -1.5 0.77937 -1.341951 1.06066 -1.06066 c
1.341951 -0.77937 1.5 -0.397805 1.5 0 c
1.5 0.397805 1.341951 0.77937 1.06066 1.06066 c
0.77937 1.341951 0.397805 1.5 0 1.5 c
-0.397805 1.5 -0.77937 1.341951 -1.06066 1.06066 c
-1.341951 0.77937 -1.5 0.397805 -1.5 0 c
-1.5 -0.397805 -1.341951 -0.77937 -1.06066 -1.06066 c
-0.77937 -1.341951 -0.397805 -1.5 0 -1.5 c
cl

gsave
0.839 0.153 0.157 setrgbcolor
fill
grestore
stroke
grestore
} bind def
73.8327 100.897 o
75.4642 97.7459 o
77.0956 100.175 o
78.727 98.7972 o
80.3584 98.9546 o
81.9899 98.6987 o
83.6213 99.7283 o
85.2527 99.1593 o
86.8842 98.424 o
88.5156 98.8937 o
90.147 99.1193 o
91.7785 99.9488 o
93.4099 98.986 o
95.0413 96.8158 o
96.6727 96.9162 o
98.3042 96.7002 o
99.9356 96.7051 o
101.567 95.88 o
103.198 95.7039 o
104.83 97.0608 o
106.461 98.3692 o
108.093 96.5272 o
109.724 96.0674 o
111.356 98.0941 o
112.987 95.894 o
114.618 95.8327 o
116.25 97.2004 o
117.881 96.2352 o
119.513 96.6113 o
121.144 95.1737 o
122.776 97.4627 o
124.407 95.4213 o
126.038 94.5156 o
127.67 95.0007 o
129.301 93.3238 o
130.933 93.5803 o
132.564 94.379 o
134.196 94.3698 o
135.827 94.2714 o
137.458 94.6537 o
139.09 93.0686 o
140.721 93.6011 o
142.353 91.8487 o
143.984 93.7021 o
145.616 93.2864 o
147.247 92.46 o
148.879 94.4934 o
150.51 93.6029 o
152.141 92.0614 o
153.773 92.8519 o
155.404 91.9693 o
157.036 92.7271 o
158.667 91.3494 o
160.299 91.8507 o
161.93 92.9847 o
163.561 93.4035 o
165.193 90.4489 o
166.824 90.3294 o
168.456 93.4177 o
170.087 88.0076 o
171.719 90.3924 o
173.35 92.3242 o
174.981 91.9111 o
176.613 92.6955 o
178.244 91.9992 o
179.876 91.5953 o
181.507 87.4234 o
183.139 85.523 o
184.77 92.1555 o
186.401 84.2013 o
188.033 90.8191 o
189.664 87.921 o
191.296 84.2188 o
192.927 83.2898 o
194.559 86.5684 o
196.19 88.315 o
197.821 88.3013 o
199.453 87.0748 o
201.084 89.11 o
202.716 89.0864 o
204.347 81.3243 o
205.979 87.7341 o
207.61 86.8381 o
209.241 85.1889 o
210.873 86.1246 o
212.504 91.3479 o
214.136 86.6832 o
215.767 87.7405 o
217.399 93.7186 o
219.03 87.6731 o
220.661 83.3928 o
222.293 88.5112 o
223.924 80.6642 o
225.556 76.4636 o
227.187 85.9209 o
228.819 91.3405 o
230.45 83.339 o
232.081 80.7517 o
233.713 86.4012 o
235.344 92.9528 o
236.976 88.0906 o
238.607 90.1072 o
240.239 83.5543 o
241.87 63.2647 o
243.501 80.1711 o
245.133 89.1336 o
246.764 88.5432 o
248.396 81.5617 o
250.027 82.759 o
251.659 92.5021 o
253.29 92.1353 o
254.921 94.22 o
256.553 87.593 o
258.184 87.9018 o
259.816 88.1021 o
261.447 76.284 o
263.079 95.6821 o
264.71 79.7075 o
266.341 85.0187 o
267.973 84.5163 o
269.604 88.0363 o
271.236 79.3549 o
272.867 82.2154 o
274.499 87.3864 o
276.13 62.1785 o
277.761 75.892 o
279.393 84.673 o
281.024 84.5373 o
282.656 84.5165 o
284.287 80.9518 o
285.919 85.4912 o
287.55 80.2466 o
289.181 94.3861 o
290.813 79.9835 o
292.444 79.2279 o
294.076 83.6143 o
295.707 80.7529 o
297.339 82.7629 o
298.97 79.8123 o
300.601 83.8335 o
302.233 75.0114 o
303.864 72.2567 o
305.496 80.3477 o
307.127 81.5316 o
308.759 80.241 o
310.39 81.2344 o
312.021 82.1287 o
313.653 76.0367 o
315.284 76.5983 o
316.916 82.8626 o
318.547 80.0075 o
320.179 64.5342 o
321.81 81.5826 o
323.441 81.7385 o
325.073 81.1235 o
326.704 79.6945 o
328.336 77.9112 o
329.967 74.7549 o
331.599 77.3573 o
333.23 80.6087 o
334.862 79.4568 o
336.493 47.4372 o
338.124 68.4734 o
339.756 79.656 o
341.387 80.0888 o
343.019 82.7953 o
344.65 78.2259 o
346.282 80.1354 o
347.913 79.5039 o
349.544 81.1228 o
351.176 72.1973 o
352.807 74.5065 o
354.439 78.71 o
356.07 81.1508 o
357.702 83.71 o
359.333 75.8285 o
360.964 87.0792 o
362.596 78.772 o
364.227 80.918 o
365.859 76.34 o
367.49 75.5734 o
369.122 86.3688 o
370.753 81.5275 o
372.384 81.171 o
374.016 76.7846 o
375.647 87.682 o
377.279 81.53 o
378.91 74.5573 o
380.542 88.0164 o
382.173 98.9678 o
383.804 79.6219 o
385.436 75.0843 o
387.067 81.2051 o
388.699 99.2328 o
390.33 78.9292 o
391.962 76.7847 o
393.593 81.6822 o
395.224 88.1523 o
396.856 79.0689 o
398.487 68.6149 o
grestore
0.580 0.404 0.741 setrgbcolor
gsave
357.1 121 57.6 38.02 clipbox
/o {
gsave
newpath
translate
1.0 setlinewidth
1 setlinejoin
0 setlinecap
0 -1.5 m
0.397805 -1.5 0.77937 -1.341951 1.06066 -1.06066 c
1.341951 -0.77937 1.5 -0.397805 1.5 0 c
1.5 0.397805 1.341951 0.77937 1.06066 1.06066 c
0.77937 1.341951 0.397805 1.5 0 1.5 c
-0.397805 1.5 -0.77937 1.341951 -1.06066 1.06066 c
-1.341951 0.77937 -1.5 0.397805 -1.5 0 c
-1.5 -0.397805 -1.341951 -0.77937 -1.06066 -1.06066 c
-0.77937 -1.341951 -0.397805 -1.5 0 -1.5 c
cl

gsave
0.580 0.404 0.741 setrgbcolor
fill
grestore
stroke
grestore
} bind def
73.8327 99.6467 o
75.4642 99.1633 o
77.0956 99.5373 o
78.727 101.124 o
80.3584 102.111 o
81.9899 101.236 o
83.6213 99.6856 o
85.2527 98.9665 o
86.8842 100.329 o
88.5156 100.762 o
90.147 99.4548 o
91.7785 103.037 o
93.4099 101.366 o
95.0413 101.363 o
96.6727 101.223 o
98.3042 100.438 o
99.9356 100.648 o
101.567 101.185 o
103.198 100.164 o
104.83 101.552 o
106.461 102.792 o
108.093 100.841 o
109.724 101.581 o
111.356 101.421 o
112.987 99.9872 o
114.618 101.294 o
116.25 102.6 o
117.881 102.814 o
119.513 100.676 o
121.144 100.885 o
122.776 102.993 o
124.407 102.81 o
126.038 101.267 o
127.67 103.189 o
129.301 100.833 o
130.933 100.729 o
132.564 100.582 o
134.196 101.992 o
135.827 101.49 o
137.458 101.562 o
139.09 102.138 o
140.721 102.258 o
142.353 99.89 o
143.984 101.502 o
145.616 100.184 o
147.247 100.101 o
148.879 100.994 o
150.51 99.8426 o
152.141 102.323 o
153.773 100.742 o
155.404 100.216 o
157.036 100.197 o
158.667 102.068 o
160.299 101.582 o
161.93 100.288 o
163.561 100.284 o
165.193 100.431 o
166.824 100.888 o
168.456 101.312 o
170.087 102.606 o
171.719 99.8385 o
173.35 98.9227 o
174.981 101.429 o
176.613 99.0693 o
178.244 100.043 o
179.876 100.192 o
181.507 101.481 o
183.139 102.495 o
184.77 98.4955 o
186.401 99.1229 o
188.033 101.199 o
189.664 99.3272 o
191.296 99.4769 o
192.927 97.7662 o
194.559 98.8574 o
196.19 101.484 o
197.821 100.555 o
199.453 99.3845 o
201.084 99.8408 o
202.716 99.1591 o
204.347 94.792 o
205.979 100.439 o
207.61 99.5157 o
209.241 98.2745 o
210.873 99.8296 o
212.504 100.687 o
214.136 99.5492 o
215.767 99.6288 o
217.399 99.3591 o
219.03 97.6314 o
220.661 96.2242 o
222.293 97.7872 o
223.924 94.6655 o
225.556 94.0639 o
227.187 97.7531 o
228.819 102.109 o
230.45 97.6945 o
232.081 93.2253 o
233.713 96.6016 o
235.344 102.248 o
236.976 100.4 o
238.607 101.049 o
240.239 96.1955 o
241.87 82.2794 o
243.501 92.6613 o
245.133 101.237 o
246.764 98.7161 o
248.396 96.694 o
250.027 97.3936 o
251.659 100.934 o
253.29 103.156 o
254.921 104.178 o
256.553 99.7874 o
258.184 99.1617 o
259.816 101.796 o
261.447 89.9329 o
263.079 105.579 o
264.71 95.0244 o
266.341 98.9026 o
267.973 98.1018 o
269.604 103.237 o
271.236 90.5937 o
272.867 94.4443 o
274.499 101.72 o
276.13 82.2117 o
277.761 87.2852 o
279.393 96.3518 o
281.024 99.6868 o
282.656 94.918 o
284.287 93.5858 o
285.919 97.8896 o
287.55 88.3976 o
289.181 111.574 o
290.813 91.9186 o
292.444 88.6267 o
294.076 101.684 o
295.707 90.6893 o
297.339 96.0282 o
298.97 85.5506 o
300.601 105.829 o
302.233 85.7342 o
303.864 83.4143 o
305.496 92.6715 o
307.127 93.7617 o
308.759 90.3186 o
310.39 93.4693 o
312.021 103.944 o
313.653 83.8095 o
315.284 86.7879 o
316.916 99.486 o
318.547 83.3286 o
320.179 123.926 o
321.81 94.1103 o
323.441 88.0874 o
325.073 92.9051 o
326.704 84.8395 o
328.336 99.6923 o
329.967 81.7743 o
331.599 77.9408 o
333.23 92.3941 o
334.862 92.0726 o
336.493 115.525 o
338.124 114.947 o
339.756 90.9538 o
341.387 88.1937 o
343.019 83.408 o
344.65 90.3868 o
346.282 91.2049 o
347.913 90.1127 o
349.544 89.8175 o
351.176 73.176 o
352.807 100.562 o
354.439 89.4605 o
356.07 86.8275 o
357.702 82.6312 o
359.333 95.1603 o
360.964 75.2031 o
362.596 90.198 o
364.227 83.1724 o
365.859 91.166 o
367.49 95.3541 o
369.122 76.4854 o
370.753 81.3573 o
372.384 85.9895 o
374.016 88.4058 o
375.647 78.1124 o
377.279 82.7734 o
378.91 92.3097 o
380.542 78.0289 o
382.173 76.5128 o
383.804 83.545 o
385.436 87.4661 o
387.067 82.9759 o
388.699 76.7452 o
390.33 86.0116 o
391.962 89.0466 o
393.593 84.6521 o
395.224 81.4901 o
396.856 84.5968 o
398.487 94.3051 o
grestore
0.549 0.337 0.294 setrgbcolor
gsave
357.1 121 57.6 38.02 clipbox
/o {
gsave
newpath
translate
1.0 setlinewidth
1 setlinejoin
0 setlinecap
0 -1.5 m
0.397805 -1.5 0.77937 -1.341951 1.06066 -1.06066 c
1.341951 -0.77937 1.5 -0.397805 1.5 0 c
1.5 0.397805 1.341951 0.77937 1.06066 1.06066 c
0.77937 1.341951 0.397805 1.5 0 1.5 c
-0.397805 1.5 -0.77937 1.341951 -1.06066 1.06066 c
-1.341951 0.77937 -1.5 0.397805 -1.5 0 c
-1.5 -0.397805 -1.341951 -0.77937 -1.06066 -1.06066 c
-0.77937 -1.341951 -0.397805 -1.5 0 -1.5 c
cl

gsave
0.549 0.337 0.294 setrgbcolor
fill
grestore
stroke
grestore
} bind def
73.8327 99.8987 o
75.4642 99.6951 o
77.0956 99.4069 o
78.727 101.369 o
80.3584 98.2865 o
81.9899 99.9376 o
83.6213 102.898 o
85.2527 103.353 o
86.8842 102.851 o
88.5156 100.882 o
90.147 103.475 o
91.7785 105.134 o
93.4099 102.761 o
95.0413 102.336 o
96.6727 103.253 o
98.3042 104.293 o
99.9356 103.081 o
101.567 102.02 o
103.198 102.491 o
104.83 104.182 o
106.461 101.049 o
108.093 104.55 o
109.724 105.874 o
111.356 105.364 o
112.987 104.692 o
114.618 106.101 o
116.25 110.16 o
117.881 107.051 o
119.513 107.099 o
121.144 107.235 o
122.776 108.225 o
124.407 105.025 o
126.038 107.633 o
127.67 107.784 o
129.301 108.064 o
130.933 109.3 o
132.564 107.92 o
134.196 108.715 o
135.827 110.448 o
137.458 107.507 o
139.09 112.302 o
140.721 113.854 o
142.353 107.172 o
143.984 109.043 o
145.616 109.182 o
147.247 110.013 o
148.879 109.367 o
150.51 108.697 o
152.141 113.237 o
153.773 110.917 o
155.404 110.222 o
157.036 109.239 o
158.667 113.962 o
160.299 111.831 o
161.93 109.552 o
163.561 108.471 o
165.193 111.11 o
166.824 111.627 o
168.456 111.702 o
170.087 119.633 o
171.719 114.685 o
173.35 108.552 o
174.981 113.302 o
176.613 110.704 o
178.244 111.389 o
179.876 109.454 o
181.507 117.804 o
183.139 120.666 o
184.77 113.07 o
186.401 122.496 o
188.033 113.173 o
189.664 118.456 o
191.296 120.88 o
192.927 120.156 o
194.559 119.606 o
196.19 116.521 o
197.821 118.885 o
199.453 116.994 o
201.084 115.484 o
202.716 115.456 o
204.347 123.622 o
205.979 118.835 o
207.61 120.559 o
209.241 120.761 o
210.873 119.119 o
212.504 112.916 o
214.136 120.055 o
215.767 117.651 o
217.399 115.026 o
219.03 120.81 o
220.661 123.164 o
222.293 121.109 o
223.924 125.735 o
225.556 123.757 o
227.187 120.639 o
228.819 116.778 o
230.45 123.457 o
232.081 124.763 o
233.713 123.929 o
235.344 115.792 o
236.976 119.665 o
238.607 119.921 o
240.239 124.325 o
241.87 120.795 o
243.501 124.895 o
245.133 121.895 o
246.764 123.091 o
248.396 124.108 o
250.027 124.157 o
251.659 120.911 o
253.29 120.482 o
254.921 120.985 o
256.553 123.354 o
258.184 123.28 o
259.816 122.567 o
261.447 125.219 o
263.079 119.579 o
264.71 124.864 o
266.341 125.647 o
267.973 126.015 o
269.604 125.35 o
271.236 126.279 o
272.867 126.931 o
274.499 126.318 o
276.13 114.564 o
277.761 123.272 o
279.393 129.3 o
281.024 128.183 o
282.656 128.811 o
284.287 127.049 o
285.919 130.046 o
287.55 128.473 o
289.181 127.581 o
290.813 126.59 o
292.444 128.366 o
294.076 130.525 o
295.707 129.083 o
297.339 131.625 o
298.97 129.444 o
300.601 133.228 o
302.233 125.94 o
303.864 122.709 o
305.496 130.117 o
307.127 130.951 o
308.759 130.073 o
310.39 131.518 o
312.021 134.919 o
313.653 124.799 o
315.284 128.198 o
316.916 135.458 o
318.547 129.369 o
320.179 43.5142 o
321.81 134.694 o
323.441 132.848 o
325.073 134.492 o
326.704 132.117 o
328.336 137.82 o
329.967 126.091 o
331.599 126.937 o
333.23 135.607 o
334.862 135.373 o
336.493 60.9271 o
338.124 150.003 o
339.756 135.712 o
341.387 134.945 o
343.019 135.248 o
344.65 136.517 o
346.282 136.337 o
347.913 135.985 o
349.544 137.211 o
351.176 121.251 o
352.807 141.88 o
354.439 136.145 o
356.07 137.348 o
357.702 138.212 o
359.333 140.062 o
360.964 138.145 o
362.596 141.029 o
364.227 138.062 o
365.859 140.904 o
367.49 142.166 o
369.122 138.679 o
370.753 137.274 o
372.384 139.594 o
374.016 138.958 o
375.647 141.663 o
377.279 139.164 o
378.91 140.905 o
380.542 142.499 o
382.173 151.649 o
383.804 139.659 o
385.436 139.688 o
387.067 141.987 o
388.699 153.478 o
390.33 142.316 o
391.962 142.21 o
393.593 145.035 o
395.224 147.21 o
396.856 139.788 o
398.487 141.725 o
grestore
0.800 setlinewidth
0 setlinejoin
2 setlinecap
[] 0 setdash
0.000 setgray
gsave
57.6 38.016 m
57.6 158.976 l
stroke
grestore
gsave
414.72 38.016 m
414.72 158.976 l
stroke
grestore
gsave
57.6 38.016 m
414.72 38.016 l
stroke
grestore
gsave
57.6 158.976 m
414.72 158.976 l
stroke
grestore
1.000 setlinewidth
0 setlinecap
0.800 setgray
gsave
64.6 43.016 m
121.490625 43.016 l
122.823958 43.016 123.490625 43.682667 123.490625 45.016 c
123.490625 88.031625 l
123.490625 89.364958 122.823958 90.031625 121.490625 90.031625 c
64.6 90.031625 l
63.266667 90.031625 62.6 89.364958 62.6 88.031625 c
62.6 45.016 l
62.6 43.682667 63.266667 43.016 64.6 43.016 c
cl
gsave
1.000 setgray
fill
grestore
stroke
grestore
1.500 setlinewidth
1 setlinejoin
2 setlinecap
[] 0 setdash
0.122 0.467 0.706 setrgbcolor
gsave
66.6 81.937875 m
86.6 81.937875 l
stroke
grestore
0.000 setgray
gsave
94.600000 78.437875 translate
0.000000 rotate
0.000000 0.000000 m /r glyphshow
4.111328 0.000000 m /o glyphshow
10.229492 0.000000 m /l glyphshow
13.007812 0.000000 m /l glyphshow
grestore
1.000 0.498 0.055 setrgbcolor
gsave
66.6 67.266 m
86.6 67.266 l
stroke
grestore
0.000 setgray
gsave
94.600000 63.766000 translate
0.000000 rotate
0.000000 0.000000 m /p glyphshow
6.347656 0.000000 m /i glyphshow
9.125977 0.000000 m /t glyphshow
13.046875 0.000000 m /c glyphshow
18.544922 0.000000 m /h glyphshow
grestore
0.173 0.627 0.173 setrgbcolor
gsave
66.6 52.594125 m
86.6 52.594125 l
stroke
grestore
0.000 setgray
gsave
94.600000 49.094125 translate
0.000000 rotate
0.000000 0.000000 m /y glyphshow
5.917969 0.000000 m /a glyphshow
12.045898 0.000000 m /w glyphshow
grestore

end
showpage
