%!PS-Adobe-3.0 EPSF-3.0
%%Title: figures/gradient_500_err.eps
%%Creator: matplotlib version 2.0.0, http://matplotlib.org/
%%CreationDate: Tue Feb 28 10:49:09 2017
%%Orientation: portrait
%%BoundingBox: 75 223 536 568
%%EndComments
%%BeginProlog
/mpldict 8 dict def
mpldict begin
/m { moveto } bind def
/l { lineto } bind def
/r { rlineto } bind def
/c { curveto } bind def
/cl { closepath } bind def
/box {
m
1 index 0 r
0 exch r
neg 0 r
cl
} bind def
/clipbox {
box
clip
newpath
} bind def
%!PS-Adobe-3.0 Resource-Font
%%Title: DejaVu Sans
%%Copyright: Copyright (c) 2003 by Bitstream, Inc. All Rights Reserved. Copyright (c) 2006 by Tavmjong Bah. All Rights Reserved. DejaVu changes are in public domain 
%%Creator: Converted from TrueType to type 3 by PPR
25 dict begin
/_d{bind def}bind def
/_m{moveto}_d
/_l{lineto}_d
/_cl{closepath eofill}_d
/_c{curveto}_d
/_sc{7 -1 roll{setcachedevice}{pop pop pop pop pop pop}ifelse}_d
/_e{exec}_d
/FontName /DejaVuSans def
/PaintType 0 def
/FontMatrix[.001 0 0 .001 0 0]def
/FontBBox[-1021 -463 1793 1232]def
/FontType 3 def
/Encoding [ /space /period /zero /one /two /three /four /five /six /E /P /S /bracketleft /bracketright /a /c /d /e /g /h /i /l /m /n /o /p /r /s /t /u /w /x /y /z /minus ] def
/FontInfo 10 dict dup begin
/FamilyName (DejaVu Sans) def
/FullName (DejaVu Sans) def
/Notice (Copyright (c) 2003 by Bitstream, Inc. All Rights Reserved. Copyright (c) 2006 by Tavmjong Bah. All Rights Reserved. DejaVu changes are in public domain ) def
/Weight (Book) def
/Version (Version 2.35) def
/ItalicAngle 0.0 def
/isFixedPitch false def
/UnderlinePosition -130 def
/UnderlineThickness 90 def
end readonly def
/CharStrings 35 dict dup begin
/space{318 0 0 0 0 0 _sc
}_d
/period{318 0 107 0 210 124 _sc
107 124 _m
210 124 _l
210 0 _l
107 0 _l
107 124 _l
_cl}_d
/zero{636 0 66 -13 570 742 _sc
318 664 _m
267 664 229 639 203 589 _c
177 539 165 464 165 364 _c
165 264 177 189 203 139 _c
229 89 267 64 318 64 _c
369 64 407 89 433 139 _c
458 189 471 264 471 364 _c
471 464 458 539 433 589 _c
407 639 369 664 318 664 _c
318 742 _m
399 742 461 709 505 645 _c
548 580 570 486 570 364 _c
570 241 548 147 505 83 _c
461 19 399 -13 318 -13 _c
236 -13 173 19 130 83 _c
87 147 66 241 66 364 _c
66 486 87 580 130 645 _c
173 709 236 742 318 742 _c
_cl}_d
/one{636 0 110 0 544 729 _sc
124 83 _m
285 83 _l
285 639 _l
110 604 _l
110 694 _l
284 729 _l
383 729 _l
383 83 _l
544 83 _l
544 0 _l
124 0 _l
124 83 _l
_cl}_d
/two{{636 0 73 0 536 742 _sc
192 83 _m
536 83 _l
536 0 _l
73 0 _l
73 83 _l
110 121 161 173 226 239 _c
290 304 331 346 348 365 _c
380 400 402 430 414 455 _c
426 479 433 504 433 528 _c
433 566 419 598 392 622 _c
365 646 330 659 286 659 _c
255 659 222 653 188 643 _c
154 632 117 616 78 594 _c
78 694 _l
118 710 155 722 189 730 _c
223 738 255 742 284 742 _c
}_e{359 742 419 723 464 685 _c
509 647 532 597 532 534 _c
532 504 526 475 515 449 _c
504 422 484 390 454 354 _c
446 344 420 317 376 272 _c
332 227 271 164 192 83 _c
_cl}_e}_d
/three{{636 0 76 -13 556 742 _sc
406 393 _m
453 383 490 362 516 330 _c
542 298 556 258 556 212 _c
556 140 531 84 482 45 _c
432 6 362 -13 271 -13 _c
240 -13 208 -10 176 -4 _c
144 1 110 10 76 22 _c
76 117 _l
103 101 133 89 166 81 _c
198 73 232 69 268 69 _c
330 69 377 81 409 105 _c
441 129 458 165 458 212 _c
458 254 443 288 413 312 _c
383 336 341 349 287 349 _c
}_e{202 349 _l
202 430 _l
291 430 _l
339 430 376 439 402 459 _c
428 478 441 506 441 543 _c
441 580 427 609 401 629 _c
374 649 336 659 287 659 _c
260 659 231 656 200 650 _c
169 644 135 635 98 623 _c
98 711 _l
135 721 170 729 203 734 _c
235 739 266 742 296 742 _c
370 742 429 725 473 691 _c
517 657 539 611 539 553 _c
539 513 527 479 504 451 _c
481 423 448 403 406 393 _c
_cl}_e}_d
/four{636 0 49 0 580 729 _sc
378 643 _m
129 254 _l
378 254 _l
378 643 _l
352 729 _m
476 729 _l
476 254 _l
580 254 _l
580 172 _l
476 172 _l
476 0 _l
378 0 _l
378 172 _l
49 172 _l
49 267 _l
352 729 _l
_cl}_d
/five{{636 0 77 -13 549 729 _sc
108 729 _m
495 729 _l
495 646 _l
198 646 _l
198 467 _l
212 472 227 476 241 478 _c
255 480 270 482 284 482 _c
365 482 429 459 477 415 _c
525 370 549 310 549 234 _c
549 155 524 94 475 51 _c
426 8 357 -13 269 -13 _c
238 -13 207 -10 175 -6 _c
143 -1 111 6 77 17 _c
77 116 _l
106 100 136 88 168 80 _c
199 72 232 69 267 69 _c
}_e{323 69 368 83 401 113 _c
433 143 450 183 450 234 _c
450 284 433 324 401 354 _c
368 384 323 399 267 399 _c
241 399 214 396 188 390 _c
162 384 135 375 108 363 _c
108 729 _l
_cl}_e}_d
/six{{636 0 70 -13 573 742 _sc
330 404 _m
286 404 251 388 225 358 _c
199 328 186 286 186 234 _c
186 181 199 139 225 109 _c
251 79 286 64 330 64 _c
374 64 409 79 435 109 _c
461 139 474 181 474 234 _c
474 286 461 328 435 358 _c
409 388 374 404 330 404 _c
526 713 _m
526 623 _l
501 635 476 644 451 650 _c
425 656 400 659 376 659 _c
310 659 260 637 226 593 _c
}_e{192 549 172 482 168 394 _c
187 422 211 444 240 459 _c
269 474 301 482 336 482 _c
409 482 467 459 509 415 _c
551 371 573 310 573 234 _c
573 159 550 99 506 54 _c
462 9 403 -13 330 -13 _c
246 -13 181 19 137 83 _c
92 147 70 241 70 364 _c
70 479 97 571 152 639 _c
206 707 280 742 372 742 _c
396 742 421 739 447 735 _c
472 730 498 723 526 713 _c
_cl}_e}_d
/E{632 0 98 0 568 729 _sc
98 729 _m
559 729 _l
559 646 _l
197 646 _l
197 430 _l
544 430 _l
544 347 _l
197 347 _l
197 83 _l
568 83 _l
568 0 _l
98 0 _l
98 729 _l
_cl}_d
/P{603 0 98 0 569 729 _sc
197 648 _m
197 374 _l
321 374 _l
367 374 402 385 427 409 _c
452 433 465 467 465 511 _c
465 555 452 588 427 612 _c
402 636 367 648 321 648 _c
197 648 _l
98 729 _m
321 729 _l
402 729 464 710 506 673 _c
548 636 569 582 569 511 _c
569 439 548 384 506 348 _c
464 311 402 293 321 293 _c
197 293 _l
197 0 _l
98 0 _l
98 729 _l
_cl}_d
/S{{635 0 66 -13 579 742 _sc
535 705 _m
535 609 _l
497 627 462 640 429 649 _c
395 657 363 662 333 662 _c
279 662 237 651 208 631 _c
179 610 165 580 165 542 _c
165 510 174 485 194 469 _c
213 452 250 439 304 429 _c
364 417 _l
437 403 491 378 526 343 _c
561 307 579 260 579 201 _c
579 130 555 77 508 41 _c
460 5 391 -13 300 -13 _c
265 -13 228 -9 189 -2 _c
}_e{150 5 110 16 69 32 _c
69 134 _l
109 111 148 94 186 83 _c
224 71 262 66 300 66 _c
356 66 399 77 430 99 _c
460 121 476 152 476 194 _c
476 230 465 258 443 278 _c
421 298 385 313 335 323 _c
275 335 _l
201 349 148 372 115 404 _c
82 435 66 478 66 534 _c
66 598 88 649 134 686 _c
179 723 242 742 322 742 _c
356 742 390 739 426 733 _c
461 727 497 717 535 705 _c
}_e{_cl}_e}_d
/bracketleft{390 0 86 -131 293 760 _sc
86 760 _m
293 760 _l
293 690 _l
176 690 _l
176 -61 _l
293 -61 _l
293 -131 _l
86 -131 _l
86 760 _l
_cl}_d
/bracketright{390 0 97 -131 304 760 _sc
304 760 _m
304 -131 _l
97 -131 _l
97 -61 _l
214 -61 _l
214 690 _l
97 690 _l
97 760 _l
304 760 _l
_cl}_d
/a{{613 0 60 -13 522 560 _sc
343 275 _m
270 275 220 266 192 250 _c
164 233 150 205 150 165 _c
150 133 160 107 181 89 _c
202 70 231 61 267 61 _c
317 61 357 78 387 114 _c
417 149 432 196 432 255 _c
432 275 _l
343 275 _l
522 312 _m
522 0 _l
432 0 _l
432 83 _l
411 49 385 25 355 10 _c
325 -5 287 -13 243 -13 _c
187 -13 142 2 109 33 _c
76 64 60 106 60 159 _c
}_e{60 220 80 266 122 298 _c
163 329 224 345 306 345 _c
432 345 _l
432 354 _l
432 395 418 427 391 450 _c
364 472 326 484 277 484 _c
245 484 215 480 185 472 _c
155 464 127 453 100 439 _c
100 522 _l
132 534 164 544 195 550 _c
226 556 256 560 286 560 _c
365 560 424 539 463 498 _c
502 457 522 395 522 312 _c
_cl}_e}_d
/c{{550 0 55 -13 488 560 _sc
488 526 _m
488 442 _l
462 456 437 466 411 473 _c
385 480 360 484 334 484 _c
276 484 230 465 198 428 _c
166 391 150 339 150 273 _c
150 206 166 154 198 117 _c
230 80 276 62 334 62 _c
360 62 385 65 411 72 _c
437 79 462 90 488 104 _c
488 21 _l
462 9 436 0 410 -5 _c
383 -10 354 -13 324 -13 _c
242 -13 176 12 128 64 _c
}_e{79 115 55 185 55 273 _c
55 362 79 432 128 483 _c
177 534 244 560 330 560 _c
358 560 385 557 411 551 _c
437 545 463 537 488 526 _c
_cl}_e}_d
/d{{635 0 55 -13 544 760 _sc
454 464 _m
454 760 _l
544 760 _l
544 0 _l
454 0 _l
454 82 _l
435 49 411 25 382 10 _c
353 -5 319 -13 279 -13 _c
213 -13 159 13 117 65 _c
75 117 55 187 55 273 _c
55 359 75 428 117 481 _c
159 533 213 560 279 560 _c
319 560 353 552 382 536 _c
411 520 435 496 454 464 _c
148 273 _m
148 207 161 155 188 117 _c
215 79 253 61 301 61 _c
}_e{348 61 385 79 413 117 _c
440 155 454 207 454 273 _c
454 339 440 390 413 428 _c
385 466 348 485 301 485 _c
253 485 215 466 188 428 _c
161 390 148 339 148 273 _c
_cl}_e}_d
/e{{615 0 55 -13 562 560 _sc
562 296 _m
562 252 _l
149 252 _l
153 190 171 142 205 110 _c
238 78 284 62 344 62 _c
378 62 412 66 444 74 _c
476 82 509 95 541 113 _c
541 28 _l
509 14 476 3 442 -3 _c
408 -9 373 -13 339 -13 _c
251 -13 182 12 131 62 _c
80 112 55 181 55 268 _c
55 357 79 428 127 481 _c
175 533 241 560 323 560 _c
397 560 455 536 498 489 _c
}_e{540 441 562 377 562 296 _c
472 322 _m
471 371 457 410 431 440 _c
404 469 368 484 324 484 _c
274 484 234 469 204 441 _c
174 413 156 373 152 322 _c
472 322 _l
_cl}_e}_d
/g{{635 0 55 -207 544 560 _sc
454 280 _m
454 344 440 395 414 431 _c
387 467 349 485 301 485 _c
253 485 215 467 188 431 _c
161 395 148 344 148 280 _c
148 215 161 165 188 129 _c
215 93 253 75 301 75 _c
349 75 387 93 414 129 _c
440 165 454 215 454 280 _c
544 68 _m
544 -24 523 -93 482 -139 _c
440 -184 377 -207 292 -207 _c
260 -207 231 -204 203 -200 _c
175 -195 147 -188 121 -178 _c
}_e{121 -91 _l
147 -105 173 -115 199 -122 _c
225 -129 251 -133 278 -133 _c
336 -133 380 -117 410 -87 _c
439 -56 454 -10 454 52 _c
454 96 _l
435 64 411 40 382 24 _c
353 8 319 0 279 0 _c
211 0 157 25 116 76 _c
75 127 55 195 55 280 _c
55 364 75 432 116 483 _c
157 534 211 560 279 560 _c
319 560 353 552 382 536 _c
411 520 435 496 454 464 _c
454 547 _l
544 547 _l
}_e{544 68 _l
_cl}_e}_d
/h{634 0 91 0 549 760 _sc
549 330 _m
549 0 _l
459 0 _l
459 327 _l
459 379 448 417 428 443 _c
408 469 378 482 338 482 _c
289 482 251 466 223 435 _c
195 404 181 362 181 309 _c
181 0 _l
91 0 _l
91 760 _l
181 760 _l
181 462 _l
202 494 227 519 257 535 _c
286 551 320 560 358 560 _c
420 560 468 540 500 501 _c
532 462 549 405 549 330 _c
_cl}_d
/i{278 0 94 0 184 760 _sc
94 547 _m
184 547 _l
184 0 _l
94 0 _l
94 547 _l
94 760 _m
184 760 _l
184 646 _l
94 646 _l
94 760 _l
_cl}_d
/l{278 0 94 0 184 760 _sc
94 760 _m
184 760 _l
184 0 _l
94 0 _l
94 760 _l
_cl}_d
/m{{974 0 91 0 889 560 _sc
520 442 _m
542 482 569 511 600 531 _c
631 550 668 560 711 560 _c
767 560 811 540 842 500 _c
873 460 889 403 889 330 _c
889 0 _l
799 0 _l
799 327 _l
799 379 789 418 771 444 _c
752 469 724 482 686 482 _c
639 482 602 466 575 435 _c
548 404 535 362 535 309 _c
535 0 _l
445 0 _l
445 327 _l
445 379 435 418 417 444 _c
398 469 369 482 331 482 _c
}_e{285 482 248 466 221 435 _c
194 404 181 362 181 309 _c
181 0 _l
91 0 _l
91 547 _l
181 547 _l
181 462 _l
201 495 226 520 255 536 _c
283 552 317 560 357 560 _c
397 560 430 550 458 530 _c
486 510 506 480 520 442 _c
_cl}_e}_d
/n{634 0 91 0 549 560 _sc
549 330 _m
549 0 _l
459 0 _l
459 327 _l
459 379 448 417 428 443 _c
408 469 378 482 338 482 _c
289 482 251 466 223 435 _c
195 404 181 362 181 309 _c
181 0 _l
91 0 _l
91 547 _l
181 547 _l
181 462 _l
202 494 227 519 257 535 _c
286 551 320 560 358 560 _c
420 560 468 540 500 501 _c
532 462 549 405 549 330 _c
_cl}_d
/o{612 0 55 -13 557 560 _sc
306 484 _m
258 484 220 465 192 427 _c
164 389 150 338 150 273 _c
150 207 163 156 191 118 _c
219 80 257 62 306 62 _c
354 62 392 80 420 118 _c
448 156 462 207 462 273 _c
462 337 448 389 420 427 _c
392 465 354 484 306 484 _c
306 560 _m
384 560 445 534 490 484 _c
534 433 557 363 557 273 _c
557 183 534 113 490 63 _c
445 12 384 -13 306 -13 _c
227 -13 165 12 121 63 _c
77 113 55 183 55 273 _c
55 363 77 433 121 484 _c
165 534 227 560 306 560 _c
_cl}_d
/p{{635 0 91 -207 580 560 _sc
181 82 _m
181 -207 _l
91 -207 _l
91 547 _l
181 547 _l
181 464 _l
199 496 223 520 252 536 _c
281 552 316 560 356 560 _c
422 560 476 533 518 481 _c
559 428 580 359 580 273 _c
580 187 559 117 518 65 _c
476 13 422 -13 356 -13 _c
316 -13 281 -5 252 10 _c
223 25 199 49 181 82 _c
487 273 _m
487 339 473 390 446 428 _c
418 466 381 485 334 485 _c
}_e{286 485 249 466 222 428 _c
194 390 181 339 181 273 _c
181 207 194 155 222 117 _c
249 79 286 61 334 61 _c
381 61 418 79 446 117 _c
473 155 487 207 487 273 _c
_cl}_e}_d
/r{411 0 91 0 411 560 _sc
411 463 _m
401 469 390 473 378 476 _c
366 478 353 480 339 480 _c
288 480 249 463 222 430 _c
194 397 181 350 181 288 _c
181 0 _l
91 0 _l
91 547 _l
181 547 _l
181 462 _l
199 495 224 520 254 536 _c
284 552 321 560 365 560 _c
371 560 378 559 386 559 _c
393 558 401 557 411 555 _c
411 463 _l
_cl}_d
/s{{521 0 54 -13 472 560 _sc
443 531 _m
443 446 _l
417 458 391 468 364 475 _c
336 481 308 485 279 485 _c
234 485 200 478 178 464 _c
156 450 145 430 145 403 _c
145 382 153 366 169 354 _c
185 342 217 330 265 320 _c
296 313 _l
360 299 405 279 432 255 _c
458 230 472 195 472 151 _c
472 100 452 60 412 31 _c
372 1 316 -13 246 -13 _c
216 -13 186 -10 154 -5 _c
}_e{122 0 89 8 54 20 _c
54 113 _l
87 95 120 82 152 74 _c
184 65 216 61 248 61 _c
290 61 323 68 346 82 _c
368 96 380 117 380 144 _c
380 168 371 187 355 200 _c
339 213 303 226 247 238 _c
216 245 _l
160 257 119 275 95 299 _c
70 323 58 356 58 399 _c
58 450 76 490 112 518 _c
148 546 200 560 268 560 _c
301 560 332 557 362 552 _c
391 547 418 540 443 531 _c
}_e{_cl}_e}_d
/t{392 0 27 0 368 702 _sc
183 702 _m
183 547 _l
368 547 _l
368 477 _l
183 477 _l
183 180 _l
183 135 189 106 201 94 _c
213 81 238 75 276 75 _c
368 75 _l
368 0 _l
276 0 _l
206 0 158 13 132 39 _c
106 65 93 112 93 180 _c
93 477 _l
27 477 _l
27 547 _l
93 547 _l
93 702 _l
183 702 _l
_cl}_d
/u{634 0 85 -13 543 560 _sc
85 216 _m
85 547 _l
175 547 _l
175 219 _l
175 167 185 129 205 103 _c
225 77 255 64 296 64 _c
344 64 383 79 411 110 _c
439 141 453 183 453 237 _c
453 547 _l
543 547 _l
543 0 _l
453 0 _l
453 84 _l
431 50 405 26 377 10 _c
348 -5 315 -13 277 -13 _c
214 -13 166 6 134 45 _c
101 83 85 140 85 216 _c
311 560 _m
311 560 _l
_cl}_d
/w{818 0 42 0 776 547 _sc
42 547 _m
132 547 _l
244 120 _l
356 547 _l
462 547 _l
574 120 _l
686 547 _l
776 547 _l
633 0 _l
527 0 _l
409 448 _l
291 0 _l
185 0 _l
42 547 _l
_cl}_d
/x{592 0 29 0 559 547 _sc
549 547 _m
351 281 _l
559 0 _l
453 0 _l
294 215 _l
135 0 _l
29 0 _l
241 286 _l
47 547 _l
153 547 _l
298 352 _l
443 547 _l
549 547 _l
_cl}_d
/y{592 0 30 -207 562 547 _sc
322 -50 _m
296 -114 271 -157 247 -177 _c
223 -197 191 -207 151 -207 _c
79 -207 _l
79 -132 _l
132 -132 _l
156 -132 175 -126 189 -114 _c
203 -102 218 -75 235 -31 _c
251 9 _l
30 547 _l
125 547 _l
296 119 _l
467 547 _l
562 547 _l
322 -50 _l
_cl}_d
/z{525 0 43 0 482 547 _sc
55 547 _m
482 547 _l
482 465 _l
144 72 _l
482 72 _l
482 0 _l
43 0 _l
43 82 _l
381 475 _l
55 475 _l
55 547 _l
_cl}_d
/minus{838 0 106 272 732 355 _sc
106 355 _m
732 355 _l
732 272 _l
106 272 _l
106 355 _l
_cl}_d
end readonly def

/BuildGlyph
 {exch begin
 CharStrings exch
 2 copy known not{pop /.notdef}if
 true 3 1 roll get exec
 end}_d

/BuildChar {
 1 index /Encoding get exch get
 1 index /BuildGlyph get exec
}_d

FontName currentdict end definefont pop
end
%%EndProlog
mpldict begin
75.6 223.2 translate
460.8 345.6 0 0 clipbox
gsave
0 0 m
460.8 0 l
460.8 345.6 l
0 345.6 l
cl
1.000 setgray
fill
grestore
gsave
57.6 183.168 m
414.72 183.168 l
414.72 304.128 l
57.6 304.128 l
cl
1.000 setgray
fill
grestore
0.800 setlinewidth
1 setlinejoin
2 setlinecap
[] 0 setdash
0.690 setgray
gsave
357.1 121 57.6 183.2 clipbox
73.832727 183.168 m
73.832727 304.128 l
stroke
grestore
0 setlinecap
0.000 setgray
gsave
/o {
gsave
newpath
translate
0.8 setlinewidth
1 setlinejoin
0 setlinecap
0 0 m
0 -3.5 l

gsave
0.000 setgray
fill
grestore
stroke
grestore
} bind def
73.8327 183.168 o
grestore
/DejaVuSans findfont
10.000 scalefont
setfont
gsave
70.653040 168.574250 translate
0.000000 rotate
0.000000 0.000000 m /zero glyphshow
grestore
2 setlinecap
0.690 setgray
gsave
357.1 121 57.6 183.2 clipbox
138.893758 183.168 m
138.893758 304.128 l
stroke
grestore
0 setlinecap
0.000 setgray
gsave
/o {
gsave
newpath
translate
0.8 setlinewidth
1 setlinejoin
0 setlinecap
0 0 m
0 -3.5 l

gsave
0.000 setgray
fill
grestore
stroke
grestore
} bind def
138.894 183.168 o
grestore
gsave
129.354696 168.574250 translate
0.000000 rotate
0.000000 0.000000 m /one glyphshow
6.362305 0.000000 m /zero glyphshow
12.724609 0.000000 m /zero glyphshow
grestore
2 setlinecap
0.690 setgray
gsave
357.1 121 57.6 183.2 clipbox
203.95479 183.168 m
203.95479 304.128 l
stroke
grestore
0 setlinecap
0.000 setgray
gsave
/o {
gsave
newpath
translate
0.8 setlinewidth
1 setlinejoin
0 setlinecap
0 0 m
0 -3.5 l

gsave
0.000 setgray
fill
grestore
stroke
grestore
} bind def
203.955 183.168 o
grestore
gsave
194.415727 168.574250 translate
0.000000 rotate
0.000000 0.000000 m /two glyphshow
6.362305 0.000000 m /zero glyphshow
12.724609 0.000000 m /zero glyphshow
grestore
2 setlinecap
0.690 setgray
gsave
357.1 121 57.6 183.2 clipbox
269.015821 183.168 m
269.015821 304.128 l
stroke
grestore
0 setlinecap
0.000 setgray
gsave
/o {
gsave
newpath
translate
0.8 setlinewidth
1 setlinejoin
0 setlinecap
0 0 m
0 -3.5 l

gsave
0.000 setgray
fill
grestore
stroke
grestore
} bind def
269.016 183.168 o
grestore
gsave
259.476758 168.574250 translate
0.000000 rotate
0.000000 0.000000 m /three glyphshow
6.362305 0.000000 m /zero glyphshow
12.724609 0.000000 m /zero glyphshow
grestore
2 setlinecap
0.690 setgray
gsave
357.1 121 57.6 183.2 clipbox
334.076852 183.168 m
334.076852 304.128 l
stroke
grestore
0 setlinecap
0.000 setgray
gsave
/o {
gsave
newpath
translate
0.8 setlinewidth
1 setlinejoin
0 setlinecap
0 0 m
0 -3.5 l

gsave
0.000 setgray
fill
grestore
stroke
grestore
} bind def
334.077 183.168 o
grestore
gsave
324.537789 168.574250 translate
0.000000 rotate
0.000000 0.000000 m /four glyphshow
6.362305 0.000000 m /zero glyphshow
12.724609 0.000000 m /zero glyphshow
grestore
2 setlinecap
0.690 setgray
gsave
357.1 121 57.6 183.2 clipbox
399.137883 183.168 m
399.137883 304.128 l
stroke
grestore
0 setlinecap
0.000 setgray
gsave
/o {
gsave
newpath
translate
0.8 setlinewidth
1 setlinejoin
0 setlinecap
0 0 m
0 -3.5 l

gsave
0.000 setgray
fill
grestore
stroke
grestore
} bind def
399.138 183.168 o
grestore
gsave
389.598821 168.574250 translate
0.000000 rotate
0.000000 0.000000 m /five glyphshow
6.362305 0.000000 m /zero glyphshow
12.724609 0.000000 m /zero glyphshow
grestore
gsave
217.410000 154.902375 translate
0.000000 rotate
0.000000 0.000000 m /S glyphshow
6.347656 0.000000 m /a glyphshow
12.475586 0.000000 m /m glyphshow
22.216797 0.000000 m /p glyphshow
28.564453 0.000000 m /l glyphshow
31.342773 0.000000 m /e glyphshow
grestore
2 setlinecap
0.690 setgray
gsave
357.1 121 57.6 183.2 clipbox
57.6 210.731549 m
414.72 210.731549 l
stroke
grestore
0 setlinecap
0.000 setgray
gsave
/o {
gsave
newpath
translate
0.8 setlinewidth
1 setlinejoin
0 setlinecap
0 0 m
-3.5 0 l

gsave
0.000 setgray
fill
grestore
stroke
grestore
} bind def
57.6 210.732 o
grestore
gsave
26.318750 206.934674 translate
0.000000 rotate
0.000000 0.000000 m /minus glyphshow
8.378906 0.000000 m /zero glyphshow
14.741211 0.000000 m /period glyphshow
17.919922 0.000000 m /two glyphshow
grestore
2 setlinecap
0.690 setgray
gsave
357.1 121 57.6 183.2 clipbox
57.6 243.989872 m
414.72 243.989872 l
stroke
grestore
0 setlinecap
0.000 setgray
gsave
/o {
gsave
newpath
translate
0.8 setlinewidth
1 setlinejoin
0 setlinecap
0 0 m
-3.5 0 l

gsave
0.000 setgray
fill
grestore
stroke
grestore
} bind def
57.6 243.99 o
grestore
gsave
34.693750 240.192997 translate
0.000000 rotate
0.000000 0.000000 m /zero glyphshow
6.362305 0.000000 m /period glyphshow
9.541016 0.000000 m /zero glyphshow
grestore
2 setlinecap
0.690 setgray
gsave
357.1 121 57.6 183.2 clipbox
57.6 277.248196 m
414.72 277.248196 l
stroke
grestore
0 setlinecap
0.000 setgray
gsave
/o {
gsave
newpath
translate
0.8 setlinewidth
1 setlinejoin
0 setlinecap
0 0 m
-3.5 0 l

gsave
0.000 setgray
fill
grestore
stroke
grestore
} bind def
57.6 277.248 o
grestore
gsave
34.693750 273.451321 translate
0.000000 rotate
0.000000 0.000000 m /zero glyphshow
6.362305 0.000000 m /period glyphshow
9.541016 0.000000 m /two glyphshow
grestore
gsave
20.240625 199.632375 translate
90.000000 rotate
0.000000 0.000000 m /P glyphshow
6.030273 0.000000 m /o glyphshow
12.148438 0.000000 m /s glyphshow
17.358398 0.000000 m /i glyphshow
20.136719 0.000000 m /t glyphshow
24.057617 0.000000 m /i glyphshow
26.835938 0.000000 m /o glyphshow
32.954102 0.000000 m /n glyphshow
39.291992 0.000000 m /space glyphshow
42.470703 0.000000 m /E glyphshow
48.789062 0.000000 m /r glyphshow
52.900391 0.000000 m /r glyphshow
57.011719 0.000000 m /o glyphshow
63.129883 0.000000 m /r glyphshow
67.241211 0.000000 m /space glyphshow
70.419922 0.000000 m /bracketleft glyphshow
74.321289 0.000000 m /m glyphshow
84.062500 0.000000 m /bracketright glyphshow
grestore
1.000 setlinewidth
0.122 0.467 0.706 setrgbcolor
gsave
357.1 121 57.6 183.2 clipbox
/o {
gsave
newpath
translate
1.0 setlinewidth
1 setlinejoin
0 setlinecap
0 -1.5 m
0.397805 -1.5 0.77937 -1.341951 1.06066 -1.06066 c
1.341951 -0.77937 1.5 -0.397805 1.5 0 c
1.5 0.397805 1.341951 0.77937 1.06066 1.06066 c
0.77937 1.341951 0.397805 1.5 0 1.5 c
-0.397805 1.5 -0.77937 1.341951 -1.06066 1.06066 c
-1.341951 0.77937 -1.5 0.397805 -1.5 0 c
-1.5 -0.397805 -1.341951 -0.77937 -1.06066 -1.06066 c
-0.77937 -1.341951 -0.397805 -1.5 0 -1.5 c
cl

gsave
0.122 0.467 0.706 setrgbcolor
fill
grestore
stroke
grestore
} bind def
73.8327 239.797 o
74.4833 240.074 o
75.1339 244.104 o
75.7846 244.765 o
76.4352 240.521 o
77.0858 242.181 o
77.7364 243.426 o
78.387 246.882 o
79.0376 243.014 o
79.6882 242.719 o
80.3388 241.944 o
80.9894 247.139 o
81.6401 239.889 o
82.2907 245.417 o
82.9413 242.157 o
83.5919 245.905 o
84.2425 243.212 o
84.8931 245.332 o
85.5437 244.691 o
86.1943 245.563 o
86.8449 243.61 o
87.4955 246.992 o
88.1462 242.641 o
88.7968 243.652 o
89.4474 243.838 o
90.098 244.214 o
90.7486 244.222 o
91.3992 241.724 o
92.0498 245.736 o
92.7004 243.221 o
93.351 242.915 o
94.0016 244.137 o
94.6523 244.129 o
95.3029 245.894 o
95.9535 243.102 o
96.6041 240.794 o
97.2547 244.134 o
97.9053 242.678 o
98.5559 246.306 o
99.2065 246.24 o
99.8571 245.863 o
100.508 243.296 o
101.158 245.164 o
101.809 246.319 o
102.46 246.374 o
103.11 243.392 o
103.761 240.739 o
104.411 243.658 o
105.062 245.739 o
105.713 245.136 o
106.363 243.787 o
107.014 244.313 o
107.664 239.579 o
108.315 241.75 o
108.966 248.385 o
109.616 239.42 o
110.267 244.4 o
110.918 245.8 o
111.568 243.585 o
112.219 238.617 o
112.869 243.623 o
113.52 245.804 o
114.171 236.29 o
114.821 241.808 o
115.472 242.192 o
116.122 249.596 o
116.773 246.149 o
117.424 247.401 o
118.074 240.904 o
118.725 236.444 o
119.375 251.258 o
120.026 250.823 o
120.677 241.708 o
121.327 247.467 o
121.978 239.646 o
122.629 239.714 o
123.279 242.093 o
123.93 238.481 o
124.58 239.415 o
125.231 248.313 o
125.882 244.204 o
126.532 248.477 o
127.183 248.077 o
127.833 239.062 o
128.484 243.696 o
129.135 245.453 o
129.785 236.15 o
130.436 242.074 o
131.086 242.358 o
131.737 244.226 o
132.388 248.274 o
133.038 244.02 o
133.689 240.271 o
134.339 242.681 o
134.99 249.797 o
135.641 243.259 o
136.291 250.883 o
136.942 246.589 o
137.593 240.037 o
138.243 244.676 o
138.894 241.352 o
139.544 251.644 o
140.195 239.785 o
140.846 243.094 o
141.496 247.558 o
142.147 248.71 o
142.797 245.219 o
143.448 245.176 o
144.099 243.118 o
144.749 248.579 o
145.4 244.397 o
146.05 250.137 o
146.701 245.801 o
147.352 240.333 o
148.002 236.797 o
148.653 247.459 o
149.304 247.832 o
149.954 248.065 o
150.605 241.005 o
151.255 234.684 o
151.906 249.996 o
152.557 248.247 o
153.207 224.14 o
153.858 240.308 o
154.508 249.088 o
155.159 238.665 o
155.81 252.394 o
156.46 249.23 o
157.111 239.34 o
157.761 241.799 o
158.412 253.374 o
159.063 248.533 o
159.713 251.54 o
160.364 246.284 o
161.015 240.138 o
161.665 244.033 o
162.316 226.166 o
162.966 253.582 o
163.617 253.125 o
164.268 247.977 o
164.918 239.997 o
165.569 245.412 o
166.219 247.28 o
166.87 244.332 o
167.521 257.934 o
168.171 243.365 o
168.822 248.636 o
169.472 242.833 o
170.123 241.407 o
170.774 246.059 o
171.424 242.316 o
172.075 236.831 o
172.725 237.522 o
173.376 256.496 o
174.027 249.295 o
174.677 251.067 o
175.328 248.836 o
175.979 239.55 o
176.629 236.801 o
177.28 249.15 o
177.93 247.864 o
178.581 236.298 o
179.232 234.795 o
179.882 226.698 o
180.533 239.699 o
181.183 239.003 o
181.834 241.95 o
182.485 258.94 o
183.135 234.234 o
183.786 252.31 o
184.436 235.016 o
185.087 245.604 o
185.738 249.129 o
186.388 250.456 o
187.039 240.569 o
187.69 242.969 o
188.34 244.104 o
188.991 231.61 o
189.641 238.677 o
190.292 234.199 o
190.943 245.903 o
191.593 230.106 o
192.244 223.121 o
192.894 242.038 o
193.545 251.411 o
194.196 241.185 o
194.846 237.058 o
195.497 241.867 o
196.147 240.351 o
196.798 234.786 o
197.449 235.472 o
198.099 243.445 o
198.75 242.151 o
199.401 237.247 o
200.051 251.218 o
200.702 257.771 o
201.352 251.679 o
202.003 239.25 o
202.654 250.113 o
203.304 242.792 o
203.955 240.384 o
204.605 242.739 o
205.256 230.966 o
205.907 254.477 o
206.557 232.852 o
207.208 232.883 o
207.858 253.52 o
208.509 250.516 o
209.16 247.759 o
209.81 236.021 o
210.461 249.668 o
211.112 245.447 o
211.762 235.49 o
212.413 250.352 o
213.063 233.525 o
213.714 233.456 o
214.365 242.448 o
215.015 243.634 o
215.666 243.071 o
216.316 251.461 o
216.967 243.195 o
217.618 249.075 o
218.268 246.276 o
218.919 249.125 o
219.569 221.669 o
220.22 236.96 o
220.871 253.143 o
221.521 248.059 o
222.172 232.301 o
222.822 238.396 o
223.473 262.173 o
224.124 270.663 o
224.774 255.936 o
225.425 231.312 o
226.076 260.649 o
226.726 248.265 o
227.377 223.855 o
228.027 238.817 o
228.678 233.512 o
229.329 251.357 o
229.979 239.278 o
230.63 235.648 o
231.28 254.966 o
231.931 229.895 o
232.582 234.528 o
233.232 248.025 o
233.883 243.246 o
234.533 240.333 o
235.184 235.943 o
235.835 253.923 o
236.485 242.763 o
237.136 243.54 o
237.787 250.273 o
238.437 254.888 o
239.088 234.642 o
239.738 247.04 o
240.389 251.908 o
241.04 251.169 o
241.69 247.217 o
242.341 242.253 o
242.991 253.059 o
243.642 257.969 o
244.293 257.952 o
244.943 221.062 o
245.594 253.741 o
246.244 240.803 o
246.895 243.625 o
247.546 233.02 o
248.196 233.633 o
248.847 235.915 o
249.498 255.001 o
250.148 233.544 o
250.799 232.216 o
251.449 247.174 o
252.1 251.641 o
252.751 243.655 o
253.401 251.418 o
254.052 239.566 o
254.702 241.903 o
255.353 221.599 o
256.004 265.299 o
256.654 238.578 o
257.305 261.326 o
257.955 259.479 o
258.606 214.813 o
259.257 234.998 o
259.907 259.492 o
260.558 268.42 o
261.208 265.03 o
261.859 262.829 o
262.51 241.241 o
263.16 262.505 o
263.811 251.08 o
264.462 261.947 o
265.112 244.613 o
265.763 238.645 o
266.413 251.676 o
267.064 252.633 o
267.715 227.821 o
268.365 258.042 o
269.016 236.133 o
269.666 226.409 o
270.317 226.989 o
270.968 253.38 o
271.618 250.973 o
272.269 255.907 o
272.919 250.993 o
273.57 240.314 o
274.221 231.425 o
274.871 228.723 o
275.522 244.418 o
276.173 242.842 o
276.823 204.265 o
277.474 244.361 o
278.124 262.522 o
278.775 247.177 o
279.426 253.885 o
280.076 239.725 o
280.727 249.205 o
281.377 235.616 o
282.028 269.226 o
282.679 237.787 o
283.329 206.23 o
283.98 235.471 o
284.63 209.37 o
285.281 212.366 o
285.932 225.994 o
286.582 263.769 o
287.233 244.912 o
287.884 216.233 o
288.534 262.926 o
289.185 251.588 o
289.835 211.897 o
290.486 278.51 o
291.137 245.025 o
291.787 227.699 o
292.438 276.136 o
293.088 252.503 o
293.739 298.63 o
294.39 252.751 o
295.04 252.475 o
295.691 230.274 o
296.341 225.23 o
296.992 242.265 o
297.643 226.722 o
298.293 262.051 o
298.944 241.598 o
299.595 209.177 o
300.245 242.203 o
300.896 225.211 o
301.546 254.051 o
302.197 224.998 o
302.848 255.774 o
303.498 272.259 o
304.149 228.906 o
304.799 251.952 o
305.45 255.557 o
306.101 254.355 o
306.751 258.857 o
307.402 236.324 o
308.052 237.731 o
308.703 258.346 o
309.354 235.014 o
310.004 237.576 o
310.655 259.239 o
311.305 257.16 o
311.956 270.336 o
312.607 241.941 o
313.257 254.865 o
313.908 245.251 o
314.559 245.795 o
315.209 203.863 o
315.86 238.508 o
316.51 248.72 o
317.161 250.876 o
317.812 264.884 o
318.462 214.801 o
319.113 250.454 o
319.763 220.908 o
320.414 217.751 o
321.065 252.233 o
321.715 251.45 o
322.366 240.252 o
323.016 234.811 o
323.667 263.996 o
324.318 223.991 o
324.968 226.361 o
325.619 268.632 o
326.27 244.429 o
326.92 237.459 o
327.571 277.329 o
328.221 257.645 o
328.872 255.2 o
329.523 218.883 o
330.173 282.587 o
330.824 253.189 o
331.474 240.377 o
332.125 243.606 o
332.776 228.683 o
333.426 255.821 o
334.077 270.598 o
334.727 248.694 o
335.378 230.495 o
336.029 263.38 o
336.679 237.246 o
337.33 260.87 o
337.981 239.295 o
338.631 228.371 o
339.282 256.628 o
339.932 230.272 o
340.583 230.011 o
341.234 258.359 o
341.884 260.545 o
342.535 252.386 o
343.185 255.286 o
343.836 265.47 o
344.487 244.372 o
345.137 251.832 o
345.788 254.085 o
346.438 226.146 o
347.089 234.658 o
347.74 254.124 o
348.39 259.982 o
349.041 246.471 o
349.691 232.012 o
350.342 248.467 o
350.993 251.38 o
351.643 246.255 o
352.294 230.38 o
352.945 250.583 o
353.595 233.298 o
354.246 236.278 o
354.896 268.472 o
355.547 216.91 o
356.198 214.783 o
356.848 225.182 o
357.499 244.211 o
358.149 284.837 o
358.8 251.947 o
359.451 271.32 o
360.101 232.801 o
360.752 246.086 o
361.402 240.577 o
362.053 220.401 o
362.704 227.367 o
363.354 245.887 o
364.005 227.89 o
364.656 234.464 o
365.306 246.345 o
365.957 257.515 o
366.607 226.55 o
367.258 257.134 o
367.909 260.619 o
368.559 250.531 o
369.21 247.427 o
369.86 244.866 o
370.511 236.947 o
371.162 277.75 o
371.812 252.647 o
372.463 233.728 o
373.113 250.761 o
373.764 244.181 o
374.415 269.661 o
375.065 252.775 o
375.716 252.398 o
376.367 230.606 o
377.017 238.204 o
377.668 244.699 o
378.318 243.742 o
378.969 218.565 o
379.62 255.336 o
380.27 248.705 o
380.921 255.018 o
381.571 249.134 o
382.222 271.92 o
382.873 222.502 o
383.523 247.007 o
384.174 255.213 o
384.824 255.04 o
385.475 253.725 o
386.126 258.545 o
386.776 241.736 o
387.427 246.253 o
388.078 242.212 o
388.728 247.729 o
389.379 241.933 o
390.029 231.976 o
390.68 235.814 o
391.331 239.495 o
391.981 260.99 o
392.632 235.296 o
393.282 254.379 o
393.933 242.091 o
394.584 249.778 o
395.234 229.705 o
395.885 220.607 o
396.535 237.831 o
397.186 235.617 o
397.837 244.002 o
398.487 229.82 o
grestore
1.000 0.498 0.055 setrgbcolor
gsave
357.1 121 57.6 183.2 clipbox
/o {
gsave
newpath
translate
1.0 setlinewidth
1 setlinejoin
0 setlinecap
0 -1.5 m
0.397805 -1.5 0.77937 -1.341951 1.06066 -1.06066 c
1.341951 -0.77937 1.5 -0.397805 1.5 0 c
1.5 0.397805 1.341951 0.77937 1.06066 1.06066 c
0.77937 1.341951 0.397805 1.5 0 1.5 c
-0.397805 1.5 -0.77937 1.341951 -1.06066 1.06066 c
-1.341951 0.77937 -1.5 0.397805 -1.5 0 c
-1.5 -0.397805 -1.341951 -0.77937 -1.06066 -1.06066 c
-0.77937 -1.341951 -0.397805 -1.5 0 -1.5 c
cl

gsave
1.000 0.498 0.055 setrgbcolor
fill
grestore
stroke
grestore
} bind def
73.8327 251.835 o
74.4833 238.914 o
75.1339 246.81 o
75.7846 241.735 o
76.4352 248.514 o
77.0858 242.41 o
77.7364 240.563 o
78.387 241.195 o
79.0376 243.071 o
79.6882 242.669 o
80.3388 246.164 o
80.9894 240.99 o
81.6401 245.711 o
82.2907 246.126 o
82.9413 245.321 o
83.5919 238.685 o
84.2425 244.512 o
84.8931 247.048 o
85.5437 244.906 o
86.1943 242.244 o
86.8449 248.505 o
87.4955 244.121 o
88.1462 243.059 o
88.7968 246.119 o
89.4474 240.737 o
90.098 244.091 o
90.7486 244.875 o
91.3992 242.927 o
92.0498 244.336 o
92.7004 241.06 o
93.351 244.948 o
94.0016 244.719 o
94.6523 248.824 o
95.3029 242.741 o
95.9535 242.993 o
96.6041 245.297 o
97.2547 243.813 o
97.9053 248.848 o
98.5559 242.405 o
99.2065 243.51 o
99.8571 238.96 o
100.508 245.497 o
101.158 242.687 o
101.809 243.848 o
102.46 241.888 o
103.11 243.907 o
103.761 243.508 o
104.411 244.77 o
105.062 246.146 o
105.713 241.063 o
106.363 244.568 o
107.014 246.304 o
107.664 245.419 o
108.315 245.085 o
108.966 245.27 o
109.616 245.649 o
110.267 243.036 o
110.918 247.338 o
111.568 242.174 o
112.219 241.305 o
112.869 244.902 o
113.52 242.238 o
114.171 247.52 o
114.821 239.88 o
115.472 242.968 o
116.122 246.817 o
116.773 240.444 o
117.424 240.819 o
118.074 246.845 o
118.725 246.819 o
119.375 238.398 o
120.026 241.473 o
120.677 242.273 o
121.327 242.905 o
121.978 243.763 o
122.629 244.746 o
123.279 247.482 o
123.93 244.929 o
124.58 247.153 o
125.231 239.729 o
125.882 241.63 o
126.532 242.365 o
127.183 241.821 o
127.833 248.791 o
128.484 244.448 o
129.135 241.926 o
129.785 246.231 o
130.436 242.343 o
131.086 248.67 o
131.737 243.8 o
132.388 246.945 o
133.038 243.158 o
133.689 244.584 o
134.339 237.465 o
134.99 244.984 o
135.641 243.795 o
136.291 246.138 o
136.942 238.252 o
137.593 245.057 o
138.243 240.293 o
138.894 244.902 o
139.544 241.575 o
140.195 246.352 o
140.846 246.691 o
141.496 240.117 o
142.147 243.263 o
142.797 242.519 o
143.448 250.142 o
144.099 244.857 o
144.749 245.249 o
145.4 242.629 o
146.05 244.652 o
146.701 247.814 o
147.352 242.165 o
148.002 246.849 o
148.653 250.92 o
149.304 245.377 o
149.954 247.923 o
150.605 240.947 o
151.255 240.852 o
151.906 238.202 o
152.557 240.425 o
153.207 245.862 o
153.858 240.918 o
154.508 244.086 o
155.159 244.12 o
155.81 238.147 o
156.46 247.969 o
157.111 247.775 o
157.761 239.834 o
158.412 240.31 o
159.063 245.102 o
159.713 241.002 o
160.364 238.313 o
161.015 249.223 o
161.665 240.286 o
162.316 243.157 o
162.966 239.99 o
163.617 243.433 o
164.268 248.507 o
164.918 246.931 o
165.569 241.994 o
166.219 243.634 o
166.87 244.343 o
167.521 243.471 o
168.171 235.37 o
168.822 240.955 o
169.472 237.416 o
170.123 247.177 o
170.774 248.319 o
171.424 240.482 o
172.075 245.927 o
172.725 251.214 o
173.376 248.024 o
174.027 237.856 o
174.677 235.119 o
175.328 249.276 o
175.979 237.968 o
176.629 245.529 o
177.28 241.716 o
177.93 249.382 o
178.581 248.597 o
179.232 242.474 o
179.882 235.638 o
180.533 243.36 o
181.183 236.79 o
181.834 243.301 o
182.485 246.382 o
183.135 246.302 o
183.786 237.471 o
184.436 237.273 o
185.087 244.901 o
185.738 246.723 o
186.388 244.36 o
187.039 253.797 o
187.69 246.006 o
188.34 241.82 o
188.991 249.726 o
189.641 245.537 o
190.292 235.381 o
190.943 253.716 o
191.593 243.965 o
192.244 241.021 o
192.894 246.679 o
193.545 238.473 o
194.196 241.013 o
194.846 235.322 o
195.497 245.079 o
196.147 241.535 o
196.798 238.431 o
197.449 252.597 o
198.099 250.151 o
198.75 245.258 o
199.401 231.626 o
200.051 249.402 o
200.702 260.709 o
201.352 253.279 o
202.003 235.962 o
202.654 230.919 o
203.304 241.892 o
203.955 248.397 o
204.605 255.618 o
205.256 248.175 o
205.907 238.639 o
206.557 234.255 o
207.208 230.215 o
207.858 244.865 o
208.509 241.421 o
209.16 248.039 o
209.81 253.315 o
210.461 231.401 o
211.112 245.996 o
211.762 234.531 o
212.413 239.437 o
213.063 217.952 o
213.714 232.93 o
214.365 251.906 o
215.015 238.157 o
215.666 240.079 o
216.316 240.369 o
216.967 242.846 o
217.618 238.147 o
218.268 246.562 o
218.919 256.526 o
219.569 228.391 o
220.22 241.001 o
220.871 233 o
221.521 245.555 o
222.172 247.054 o
222.822 252.006 o
223.473 261.745 o
224.124 262.98 o
224.774 254.561 o
225.425 257.572 o
226.076 249.146 o
226.726 249.149 o
227.377 227.629 o
228.027 241.889 o
228.678 237.769 o
229.329 247.66 o
229.979 236.801 o
230.63 243.251 o
231.28 239.076 o
231.931 225.122 o
232.582 213.653 o
233.232 243.163 o
233.883 257.839 o
234.533 268.064 o
235.184 230.311 o
235.835 237.646 o
236.485 273.334 o
237.136 243.444 o
237.787 248.327 o
238.437 241.021 o
239.088 266.418 o
239.738 227.759 o
240.389 240.668 o
241.04 256.083 o
241.69 223.366 o
242.341 228.459 o
242.991 236.227 o
243.642 254.179 o
244.293 239.711 o
244.943 224.989 o
245.594 226.749 o
246.244 262.869 o
246.895 270.418 o
247.546 255.186 o
248.196 216.051 o
248.847 251.355 o
249.498 241.51 o
250.148 221.35 o
250.799 228.58 o
251.449 272.596 o
252.1 240.09 o
252.751 229.926 o
253.401 213.369 o
254.052 244.953 o
254.702 230.433 o
255.353 222.067 o
256.004 238.757 o
256.654 228.033 o
257.305 217.761 o
257.955 234.321 o
258.606 265.425 o
259.257 238.727 o
259.907 231.578 o
260.558 220.36 o
261.208 227.417 o
261.859 264.919 o
262.51 235.374 o
263.16 257.774 o
263.811 282.145 o
264.462 247.733 o
265.112 259.544 o
265.763 250.1 o
266.413 245.483 o
267.064 240.611 o
267.715 239.059 o
268.365 252.743 o
269.016 232.639 o
269.666 275.206 o
270.317 264.64 o
270.968 274.044 o
271.618 241.837 o
272.269 278.068 o
272.919 235.012 o
273.57 262.116 o
274.221 259.144 o
274.871 282.552 o
275.522 264.448 o
276.173 229.944 o
276.823 273.222 o
277.474 226.703 o
278.124 235.496 o
278.775 240.924 o
279.426 243.571 o
280.076 254.334 o
280.727 270.568 o
281.377 234.091 o
282.028 231.079 o
282.679 261.441 o
283.329 242.942 o
283.98 213.996 o
284.63 276.322 o
285.281 248.791 o
285.932 229.261 o
286.582 237.956 o
287.233 246.462 o
287.884 260.664 o
288.534 247.546 o
289.185 244.164 o
289.835 246.427 o
290.486 246.622 o
291.137 244.581 o
291.787 250.13 o
292.438 234.192 o
293.088 224.08 o
293.739 238.646 o
294.39 222.466 o
295.04 244.629 o
295.691 248.619 o
296.341 249.161 o
296.992 262.325 o
297.643 232.894 o
298.293 244.532 o
298.944 229.843 o
299.595 251.782 o
300.245 246.599 o
300.896 246.34 o
301.546 263.231 o
302.197 252.49 o
302.848 241.678 o
303.498 255.431 o
304.149 253.459 o
304.799 230.046 o
305.45 259.618 o
306.101 251.598 o
306.751 215.605 o
307.402 255.75 o
308.052 246.592 o
308.703 231.235 o
309.354 242.179 o
310.004 277.661 o
310.655 239.702 o
311.305 260.216 o
311.956 245.272 o
312.607 224.907 o
313.257 252.792 o
313.908 261.444 o
314.559 247.104 o
315.209 242.964 o
315.86 247.55 o
316.51 245.728 o
317.161 287.931 o
317.812 273.578 o
318.462 247.287 o
319.113 257.543 o
319.763 264.123 o
320.414 232.938 o
321.065 215.683 o
321.715 228.498 o
322.366 219.153 o
323.016 243.171 o
323.667 293.049 o
324.318 243.893 o
324.968 214.143 o
325.619 264.985 o
326.27 246.359 o
326.92 223.307 o
327.571 222.311 o
328.221 275.251 o
328.872 278.716 o
329.523 213.972 o
330.173 272.826 o
330.824 227.399 o
331.474 236.551 o
332.125 245.163 o
332.776 220.723 o
333.426 253.427 o
334.077 259.184 o
334.727 238.055 o
335.378 244.322 o
336.029 228.899 o
336.679 227.082 o
337.33 243.45 o
337.981 266.441 o
338.631 218.81 o
339.282 242.038 o
339.932 252.393 o
340.583 247.859 o
341.234 268.867 o
341.884 265.915 o
342.535 247.517 o
343.185 240.271 o
343.836 265.995 o
344.487 249.13 o
345.137 239.655 o
345.788 225.495 o
346.438 268.439 o
347.089 205.089 o
347.74 245.851 o
348.39 208.32 o
349.041 256.816 o
349.691 226.96 o
350.342 253.558 o
350.993 268.228 o
351.643 260.237 o
352.294 208.196 o
352.945 250.345 o
353.595 206.953 o
354.246 253.834 o
354.896 232.095 o
355.547 266.503 o
356.198 263.186 o
356.848 222.629 o
357.499 295.708 o
358.149 204.194 o
358.8 256.527 o
359.451 252.46 o
360.101 279.584 o
360.752 297.312 o
361.402 269.301 o
362.053 207.368 o
362.704 271.136 o
363.354 213.574 o
364.005 216.926 o
364.656 241.728 o
365.306 257.775 o
365.957 238.093 o
366.607 227.672 o
367.258 218.74 o
367.909 252.69 o
368.559 240.388 o
369.21 284.116 o
369.86 197.714 o
370.511 263.853 o
371.162 272.92 o
371.812 265.046 o
372.463 260.632 o
373.113 234.849 o
373.764 213.504 o
374.415 192.997 o
375.065 248.592 o
375.716 225.383 o
376.367 246.276 o
377.017 216.028 o
377.668 239.817 o
378.318 210.189 o
378.969 270.534 o
379.62 262.793 o
380.27 224.333 o
380.921 222.25 o
381.571 257.26 o
382.222 248.071 o
382.873 268.544 o
383.523 241.923 o
384.174 256.783 o
384.824 246.544 o
385.475 232.069 o
386.126 219.216 o
386.776 274.049 o
387.427 237.959 o
388.078 247.053 o
388.728 248.134 o
389.379 260.771 o
390.029 197.738 o
390.68 255.55 o
391.331 218.368 o
391.981 242.657 o
392.632 258.66 o
393.282 228.137 o
393.933 222.935 o
394.584 246.977 o
395.234 292.636 o
395.885 266.911 o
396.535 285.918 o
397.186 280.376 o
397.837 233.485 o
398.487 258.279 o
grestore
0.173 0.627 0.173 setrgbcolor
gsave
357.1 121 57.6 183.2 clipbox
/o {
gsave
newpath
translate
1.0 setlinewidth
1 setlinejoin
0 setlinecap
0 -1.5 m
0.397805 -1.5 0.77937 -1.341951 1.06066 -1.06066 c
1.341951 -0.77937 1.5 -0.397805 1.5 0 c
1.5 0.397805 1.341951 0.77937 1.06066 1.06066 c
0.77937 1.341951 0.397805 1.5 0 1.5 c
-0.397805 1.5 -0.77937 1.341951 -1.06066 1.06066 c
-1.341951 0.77937 -1.5 0.397805 -1.5 0 c
-1.5 -0.397805 -1.341951 -0.77937 -1.06066 -1.06066 c
-0.77937 -1.341951 -0.397805 -1.5 0 -1.5 c
cl

gsave
0.173 0.627 0.173 setrgbcolor
fill
grestore
stroke
grestore
} bind def
73.8327 241.195 o
74.4833 243.728 o
75.1339 242.566 o
75.7846 246.209 o
76.4352 243.895 o
77.0858 242.398 o
77.7364 238.694 o
78.387 244.465 o
79.0376 240.454 o
79.6882 238.822 o
80.3388 246.057 o
80.9894 242.799 o
81.6401 247.38 o
82.2907 241.566 o
82.9413 246.91 o
83.5919 245.411 o
84.2425 244.712 o
84.8931 243.304 o
85.5437 246.202 o
86.1943 244.524 o
86.8449 243.967 o
87.4955 245.182 o
88.1462 244.155 o
88.7968 245.338 o
89.4474 244.794 o
90.098 240.238 o
90.7486 245.225 o
91.3992 241.629 o
92.0498 246.775 o
92.7004 241.235 o
93.351 242.79 o
94.0016 243.834 o
94.6523 243.973 o
95.3029 239.02 o
95.9535 245.727 o
96.6041 243.104 o
97.2547 242.491 o
97.9053 242.012 o
98.5559 241.694 o
99.2065 245.195 o
99.8571 243.162 o
100.508 244.596 o
101.158 246.096 o
101.809 244.943 o
102.46 244.25 o
103.11 245.852 o
103.761 244.437 o
104.411 243.375 o
105.062 242.759 o
105.713 243.971 o
106.363 241.429 o
107.014 243.397 o
107.664 244.321 o
108.315 241.944 o
108.966 243.699 o
109.616 242.898 o
110.267 241.529 o
110.918 241.098 o
111.568 241.705 o
112.219 248.951 o
112.869 243.42 o
113.52 245.865 o
114.171 242.182 o
114.821 245.371 o
115.472 244.373 o
116.122 242.369 o
116.773 245.592 o
117.424 242.999 o
118.074 238.7 o
118.725 245.373 o
119.375 243.342 o
120.026 245.093 o
120.677 246.303 o
121.327 244.616 o
121.978 245.356 o
122.629 247.541 o
123.279 243.218 o
123.93 245.199 o
124.58 242.346 o
125.231 245.657 o
125.882 243.318 o
126.532 243.523 o
127.183 245.513 o
127.833 241.544 o
128.484 242.611 o
129.135 244.706 o
129.785 243.736 o
130.436 242.953 o
131.086 236.637 o
131.737 245.214 o
132.388 240.95 o
133.038 243.139 o
133.689 246.802 o
134.339 249.931 o
134.99 245.088 o
135.641 243.239 o
136.291 243.66 o
136.942 245.797 o
137.593 247.052 o
138.243 245.841 o
138.894 242.844 o
139.544 246.407 o
140.195 241.828 o
140.846 243.655 o
141.496 246.377 o
142.147 246.567 o
142.797 245.234 o
143.448 241.286 o
144.099 242.382 o
144.749 242.07 o
145.4 244.127 o
146.05 245.711 o
146.701 243.815 o
147.352 247.647 o
148.002 241.058 o
148.653 238.102 o
149.304 244.254 o
149.954 243.335 o
150.605 247.899 o
151.255 242.986 o
151.906 251.043 o
152.557 244.046 o
153.207 237.752 o
153.858 246.291 o
154.508 241.036 o
155.159 243.46 o
155.81 250.882 o
156.46 243.761 o
157.111 241.903 o
157.761 244.9 o
158.412 252.721 o
159.063 245.423 o
159.713 249.142 o
160.364 244.402 o
161.015 239.901 o
161.665 243.69 o
162.316 237.135 o
162.966 252.429 o
163.617 246.281 o
164.268 244.35 o
164.918 241.556 o
165.569 246.762 o
166.219 244.884 o
166.87 245.711 o
167.521 253.024 o
168.171 249.97 o
168.822 247.255 o
169.472 248.047 o
170.123 240.747 o
170.774 244.486 o
171.424 242.708 o
172.075 239.215 o
172.725 236.856 o
173.376 248.344 o
174.027 250.37 o
174.677 254.496 o
175.328 244.079 o
175.979 246.657 o
176.629 238.728 o
177.28 247.028 o
177.93 238.777 o
178.581 239.524 o
179.232 239.905 o
179.882 237.852 o
180.533 240.463 o
181.183 244.968 o
181.834 240.935 o
182.485 257.2 o
183.135 236.388 o
183.786 256.69 o
184.436 240.483 o
185.087 242.99 o
185.738 247.406 o
186.388 247.203 o
187.039 234.179 o
187.69 240.648 o
188.34 243.278 o
188.991 229.746 o
189.641 238.376 o
190.292 239.083 o
190.943 238.651 o
191.593 233.351 o
192.244 226.412 o
192.894 242.372 o
193.545 252.786 o
194.196 240.537 o
194.846 244.733 o
195.497 243.092 o
196.147 243.135 o
196.798 239.974 o
197.449 231.639 o
198.099 239.201 o
198.75 239.683 o
199.401 242.839 o
200.051 244.07 o
200.702 252.807 o
201.352 248.164 o
202.003 242.282 o
202.654 254.113 o
203.304 241.845 o
203.955 240.52 o
204.605 235.933 o
205.256 226.47 o
205.907 255.857 o
206.557 237.808 o
207.208 237.854 o
207.858 253.74 o
208.509 251.33 o
209.16 246.299 o
209.81 233.406 o
210.461 250.32 o
211.112 239.466 o
211.762 236.433 o
212.413 252.586 o
213.063 246.675 o
213.714 242.878 o
214.365 238.589 o
215.015 242.485 o
215.666 248.177 o
216.316 248.174 o
216.967 244.24 o
217.618 251.793 o
218.268 249.899 o
218.919 249.02 o
219.569 226.694 o
220.22 228.225 o
220.871 258.132 o
221.521 251.715 o
222.172 231.482 o
222.822 233.076 o
223.473 261.704 o
224.124 273.356 o
224.774 258.337 o
225.425 224.432 o
226.076 261.619 o
226.726 248.276 o
227.377 225.389 o
228.027 239.505 o
228.678 233.466 o
229.329 257.345 o
229.979 233.813 o
230.63 230.741 o
231.28 255.216 o
231.931 231.588 o
232.582 233.619 o
233.232 249.929 o
233.883 242.184 o
234.533 245.268 o
235.184 234.636 o
235.835 257.613 o
236.485 245.278 o
237.136 247.302 o
237.787 253.658 o
238.437 249.952 o
239.088 234.809 o
239.738 246.017 o
240.389 251.694 o
241.04 256.728 o
241.69 246.265 o
242.341 237.48 o
242.991 250.687 o
243.642 265.032 o
244.293 256.449 o
244.943 212.728 o
245.594 249.156 o
246.244 243.833 o
246.895 252.895 o
247.546 239.034 o
248.196 222.317 o
248.847 237.516 o
249.498 251.169 o
250.148 228.924 o
250.799 225.094 o
251.449 260.234 o
252.1 257.777 o
252.751 239.314 o
253.401 233.736 o
254.052 238.245 o
254.702 231.45 o
255.353 208.299 o
256.004 262.938 o
256.654 234.987 o
257.305 241.849 o
257.955 255.393 o
258.606 223.328 o
259.257 232.549 o
259.907 244.632 o
260.558 254.269 o
261.208 254.266 o
261.859 274.96 o
262.51 232.557 o
263.16 272.449 o
263.811 276.079 o
264.462 262.563 o
265.112 254.131 o
265.763 244.777 o
266.413 256.201 o
267.064 250.4 o
267.715 224.874 o
268.365 262.131 o
269.016 235.437 o
269.666 253.418 o
270.317 248.966 o
270.968 281.132 o
271.618 244.836 o
272.269 280.657 o
272.919 238.548 o
273.57 260.015 o
274.221 244.315 o
274.871 260.293 o
275.522 259.599 o
276.173 232.62 o
276.823 240.184 o
277.474 230.693 o
278.124 248.277 o
278.775 242.321 o
279.426 252.405 o
280.076 251.796 o
280.727 277.13 o
281.377 226.602 o
282.028 252.887 o
282.679 253.684 o
283.329 215.714 o
283.98 210.683 o
284.63 250.155 o
285.281 226.141 o
285.932 218.113 o
286.582 250.044 o
287.233 248.374 o
287.884 241.444 o
288.534 262.991 o
289.185 246.957 o
289.835 236.072 o
290.486 272.595 o
291.137 239.617 o
291.787 239.545 o
292.438 252.98 o
293.088 229.677 o
293.739 265.876 o
294.39 226.944 o
295.04 251.237 o
295.691 239.2 o
296.341 241.542 o
296.992 263.715 o
297.643 221.079 o
298.293 253.421 o
298.944 234.765 o
299.595 239.099 o
300.245 243.179 o
300.896 236.058 o
301.546 267.508 o
302.197 247.518 o
302.848 245.36 o
303.498 265.059 o
304.149 251.638 o
304.799 234.018 o
305.45 266.839 o
306.101 249.212 o
306.751 220.183 o
307.402 251.285 o
308.052 243.516 o
308.703 232.089 o
309.354 240.399 o
310.004 278.23 o
310.655 238.918 o
311.305 264.578 o
311.956 251.627 o
312.607 225.024 o
313.257 257.44 o
313.908 269.479 o
314.559 250.67 o
315.209 238.942 o
315.86 245.672 o
316.51 249.386 o
317.161 291.645 o
317.812 277.383 o
318.462 244.219 o
319.113 257.99 o
319.763 269.15 o
320.414 231.361 o
321.065 215.693 o
321.715 226.196 o
322.366 214.31 o
323.016 245.71 o
323.667 298.449 o
324.318 243.256 o
324.968 215.467 o
325.619 265.908 o
326.27 248.065 o
326.92 223.688 o
327.571 216.98 o
328.221 278.348 o
328.872 282.557 o
329.523 215.854 o
330.173 270.015 o
330.824 225.439 o
331.474 237.154 o
332.125 245.887 o
332.776 222.955 o
333.426 250.492 o
334.077 252.656 o
334.727 238.699 o
335.378 251.003 o
336.029 221.081 o
336.679 229.224 o
337.33 238.609 o
337.981 270.098 o
338.631 228.663 o
339.282 235.661 o
339.932 258.273 o
340.583 253.946 o
341.234 262.041 o
341.884 261.361 o
342.535 243.494 o
343.185 232.196 o
343.836 257.705 o
344.487 245.539 o
345.137 232.391 o
345.788 221.651 o
346.438 279.618 o
347.089 209.638 o
347.74 242.452 o
348.39 208.083 o
349.041 254.103 o
349.691 235.316 o
350.342 246.849 o
350.993 261.36 o
351.643 260.016 o
352.294 219.873 o
352.945 246.05 o
353.595 220.604 o
354.246 257.037 o
354.896 218.236 o
355.547 277.609 o
356.198 278.899 o
356.848 238.973 o
357.499 285.61 o
358.149 188.666 o
358.8 248.971 o
359.451 230.625 o
360.101 278.9 o
360.752 286.86 o
361.402 267.097 o
362.053 235.46 o
362.704 276.788 o
363.354 219.98 o
364.005 237.081 o
364.656 249.446 o
365.306 253.181 o
365.957 229.946 o
366.607 244.569 o
367.258 216.754 o
367.909 234.408 o
368.559 238.242 o
369.21 267.9 o
369.86 214.006 o
370.511 257.278 o
371.162 234.854 o
371.812 251.495 o
372.463 261.636 o
373.113 232.143 o
373.764 230.419 o
374.415 197.158 o
375.065 239.997 o
375.716 227.669 o
376.367 254.508 o
377.017 234.202 o
377.668 241.443 o
378.318 231.346 o
378.969 279.785 o
379.62 240.617 o
380.27 231.165 o
380.921 225.87 o
381.571 245.569 o
382.222 221.195 o
382.873 274.076 o
383.523 237.852 o
384.174 237.587 o
384.824 236.378 o
385.475 231.757 o
386.126 221.519 o
386.776 253.598 o
387.427 238.671 o
388.078 243.981 o
388.728 239.74 o
389.379 253.366 o
390.029 247.789 o
390.68 253.905 o
391.331 245.327 o
391.981 225.707 o
392.632 254.421 o
393.282 233.701 o
393.933 242.743 o
394.584 235.184 o
395.234 266.358 o
395.885 265.662 o
396.535 252.641 o
397.186 255.453 o
397.837 247.871 o
398.487 258.582 o
grestore
0.800 setlinewidth
0 setlinejoin
2 setlinecap
[] 0 setdash
0.000 setgray
gsave
57.6 183.168 m
57.6 304.128 l
stroke
grestore
gsave
414.72 183.168 m
414.72 304.128 l
stroke
grestore
gsave
57.6 183.168 m
414.72 183.168 l
stroke
grestore
gsave
57.6 304.128 m
414.72 304.128 l
stroke
grestore
1.000 setlinewidth
0 setlinecap
0.800 setgray
gsave
64.6 252.112375 m
102.521875 252.112375 l
103.855208 252.112375 104.521875 252.779042 104.521875 254.112375 c
104.521875 297.128 l
104.521875 298.461333 103.855208 299.128 102.521875 299.128 c
64.6 299.128 l
63.266667 299.128 62.6 298.461333 62.6 297.128 c
62.6 254.112375 l
62.6 252.779042 63.266667 252.112375 64.6 252.112375 c
cl
gsave
1.000 setgray
fill
grestore
stroke
grestore
1 setlinejoin
[] 0 setdash
0.122 0.467 0.706 setrgbcolor
gsave
/o {
gsave
newpath
translate
1.0 setlinewidth
1 setlinejoin
0 setlinecap
0 -1.5 m
0.397805 -1.5 0.77937 -1.341951 1.06066 -1.06066 c
1.341951 -0.77937 1.5 -0.397805 1.5 0 c
1.5 0.397805 1.341951 0.77937 1.06066 1.06066 c
0.77937 1.341951 0.397805 1.5 0 1.5 c
-0.397805 1.5 -0.77937 1.341951 -1.06066 1.06066 c
-1.341951 0.77937 -1.5 0.397805 -1.5 0 c
-1.5 -0.397805 -1.341951 -0.77937 -1.06066 -1.06066 c
-0.77937 -1.341951 -0.397805 -1.5 0 -1.5 c
cl

gsave
0.122 0.467 0.706 setrgbcolor
fill
grestore
stroke
grestore
} bind def
76.6 291.034 o
grestore
0.000 setgray
gsave
94.600000 287.534250 translate
0.000000 rotate
0.000000 0.000000 m /x glyphshow
grestore
1.000 0.498 0.055 setrgbcolor
gsave
/o {
gsave
newpath
translate
1.0 setlinewidth
1 setlinejoin
0 setlinecap
0 -1.5 m
0.397805 -1.5 0.77937 -1.341951 1.06066 -1.06066 c
1.341951 -0.77937 1.5 -0.397805 1.5 0 c
1.5 0.397805 1.341951 0.77937 1.06066 1.06066 c
0.77937 1.341951 0.397805 1.5 0 1.5 c
-0.397805 1.5 -0.77937 1.341951 -1.06066 1.06066 c
-1.341951 0.77937 -1.5 0.397805 -1.5 0 c
-1.5 -0.397805 -1.341951 -0.77937 -1.06066 -1.06066 c
-0.77937 -1.341951 -0.397805 -1.5 0 -1.5 c
cl

gsave
1.000 0.498 0.055 setrgbcolor
fill
grestore
stroke
grestore
} bind def
76.6 276.362 o
grestore
0.000 setgray
gsave
94.600000 272.862375 translate
0.000000 rotate
0.000000 0.000000 m /y glyphshow
grestore
0.173 0.627 0.173 setrgbcolor
gsave
/o {
gsave
newpath
translate
1.0 setlinewidth
1 setlinejoin
0 setlinecap
0 -1.5 m
0.397805 -1.5 0.77937 -1.341951 1.06066 -1.06066 c
1.341951 -0.77937 1.5 -0.397805 1.5 0 c
1.5 0.397805 1.341951 0.77937 1.06066 1.06066 c
0.77937 1.341951 0.397805 1.5 0 1.5 c
-0.397805 1.5 -0.77937 1.341951 -1.06066 1.06066 c
-1.341951 0.77937 -1.5 0.397805 -1.5 0 c
-1.5 -0.397805 -1.341951 -0.77937 -1.06066 -1.06066 c
-0.77937 -1.341951 -0.397805 -1.5 0 -1.5 c
cl

gsave
0.173 0.627 0.173 setrgbcolor
fill
grestore
stroke
grestore
} bind def
76.6 261.69 o
grestore
0.000 setgray
gsave
94.600000 258.190500 translate
0.000000 rotate
0.000000 0.000000 m /z glyphshow
grestore
gsave
57.6 38.016 m
414.72 38.016 l
414.72 158.976 l
57.6 158.976 l
cl
1.000 setgray
fill
grestore
0.800 setlinewidth
2 setlinecap
0.690 setgray
gsave
357.1 121 57.6 38.02 clipbox
73.832727 38.016 m
73.832727 158.976 l
stroke
grestore
0 setlinecap
0.000 setgray
gsave
/o {
gsave
newpath
translate
0.8 setlinewidth
1 setlinejoin
0 setlinecap
0 0 m
0 -3.5 l

gsave
0.000 setgray
fill
grestore
stroke
grestore
} bind def
73.8327 38.016 o
grestore
gsave
70.653040 23.422250 translate
0.000000 rotate
0.000000 0.000000 m /zero glyphshow
grestore
2 setlinecap
0.690 setgray
gsave
357.1 121 57.6 38.02 clipbox
138.893758 38.016 m
138.893758 158.976 l
stroke
grestore
0 setlinecap
0.000 setgray
gsave
/o {
gsave
newpath
translate
0.8 setlinewidth
1 setlinejoin
0 setlinecap
0 0 m
0 -3.5 l

gsave
0.000 setgray
fill
grestore
stroke
grestore
} bind def
138.894 38.016 o
grestore
gsave
129.354696 23.422250 translate
0.000000 rotate
0.000000 0.000000 m /one glyphshow
6.362305 0.000000 m /zero glyphshow
12.724609 0.000000 m /zero glyphshow
grestore
2 setlinecap
0.690 setgray
gsave
357.1 121 57.6 38.02 clipbox
203.95479 38.016 m
203.95479 158.976 l
stroke
grestore
0 setlinecap
0.000 setgray
gsave
/o {
gsave
newpath
translate
0.8 setlinewidth
1 setlinejoin
0 setlinecap
0 0 m
0 -3.5 l

gsave
0.000 setgray
fill
grestore
stroke
grestore
} bind def
203.955 38.016 o
grestore
gsave
194.415727 23.422250 translate
0.000000 rotate
0.000000 0.000000 m /two glyphshow
6.362305 0.000000 m /zero glyphshow
12.724609 0.000000 m /zero glyphshow
grestore
2 setlinecap
0.690 setgray
gsave
357.1 121 57.6 38.02 clipbox
269.015821 38.016 m
269.015821 158.976 l
stroke
grestore
0 setlinecap
0.000 setgray
gsave
/o {
gsave
newpath
translate
0.8 setlinewidth
1 setlinejoin
0 setlinecap
0 0 m
0 -3.5 l

gsave
0.000 setgray
fill
grestore
stroke
grestore
} bind def
269.016 38.016 o
grestore
gsave
259.476758 23.422250 translate
0.000000 rotate
0.000000 0.000000 m /three glyphshow
6.362305 0.000000 m /zero glyphshow
12.724609 0.000000 m /zero glyphshow
grestore
2 setlinecap
0.690 setgray
gsave
357.1 121 57.6 38.02 clipbox
334.076852 38.016 m
334.076852 158.976 l
stroke
grestore
0 setlinecap
0.000 setgray
gsave
/o {
gsave
newpath
translate
0.8 setlinewidth
1 setlinejoin
0 setlinecap
0 0 m
0 -3.5 l

gsave
0.000 setgray
fill
grestore
stroke
grestore
} bind def
334.077 38.016 o
grestore
gsave
324.537789 23.422250 translate
0.000000 rotate
0.000000 0.000000 m /four glyphshow
6.362305 0.000000 m /zero glyphshow
12.724609 0.000000 m /zero glyphshow
grestore
2 setlinecap
0.690 setgray
gsave
357.1 121 57.6 38.02 clipbox
399.137883 38.016 m
399.137883 158.976 l
stroke
grestore
0 setlinecap
0.000 setgray
gsave
/o {
gsave
newpath
translate
0.8 setlinewidth
1 setlinejoin
0 setlinecap
0 0 m
0 -3.5 l

gsave
0.000 setgray
fill
grestore
stroke
grestore
} bind def
399.138 38.016 o
grestore
gsave
389.598821 23.422250 translate
0.000000 rotate
0.000000 0.000000 m /five glyphshow
6.362305 0.000000 m /zero glyphshow
12.724609 0.000000 m /zero glyphshow
grestore
gsave
217.410000 9.750375 translate
0.000000 rotate
0.000000 0.000000 m /S glyphshow
6.347656 0.000000 m /a glyphshow
12.475586 0.000000 m /m glyphshow
22.216797 0.000000 m /p glyphshow
28.564453 0.000000 m /l glyphshow
31.342773 0.000000 m /e glyphshow
grestore
2 setlinecap
0.690 setgray
gsave
357.1 121 57.6 38.02 clipbox
57.6 49.932493 m
414.72 49.932493 l
stroke
grestore
0 setlinecap
0.000 setgray
gsave
/o {
gsave
newpath
translate
0.8 setlinewidth
1 setlinejoin
0 setlinecap
0 0 m
-3.5 0 l

gsave
0.000 setgray
fill
grestore
stroke
grestore
} bind def
57.6 49.9325 o
grestore
gsave
29.506250 46.135618 translate
0.000000 rotate
0.000000 0.000000 m /minus glyphshow
8.378906 0.000000 m /four glyphshow
14.741211 0.000000 m /zero glyphshow
grestore
2 setlinecap
0.690 setgray
gsave
357.1 121 57.6 38.02 clipbox
57.6 70.468859 m
414.72 70.468859 l
stroke
grestore
0 setlinecap
0.000 setgray
gsave
/o {
gsave
newpath
translate
0.8 setlinewidth
1 setlinejoin
0 setlinecap
0 0 m
-3.5 0 l

gsave
0.000 setgray
fill
grestore
stroke
grestore
} bind def
57.6 70.4689 o
grestore
gsave
29.506250 66.671984 translate
0.000000 rotate
0.000000 0.000000 m /minus glyphshow
8.378906 0.000000 m /two glyphshow
14.741211 0.000000 m /zero glyphshow
grestore
2 setlinecap
0.690 setgray
gsave
357.1 121 57.6 38.02 clipbox
57.6 91.005225 m
414.72 91.005225 l
stroke
grestore
0 setlinecap
0.000 setgray
gsave
/o {
gsave
newpath
translate
0.8 setlinewidth
1 setlinejoin
0 setlinecap
0 0 m
-3.5 0 l

gsave
0.000 setgray
fill
grestore
stroke
grestore
} bind def
57.6 91.0052 o
grestore
gsave
44.240625 87.208350 translate
0.000000 rotate
0.000000 0.000000 m /zero glyphshow
grestore
2 setlinecap
0.690 setgray
gsave
357.1 121 57.6 38.02 clipbox
57.6 111.541591 m
414.72 111.541591 l
stroke
grestore
0 setlinecap
0.000 setgray
gsave
/o {
gsave
newpath
translate
0.8 setlinewidth
1 setlinejoin
0 setlinecap
0 0 m
-3.5 0 l

gsave
0.000 setgray
fill
grestore
stroke
grestore
} bind def
57.6 111.542 o
grestore
gsave
37.881250 107.744716 translate
0.000000 rotate
0.000000 0.000000 m /two glyphshow
6.362305 0.000000 m /zero glyphshow
grestore
2 setlinecap
0.690 setgray
gsave
357.1 121 57.6 38.02 clipbox
57.6 132.077957 m
414.72 132.077957 l
stroke
grestore
0 setlinecap
0.000 setgray
gsave
/o {
gsave
newpath
translate
0.8 setlinewidth
1 setlinejoin
0 setlinecap
0 0 m
-3.5 0 l

gsave
0.000 setgray
fill
grestore
stroke
grestore
} bind def
57.6 132.078 o
grestore
gsave
37.881250 128.281082 translate
0.000000 rotate
0.000000 0.000000 m /four glyphshow
6.362305 0.000000 m /zero glyphshow
grestore
2 setlinecap
0.690 setgray
gsave
357.1 121 57.6 38.02 clipbox
57.6 152.614323 m
414.72 152.614323 l
stroke
grestore
0 setlinecap
0.000 setgray
gsave
/o {
gsave
newpath
translate
0.8 setlinewidth
1 setlinejoin
0 setlinecap
0 0 m
-3.5 0 l

gsave
0.000 setgray
fill
grestore
stroke
grestore
} bind def
57.6 152.614 o
grestore
gsave
37.881250 148.817448 translate
0.000000 rotate
0.000000 0.000000 m /six glyphshow
6.362305 0.000000 m /zero glyphshow
grestore
gsave
23.428125 38.746000 translate
90.000000 rotate
0.000000 0.000000 m /E glyphshow
6.318359 0.000000 m /u glyphshow
12.656250 0.000000 m /l glyphshow
15.434570 0.000000 m /e glyphshow
21.586914 0.000000 m /r glyphshow
25.698242 0.000000 m /space glyphshow
28.876953 0.000000 m /a glyphshow
35.004883 0.000000 m /n glyphshow
41.342773 0.000000 m /g glyphshow
47.690430 0.000000 m /l glyphshow
50.468750 0.000000 m /e glyphshow
56.621094 0.000000 m /s glyphshow
61.831055 0.000000 m /space glyphshow
65.009766 0.000000 m /e glyphshow
71.162109 0.000000 m /r glyphshow
75.273438 0.000000 m /r glyphshow
79.384766 0.000000 m /o glyphshow
85.502930 0.000000 m /r glyphshow
89.614258 0.000000 m /space glyphshow
92.792969 0.000000 m /bracketleft glyphshow
96.694336 0.000000 m /d glyphshow
103.041992 0.000000 m /e glyphshow
109.194336 0.000000 m /g glyphshow
115.541992 0.000000 m /bracketright glyphshow
grestore
1.000 setlinewidth
0.122 0.467 0.706 setrgbcolor
gsave
357.1 121 57.6 38.02 clipbox
/o {
gsave
newpath
translate
1.0 setlinewidth
1 setlinejoin
0 setlinecap
0 -1.5 m
0.397805 -1.5 0.77937 -1.341951 1.06066 -1.06066 c
1.341951 -0.77937 1.5 -0.397805 1.5 0 c
1.5 0.397805 1.341951 0.77937 1.06066 1.06066 c
0.77937 1.341951 0.397805 1.5 0 1.5 c
-0.397805 1.5 -0.77937 1.341951 -1.06066 1.06066 c
-1.341951 0.77937 -1.5 0.397805 -1.5 0 c
-1.5 -0.397805 -1.341951 -0.77937 -1.06066 -1.06066 c
-0.77937 -1.341951 -0.397805 -1.5 0 -1.5 c
cl

gsave
0.122 0.467 0.706 setrgbcolor
fill
grestore
stroke
grestore
} bind def
73.8327 94.9146 o
74.4833 87.004 o
75.1339 92.7185 o
75.7846 86.9075 o
76.4352 94.6585 o
77.0858 92.7785 o
77.7364 91.0843 o
78.387 90.54 o
79.0376 93.6669 o
79.6882 93.7687 o
80.3388 94.1284 o
80.9894 92.854 o
81.6401 89.6062 o
82.2907 91.5949 o
82.9413 87.4858 o
83.5919 87.9303 o
84.2425 89.579 o
84.8931 90.3283 o
85.5437 89.2475 o
86.1943 92.1151 o
86.8449 91.8997 o
87.4955 90.4899 o
88.1462 89.8079 o
88.7968 89.6254 o
89.4474 91.1451 o
90.098 94.881 o
90.7486 91.8252 o
91.3992 91.1901 o
92.0498 90.9605 o
92.7004 91.3051 o
93.351 94.9819 o
94.0016 91.8513 o
94.6523 89.1881 o
95.3029 92.5255 o
95.9535 89.5124 o
96.6041 91.9688 o
97.2547 92.4256 o
97.9053 94.6481 o
98.5559 92.8252 o
99.2065 91.5965 o
99.8571 93.3059 o
100.508 89.8751 o
101.158 89.1423 o
101.809 88.4935 o
102.46 91.5628 o
103.11 89.1852 o
103.761 90.3437 o
104.411 92.9371 o
105.062 89.5179 o
105.713 91.4658 o
106.363 91.8169 o
107.014 90.581 o
107.664 94.8427 o
108.315 93.6609 o
108.966 90.6538 o
109.616 89.6351 o
110.267 91.7656 o
110.918 91.9774 o
111.568 94.9441 o
112.219 85.3545 o
112.869 89.6772 o
113.52 90.8064 o
114.171 92.7241 o
114.821 91.2825 o
115.472 89.9279 o
116.122 91.281 o
116.773 90.4484 o
117.424 91.489 o
118.074 93.7624 o
118.725 91.5426 o
119.375 90.7784 o
120.026 93.359 o
120.677 88.7604 o
121.327 91.2658 o
121.978 90.726 o
122.629 91.6307 o
123.279 89.7762 o
123.93 91.7028 o
124.58 91.1965 o
125.231 91.979 o
125.882 90.977 o
126.532 90.5468 o
127.183 89.5559 o
127.833 90.0837 o
128.484 89.6964 o
129.135 90.3138 o
129.785 90.2591 o
130.436 92.7463 o
131.086 91.9444 o
131.737 89.2106 o
132.388 90.4834 o
133.038 92.3836 o
133.689 91.1816 o
134.339 91.1724 o
134.99 92.8353 o
135.641 91.44 o
136.291 92.8924 o
136.942 93.0947 o
137.593 88.9435 o
138.243 91.6829 o
138.894 90.8547 o
139.544 89.9301 o
140.195 91.1732 o
140.846 88.6139 o
141.496 91.3617 o
142.147 89.5854 o
142.797 92.5214 o
143.448 90.5815 o
144.099 91.4515 o
144.749 91.1311 o
145.4 90.7757 o
146.05 90.3127 o
146.701 90.3942 o
147.352 89.9081 o
148.002 90.0909 o
148.653 88.7907 o
149.304 88.1044 o
149.954 90.1812 o
150.605 91.3876 o
151.255 93.0587 o
151.906 90.3426 o
152.557 91.5929 o
153.207 90.7415 o
153.858 93.2886 o
154.508 92.8318 o
155.159 90.0737 o
155.81 91.6557 o
156.46 87.5782 o
157.111 92.4123 o
157.761 92.7042 o
158.412 89.7821 o
159.063 91.9411 o
159.713 89.9035 o
160.364 95.929 o
161.015 88.9385 o
161.665 91.0271 o
162.316 91.2236 o
162.966 91.4448 o
163.617 89.3868 o
164.268 91.9031 o
164.918 92.7369 o
165.569 91.2163 o
166.219 92.9179 o
166.87 87.2077 o
167.521 89.3208 o
168.171 90.0924 o
168.822 91.6615 o
169.472 89.0146 o
170.123 88.0017 o
170.774 92.8852 o
171.424 91.1138 o
172.075 90.4012 o
172.725 91.8672 o
173.376 87.4004 o
174.027 92.4047 o
174.677 85.033 o
175.328 88.2455 o
175.979 93.9331 o
176.629 94.0867 o
177.28 90.2631 o
177.93 95.97 o
178.581 91.7904 o
179.232 94.8437 o
179.882 97.2208 o
180.533 95.3116 o
181.183 87.8852 o
181.834 94.2403 o
182.485 84.6703 o
183.135 92.5051 o
183.786 86.3277 o
184.436 94.7141 o
185.087 92.3728 o
185.738 94.3079 o
186.388 92.0968 o
187.039 91.9297 o
187.69 91.5813 o
188.34 92.4527 o
188.991 86.9812 o
189.641 85.8082 o
190.292 93.147 o
190.943 86.8164 o
191.593 96.4555 o
192.244 98.4121 o
192.894 86.3697 o
193.545 93.6914 o
194.196 96.5081 o
194.846 97.2329 o
195.497 89.6646 o
196.147 93.0401 o
196.798 95.2931 o
197.449 89.104 o
198.099 90.3393 o
198.75 99.4531 o
199.401 94.7229 o
200.051 84.758 o
200.702 76.9718 o
201.352 95.3538 o
202.003 92.6334 o
202.654 91.6849 o
203.304 88.7691 o
203.955 87.7269 o
204.605 91.7769 o
205.256 98.9368 o
205.907 86.2834 o
206.557 97.9041 o
207.208 105.397 o
207.858 84.6309 o
208.509 90.4898 o
209.16 82.6237 o
209.81 89.3115 o
210.461 91.1761 o
211.112 94.9911 o
211.762 101.001 o
212.413 85.6751 o
213.063 112.371 o
213.714 86.8639 o
214.365 83.081 o
215.015 100.852 o
215.666 85.5115 o
216.316 87.7408 o
216.967 96.8293 o
217.618 87.3589 o
218.268 93.9594 o
218.919 104.006 o
219.569 98.8069 o
220.22 105.173 o
220.871 100.799 o
221.521 88.7265 o
222.172 96.4225 o
222.822 86.7505 o
223.473 81.73 o
224.124 77.2129 o
224.774 87.913 o
225.425 89.9027 o
226.076 97.4636 o
226.726 104.156 o
227.377 114.522 o
228.027 94.346 o
228.678 93.9564 o
229.329 88.9762 o
229.979 102.596 o
230.63 85.8149 o
231.28 101.99 o
231.931 98.5245 o
232.582 102.37 o
233.232 77.6151 o
233.883 78.3903 o
234.533 76.9847 o
235.184 86.8 o
235.835 80.9252 o
236.485 81.1178 o
237.136 80.3097 o
237.787 94.5473 o
238.437 107.413 o
239.088 86.7721 o
239.738 83.4713 o
240.389 74.9214 o
241.04 91.1921 o
241.69 95.2376 o
242.341 94.3365 o
242.991 108.174 o
243.642 88.6355 o
244.293 64.8222 o
244.943 102.398 o
245.594 100.448 o
246.244 81.6792 o
246.895 74.2125 o
247.546 96.9373 o
248.196 112.452 o
248.847 96.2584 o
249.498 82.2487 o
250.148 122.516 o
250.799 94.9008 o
251.449 68.1799 o
252.1 73.4003 o
252.751 82.1633 o
253.401 112.182 o
254.052 87.7187 o
254.702 106.783 o
255.353 95.7275 o
256.004 92.0891 o
256.654 93.1832 o
257.305 113.177 o
257.955 95.0914 o
258.606 85.2279 o
259.257 85.5138 o
259.907 82.3637 o
260.558 94.3294 o
261.208 106.75 o
261.859 84.369 o
262.51 80.5787 o
263.16 69.1106 o
263.811 76.7359 o
264.462 84.2512 o
265.112 104.527 o
265.763 93.8771 o
266.413 79.5771 o
267.064 91.0676 o
267.715 91.892 o
268.365 89.3026 o
269.016 84.4347 o
269.666 80.9175 o
270.317 67.3463 o
270.968 83.9001 o
271.618 103.143 o
272.269 69.4893 o
272.919 95.5271 o
273.57 73.9827 o
274.221 77.9163 o
274.871 82.4475 o
275.522 87.3354 o
276.173 89.1878 o
276.823 91.8224 o
277.474 99.7271 o
278.124 93.1688 o
278.775 109.914 o
279.426 90.6642 o
280.076 87.0065 o
280.727 73.8919 o
281.377 81.3657 o
282.028 97.3014 o
282.679 81.4711 o
283.329 91.0378 o
283.98 118.109 o
284.63 83.2756 o
285.281 99.5302 o
285.932 95.047 o
286.582 81.8211 o
287.233 83.0266 o
287.884 89.6728 o
288.534 81.912 o
289.185 90.5935 o
289.835 84.5459 o
290.486 87.3812 o
291.137 89.847 o
291.787 91.1892 o
292.438 96.5891 o
293.088 97.5069 o
293.739 93.9114 o
294.39 112.088 o
295.04 89.278 o
295.691 99.8445 o
296.341 88.8695 o
296.992 93.4823 o
297.643 98.672 o
298.293 90.2382 o
298.944 89.9196 o
299.595 85.8819 o
300.245 89.7205 o
300.896 88.8932 o
301.546 83.7856 o
302.197 91.0337 o
302.848 106.092 o
303.498 91.8321 o
304.149 88.8229 o
304.799 101.059 o
305.45 91.1844 o
306.101 89.8429 o
306.751 102.839 o
307.402 90.2307 o
308.052 93.512 o
308.703 90.585 o
309.354 95.4729 o
310.004 91.4251 o
310.655 101.718 o
311.305 88.0361 o
311.956 93.89 o
312.607 94.1989 o
313.257 90.8932 o
313.908 88.3686 o
314.559 90.3186 o
315.209 91.2545 o
315.86 90.8657 o
316.51 91.322 o
317.161 114.389 o
317.812 95.5612 o
318.462 91.9317 o
319.113 99.5079 o
319.763 90.7927 o
320.414 91.8698 o
321.065 93.0519 o
321.715 93.0617 o
322.366 92.0707 o
323.016 89.9924 o
323.667 109.125 o
324.318 93.8854 o
324.968 92.0733 o
325.619 97.1475 o
326.27 90.9558 o
326.92 93.2314 o
327.571 90.924 o
328.221 91.342 o
328.872 103.005 o
329.523 92.5538 o
330.173 103.269 o
330.824 89.967 o
331.474 89.6031 o
332.125 89.9656 o
332.776 91.6718 o
333.426 93.1382 o
334.077 95.2562 o
334.727 90.9726 o
335.378 107.596 o
336.029 90.6533 o
336.679 90.4906 o
337.33 89.0846 o
337.981 94.9277 o
338.631 94.3193 o
339.282 94.2564 o
339.932 92.5074 o
340.583 87.1425 o
341.234 87.1555 o
341.884 84.6789 o
342.535 87.5886 o
343.185 89.6315 o
343.836 85.6992 o
344.487 95.6628 o
345.137 93.0846 o
345.788 84.9116 o
346.438 96.3637 o
347.089 88.3932 o
347.74 85.9083 o
348.39 88.7753 o
349.041 94.1419 o
349.691 90.969 o
350.342 85.2431 o
350.993 93.9263 o
351.643 87.5188 o
352.294 87.4609 o
352.945 87.5392 o
353.595 87.7135 o
354.246 88.1672 o
354.896 83.9425 o
355.547 94.3693 o
356.198 102.849 o
356.848 85.9848 o
357.499 130.648 o
358.149 95.941 o
358.8 100.976 o
359.451 84.4384 o
360.101 103.65 o
360.752 99.1055 o
361.402 93.9438 o
362.053 89.7299 o
362.704 79.3255 o
363.354 81.3589 o
364.005 94.047 o
364.656 95.5365 o
365.306 81.8488 o
365.957 83.7684 o
366.607 120.516 o
367.258 81.2129 o
367.909 85.056 o
368.559 83.5064 o
369.21 89.6723 o
369.86 84.8484 o
370.511 77.3965 o
371.162 96.9947 o
371.812 102.047 o
372.463 94.5734 o
373.113 106.063 o
373.764 100.529 o
374.415 84.216 o
375.065 101.344 o
375.716 83.3145 o
376.367 97.7392 o
377.017 91.3533 o
377.668 99.8266 o
378.318 71.8432 o
378.969 115.859 o
379.62 81.4692 o
380.27 99.5336 o
380.921 88.4206 o
381.571 92.2855 o
382.222 86.067 o
382.873 100.932 o
383.523 87.1094 o
384.174 86.8689 o
384.824 96.8643 o
385.475 85.0305 o
386.126 78.1022 o
386.776 101.252 o
387.427 95.8439 o
388.078 84.1818 o
388.728 87.4068 o
389.379 93.0363 o
390.029 91.7017 o
390.68 105.707 o
391.331 96.2286 o
391.981 66.053 o
392.632 89.4582 o
393.282 73.8833 o
393.933 91.1555 o
394.584 91.5548 o
395.234 101.708 o
395.885 101.118 o
396.535 99.0223 o
397.186 113.792 o
397.837 96.1604 o
398.487 99.0727 o
grestore
1.000 0.498 0.055 setrgbcolor
gsave
357.1 121 57.6 38.02 clipbox
/o {
gsave
newpath
translate
1.0 setlinewidth
1 setlinejoin
0 setlinecap
0 -1.5 m
0.397805 -1.5 0.77937 -1.341951 1.06066 -1.06066 c
1.341951 -0.77937 1.5 -0.397805 1.5 0 c
1.5 0.397805 1.341951 0.77937 1.06066 1.06066 c
0.77937 1.341951 0.397805 1.5 0 1.5 c
-0.397805 1.5 -0.77937 1.341951 -1.06066 1.06066 c
-1.341951 0.77937 -1.5 0.397805 -1.5 0 c
-1.5 -0.397805 -1.341951 -0.77937 -1.06066 -1.06066 c
-0.77937 -1.341951 -0.397805 -1.5 0 -1.5 c
cl

gsave
1.000 0.498 0.055 setrgbcolor
fill
grestore
stroke
grestore
} bind def
73.8327 90.1776 o
74.4833 92.652 o
75.1339 88.8416 o
75.7846 90.708 o
76.4352 93.7934 o
77.0858 92.9987 o
77.7364 90.4497 o
78.387 89.7022 o
79.0376 89.8607 o
79.6882 92.0098 o
80.3388 94.9754 o
80.9894 92.3013 o
81.6401 93.3978 o
82.2907 89.7732 o
82.9413 92.4188 o
83.5919 92.5486 o
84.2425 91.6183 o
84.8931 89.7376 o
85.5437 90.4502 o
86.1943 93.0209 o
86.8449 91.4134 o
87.4955 89.37 o
88.1462 92.7881 o
88.7968 89.8644 o
89.4474 92.6005 o
90.098 90.9164 o
90.7486 90.5083 o
91.3992 90.1461 o
92.0498 92.2436 o
92.7004 89.007 o
93.351 91.7717 o
94.0016 95.903 o
94.6523 89.1231 o
95.3029 88.0655 o
95.9535 87.6395 o
96.6041 90.8971 o
97.2547 90.4468 o
97.9053 90.7462 o
98.5559 91.8701 o
99.2065 91.4849 o
99.8571 92.709 o
100.508 90.5217 o
101.158 90.1541 o
101.809 90.4421 o
102.46 91.5337 o
103.11 88.92 o
103.761 90.0416 o
104.411 94.7895 o
105.062 89.1773 o
105.713 92.7366 o
106.363 91.7255 o
107.014 89.2981 o
107.664 91.5079 o
108.315 92.0633 o
108.966 90.0719 o
109.616 89.7608 o
110.267 90.6579 o
110.918 87.9053 o
111.568 89.4994 o
112.219 89.0864 o
112.869 90.4656 o
113.52 88.5051 o
114.171 90.5215 o
114.821 88.9604 o
115.472 90.4351 o
116.122 95.7893 o
116.773 90.5659 o
117.424 92.2523 o
118.074 90.8694 o
118.725 92.495 o
119.375 92.0997 o
120.026 94.202 o
120.677 89.8311 o
121.327 93.392 o
121.978 91.2349 o
122.629 92.7361 o
123.279 88.9276 o
123.93 91.703 o
124.58 90.2267 o
125.231 89.07 o
125.882 87.1613 o
126.532 89.6671 o
127.183 93.2803 o
127.833 89.2682 o
128.484 88.5646 o
129.135 90.5166 o
129.785 91.7915 o
130.436 91.1205 o
131.086 92.6314 o
131.737 90.4354 o
132.388 90.0242 o
133.038 93.6613 o
133.689 92.0945 o
134.339 93.9558 o
134.99 99.5806 o
135.641 89.103 o
136.291 95.2819 o
136.942 94.9839 o
137.593 91.2337 o
138.243 93.7265 o
138.894 88.55 o
139.544 98.7319 o
140.195 86.2009 o
140.846 87.1904 o
141.496 89.446 o
142.147 91.4651 o
142.797 92.7071 o
143.448 94.9996 o
144.099 90.9564 o
144.749 94.3147 o
145.4 89.9099 o
146.05 97.4475 o
146.701 92.9926 o
147.352 86.4944 o
148.002 89.9563 o
148.653 94.4595 o
149.304 91.0479 o
149.954 96.9087 o
150.605 88.4165 o
151.255 88.8024 o
151.906 97.0395 o
152.557 97.0024 o
153.207 87.8499 o
153.858 88.7204 o
154.508 97.0435 o
155.159 87.2715 o
155.81 85.8938 o
156.46 95.907 o
157.111 86.6121 o
157.761 93.2304 o
158.412 95.9701 o
159.063 89.1879 o
159.713 96.3957 o
160.364 89.2435 o
161.015 93.7507 o
161.665 91.1803 o
162.316 90.0484 o
162.966 91.507 o
163.617 92.2966 o
164.268 89.3045 o
164.918 84.1733 o
165.569 91.3436 o
166.219 89.7902 o
166.87 92.8795 o
167.521 93.6784 o
168.171 93.7821 o
168.822 89.4332 o
169.472 94.5219 o
170.123 94.9495 o
170.774 84.4123 o
171.424 89.4517 o
172.075 92.2149 o
172.725 88.4696 o
173.376 91.8387 o
174.027 91.8534 o
174.677 99.5221 o
175.328 95.0659 o
175.979 86.5746 o
176.629 85.6692 o
177.28 92.6797 o
177.93 85.9979 o
178.581 87.4483 o
179.232 86.1158 o
179.882 82.3436 o
180.533 82.9754 o
181.183 95.9161 o
181.834 86.8302 o
182.485 99.6949 o
183.135 88.2458 o
183.786 95.8733 o
184.436 87.2357 o
185.087 90.5523 o
185.738 89.3849 o
186.388 90.3287 o
187.039 87.5218 o
187.69 89.2841 o
188.34 90.8375 o
188.991 92.7007 o
189.641 94.3171 o
190.292 88.3407 o
190.943 96.4028 o
191.593 83.0279 o
192.244 85.2319 o
192.894 95.1728 o
193.545 91.3988 o
194.196 85.5084 o
194.846 87.6215 o
195.497 90.49 o
196.147 88.7439 o
196.798 86.6782 o
197.449 91.7678 o
198.099 92.8154 o
198.75 85.8692 o
199.401 86.8185 o
200.051 94.6708 o
200.702 95.6375 o
201.352 87.357 o
202.003 90.7989 o
202.654 91.0302 o
203.304 89.8944 o
203.955 90.8716 o
204.605 89.8575 o
205.256 86.7703 o
205.907 93.3048 o
206.557 89.7025 o
207.208 82.442 o
207.858 94.2209 o
208.509 92.7763 o
209.16 91.0938 o
209.81 90.6858 o
210.461 92.2591 o
211.112 89.9699 o
211.762 88.4855 o
212.413 93.3665 o
213.063 78.3884 o
213.714 91.9149 o
214.365 90.2213 o
215.015 89.6306 o
215.666 91.337 o
216.316 94.4874 o
216.967 92.048 o
217.618 92.6296 o
218.268 89.8298 o
218.919 86.14 o
219.569 84.3682 o
220.22 88.4223 o
220.871 91.6194 o
221.521 89.8788 o
222.172 90.8492 o
222.822 91.8142 o
223.473 91.8989 o
224.124 94.9464 o
224.774 93.5751 o
225.425 91.9942 o
226.076 91.0403 o
226.726 88.6368 o
227.377 83.6259 o
228.027 89.8861 o
228.678 91.5198 o
229.329 87.4126 o
229.979 92.4672 o
230.63 91.4507 o
231.28 91.5864 o
231.931 89.3559 o
232.582 90.4353 o
233.232 90.3397 o
233.883 87.4122 o
234.533 89.7846 o
235.184 90.6723 o
235.835 89.4938 o
236.485 88.4684 o
237.136 89.0791 o
237.787 91.3251 o
238.437 93.9812 o
239.088 89.6508 o
239.738 89.1092 o
240.389 85.0806 o
241.04 94.1502 o
241.69 91.3612 o
242.341 91.1328 o
242.991 93.6228 o
243.642 95.4441 o
244.293 79.7762 o
244.943 90.9678 o
245.594 92.3697 o
246.244 86.4865 o
246.895 84.9378 o
247.546 91.1764 o
248.196 92.9951 o
248.847 92.5059 o
249.498 89.8754 o
250.148 91.1326 o
250.799 91.5036 o
251.449 80.6268 o
252.1 84.9044 o
252.751 88.448 o
253.401 97.6198 o
254.052 90.096 o
254.702 97.251 o
255.353 92.5761 o
256.004 96.1513 o
256.654 89.5936 o
257.305 98.9587 o
257.955 93.8519 o
258.606 87.7748 o
259.257 87.2969 o
259.907 87.2238 o
260.558 93.4141 o
261.208 98.8916 o
261.859 89.0109 o
262.51 81.7824 o
263.16 74.0183 o
263.811 77.2042 o
264.462 88.3711 o
265.112 94.8893 o
265.763 93.7856 o
266.413 85.1827 o
267.064 90.7985 o
267.715 91.8176 o
268.365 89.7872 o
269.016 84.7476 o
269.666 84.8553 o
270.317 65.5514 o
270.968 85.7364 o
271.618 102.051 o
272.269 67.1025 o
272.919 95.2808 o
273.57 68.4897 o
274.221 75.3464 o
274.871 86.0236 o
275.522 86.5632 o
276.173 88.276 o
276.823 92.2205 o
277.474 98.154 o
278.124 94.4839 o
278.775 106.177 o
279.426 92.5723 o
280.076 85.0993 o
280.727 72.772 o
281.377 78.4438 o
282.028 97.0957 o
282.679 79.7201 o
283.329 88.7247 o
283.98 108.268 o
284.63 82.6631 o
285.281 98.7019 o
285.932 97.7679 o
286.582 80.308 o
287.233 73.0239 o
287.884 90.2554 o
288.534 70.8566 o
289.185 88.0721 o
289.835 81.3522 o
290.486 84.7717 o
291.137 86.9198 o
291.787 89.2244 o
292.438 101.922 o
293.088 100.503 o
293.739 100.603 o
294.39 113.042 o
295.04 85.8613 o
295.691 100.568 o
296.341 83.3954 o
296.992 95.3971 o
297.643 102.258 o
298.293 87.9075 o
298.944 85.6325 o
299.595 75.6038 o
300.245 87.214 o
300.896 60.2487 o
301.546 76.6539 o
302.197 95.1621 o
302.848 114.885 o
303.498 93.3574 o
304.149 84.6222 o
304.799 107.356 o
305.45 92.9876 o
306.101 79.0494 o
306.751 108.233 o
307.402 81.1741 o
308.052 90.2675 o
308.703 92.0151 o
309.354 102.296 o
310.004 78.8001 o
310.655 115.41 o
311.305 96.5568 o
311.956 101.989 o
312.607 88.4673 o
313.257 89.2783 o
313.908 92.6845 o
314.559 83.8275 o
315.209 89.1392 o
315.86 77.522 o
316.51 88.8066 o
317.161 43.5142 o
317.812 110.085 o
318.462 89.4176 o
319.113 63.4015 o
319.763 77.3584 o
320.414 99.0958 o
321.065 94.9076 o
321.715 98.1127 o
322.366 93.4211 o
323.016 87.6955 o
323.667 52.335 o
324.318 89.8201 o
324.968 101.566 o
325.619 124.025 o
326.27 88.1701 o
326.92 107.148 o
327.571 88.5132 o
328.221 81.2851 o
328.872 61.2194 o
329.523 107.086 o
330.173 64.6318 o
330.824 95.6086 o
331.474 90.9119 o
332.125 102.495 o
332.776 112.808 o
333.426 93.7544 o
334.077 76.0527 o
334.727 90.4487 o
335.378 64.7634 o
336.029 97.7219 o
336.679 96.7469 o
337.33 96.4481 o
337.981 78.2507 o
338.631 82.1808 o
339.282 87.1489 o
339.932 80.5825 o
340.583 104.654 o
341.234 95.0699 o
341.884 112.352 o
342.535 102.392 o
343.185 92.9147 o
343.836 110.437 o
344.487 84.2303 o
345.137 91.3243 o
345.788 107.05 o
346.438 75.5536 o
347.089 96.3995 o
347.74 107.967 o
348.39 96.8665 o
349.041 85.7795 o
349.691 92.2942 o
350.342 102.784 o
350.993 83.007 o
351.643 94.3447 o
352.294 98.315 o
352.945 95.3443 o
353.595 96.4244 o
354.246 93.4053 o
354.896 100.848 o
355.547 87.2682 o
356.198 78.2939 o
356.848 95.0706 o
357.499 69.6821 o
358.149 84.2968 o
358.8 82.2389 o
359.451 99.3866 o
360.101 78.7241 o
360.752 81.0113 o
361.402 89.1485 o
362.053 93.2775 o
362.704 98.7848 o
363.354 102.624 o
364.005 90.5067 o
364.656 85.2859 o
365.306 104.342 o
365.957 96.8845 o
366.607 79.6487 o
367.258 106.305 o
367.909 94.8071 o
368.559 95.9139 o
369.21 96.5116 o
369.86 96.387 o
370.511 103.029 o
371.162 86.4738 o
371.812 82.6947 o
372.463 90.196 o
373.113 86.908 o
373.764 86.3592 o
374.415 97.2527 o
375.065 87.5847 o
375.716 94.3255 o
376.367 90.5939 o
377.017 90.7723 o
377.668 85.7133 o
378.318 106.262 o
378.969 83.5315 o
379.62 98.816 o
380.27 87.5448 o
380.921 91.9067 o
381.571 90.6346 o
382.222 94.1337 o
382.873 86.9453 o
383.523 98.9838 o
384.174 93.2715 o
384.824 91.2947 o
385.475 93.9566 o
386.126 102.754 o
386.776 90.0089 o
387.427 89.7554 o
388.078 92.9682 o
388.728 89.3641 o
389.379 86.6774 o
390.029 90.1158 o
390.68 89.4847 o
391.331 86.8802 o
391.981 103.357 o
392.632 91.7488 o
393.282 98.5536 o
393.933 90.3195 o
394.584 94.2657 o
395.234 87.0862 o
395.885 91.6867 o
396.535 92.3422 o
397.186 94.3845 o
397.837 85.4962 o
398.487 89.2841 o
grestore
0.173 0.627 0.173 setrgbcolor
gsave
357.1 121 57.6 38.02 clipbox
/o {
gsave
newpath
translate
1.0 setlinewidth
1 setlinejoin
0 setlinecap
0 -1.5 m
0.397805 -1.5 0.77937 -1.341951 1.06066 -1.06066 c
1.341951 -0.77937 1.5 -0.397805 1.5 0 c
1.5 0.397805 1.341951 0.77937 1.06066 1.06066 c
0.77937 1.341951 0.397805 1.5 0 1.5 c
-0.397805 1.5 -0.77937 1.341951 -1.06066 1.06066 c
-1.341951 0.77937 -1.5 0.397805 -1.5 0 c
-1.5 -0.397805 -1.341951 -0.77937 -1.06066 -1.06066 c
-0.77937 -1.341951 -0.397805 -1.5 0 -1.5 c
cl

gsave
0.173 0.627 0.173 setrgbcolor
fill
grestore
stroke
grestore
} bind def
73.8327 87.0831 o
74.4833 91.3273 o
75.1339 92.8035 o
75.7846 91.5201 o
76.4352 88.6567 o
77.0858 89.807 o
77.7364 92.0257 o
78.387 92.0654 o
79.0376 90.2845 o
79.6882 89.8997 o
80.3388 89.9546 o
80.9894 93.4867 o
81.6401 89.3375 o
82.2907 91.3976 o
82.9413 92.5352 o
83.5919 91.5857 o
84.2425 92.3207 o
84.8931 89.8301 o
85.5437 89.3555 o
86.1943 91.7636 o
86.8449 88.3584 o
87.4955 89.9411 o
88.1462 91.4034 o
88.7968 91.9835 o
89.4474 92.6236 o
90.098 90.4646 o
90.7486 90.9789 o
91.3992 89.4607 o
92.0498 90.8502 o
92.7004 90.6726 o
93.351 92.8501 o
94.0016 93.1323 o
94.6523 90.4873 o
95.3029 91.3194 o
95.9535 87.6801 o
96.6041 90.7955 o
97.2547 88.7072 o
97.9053 90.6605 o
98.5559 93.4826 o
99.2065 94.786 o
99.8571 88.1485 o
100.508 90.2955 o
101.158 93.4891 o
101.809 92.5608 o
102.46 91.9672 o
103.11 91.7826 o
103.761 91.3642 o
104.411 90.823 o
105.062 89.3177 o
105.713 90.6642 o
106.363 87.5249 o
107.014 91.5964 o
107.664 90.9634 o
108.315 91.4853 o
108.966 93.313 o
109.616 90.01 o
110.267 86.95 o
110.918 92.0232 o
111.568 91.3783 o
112.219 86.9855 o
112.869 88.5134 o
113.52 92.2179 o
114.171 84.9323 o
114.821 89.3465 o
115.472 89.2229 o
116.122 93.0539 o
116.773 92.8141 o
117.424 92.1386 o
118.074 91.2791 o
118.725 89.623 o
119.375 91.5781 o
120.026 95.7851 o
120.677 85.7896 o
121.327 93.5358 o
121.978 87.8895 o
122.629 89.6124 o
123.279 90.7206 o
123.93 90.4334 o
124.58 93.1645 o
125.231 92.9016 o
125.882 94.3992 o
126.532 87.9587 o
127.183 93.7176 o
127.833 90.3027 o
128.484 88.5812 o
129.135 86.9352 o
129.785 92.0631 o
130.436 92.3707 o
131.086 93.8098 o
131.737 88.3666 o
132.388 95.9585 o
133.038 93.153 o
133.689 92.7957 o
134.339 90.0867 o
134.99 94.3041 o
135.641 85.9055 o
136.291 92.8947 o
136.942 93.0988 o
137.593 92.7442 o
138.243 91.8226 o
138.894 92.2108 o
139.544 99.806 o
140.195 88.2486 o
140.846 85.8085 o
141.496 89.7461 o
142.147 89.9656 o
142.797 87.9445 o
143.448 92.17 o
144.099 92.418 o
144.749 90.411 o
145.4 91.675 o
146.05 98.2175 o
146.701 90.603 o
147.352 89.833 o
148.002 91.8684 o
148.653 92.1462 o
149.304 89.3353 o
149.954 94.0664 o
150.605 89.7577 o
151.255 90.9958 o
151.906 92.2666 o
152.557 98.6312 o
153.207 92.293 o
153.858 88.1515 o
154.508 95.9239 o
155.159 87.6837 o
155.81 86.3459 o
156.46 95.7019 o
157.111 81.8979 o
157.761 92.1842 o
158.412 94.3754 o
159.063 92.1123 o
159.713 93.9613 o
160.364 92.0612 o
161.015 91.9995 o
161.665 95.4499 o
162.316 93.6095 o
162.966 88.3868 o
163.617 92.657 o
164.268 88.752 o
164.918 84.8684 o
165.569 92.4468 o
166.219 86.7724 o
166.87 94.8905 o
167.521 95.395 o
168.171 96.2697 o
168.822 89.5457 o
169.472 95.6725 o
170.123 97.8343 o
170.774 84.4561 o
171.424 94.1457 o
172.075 89.2153 o
172.725 87.2537 o
173.376 94.4604 o
174.027 92.1909 o
174.677 99.2666 o
175.328 96.9699 o
175.979 85.7241 o
176.629 84.7668 o
177.28 92.2469 o
177.93 86.0465 o
178.581 84.3787 o
179.232 85.3007 o
179.882 88.0339 o
180.533 80.7628 o
181.183 94.8494 o
181.834 89.3871 o
182.485 96.9263 o
183.135 84.886 o
183.786 94.925 o
184.436 87.7507 o
185.087 90.3808 o
185.738 85.2664 o
186.388 91.2495 o
187.039 87.1646 o
187.69 89.9667 o
188.34 90.5456 o
188.991 96.0258 o
189.641 97.79 o
190.292 88.7868 o
190.943 95.7669 o
191.593 84.5645 o
192.244 83.0095 o
192.894 95.5626 o
193.545 88.7046 o
194.196 90.3993 o
194.846 86.6821 o
195.497 93.305 o
196.147 87.8729 o
196.798 86.8295 o
197.449 90.6912 o
198.099 90.2056 o
198.75 84.4959 o
199.401 90.6479 o
200.051 100.593 o
200.702 100.787 o
201.352 80.5688 o
202.003 89.0328 o
202.654 93.7284 o
203.304 92.9732 o
203.955 91.0729 o
204.605 91.8557 o
205.256 82.9409 o
205.907 97.3746 o
206.557 83.7544 o
207.208 78.7507 o
207.858 98.5549 o
208.509 90.7609 o
209.16 99.7071 o
209.81 90.4135 o
210.461 97.5741 o
211.112 91.1675 o
211.762 81.6279 o
212.413 95.7397 o
213.063 73.2706 o
213.714 88.7538 o
214.365 101.759 o
215.015 84.1124 o
215.666 93.4486 o
216.316 98.0659 o
216.967 81.701 o
217.618 93.6076 o
218.268 85.7744 o
218.919 77.4581 o
219.569 83.8434 o
220.22 81.088 o
220.871 80.6247 o
221.521 91.3261 o
222.172 83.779 o
222.822 96.933 o
223.473 99.4806 o
224.124 102.157 o
224.774 87.6233 o
225.425 90.2697 o
226.076 85.1017 o
226.726 80.8178 o
227.377 68.962 o
228.027 88.3029 o
228.678 86.8435 o
229.329 90.6476 o
229.979 84.5317 o
230.63 96.5664 o
231.28 86.1263 o
231.931 77.8703 o
232.582 79.4331 o
233.232 99.7925 o
233.883 101.781 o
234.533 99.496 o
235.184 95.1871 o
235.835 97.5619 o
236.485 101.876 o
237.136 98.6553 o
237.787 86.4667 o
238.437 85.4083 o
239.088 94.6225 o
239.738 98.3659 o
240.389 107.076 o
241.04 87.954 o
241.69 87.7445 o
242.341 88.299 o
242.991 81.3886 o
243.642 89.4418 o
244.293 117.167 o
244.943 81.1303 o
245.594 88.4143 o
246.244 99.725 o
246.895 102.924 o
247.546 82.5204 o
248.196 74.9024 o
248.847 85.8462 o
249.498 99.9277 o
250.148 61.1059 o
250.799 88.1434 o
251.449 107.203 o
252.1 98.4623 o
252.751 96.1552 o
253.401 75.0702 o
254.052 92.6971 o
254.702 80.36 o
255.353 87.8126 o
256.004 90.7317 o
256.654 87.2698 o
257.305 78.9419 o
257.955 88.6238 o
258.606 95.6483 o
259.257 97.6343 o
259.907 107.436 o
260.558 90.5597 o
261.208 82.5367 o
261.859 96.2688 o
262.51 102.401 o
263.16 110.025 o
263.811 107.707 o
264.462 97.3659 o
265.112 81.0357 o
265.763 81.1034 o
266.413 97.6583 o
267.064 91.4542 o
267.715 90.1634 o
268.365 94.3426 o
269.016 94.3669 o
269.666 96.0808 o
270.317 110.923 o
270.968 95.1081 o
271.618 79.4907 o
272.269 112.806 o
272.919 88.5182 o
273.57 107.191 o
274.221 107.306 o
274.871 94.7335 o
275.522 97.223 o
276.173 92.6276 o
276.823 82.2551 o
277.474 80.8641 o
278.124 93.5196 o
278.775 68.7059 o
279.426 87.6793 o
280.076 95.7136 o
280.727 102.769 o
281.377 104.773 o
282.028 84.8932 o
282.679 101.633 o
283.329 90.9422 o
283.98 57.7378 o
284.63 98.0403 o
285.281 80.9328 o
285.932 81.9121 o
286.582 102.356 o
287.233 107.162 o
287.884 89.0723 o
288.534 108.571 o
289.185 94.7855 o
289.835 92.0644 o
290.486 96.8403 o
291.137 99.809 o
291.787 93.9922 o
292.438 82.4456 o
293.088 79.3263 o
293.739 85.6932 o
294.39 62.9558 o
295.04 92.0765 o
295.691 83.0389 o
296.341 95.9134 o
296.992 87.111 o
297.643 81.013 o
298.293 94.774 o
298.944 88.7656 o
299.595 100.259 o
300.245 95.881 o
300.896 119.989 o
301.546 102.95 o
302.197 85.9084 o
302.848 61.7972 o
303.498 91.2472 o
304.149 92.8429 o
304.799 75.4854 o
305.45 88.7758 o
306.101 106.245 o
306.751 70.4677 o
307.402 102.204 o
308.052 94.4118 o
308.703 90.6924 o
309.354 77.2531 o
310.004 103.887 o
310.655 72.3975 o
311.305 86.1948 o
311.956 85.2623 o
312.607 91.8158 o
313.257 94.4108 o
313.908 83.9502 o
314.559 93.8964 o
315.209 89.4577 o
315.86 104.161 o
316.51 95.3733 o
317.161 153.478 o
317.812 79.4966 o
318.462 92.0449 o
319.113 120.707 o
319.763 99.4116 o
320.414 83.3121 o
321.065 87.2182 o
321.715 85.6075 o
322.366 90.5737 o
323.016 89.771 o
323.667 142.057 o
324.318 93.7547 o
324.968 78.9289 o
325.619 57.6259 o
326.27 93.2182 o
326.92 73.4629 o
327.571 93.3936 o
328.221 97.9071 o
328.872 121.285 o
329.523 75.8024 o
330.173 123.674 o
330.824 87.9414 o
331.474 92.3001 o
332.125 79.7033 o
332.776 68.157 o
333.426 95.3392 o
334.077 108.066 o
334.727 87.7556 o
335.378 123.679 o
336.029 86.8542 o
336.679 87.2626 o
337.33 86.7498 o
337.981 104.369 o
338.631 95.9064 o
339.282 98.7546 o
339.932 101.271 o
340.583 76.5129 o
341.234 89.0743 o
341.884 72.8628 o
342.535 79.0249 o
343.185 90.9615 o
343.836 71.6264 o
344.487 102.825 o
345.137 95.8513 o
345.788 77.4832 o
346.438 102.751 o
347.089 84.7869 o
347.74 75.0631 o
348.39 83.8552 o
349.041 96.3711 o
349.691 89.8824 o
350.342 83.2028 o
350.993 97.7962 o
351.643 87.5743 o
352.294 83.02 o
352.945 85.6327 o
353.595 82.6328 o
354.246 87.3487 o
354.896 77.551 o
355.547 97.5159 o
356.198 107.996 o
356.848 82.9183 o
357.499 145.094 o
358.149 99.6863 o
358.8 105.149 o
359.451 85.0428 o
360.101 109.406 o
360.752 102.023 o
361.402 94.9424 o
362.053 88.3861 o
362.704 78.4016 o
363.354 77.5958 o
364.005 91.7987 o
364.656 96.3891 o
365.306 76.3311 o
365.957 82.3293 o
366.607 127.095 o
367.258 76.1407 o
367.909 88.4326 o
368.559 80.9834 o
369.21 89.9857 o
369.86 83.766 o
370.511 79.8185 o
371.162 99.412 o
371.812 103.114 o
372.463 92.9982 o
373.113 106.12 o
373.764 99.0849 o
374.415 77.6412 o
375.065 101.246 o
375.716 79.3433 o
376.367 98.1875 o
377.017 92.5645 o
377.668 102.295 o
378.318 67.6111 o
378.969 117.53 o
379.62 79.4003 o
380.27 97.9519 o
380.921 84.547 o
381.571 93.7565 o
382.222 84.0631 o
382.873 101.691 o
383.523 87.7874 o
384.174 87.1501 o
384.824 95.089 o
385.475 86.6227 o
386.126 76.957 o
386.776 101.103 o
387.427 96.3444 o
388.078 87.482 o
388.728 87.1623 o
389.379 92.0688 o
390.029 87.7625 o
390.68 109.322 o
391.331 96.1616 o
391.981 65.1665 o
392.632 89.3871 o
393.282 72.9493 o
393.933 91.4042 o
394.584 92.9551 o
395.234 103.144 o
395.885 105.726 o
396.535 102.31 o
397.186 114.159 o
397.837 93.4387 o
398.487 101.062 o
grestore
0.800 setlinewidth
0 setlinejoin
2 setlinecap
[] 0 setdash
0.000 setgray
gsave
57.6 38.016 m
57.6 158.976 l
stroke
grestore
gsave
414.72 38.016 m
414.72 158.976 l
stroke
grestore
gsave
57.6 38.016 m
414.72 38.016 l
stroke
grestore
gsave
57.6 158.976 m
414.72 158.976 l
stroke
grestore
1.000 setlinewidth
0 setlinecap
0.800 setgray
gsave
64.6 106.960375 m
121.490625 106.960375 l
122.823958 106.960375 123.490625 107.627042 123.490625 108.960375 c
123.490625 151.976 l
123.490625 153.309333 122.823958 153.976 121.490625 153.976 c
64.6 153.976 l
63.266667 153.976 62.6 153.309333 62.6 151.976 c
62.6 108.960375 l
62.6 107.627042 63.266667 106.960375 64.6 106.960375 c
cl
gsave
1.000 setgray
fill
grestore
stroke
grestore
1 setlinejoin
[] 0 setdash
0.122 0.467 0.706 setrgbcolor
gsave
/o {
gsave
newpath
translate
1.0 setlinewidth
1 setlinejoin
0 setlinecap
0 -1.5 m
0.397805 -1.5 0.77937 -1.341951 1.06066 -1.06066 c
1.341951 -0.77937 1.5 -0.397805 1.5 0 c
1.5 0.397805 1.341951 0.77937 1.06066 1.06066 c
0.77937 1.341951 0.397805 1.5 0 1.5 c
-0.397805 1.5 -0.77937 1.341951 -1.06066 1.06066 c
-1.341951 0.77937 -1.5 0.397805 -1.5 0 c
-1.5 -0.397805 -1.341951 -0.77937 -1.06066 -1.06066 c
-0.77937 -1.341951 -0.397805 -1.5 0 -1.5 c
cl

gsave
0.122 0.467 0.706 setrgbcolor
fill
grestore
stroke
grestore
} bind def
76.6 145.882 o
grestore
0.000 setgray
gsave
94.600000 142.382250 translate
0.000000 rotate
0.000000 0.000000 m /r glyphshow
4.111328 0.000000 m /o glyphshow
10.229492 0.000000 m /l glyphshow
13.007812 0.000000 m /l glyphshow
grestore
1.000 0.498 0.055 setrgbcolor
gsave
/o {
gsave
newpath
translate
1.0 setlinewidth
1 setlinejoin
0 setlinecap
0 -1.5 m
0.397805 -1.5 0.77937 -1.341951 1.06066 -1.06066 c
1.341951 -0.77937 1.5 -0.397805 1.5 0 c
1.5 0.397805 1.341951 0.77937 1.06066 1.06066 c
0.77937 1.341951 0.397805 1.5 0 1.5 c
-0.397805 1.5 -0.77937 1.341951 -1.06066 1.06066 c
-1.341951 0.77937 -1.5 0.397805 -1.5 0 c
-1.5 -0.397805 -1.341951 -0.77937 -1.06066 -1.06066 c
-0.77937 -1.341951 -0.397805 -1.5 0 -1.5 c
cl

gsave
1.000 0.498 0.055 setrgbcolor
fill
grestore
stroke
grestore
} bind def
76.6 131.21 o
grestore
0.000 setgray
gsave
94.600000 127.710375 translate
0.000000 rotate
0.000000 0.000000 m /p glyphshow
6.347656 0.000000 m /i glyphshow
9.125977 0.000000 m /t glyphshow
13.046875 0.000000 m /c glyphshow
18.544922 0.000000 m /h glyphshow
grestore
0.173 0.627 0.173 setrgbcolor
gsave
/o {
gsave
newpath
translate
1.0 setlinewidth
1 setlinejoin
0 setlinecap
0 -1.5 m
0.397805 -1.5 0.77937 -1.341951 1.06066 -1.06066 c
1.341951 -0.77937 1.5 -0.397805 1.5 0 c
1.5 0.397805 1.341951 0.77937 1.06066 1.06066 c
0.77937 1.341951 0.397805 1.5 0 1.5 c
-0.397805 1.5 -0.77937 1.341951 -1.06066 1.06066 c
-1.341951 0.77937 -1.5 0.397805 -1.5 0 c
-1.5 -0.397805 -1.341951 -0.77937 -1.06066 -1.06066 c
-0.77937 -1.341951 -0.397805 -1.5 0 -1.5 c
cl

gsave
0.173 0.627 0.173 setrgbcolor
fill
grestore
stroke
grestore
} bind def
76.6 116.538 o
grestore
0.000 setgray
gsave
94.600000 113.038500 translate
0.000000 rotate
0.000000 0.000000 m /y glyphshow
5.917969 0.000000 m /a glyphshow
12.045898 0.000000 m /w glyphshow
grestore

end
showpage
