%!PS-Adobe-3.0 EPSF-3.0
%%Title: figures/gradient_err.eps
%%Creator: matplotlib version 2.0.0, http://matplotlib.org/
%%CreationDate: Mon Feb 27 22:22:47 2017
%%Orientation: portrait
%%BoundingBox: 75 223 536 568
%%EndComments
%%BeginProlog
/mpldict 8 dict def
mpldict begin
/m { moveto } bind def
/l { lineto } bind def
/r { rlineto } bind def
/c { curveto } bind def
/cl { closepath } bind def
/box {
m
1 index 0 r
0 exch r
neg 0 r
cl
} bind def
/clipbox {
box
clip
newpath
} bind def
%!PS-Adobe-3.0 Resource-Font
%%Title: DejaVu Sans
%%Copyright: Copyright (c) 2003 by Bitstream, Inc. All Rights Reserved. Copyright (c) 2006 by Tavmjong Bah. All Rights Reserved. DejaVu changes are in public domain 
%%Creator: Converted from TrueType to type 3 by PPR
25 dict begin
/_d{bind def}bind def
/_m{moveto}_d
/_l{lineto}_d
/_cl{closepath eofill}_d
/_c{curveto}_d
/_sc{7 -1 roll{setcachedevice}{pop pop pop pop pop pop}ifelse}_d
/_e{exec}_d
/FontName /DejaVuSans def
/PaintType 0 def
/FontMatrix[.001 0 0 .001 0 0]def
/FontBBox[-1021 -463 1793 1232]def
/FontType 3 def
/Encoding [ /space /period /zero /one /two /five /seven /E /P /S /bracketleft /bracketright /a /c /d /e /g /h /i /l /m /n /o /p /r /s /t /u /w /x /y /z /minus ] def
/FontInfo 10 dict dup begin
/FamilyName (DejaVu Sans) def
/FullName (DejaVu Sans) def
/Notice (Copyright (c) 2003 by Bitstream, Inc. All Rights Reserved. Copyright (c) 2006 by Tavmjong Bah. All Rights Reserved. DejaVu changes are in public domain ) def
/Weight (Book) def
/Version (Version 2.35) def
/ItalicAngle 0.0 def
/isFixedPitch false def
/UnderlinePosition -130 def
/UnderlineThickness 90 def
end readonly def
/CharStrings 33 dict dup begin
/space{318 0 0 0 0 0 _sc
}_d
/period{318 0 107 0 210 124 _sc
107 124 _m
210 124 _l
210 0 _l
107 0 _l
107 124 _l
_cl}_d
/zero{636 0 66 -13 570 742 _sc
318 664 _m
267 664 229 639 203 589 _c
177 539 165 464 165 364 _c
165 264 177 189 203 139 _c
229 89 267 64 318 64 _c
369 64 407 89 433 139 _c
458 189 471 264 471 364 _c
471 464 458 539 433 589 _c
407 639 369 664 318 664 _c
318 742 _m
399 742 461 709 505 645 _c
548 580 570 486 570 364 _c
570 241 548 147 505 83 _c
461 19 399 -13 318 -13 _c
236 -13 173 19 130 83 _c
87 147 66 241 66 364 _c
66 486 87 580 130 645 _c
173 709 236 742 318 742 _c
_cl}_d
/one{636 0 110 0 544 729 _sc
124 83 _m
285 83 _l
285 639 _l
110 604 _l
110 694 _l
284 729 _l
383 729 _l
383 83 _l
544 83 _l
544 0 _l
124 0 _l
124 83 _l
_cl}_d
/two{{636 0 73 0 536 742 _sc
192 83 _m
536 83 _l
536 0 _l
73 0 _l
73 83 _l
110 121 161 173 226 239 _c
290 304 331 346 348 365 _c
380 400 402 430 414 455 _c
426 479 433 504 433 528 _c
433 566 419 598 392 622 _c
365 646 330 659 286 659 _c
255 659 222 653 188 643 _c
154 632 117 616 78 594 _c
78 694 _l
118 710 155 722 189 730 _c
223 738 255 742 284 742 _c
}_e{359 742 419 723 464 685 _c
509 647 532 597 532 534 _c
532 504 526 475 515 449 _c
504 422 484 390 454 354 _c
446 344 420 317 376 272 _c
332 227 271 164 192 83 _c
_cl}_e}_d
/five{{636 0 77 -13 549 729 _sc
108 729 _m
495 729 _l
495 646 _l
198 646 _l
198 467 _l
212 472 227 476 241 478 _c
255 480 270 482 284 482 _c
365 482 429 459 477 415 _c
525 370 549 310 549 234 _c
549 155 524 94 475 51 _c
426 8 357 -13 269 -13 _c
238 -13 207 -10 175 -6 _c
143 -1 111 6 77 17 _c
77 116 _l
106 100 136 88 168 80 _c
199 72 232 69 267 69 _c
}_e{323 69 368 83 401 113 _c
433 143 450 183 450 234 _c
450 284 433 324 401 354 _c
368 384 323 399 267 399 _c
241 399 214 396 188 390 _c
162 384 135 375 108 363 _c
108 729 _l
_cl}_e}_d
/seven{636 0 82 0 551 729 _sc
82 729 _m
551 729 _l
551 687 _l
286 0 _l
183 0 _l
432 646 _l
82 646 _l
82 729 _l
_cl}_d
/E{632 0 98 0 568 729 _sc
98 729 _m
559 729 _l
559 646 _l
197 646 _l
197 430 _l
544 430 _l
544 347 _l
197 347 _l
197 83 _l
568 83 _l
568 0 _l
98 0 _l
98 729 _l
_cl}_d
/P{603 0 98 0 569 729 _sc
197 648 _m
197 374 _l
321 374 _l
367 374 402 385 427 409 _c
452 433 465 467 465 511 _c
465 555 452 588 427 612 _c
402 636 367 648 321 648 _c
197 648 _l
98 729 _m
321 729 _l
402 729 464 710 506 673 _c
548 636 569 582 569 511 _c
569 439 548 384 506 348 _c
464 311 402 293 321 293 _c
197 293 _l
197 0 _l
98 0 _l
98 729 _l
_cl}_d
/S{{635 0 66 -13 579 742 _sc
535 705 _m
535 609 _l
497 627 462 640 429 649 _c
395 657 363 662 333 662 _c
279 662 237 651 208 631 _c
179 610 165 580 165 542 _c
165 510 174 485 194 469 _c
213 452 250 439 304 429 _c
364 417 _l
437 403 491 378 526 343 _c
561 307 579 260 579 201 _c
579 130 555 77 508 41 _c
460 5 391 -13 300 -13 _c
265 -13 228 -9 189 -2 _c
}_e{150 5 110 16 69 32 _c
69 134 _l
109 111 148 94 186 83 _c
224 71 262 66 300 66 _c
356 66 399 77 430 99 _c
460 121 476 152 476 194 _c
476 230 465 258 443 278 _c
421 298 385 313 335 323 _c
275 335 _l
201 349 148 372 115 404 _c
82 435 66 478 66 534 _c
66 598 88 649 134 686 _c
179 723 242 742 322 742 _c
356 742 390 739 426 733 _c
461 727 497 717 535 705 _c
}_e{_cl}_e}_d
/bracketleft{390 0 86 -131 293 760 _sc
86 760 _m
293 760 _l
293 690 _l
176 690 _l
176 -61 _l
293 -61 _l
293 -131 _l
86 -131 _l
86 760 _l
_cl}_d
/bracketright{390 0 97 -131 304 760 _sc
304 760 _m
304 -131 _l
97 -131 _l
97 -61 _l
214 -61 _l
214 690 _l
97 690 _l
97 760 _l
304 760 _l
_cl}_d
/a{{613 0 60 -13 522 560 _sc
343 275 _m
270 275 220 266 192 250 _c
164 233 150 205 150 165 _c
150 133 160 107 181 89 _c
202 70 231 61 267 61 _c
317 61 357 78 387 114 _c
417 149 432 196 432 255 _c
432 275 _l
343 275 _l
522 312 _m
522 0 _l
432 0 _l
432 83 _l
411 49 385 25 355 10 _c
325 -5 287 -13 243 -13 _c
187 -13 142 2 109 33 _c
76 64 60 106 60 159 _c
}_e{60 220 80 266 122 298 _c
163 329 224 345 306 345 _c
432 345 _l
432 354 _l
432 395 418 427 391 450 _c
364 472 326 484 277 484 _c
245 484 215 480 185 472 _c
155 464 127 453 100 439 _c
100 522 _l
132 534 164 544 195 550 _c
226 556 256 560 286 560 _c
365 560 424 539 463 498 _c
502 457 522 395 522 312 _c
_cl}_e}_d
/c{{550 0 55 -13 488 560 _sc
488 526 _m
488 442 _l
462 456 437 466 411 473 _c
385 480 360 484 334 484 _c
276 484 230 465 198 428 _c
166 391 150 339 150 273 _c
150 206 166 154 198 117 _c
230 80 276 62 334 62 _c
360 62 385 65 411 72 _c
437 79 462 90 488 104 _c
488 21 _l
462 9 436 0 410 -5 _c
383 -10 354 -13 324 -13 _c
242 -13 176 12 128 64 _c
}_e{79 115 55 185 55 273 _c
55 362 79 432 128 483 _c
177 534 244 560 330 560 _c
358 560 385 557 411 551 _c
437 545 463 537 488 526 _c
_cl}_e}_d
/d{{635 0 55 -13 544 760 _sc
454 464 _m
454 760 _l
544 760 _l
544 0 _l
454 0 _l
454 82 _l
435 49 411 25 382 10 _c
353 -5 319 -13 279 -13 _c
213 -13 159 13 117 65 _c
75 117 55 187 55 273 _c
55 359 75 428 117 481 _c
159 533 213 560 279 560 _c
319 560 353 552 382 536 _c
411 520 435 496 454 464 _c
148 273 _m
148 207 161 155 188 117 _c
215 79 253 61 301 61 _c
}_e{348 61 385 79 413 117 _c
440 155 454 207 454 273 _c
454 339 440 390 413 428 _c
385 466 348 485 301 485 _c
253 485 215 466 188 428 _c
161 390 148 339 148 273 _c
_cl}_e}_d
/e{{615 0 55 -13 562 560 _sc
562 296 _m
562 252 _l
149 252 _l
153 190 171 142 205 110 _c
238 78 284 62 344 62 _c
378 62 412 66 444 74 _c
476 82 509 95 541 113 _c
541 28 _l
509 14 476 3 442 -3 _c
408 -9 373 -13 339 -13 _c
251 -13 182 12 131 62 _c
80 112 55 181 55 268 _c
55 357 79 428 127 481 _c
175 533 241 560 323 560 _c
397 560 455 536 498 489 _c
}_e{540 441 562 377 562 296 _c
472 322 _m
471 371 457 410 431 440 _c
404 469 368 484 324 484 _c
274 484 234 469 204 441 _c
174 413 156 373 152 322 _c
472 322 _l
_cl}_e}_d
/g{{635 0 55 -207 544 560 _sc
454 280 _m
454 344 440 395 414 431 _c
387 467 349 485 301 485 _c
253 485 215 467 188 431 _c
161 395 148 344 148 280 _c
148 215 161 165 188 129 _c
215 93 253 75 301 75 _c
349 75 387 93 414 129 _c
440 165 454 215 454 280 _c
544 68 _m
544 -24 523 -93 482 -139 _c
440 -184 377 -207 292 -207 _c
260 -207 231 -204 203 -200 _c
175 -195 147 -188 121 -178 _c
}_e{121 -91 _l
147 -105 173 -115 199 -122 _c
225 -129 251 -133 278 -133 _c
336 -133 380 -117 410 -87 _c
439 -56 454 -10 454 52 _c
454 96 _l
435 64 411 40 382 24 _c
353 8 319 0 279 0 _c
211 0 157 25 116 76 _c
75 127 55 195 55 280 _c
55 364 75 432 116 483 _c
157 534 211 560 279 560 _c
319 560 353 552 382 536 _c
411 520 435 496 454 464 _c
454 547 _l
544 547 _l
}_e{544 68 _l
_cl}_e}_d
/h{634 0 91 0 549 760 _sc
549 330 _m
549 0 _l
459 0 _l
459 327 _l
459 379 448 417 428 443 _c
408 469 378 482 338 482 _c
289 482 251 466 223 435 _c
195 404 181 362 181 309 _c
181 0 _l
91 0 _l
91 760 _l
181 760 _l
181 462 _l
202 494 227 519 257 535 _c
286 551 320 560 358 560 _c
420 560 468 540 500 501 _c
532 462 549 405 549 330 _c
_cl}_d
/i{278 0 94 0 184 760 _sc
94 547 _m
184 547 _l
184 0 _l
94 0 _l
94 547 _l
94 760 _m
184 760 _l
184 646 _l
94 646 _l
94 760 _l
_cl}_d
/l{278 0 94 0 184 760 _sc
94 760 _m
184 760 _l
184 0 _l
94 0 _l
94 760 _l
_cl}_d
/m{{974 0 91 0 889 560 _sc
520 442 _m
542 482 569 511 600 531 _c
631 550 668 560 711 560 _c
767 560 811 540 842 500 _c
873 460 889 403 889 330 _c
889 0 _l
799 0 _l
799 327 _l
799 379 789 418 771 444 _c
752 469 724 482 686 482 _c
639 482 602 466 575 435 _c
548 404 535 362 535 309 _c
535 0 _l
445 0 _l
445 327 _l
445 379 435 418 417 444 _c
398 469 369 482 331 482 _c
}_e{285 482 248 466 221 435 _c
194 404 181 362 181 309 _c
181 0 _l
91 0 _l
91 547 _l
181 547 _l
181 462 _l
201 495 226 520 255 536 _c
283 552 317 560 357 560 _c
397 560 430 550 458 530 _c
486 510 506 480 520 442 _c
_cl}_e}_d
/n{634 0 91 0 549 560 _sc
549 330 _m
549 0 _l
459 0 _l
459 327 _l
459 379 448 417 428 443 _c
408 469 378 482 338 482 _c
289 482 251 466 223 435 _c
195 404 181 362 181 309 _c
181 0 _l
91 0 _l
91 547 _l
181 547 _l
181 462 _l
202 494 227 519 257 535 _c
286 551 320 560 358 560 _c
420 560 468 540 500 501 _c
532 462 549 405 549 330 _c
_cl}_d
/o{612 0 55 -13 557 560 _sc
306 484 _m
258 484 220 465 192 427 _c
164 389 150 338 150 273 _c
150 207 163 156 191 118 _c
219 80 257 62 306 62 _c
354 62 392 80 420 118 _c
448 156 462 207 462 273 _c
462 337 448 389 420 427 _c
392 465 354 484 306 484 _c
306 560 _m
384 560 445 534 490 484 _c
534 433 557 363 557 273 _c
557 183 534 113 490 63 _c
445 12 384 -13 306 -13 _c
227 -13 165 12 121 63 _c
77 113 55 183 55 273 _c
55 363 77 433 121 484 _c
165 534 227 560 306 560 _c
_cl}_d
/p{{635 0 91 -207 580 560 _sc
181 82 _m
181 -207 _l
91 -207 _l
91 547 _l
181 547 _l
181 464 _l
199 496 223 520 252 536 _c
281 552 316 560 356 560 _c
422 560 476 533 518 481 _c
559 428 580 359 580 273 _c
580 187 559 117 518 65 _c
476 13 422 -13 356 -13 _c
316 -13 281 -5 252 10 _c
223 25 199 49 181 82 _c
487 273 _m
487 339 473 390 446 428 _c
418 466 381 485 334 485 _c
}_e{286 485 249 466 222 428 _c
194 390 181 339 181 273 _c
181 207 194 155 222 117 _c
249 79 286 61 334 61 _c
381 61 418 79 446 117 _c
473 155 487 207 487 273 _c
_cl}_e}_d
/r{411 0 91 0 411 560 _sc
411 463 _m
401 469 390 473 378 476 _c
366 478 353 480 339 480 _c
288 480 249 463 222 430 _c
194 397 181 350 181 288 _c
181 0 _l
91 0 _l
91 547 _l
181 547 _l
181 462 _l
199 495 224 520 254 536 _c
284 552 321 560 365 560 _c
371 560 378 559 386 559 _c
393 558 401 557 411 555 _c
411 463 _l
_cl}_d
/s{{521 0 54 -13 472 560 _sc
443 531 _m
443 446 _l
417 458 391 468 364 475 _c
336 481 308 485 279 485 _c
234 485 200 478 178 464 _c
156 450 145 430 145 403 _c
145 382 153 366 169 354 _c
185 342 217 330 265 320 _c
296 313 _l
360 299 405 279 432 255 _c
458 230 472 195 472 151 _c
472 100 452 60 412 31 _c
372 1 316 -13 246 -13 _c
216 -13 186 -10 154 -5 _c
}_e{122 0 89 8 54 20 _c
54 113 _l
87 95 120 82 152 74 _c
184 65 216 61 248 61 _c
290 61 323 68 346 82 _c
368 96 380 117 380 144 _c
380 168 371 187 355 200 _c
339 213 303 226 247 238 _c
216 245 _l
160 257 119 275 95 299 _c
70 323 58 356 58 399 _c
58 450 76 490 112 518 _c
148 546 200 560 268 560 _c
301 560 332 557 362 552 _c
391 547 418 540 443 531 _c
}_e{_cl}_e}_d
/t{392 0 27 0 368 702 _sc
183 702 _m
183 547 _l
368 547 _l
368 477 _l
183 477 _l
183 180 _l
183 135 189 106 201 94 _c
213 81 238 75 276 75 _c
368 75 _l
368 0 _l
276 0 _l
206 0 158 13 132 39 _c
106 65 93 112 93 180 _c
93 477 _l
27 477 _l
27 547 _l
93 547 _l
93 702 _l
183 702 _l
_cl}_d
/u{634 0 85 -13 543 560 _sc
85 216 _m
85 547 _l
175 547 _l
175 219 _l
175 167 185 129 205 103 _c
225 77 255 64 296 64 _c
344 64 383 79 411 110 _c
439 141 453 183 453 237 _c
453 547 _l
543 547 _l
543 0 _l
453 0 _l
453 84 _l
431 50 405 26 377 10 _c
348 -5 315 -13 277 -13 _c
214 -13 166 6 134 45 _c
101 83 85 140 85 216 _c
311 560 _m
311 560 _l
_cl}_d
/w{818 0 42 0 776 547 _sc
42 547 _m
132 547 _l
244 120 _l
356 547 _l
462 547 _l
574 120 _l
686 547 _l
776 547 _l
633 0 _l
527 0 _l
409 448 _l
291 0 _l
185 0 _l
42 547 _l
_cl}_d
/x{592 0 29 0 559 547 _sc
549 547 _m
351 281 _l
559 0 _l
453 0 _l
294 215 _l
135 0 _l
29 0 _l
241 286 _l
47 547 _l
153 547 _l
298 352 _l
443 547 _l
549 547 _l
_cl}_d
/y{592 0 30 -207 562 547 _sc
322 -50 _m
296 -114 271 -157 247 -177 _c
223 -197 191 -207 151 -207 _c
79 -207 _l
79 -132 _l
132 -132 _l
156 -132 175 -126 189 -114 _c
203 -102 218 -75 235 -31 _c
251 9 _l
30 547 _l
125 547 _l
296 119 _l
467 547 _l
562 547 _l
322 -50 _l
_cl}_d
/z{525 0 43 0 482 547 _sc
55 547 _m
482 547 _l
482 465 _l
144 72 _l
482 72 _l
482 0 _l
43 0 _l
43 82 _l
381 475 _l
55 475 _l
55 547 _l
_cl}_d
/minus{838 0 106 272 732 355 _sc
106 355 _m
732 355 _l
732 272 _l
106 272 _l
106 355 _l
_cl}_d
end readonly def

/BuildGlyph
 {exch begin
 CharStrings exch
 2 copy known not{pop /.notdef}if
 true 3 1 roll get exec
 end}_d

/BuildChar {
 1 index /Encoding get exch get
 1 index /BuildGlyph get exec
}_d

FontName currentdict end definefont pop
end
%%EndProlog
mpldict begin
75.6 223.2 translate
460.8 345.6 0 0 clipbox
gsave
0 0 m
460.8 0 l
460.8 345.6 l
0 345.6 l
cl
1.000 setgray
fill
grestore
gsave
57.6 183.168 m
414.72 183.168 l
414.72 304.128 l
57.6 304.128 l
cl
1.000 setgray
fill
grestore
0.800 setlinewidth
1 setlinejoin
2 setlinecap
[] 0 setdash
0.690 setgray
gsave
357.1 121 57.6 183.2 clipbox
73.832727 183.168 m
73.832727 304.128 l
stroke
grestore
0 setlinecap
0.000 setgray
gsave
/o {
gsave
newpath
translate
0.8 setlinewidth
1 setlinejoin
0 setlinecap
0 0 m
0 -3.5 l

gsave
0.000 setgray
fill
grestore
stroke
grestore
} bind def
73.8327 183.168 o
grestore
/DejaVuSans findfont
10.000 scalefont
setfont
gsave
70.653040 168.574250 translate
0.000000 rotate
0.000000 0.000000 m /zero glyphshow
grestore
2 setlinecap
0.690 setgray
gsave
357.1 121 57.6 183.2 clipbox
114.618474 183.168 m
114.618474 304.128 l
stroke
grestore
0 setlinecap
0.000 setgray
gsave
/o {
gsave
newpath
translate
0.8 setlinewidth
1 setlinejoin
0 setlinecap
0 0 m
0 -3.5 l

gsave
0.000 setgray
fill
grestore
stroke
grestore
} bind def
114.618 183.168 o
grestore
gsave
108.259099 168.574250 translate
0.000000 rotate
0.000000 0.000000 m /two glyphshow
6.362305 0.000000 m /five glyphshow
grestore
2 setlinecap
0.690 setgray
gsave
357.1 121 57.6 183.2 clipbox
155.404221 183.168 m
155.404221 304.128 l
stroke
grestore
0 setlinecap
0.000 setgray
gsave
/o {
gsave
newpath
translate
0.8 setlinewidth
1 setlinejoin
0 setlinecap
0 0 m
0 -3.5 l

gsave
0.000 setgray
fill
grestore
stroke
grestore
} bind def
155.404 183.168 o
grestore
gsave
149.044846 168.574250 translate
0.000000 rotate
0.000000 0.000000 m /five glyphshow
6.362305 0.000000 m /zero glyphshow
grestore
2 setlinecap
0.690 setgray
gsave
357.1 121 57.6 183.2 clipbox
196.189968 183.168 m
196.189968 304.128 l
stroke
grestore
0 setlinecap
0.000 setgray
gsave
/o {
gsave
newpath
translate
0.8 setlinewidth
1 setlinejoin
0 setlinecap
0 0 m
0 -3.5 l

gsave
0.000 setgray
fill
grestore
stroke
grestore
} bind def
196.19 183.168 o
grestore
gsave
189.830593 168.574250 translate
0.000000 rotate
0.000000 0.000000 m /seven glyphshow
6.362305 0.000000 m /five glyphshow
grestore
2 setlinecap
0.690 setgray
gsave
357.1 121 57.6 183.2 clipbox
236.975715 183.168 m
236.975715 304.128 l
stroke
grestore
0 setlinecap
0.000 setgray
gsave
/o {
gsave
newpath
translate
0.8 setlinewidth
1 setlinejoin
0 setlinecap
0 0 m
0 -3.5 l

gsave
0.000 setgray
fill
grestore
stroke
grestore
} bind def
236.976 183.168 o
grestore
gsave
227.436652 168.574250 translate
0.000000 rotate
0.000000 0.000000 m /one glyphshow
6.362305 0.000000 m /zero glyphshow
12.724609 0.000000 m /zero glyphshow
grestore
2 setlinecap
0.690 setgray
gsave
357.1 121 57.6 183.2 clipbox
277.761462 183.168 m
277.761462 304.128 l
stroke
grestore
0 setlinecap
0.000 setgray
gsave
/o {
gsave
newpath
translate
0.8 setlinewidth
1 setlinejoin
0 setlinecap
0 0 m
0 -3.5 l

gsave
0.000 setgray
fill
grestore
stroke
grestore
} bind def
277.761 183.168 o
grestore
gsave
268.222399 168.574250 translate
0.000000 rotate
0.000000 0.000000 m /one glyphshow
6.362305 0.000000 m /two glyphshow
12.724609 0.000000 m /five glyphshow
grestore
2 setlinecap
0.690 setgray
gsave
357.1 121 57.6 183.2 clipbox
318.547209 183.168 m
318.547209 304.128 l
stroke
grestore
0 setlinecap
0.000 setgray
gsave
/o {
gsave
newpath
translate
0.8 setlinewidth
1 setlinejoin
0 setlinecap
0 0 m
0 -3.5 l

gsave
0.000 setgray
fill
grestore
stroke
grestore
} bind def
318.547 183.168 o
grestore
gsave
309.008146 168.574250 translate
0.000000 rotate
0.000000 0.000000 m /one glyphshow
6.362305 0.000000 m /five glyphshow
12.724609 0.000000 m /zero glyphshow
grestore
2 setlinecap
0.690 setgray
gsave
357.1 121 57.6 183.2 clipbox
359.332956 183.168 m
359.332956 304.128 l
stroke
grestore
0 setlinecap
0.000 setgray
gsave
/o {
gsave
newpath
translate
0.8 setlinewidth
1 setlinejoin
0 setlinecap
0 0 m
0 -3.5 l

gsave
0.000 setgray
fill
grestore
stroke
grestore
} bind def
359.333 183.168 o
grestore
gsave
349.793893 168.574250 translate
0.000000 rotate
0.000000 0.000000 m /one glyphshow
6.362305 0.000000 m /seven glyphshow
12.724609 0.000000 m /five glyphshow
grestore
2 setlinecap
0.690 setgray
gsave
357.1 121 57.6 183.2 clipbox
400.118703 183.168 m
400.118703 304.128 l
stroke
grestore
0 setlinecap
0.000 setgray
gsave
/o {
gsave
newpath
translate
0.8 setlinewidth
1 setlinejoin
0 setlinecap
0 0 m
0 -3.5 l

gsave
0.000 setgray
fill
grestore
stroke
grestore
} bind def
400.119 183.168 o
grestore
gsave
390.579640 168.574250 translate
0.000000 rotate
0.000000 0.000000 m /two glyphshow
6.362305 0.000000 m /zero glyphshow
12.724609 0.000000 m /zero glyphshow
grestore
gsave
217.410000 154.902375 translate
0.000000 rotate
0.000000 0.000000 m /S glyphshow
6.347656 0.000000 m /a glyphshow
12.475586 0.000000 m /m glyphshow
22.216797 0.000000 m /p glyphshow
28.564453 0.000000 m /l glyphshow
31.342773 0.000000 m /e glyphshow
grestore
2 setlinecap
0.690 setgray
gsave
357.1 121 57.6 183.2 clipbox
57.6 204.466134 m
414.72 204.466134 l
stroke
grestore
0 setlinecap
0.000 setgray
gsave
/o {
gsave
newpath
translate
0.8 setlinewidth
1 setlinejoin
0 setlinecap
0 0 m
-3.5 0 l

gsave
0.000 setgray
fill
grestore
stroke
grestore
} bind def
57.6 204.466 o
grestore
gsave
19.959375 200.669259 translate
0.000000 rotate
0.000000 0.000000 m /minus glyphshow
8.378906 0.000000 m /zero glyphshow
14.741211 0.000000 m /period glyphshow
17.919922 0.000000 m /two glyphshow
24.282227 0.000000 m /five glyphshow
grestore
2 setlinecap
0.690 setgray
gsave
357.1 121 57.6 183.2 clipbox
57.6 229.234243 m
414.72 229.234243 l
stroke
grestore
0 setlinecap
0.000 setgray
gsave
/o {
gsave
newpath
translate
0.8 setlinewidth
1 setlinejoin
0 setlinecap
0 0 m
-3.5 0 l

gsave
0.000 setgray
fill
grestore
stroke
grestore
} bind def
57.6 229.234 o
grestore
gsave
28.334375 225.437368 translate
0.000000 rotate
0.000000 0.000000 m /zero glyphshow
6.362305 0.000000 m /period glyphshow
9.541016 0.000000 m /zero glyphshow
15.903320 0.000000 m /zero glyphshow
grestore
2 setlinecap
0.690 setgray
gsave
357.1 121 57.6 183.2 clipbox
57.6 254.002353 m
414.72 254.002353 l
stroke
grestore
0 setlinecap
0.000 setgray
gsave
/o {
gsave
newpath
translate
0.8 setlinewidth
1 setlinejoin
0 setlinecap
0 0 m
-3.5 0 l

gsave
0.000 setgray
fill
grestore
stroke
grestore
} bind def
57.6 254.002 o
grestore
gsave
28.334375 250.205478 translate
0.000000 rotate
0.000000 0.000000 m /zero glyphshow
6.362305 0.000000 m /period glyphshow
9.541016 0.000000 m /two glyphshow
15.903320 0.000000 m /five glyphshow
grestore
2 setlinecap
0.690 setgray
gsave
357.1 121 57.6 183.2 clipbox
57.6 278.770462 m
414.72 278.770462 l
stroke
grestore
0 setlinecap
0.000 setgray
gsave
/o {
gsave
newpath
translate
0.8 setlinewidth
1 setlinejoin
0 setlinecap
0 0 m
-3.5 0 l

gsave
0.000 setgray
fill
grestore
stroke
grestore
} bind def
57.6 278.77 o
grestore
gsave
28.334375 274.973587 translate
0.000000 rotate
0.000000 0.000000 m /zero glyphshow
6.362305 0.000000 m /period glyphshow
9.541016 0.000000 m /five glyphshow
15.903320 0.000000 m /zero glyphshow
grestore
2 setlinecap
0.690 setgray
gsave
357.1 121 57.6 183.2 clipbox
57.6 303.538572 m
414.72 303.538572 l
stroke
grestore
0 setlinecap
0.000 setgray
gsave
/o {
gsave
newpath
translate
0.8 setlinewidth
1 setlinejoin
0 setlinecap
0 0 m
-3.5 0 l

gsave
0.000 setgray
fill
grestore
stroke
grestore
} bind def
57.6 303.539 o
grestore
gsave
28.334375 299.741697 translate
0.000000 rotate
0.000000 0.000000 m /zero glyphshow
6.362305 0.000000 m /period glyphshow
9.541016 0.000000 m /seven glyphshow
15.903320 0.000000 m /five glyphshow
grestore
gsave
13.881250 199.632375 translate
90.000000 rotate
0.000000 0.000000 m /P glyphshow
6.030273 0.000000 m /o glyphshow
12.148438 0.000000 m /s glyphshow
17.358398 0.000000 m /i glyphshow
20.136719 0.000000 m /t glyphshow
24.057617 0.000000 m /i glyphshow
26.835938 0.000000 m /o glyphshow
32.954102 0.000000 m /n glyphshow
39.291992 0.000000 m /space glyphshow
42.470703 0.000000 m /E glyphshow
48.789062 0.000000 m /r glyphshow
52.900391 0.000000 m /r glyphshow
57.011719 0.000000 m /o glyphshow
63.129883 0.000000 m /r glyphshow
67.241211 0.000000 m /space glyphshow
70.419922 0.000000 m /bracketleft glyphshow
74.321289 0.000000 m /m glyphshow
84.062500 0.000000 m /bracketright glyphshow
grestore
1.500 setlinewidth
2 setlinecap
0.122 0.467 0.706 setrgbcolor
gsave
357.1 121 57.6 183.2 clipbox
73.832727 231.368646 m
75.464157 228.246701 l
77.095587 233.314223 l
78.727017 227.621672 l
80.358447 232.702895 l
81.989877 232.618349 l
83.621307 226.923754 l
85.252736 227.720623 l
86.884166 228.344921 l
88.515596 230.050855 l
90.147026 224.580594 l
91.778456 223.252286 l
93.409886 227.34505 l
95.041316 229.518746 l
96.672746 227.52409 l
98.304175 227.439763 l
99.935605 233.130827 l
101.567035 232.095191 l
103.198465 231.390493 l
104.829895 229.419808 l
106.461325 235.352116 l
108.092755 233.796934 l
109.724185 223.129359 l
111.355614 229.000955 l
112.987044 224.284504 l
114.618474 229.760888 l
116.249904 222.14628 l
117.881334 231.313585 l
119.512764 226.511441 l
121.144194 232.033193 l
122.775624 222.667772 l
124.407053 227.40443 l
126.038483 226.337407 l
127.669913 223.554819 l
129.301343 235.893737 l
130.932773 228.936344 l
132.564203 229.130979 l
134.195633 225.12098 l
135.827063 226.686279 l
139.089922 232.341806 l
140.721352 223.320893 l
142.352782 236.086399 l
143.984212 229.032565 l
145.615642 230.763088 l
147.247072 227.667492 l
148.878502 234.82364 l
150.509931 244.781463 l
152.141361 229.690633 l
153.772791 239.505175 l
155.404221 238.00185 l
157.035651 218.576205 l
160.298511 240.110236 l
161.929941 235.564204 l
163.56137 238.284484 l
165.1928 228.922665 l
166.82423 229.209566 l
168.45566 233.908686 l
170.08709 216.885381 l
171.71852 234.269461 l
173.34995 232.09173 l
174.98138 228.27337 l
176.61281 241.687723 l
178.244239 233.881646 l
179.875669 239.746753 l
181.507099 211.438754 l
183.138529 222.186309 l
184.769959 223.473833 l
186.401389 232.348152 l
188.032819 218.219894 l
189.664249 236.398355 l
191.295678 235.095848 l
192.927108 241.21969 l
194.558538 246.823561 l
197.821398 204.964998 l
199.452828 227.65844 l
201.084258 232.539584 l
202.715688 212.060325 l
204.347117 244.902254 l
205.978547 208.650985 l
207.609977 231.153577 l
209.241407 225.709316 l
210.872837 230.829239 l
212.504267 250.449494 l
214.135697 242.820994 l
215.767127 245.08134 l
217.398556 237.728781 l
219.029986 250.915839 l
220.661416 233.569834 l
222.292846 229.568854 l
223.924276 214.317921 l
225.555706 230.876665 l
227.187136 240.931435 l
228.818566 258.283092 l
230.449995 216.478297 l
232.081425 207.816319 l
235.344285 243.975041 l
236.975715 230.287388 l
238.607145 220.617121 l
240.238575 225.690427 l
241.870005 218.910362 l
243.501434 236.058071 l
245.132864 223.694131 l
246.764294 237.417882 l
248.395724 213.549297 l
250.027154 217.059062 l
251.658584 247.979538 l
253.290014 241.104345 l
254.921444 227.388959 l
256.552873 240.98182 l
258.184303 232.37578 l
259.815733 230.787419 l
261.447163 222.728031 l
263.078593 252.01638 l
264.710023 223.941834 l
266.341453 217.562135 l
267.972883 244.236378 l
269.604312 232.49864 l
271.235742 240.457859 l
272.867172 239.590844 l
274.498602 219.073954 l
276.130032 218.643345 l
277.761462 252.171344 l
279.392892 218.802987 l
281.024322 226.850195 l
282.655751 221.318486 l
284.287181 229.411673 l
285.918611 225.246291 l
287.550041 225.361473 l
289.181471 256.474905 l
290.812901 232.079349 l
292.444331 231.661263 l
294.075761 237.352199 l
295.70719 217.863586 l
297.33862 215.438586 l
298.97005 214.184385 l
300.60148 230.184004 l
302.23291 235.440936 l
303.86434 248.828725 l
305.49577 243.596725 l
307.1272 253.876476 l
308.75863 209.690641 l
310.390059 234.999143 l
312.021489 238.577887 l
313.652919 246.509345 l
315.284349 269.927342 l
316.915779 216.166139 l
318.547209 248.899367 l
320.178639 257.157774 l
321.810069 244.048594 l
323.441498 212.803195 l
325.072928 235.528421 l
326.704358 231.887927 l
328.335788 200.101614 l
329.967218 237.585687 l
331.598648 239.933042 l
333.230078 245.990949 l
334.861508 219.52738 l
336.492937 275.696877 l
338.124367 249.13053 l
339.755797 246.20327 l
341.387227 222.91668 l
343.018657 222.334468 l
344.650087 228.410313 l
346.281517 247.439461 l
347.912947 255.374086 l
349.544376 218.764989 l
351.175806 228.476284 l
352.807236 216.61838 l
354.438666 252.682737 l
356.070096 223.970896 l
357.701526 234.749188 l
359.332956 230.916735 l
360.964386 240.650372 l
362.595815 223.642326 l
364.227245 235.106541 l
367.490105 216.557692 l
369.121535 233.771802 l
370.752965 212.223442 l
372.384395 215.971399 l
374.015825 213.993018 l
375.647254 232.869399 l
377.278684 232.946456 l
378.910114 227.532697 l
380.541544 259.605412 l
382.172974 226.15548 l
383.804404 239.966488 l
385.435834 241.660553 l
387.067264 220.342561 l
388.698693 239.5829 l
390.330123 219.131107 l
391.961553 222.282318 l
393.592983 223.485283 l
395.224413 209.853866 l
396.855843 221.103269 l
398.487273 204.884148 l
398.487273 204.884148 l
stroke
grestore
1.000 setlinewidth
0 setlinecap
gsave
357.1 121 57.6 183.2 clipbox
/o {
gsave
newpath
translate
1.0 setlinewidth
1 setlinejoin
0 setlinecap
0 -1.5 m
0.397805 -1.5 0.77937 -1.341951 1.06066 -1.06066 c
1.341951 -0.77937 1.5 -0.397805 1.5 0 c
1.5 0.397805 1.341951 0.77937 1.06066 1.06066 c
0.77937 1.341951 0.397805 1.5 0 1.5 c
-0.397805 1.5 -0.77937 1.341951 -1.06066 1.06066 c
-1.341951 0.77937 -1.5 0.397805 -1.5 0 c
-1.5 -0.397805 -1.341951 -0.77937 -1.06066 -1.06066 c
-0.77937 -1.341951 -0.397805 -1.5 0 -1.5 c
cl

gsave
0.122 0.467 0.706 setrgbcolor
fill
grestore
stroke
grestore
} bind def
73.8327 231.369 o
75.4642 228.247 o
77.0956 233.314 o
78.727 227.622 o
80.3584 232.703 o
81.9899 232.618 o
83.6213 226.924 o
85.2527 227.721 o
86.8842 228.345 o
88.5156 230.051 o
90.147 224.581 o
91.7785 223.252 o
93.4099 227.345 o
95.0413 229.519 o
96.6727 227.524 o
98.3042 227.44 o
99.9356 233.131 o
101.567 232.095 o
103.198 231.39 o
104.83 229.42 o
106.461 235.352 o
108.093 233.797 o
109.724 223.129 o
111.356 229.001 o
112.987 224.285 o
114.618 229.761 o
116.25 222.146 o
117.881 231.314 o
119.513 226.511 o
121.144 232.033 o
122.776 222.668 o
124.407 227.404 o
126.038 226.337 o
127.67 223.555 o
129.301 235.894 o
130.933 228.936 o
132.564 229.131 o
134.196 225.121 o
135.827 226.686 o
137.458 229.589 o
139.09 232.342 o
140.721 223.321 o
142.353 236.086 o
143.984 229.033 o
145.616 230.763 o
147.247 227.667 o
148.879 234.824 o
150.51 244.781 o
152.141 229.691 o
153.773 239.505 o
155.404 238.002 o
157.036 218.576 o
158.667 229.362 o
160.299 240.11 o
161.93 235.564 o
163.561 238.284 o
165.193 228.923 o
166.824 229.21 o
168.456 233.909 o
170.087 216.885 o
171.719 234.269 o
173.35 232.092 o
174.981 228.273 o
176.613 241.688 o
178.244 233.882 o
179.876 239.747 o
181.507 211.439 o
183.139 222.186 o
184.77 223.474 o
186.401 232.348 o
188.033 218.22 o
189.664 236.398 o
191.296 235.096 o
192.927 241.22 o
194.559 246.824 o
196.19 225.612 o
197.821 204.965 o
199.453 227.658 o
201.084 232.54 o
202.716 212.06 o
204.347 244.902 o
205.979 208.651 o
207.61 231.154 o
209.241 225.709 o
210.873 230.829 o
212.504 250.449 o
214.136 242.821 o
215.767 245.081 o
217.399 237.729 o
219.03 250.916 o
220.661 233.57 o
222.293 229.569 o
223.924 214.318 o
225.556 230.877 o
227.187 240.931 o
228.819 258.283 o
230.45 216.478 o
232.081 207.816 o
233.713 226.467 o
235.344 243.975 o
236.976 230.287 o
238.607 220.617 o
240.239 225.69 o
241.87 218.91 o
243.501 236.058 o
245.133 223.694 o
246.764 237.418 o
248.396 213.549 o
250.027 217.059 o
251.659 247.98 o
253.29 241.104 o
254.921 227.389 o
256.553 240.982 o
258.184 232.376 o
259.816 230.787 o
261.447 222.728 o
263.079 252.016 o
264.71 223.942 o
266.341 217.562 o
267.973 244.236 o
269.604 232.499 o
271.236 240.458 o
272.867 239.591 o
274.499 219.074 o
276.13 218.643 o
277.761 252.171 o
279.393 218.803 o
281.024 226.85 o
282.656 221.318 o
284.287 229.412 o
285.919 225.246 o
287.55 225.361 o
289.181 256.475 o
290.813 232.079 o
292.444 231.661 o
294.076 237.352 o
295.707 217.864 o
297.339 215.439 o
298.97 214.184 o
300.601 230.184 o
302.233 235.441 o
303.864 248.829 o
305.496 243.597 o
307.127 253.876 o
308.759 209.691 o
310.39 234.999 o
312.021 238.578 o
313.653 246.509 o
315.284 269.927 o
316.916 216.166 o
318.547 248.899 o
320.179 257.158 o
321.81 244.049 o
323.441 212.803 o
325.073 235.528 o
326.704 231.888 o
328.336 200.102 o
329.967 237.586 o
331.599 239.933 o
333.23 245.991 o
334.862 219.527 o
336.493 275.697 o
338.124 249.131 o
339.756 246.203 o
341.387 222.917 o
343.019 222.334 o
344.65 228.41 o
346.282 247.439 o
347.913 255.374 o
349.544 218.765 o
351.176 228.476 o
352.807 216.618 o
354.439 252.683 o
356.07 223.971 o
357.702 234.749 o
359.333 230.917 o
360.964 240.65 o
362.596 223.642 o
364.227 235.107 o
365.859 226.024 o
367.49 216.558 o
369.122 233.772 o
370.753 212.223 o
372.384 215.971 o
374.016 213.993 o
375.647 232.869 o
377.279 232.946 o
378.91 227.533 o
380.542 259.605 o
382.173 226.155 o
383.804 239.966 o
385.436 241.661 o
387.067 220.343 o
388.699 239.583 o
390.33 219.131 o
391.962 222.282 o
393.593 223.485 o
395.224 209.854 o
396.856 221.103 o
398.487 204.884 o
grestore
1.500 setlinewidth
2 setlinecap
1.000 0.498 0.055 setrgbcolor
gsave
357.1 121 57.6 183.2 clipbox
73.832727 225.782422 m
75.464157 227.049048 l
77.095587 228.073514 l
78.727017 228.212654 l
80.358447 224.360287 l
81.989877 225.835762 l
83.621307 234.277233 l
85.252736 230.66466 l
86.884166 229.936888 l
88.515596 229.803835 l
90.147026 231.995719 l
91.778456 230.284725 l
93.409886 227.857357 l
95.041316 226.934474 l
96.672746 230.118161 l
98.304175 231.275156 l
99.935605 227.722866 l
101.567035 231.383899 l
103.198465 227.633446 l
104.829895 226.204169 l
106.461325 224.246167 l
108.092755 224.133345 l
109.724185 234.168691 l
111.355614 224.781664 l
112.987044 232.045381 l
114.618474 228.821321 l
116.249904 229.436241 l
117.881334 229.852961 l
119.512764 234.134877 l
121.144194 228.29504 l
122.775624 235.557759 l
124.407053 229.242993 l
126.038483 230.395808 l
127.669913 231.319118 l
129.301343 227.225226 l
130.932773 226.787101 l
132.564203 224.628599 l
134.195633 230.449428 l
135.827063 233.10549 l
137.458492 227.741251 l
139.089922 232.59243 l
140.721352 230.857489 l
142.352782 229.878222 l
143.984212 225.420097 l
145.615642 222.608761 l
147.247072 229.445447 l
148.878502 231.319397 l
150.509931 229.307799 l
152.141361 227.749612 l
153.772791 229.880608 l
155.404221 227.278053 l
157.035651 233.482208 l
158.667081 225.559883 l
160.298511 228.057185 l
161.929941 227.820345 l
163.56137 231.729341 l
165.1928 231.246583 l
166.82423 220.715905 l
168.45566 240.67744 l
170.08709 229.255434 l
171.71852 227.177335 l
173.34995 221.633533 l
174.98138 230.298321 l
176.61281 232.004643 l
178.244239 223.16528 l
179.875669 226.259176 l
181.507099 223.848039 l
183.138529 228.277476 l
184.769959 224.818253 l
186.401389 230.900481 l
188.032819 227.739138 l
189.664249 225.703641 l
191.295678 226.924347 l
192.927108 230.324758 l
196.189968 224.30989 l
197.821398 229.60825 l
199.452828 220.681638 l
201.084258 229.764101 l
202.715688 218.153045 l
204.347117 225.192171 l
205.978547 228.132643 l
207.609977 233.184001 l
209.241407 245.446951 l
210.872837 229.385605 l
212.504267 234.530116 l
214.135697 243.405553 l
215.767127 228.325093 l
217.398556 236.518843 l
219.029986 240.901172 l
220.661416 232.850382 l
222.292846 233.232029 l
225.555706 218.544015 l
227.187136 239.074756 l
228.818566 243.034608 l
230.449995 227.414626 l
232.081425 207.961534 l
233.712855 223.91959 l
235.344285 225.24266 l
236.975715 234.842287 l
238.607145 249.285772 l
240.238575 252.598128 l
241.870005 211.71427 l
243.501434 231.985209 l
245.132864 247.465182 l
246.764294 240.966569 l
248.395724 219.675838 l
250.027154 210.567376 l
251.658584 238.529026 l
253.290014 225.522764 l
254.921444 269.547048 l
256.552873 240.564161 l
258.184303 236.509101 l
259.815733 214.393942 l
261.447163 204.039691 l
263.078593 233.70927 l
264.710023 218.305505 l
266.341453 234.296924 l
267.972883 218.279826 l
269.604312 251.058635 l
271.235742 220.550863 l
272.867172 216.190823 l
274.498602 243.153429 l
276.130032 202.455892 l
277.761462 237.53885 l
279.392892 244.022116 l
281.024322 205.748262 l
282.655751 241.925391 l
284.287181 211.129386 l
285.918611 236.77073 l
287.550041 214.183399 l
289.181471 258.288529 l
290.812901 223.997483 l
292.444331 220.822536 l
294.075761 215.77073 l
295.70719 222.243051 l
297.33862 254.421541 l
298.97005 228.093666 l
300.60148 219.735098 l
302.23291 190.961932 l
303.86434 223.750731 l
305.49577 210.027996 l
307.1272 235.977194 l
308.75863 233.047179 l
310.390059 225.061169 l
312.021489 224.895826 l
313.652919 223.488232 l
315.284349 219.042872 l
316.915779 236.617129 l
318.547209 230.560019 l
320.178639 250.196754 l
321.810069 248.415711 l
323.441498 245.677197 l
325.072928 227.243359 l
326.704358 212.606824 l
328.335788 190.616747 l
329.967218 215.200786 l
331.598648 237.65175 l
333.230078 267.333422 l
334.861508 215.788409 l
336.492937 276.995986 l
338.124367 239.955388 l
339.755797 193.381731 l
341.387227 211.510915 l
343.018657 222.105005 l
344.650087 227.497114 l
346.281517 232.461251 l
347.912947 249.726538 l
349.544376 257.974788 l
351.175806 243.727201 l
352.807236 227.63973 l
354.438666 247.036136 l
356.070096 227.804018 l
357.701526 219.588374 l
359.332956 244.684515 l
360.964386 216.52414 l
362.595815 218.297694 l
364.227245 227.253481 l
365.858675 223.723412 l
367.490105 252.637435 l
369.121535 223.933544 l
370.752965 205.03283 l
372.384395 226.284391 l
374.015825 212.952714 l
375.647254 256.844705 l
377.278684 252.265862 l
378.910114 237.506281 l
380.541544 248.825084 l
382.172974 238.314762 l
383.804404 246.978314 l
385.435834 235.391371 l
387.067264 237.188388 l
388.698693 206.850579 l
390.330123 256.762776 l
391.961553 288.326948 l
393.592983 235.446564 l
395.224413 239.161833 l
396.855843 261.13803 l
398.487273 298.629818 l
398.487273 298.629818 l
stroke
grestore
1.000 setlinewidth
0 setlinecap
gsave
357.1 121 57.6 183.2 clipbox
/o {
gsave
newpath
translate
1.0 setlinewidth
1 setlinejoin
0 setlinecap
0 -1.5 m
0.397805 -1.5 0.77937 -1.341951 1.06066 -1.06066 c
1.341951 -0.77937 1.5 -0.397805 1.5 0 c
1.5 0.397805 1.341951 0.77937 1.06066 1.06066 c
0.77937 1.341951 0.397805 1.5 0 1.5 c
-0.397805 1.5 -0.77937 1.341951 -1.06066 1.06066 c
-1.341951 0.77937 -1.5 0.397805 -1.5 0 c
-1.5 -0.397805 -1.341951 -0.77937 -1.06066 -1.06066 c
-0.77937 -1.341951 -0.397805 -1.5 0 -1.5 c
cl

gsave
1.000 0.498 0.055 setrgbcolor
fill
grestore
stroke
grestore
} bind def
73.8327 225.782 o
75.4642 227.049 o
77.0956 228.074 o
78.727 228.213 o
80.3584 224.36 o
81.9899 225.836 o
83.6213 234.277 o
85.2527 230.665 o
86.8842 229.937 o
88.5156 229.804 o
90.147 231.996 o
91.7785 230.285 o
93.4099 227.857 o
95.0413 226.934 o
96.6727 230.118 o
98.3042 231.275 o
99.9356 227.723 o
101.567 231.384 o
103.198 227.633 o
104.83 226.204 o
106.461 224.246 o
108.093 224.133 o
109.724 234.169 o
111.356 224.782 o
112.987 232.045 o
114.618 228.821 o
116.25 229.436 o
117.881 229.853 o
119.513 234.135 o
121.144 228.295 o
122.776 235.558 o
124.407 229.243 o
126.038 230.396 o
127.67 231.319 o
129.301 227.225 o
130.933 226.787 o
132.564 224.629 o
134.196 230.449 o
135.827 233.105 o
137.458 227.741 o
139.09 232.592 o
140.721 230.857 o
142.353 229.878 o
143.984 225.42 o
145.616 222.609 o
147.247 229.445 o
148.879 231.319 o
150.51 229.308 o
152.141 227.75 o
153.773 229.881 o
155.404 227.278 o
157.036 233.482 o
158.667 225.56 o
160.299 228.057 o
161.93 227.82 o
163.561 231.729 o
165.193 231.247 o
166.824 220.716 o
168.456 240.677 o
170.087 229.255 o
171.719 227.177 o
173.35 221.634 o
174.981 230.298 o
176.613 232.005 o
178.244 223.165 o
179.876 226.259 o
181.507 223.848 o
183.139 228.277 o
184.77 224.818 o
186.401 230.9 o
188.033 227.739 o
189.664 225.704 o
191.296 226.924 o
192.927 230.325 o
194.559 227.322 o
196.19 224.31 o
197.821 229.608 o
199.453 220.682 o
201.084 229.764 o
202.716 218.153 o
204.347 225.192 o
205.979 228.133 o
207.61 233.184 o
209.241 245.447 o
210.873 229.386 o
212.504 234.53 o
214.136 243.406 o
215.767 228.325 o
217.399 236.519 o
219.03 240.901 o
220.661 232.85 o
222.293 233.232 o
223.924 226.108 o
225.556 218.544 o
227.187 239.075 o
228.819 243.035 o
230.45 227.415 o
232.081 207.962 o
233.713 223.92 o
235.344 225.243 o
236.976 234.842 o
238.607 249.286 o
240.239 252.598 o
241.87 211.714 o
243.501 231.985 o
245.133 247.465 o
246.764 240.967 o
248.396 219.676 o
250.027 210.567 o
251.659 238.529 o
253.29 225.523 o
254.921 269.547 o
256.553 240.564 o
258.184 236.509 o
259.816 214.394 o
261.447 204.04 o
263.079 233.709 o
264.71 218.306 o
266.341 234.297 o
267.973 218.28 o
269.604 251.059 o
271.236 220.551 o
272.867 216.191 o
274.499 243.153 o
276.13 202.456 o
277.761 237.539 o
279.393 244.022 o
281.024 205.748 o
282.656 241.925 o
284.287 211.129 o
285.919 236.771 o
287.55 214.183 o
289.181 258.289 o
290.813 223.997 o
292.444 220.823 o
294.076 215.771 o
295.707 222.243 o
297.339 254.422 o
298.97 228.094 o
300.601 219.735 o
302.233 190.962 o
303.864 223.751 o
305.496 210.028 o
307.127 235.977 o
308.759 233.047 o
310.39 225.061 o
312.021 224.896 o
313.653 223.488 o
315.284 219.043 o
316.916 236.617 o
318.547 230.56 o
320.179 250.197 o
321.81 248.416 o
323.441 245.677 o
325.073 227.243 o
326.704 212.607 o
328.336 190.617 o
329.967 215.201 o
331.599 237.652 o
333.23 267.333 o
334.862 215.788 o
336.493 276.996 o
338.124 239.955 o
339.756 193.382 o
341.387 211.511 o
343.019 222.105 o
344.65 227.497 o
346.282 232.461 o
347.913 249.727 o
349.544 257.975 o
351.176 243.727 o
352.807 227.64 o
354.439 247.036 o
356.07 227.804 o
357.702 219.588 o
359.333 244.685 o
360.964 216.524 o
362.596 218.298 o
364.227 227.253 o
365.859 223.723 o
367.49 252.637 o
369.122 223.934 o
370.753 205.033 o
372.384 226.284 o
374.016 212.953 o
375.647 256.845 o
377.279 252.266 o
378.91 237.506 o
380.542 248.825 o
382.173 238.315 o
383.804 246.978 o
385.436 235.391 o
387.067 237.188 o
388.699 206.851 o
390.33 256.763 o
391.962 288.327 o
393.593 235.447 o
395.224 239.162 o
396.856 261.138 o
398.487 298.63 o
grestore
1.500 setlinewidth
2 setlinecap
0.173 0.627 0.173 setrgbcolor
gsave
357.1 121 57.6 183.2 clipbox
73.832727 232.388283 m
75.464157 229.500253 l
77.095587 232.322951 l
78.727017 224.424474 l
80.358447 227.864053 l
81.989877 229.537388 l
83.621307 232.461241 l
85.252736 232.699121 l
86.884166 225.729966 l
88.515596 227.201743 l
90.147026 229.407203 l
91.778456 230.504469 l
93.409886 231.040893 l
95.041316 225.448006 l
96.672746 230.088819 l
98.304175 228.067479 l
99.935605 226.505541 l
101.567035 226.434457 l
104.829895 227.036695 l
106.461325 228.972912 l
109.724185 228.011078 l
111.355614 232.47624 l
112.987044 230.431621 l
114.618474 229.163123 l
116.249904 232.775016 l
117.881334 228.840428 l
119.512764 228.504538 l
121.144194 229.398706 l
122.775624 232.549745 l
124.407053 229.10565 l
126.038483 229.394866 l
127.669913 227.760739 l
129.301343 228.656225 l
130.932773 230.187605 l
132.564203 234.494229 l
134.195633 229.711417 l
135.827063 226.410546 l
137.458492 231.165622 l
139.089922 225.579699 l
140.721352 228.663484 l
142.352782 223.656285 l
143.984212 232.230527 l
145.615642 237.090735 l
147.247072 228.347007 l
148.878502 231.576738 l
150.509931 229.842844 l
152.141361 231.603576 l
153.772791 230.512749 l
155.404221 230.301774 l
157.035651 223.911036 l
158.667081 233.748073 l
160.298511 232.497244 l
161.929941 233.575718 l
163.56137 229.213604 l
165.1928 225.821527 l
166.82423 234.655297 l
168.45566 224.553745 l
170.08709 226.676081 l
171.71852 234.666332 l
173.34995 236.941471 l
174.98138 229.437238 l
176.61281 237.962459 l
178.244239 238.064235 l
179.875669 237.367502 l
181.507099 219.979581 l
183.138529 223.435227 l
184.769959 233.897902 l
186.401389 228.760622 l
188.032819 219.796944 l
189.664249 240.060787 l
191.295678 237.205373 l
192.927108 233.93229 l
194.558538 247.866088 l
196.189968 225.504973 l
197.821398 208.171205 l
199.452828 228.872255 l
201.084258 232.409621 l
202.715688 217.240613 l
204.347117 247.274027 l
205.978547 211.564227 l
207.609977 232.77877 l
209.241407 216.795203 l
212.504267 245.412668 l
214.135697 240.214729 l
215.767127 245.595488 l
217.398556 240.794935 l
219.029986 256.006375 l
220.661416 237.332283 l
222.292846 233.138042 l
223.924276 214.526104 l
225.555706 229.749483 l
227.187136 240.554142 l
228.818566 265.257076 l
230.449995 216.302759 l
232.081425 201.919598 l
233.712855 230.950744 l
235.344285 242.298193 l
236.975715 228.339112 l
238.607145 222.159794 l
240.238575 228.471074 l
241.870005 210.456102 l
243.501434 239.000017 l
245.132864 228.64426 l
246.764294 243.94425 l
248.395724 206.121176 l
250.027154 208.875598 l
251.658584 257.460061 l
253.290014 238.803998 l
254.921444 250.259386 l
256.552873 245.908648 l
258.184303 236.939743 l
259.815733 219.260881 l
261.447163 206.33777 l
263.078593 255.12339 l
264.710023 217.003376 l
266.341453 219.265603 l
267.972883 235.968723 l
269.604312 245.747275 l
271.235742 234.509027 l
272.867172 230.81714 l
274.498602 228.998281 l
276.130032 196.137755 l
277.761462 252.223161 l
279.392892 233.971442 l
281.024322 207.972159 l
282.655751 236.422284 l
284.287181 210.650306 l
285.918611 236.499572 l
287.550041 216.053874 l
289.181471 282.171367 l
290.812901 221.798392 l
292.444331 224.011084 l
294.075761 218.24087 l
295.70719 217.207767 l
297.33862 253.332573 l
298.97005 226.565781 l
300.60148 217.675605 l
302.23291 193.96366 l
303.86434 230.705271 l
305.49577 212.705258 l
307.1272 245.319069 l
308.75863 225.776648 l
310.390059 225.983474 l
312.021489 225.6909 l
313.652919 222.945239 l
315.284349 223.725691 l
316.915779 237.679864 l
318.547209 231.411842 l
320.178639 254.616232 l
321.810069 252.709626 l
323.441498 249.93375 l
325.072928 228.566466 l
328.335788 195.669995 l
329.967218 212.527827 l
331.598648 234.895441 l
333.230078 269.120801 l
334.861508 218.276202 l
336.492937 267.328984 l
338.124367 230.653385 l
339.755797 188.666182 l
341.387227 214.251068 l
343.018657 225.090394 l
344.650087 229.501336 l
346.281517 224.375733 l
347.912947 236.056999 l
349.544376 261.085434 l
351.175806 243.233769 l
352.807236 237.648038 l
354.438666 230.332625 l
356.070096 230.663655 l
357.701526 217.274814 l
359.332956 241.59184 l
360.964386 211.795931 l
362.595815 228.250673 l
364.227245 223.407636 l
365.858675 231.886423 l
367.490105 255.595842 l
369.121535 221.631361 l
370.752965 228.219301 l
372.384395 237.629188 l
374.015825 231.646487 l
375.647254 238.57168 l
377.278684 236.156377 l
378.910114 233.530579 l
380.541544 208.246737 l
382.172974 235.886063 l
383.804404 226.018299 l
385.435834 220.67348 l
387.067264 239.91015 l
388.698693 209.180481 l
390.330123 246.02105 l
391.961553 247.649243 l
393.592983 238.234437 l
395.224413 248.125153 l
396.855843 239.306403 l
398.487273 259.200764 l
398.487273 259.200764 l
stroke
grestore
1.000 setlinewidth
0 setlinecap
gsave
357.1 121 57.6 183.2 clipbox
/o {
gsave
newpath
translate
1.0 setlinewidth
1 setlinejoin
0 setlinecap
0 -1.5 m
0.397805 -1.5 0.77937 -1.341951 1.06066 -1.06066 c
1.341951 -0.77937 1.5 -0.397805 1.5 0 c
1.5 0.397805 1.341951 0.77937 1.06066 1.06066 c
0.77937 1.341951 0.397805 1.5 0 1.5 c
-0.397805 1.5 -0.77937 1.341951 -1.06066 1.06066 c
-1.341951 0.77937 -1.5 0.397805 -1.5 0 c
-1.5 -0.397805 -1.341951 -0.77937 -1.06066 -1.06066 c
-0.77937 -1.341951 -0.397805 -1.5 0 -1.5 c
cl

gsave
0.173 0.627 0.173 setrgbcolor
fill
grestore
stroke
grestore
} bind def
73.8327 232.388 o
75.4642 229.5 o
77.0956 232.323 o
78.727 224.424 o
80.3584 227.864 o
81.9899 229.537 o
83.6213 232.461 o
85.2527 232.699 o
86.8842 225.73 o
88.5156 227.202 o
90.147 229.407 o
91.7785 230.504 o
93.4099 231.041 o
95.0413 225.448 o
96.6727 230.089 o
98.3042 228.067 o
99.9356 226.506 o
101.567 226.434 o
103.198 226.688 o
104.83 227.037 o
106.461 228.973 o
108.093 228.47 o
109.724 228.011 o
111.356 232.476 o
112.987 230.432 o
114.618 229.163 o
116.25 232.775 o
117.881 228.84 o
119.513 228.505 o
121.144 229.399 o
122.776 232.55 o
124.407 229.106 o
126.038 229.395 o
127.67 227.761 o
129.301 228.656 o
130.933 230.188 o
132.564 234.494 o
134.196 229.711 o
135.827 226.411 o
137.458 231.166 o
139.09 225.58 o
140.721 228.663 o
142.353 223.656 o
143.984 232.231 o
145.616 237.091 o
147.247 228.347 o
148.879 231.577 o
150.51 229.843 o
152.141 231.604 o
153.773 230.513 o
155.404 230.302 o
157.036 223.911 o
158.667 233.748 o
160.299 232.497 o
161.93 233.576 o
163.561 229.214 o
165.193 225.822 o
166.824 234.655 o
168.456 224.554 o
170.087 226.676 o
171.719 234.666 o
173.35 236.941 o
174.981 229.437 o
176.613 237.962 o
178.244 238.064 o
179.876 237.368 o
181.507 219.98 o
183.139 223.435 o
184.77 233.898 o
186.401 228.761 o
188.033 219.797 o
189.664 240.061 o
191.296 237.205 o
192.927 233.932 o
194.559 247.866 o
196.19 225.505 o
197.821 208.171 o
199.453 228.872 o
201.084 232.41 o
202.716 217.241 o
204.347 247.274 o
205.979 211.564 o
207.61 232.779 o
209.241 216.795 o
210.873 231.064 o
212.504 245.413 o
214.136 240.215 o
215.767 245.595 o
217.399 240.795 o
219.03 256.006 o
220.661 237.332 o
222.293 233.138 o
223.924 214.526 o
225.556 229.749 o
227.187 240.554 o
228.819 265.257 o
230.45 216.303 o
232.081 201.92 o
233.713 230.951 o
235.344 242.298 o
236.976 228.339 o
238.607 222.16 o
240.239 228.471 o
241.87 210.456 o
243.501 239 o
245.133 228.644 o
246.764 243.944 o
248.396 206.121 o
250.027 208.876 o
251.659 257.46 o
253.29 238.804 o
254.921 250.259 o
256.553 245.909 o
258.184 236.94 o
259.816 219.261 o
261.447 206.338 o
263.079 255.123 o
264.71 217.003 o
266.341 219.266 o
267.973 235.969 o
269.604 245.747 o
271.236 234.509 o
272.867 230.817 o
274.499 228.998 o
276.13 196.138 o
277.761 252.223 o
279.393 233.971 o
281.024 207.972 o
282.656 236.422 o
284.287 210.65 o
285.919 236.5 o
287.55 216.054 o
289.181 282.171 o
290.813 221.798 o
292.444 224.011 o
294.076 218.241 o
295.707 217.208 o
297.339 253.333 o
298.97 226.566 o
300.601 217.676 o
302.233 193.964 o
303.864 230.705 o
305.496 212.705 o
307.127 245.319 o
308.759 225.777 o
310.39 225.983 o
312.021 225.691 o
313.653 222.945 o
315.284 223.726 o
316.916 237.68 o
318.547 231.412 o
320.179 254.616 o
321.81 252.71 o
323.441 249.934 o
325.073 228.566 o
326.704 212.168 o
328.336 195.67 o
329.967 212.528 o
331.599 234.895 o
333.23 269.121 o
334.862 218.276 o
336.493 267.329 o
338.124 230.653 o
339.756 188.666 o
341.387 214.251 o
343.019 225.09 o
344.65 229.501 o
346.282 224.376 o
347.913 236.057 o
349.544 261.085 o
351.176 243.234 o
352.807 237.648 o
354.439 230.333 o
356.07 230.664 o
357.702 217.275 o
359.333 241.592 o
360.964 211.796 o
362.596 228.251 o
364.227 223.408 o
365.859 231.886 o
367.49 255.596 o
369.122 221.631 o
370.753 228.219 o
372.384 237.629 o
374.016 231.646 o
375.647 238.572 o
377.279 236.156 o
378.91 233.531 o
380.542 208.247 o
382.173 235.886 o
383.804 226.018 o
385.436 220.673 o
387.067 239.91 o
388.699 209.18 o
390.33 246.021 o
391.962 247.649 o
393.593 238.234 o
395.224 248.125 o
396.856 239.306 o
398.487 259.201 o
grestore
0.800 setlinewidth
0 setlinejoin
2 setlinecap
[] 0 setdash
0.000 setgray
gsave
57.6 183.168 m
57.6 304.128 l
stroke
grestore
gsave
414.72 183.168 m
414.72 304.128 l
stroke
grestore
gsave
57.6 183.168 m
414.72 183.168 l
stroke
grestore
gsave
57.6 304.128 m
414.72 304.128 l
stroke
grestore
1.000 setlinewidth
0 setlinecap
0.800 setgray
gsave
64.6 252.112375 m
102.521875 252.112375 l
103.855208 252.112375 104.521875 252.779042 104.521875 254.112375 c
104.521875 297.128 l
104.521875 298.461333 103.855208 299.128 102.521875 299.128 c
64.6 299.128 l
63.266667 299.128 62.6 298.461333 62.6 297.128 c
62.6 254.112375 l
62.6 252.779042 63.266667 252.112375 64.6 252.112375 c
cl
gsave
1.000 setgray
fill
grestore
stroke
grestore
1.500 setlinewidth
1 setlinejoin
2 setlinecap
[] 0 setdash
0.122 0.467 0.706 setrgbcolor
gsave
66.6 291.03425 m
86.6 291.03425 l
stroke
grestore
1.000 setlinewidth
0 setlinecap
gsave
/o {
gsave
newpath
translate
1.0 setlinewidth
1 setlinejoin
0 setlinecap
0 -1.5 m
0.397805 -1.5 0.77937 -1.341951 1.06066 -1.06066 c
1.341951 -0.77937 1.5 -0.397805 1.5 0 c
1.5 0.397805 1.341951 0.77937 1.06066 1.06066 c
0.77937 1.341951 0.397805 1.5 0 1.5 c
-0.397805 1.5 -0.77937 1.341951 -1.06066 1.06066 c
-1.341951 0.77937 -1.5 0.397805 -1.5 0 c
-1.5 -0.397805 -1.341951 -0.77937 -1.06066 -1.06066 c
-0.77937 -1.341951 -0.397805 -1.5 0 -1.5 c
cl

gsave
0.122 0.467 0.706 setrgbcolor
fill
grestore
stroke
grestore
} bind def
76.6 291.034 o
grestore
0.000 setgray
gsave
94.600000 287.534250 translate
0.000000 rotate
0.000000 0.000000 m /x glyphshow
grestore
1.500 setlinewidth
2 setlinecap
1.000 0.498 0.055 setrgbcolor
gsave
66.6 276.362375 m
86.6 276.362375 l
stroke
grestore
1.000 setlinewidth
0 setlinecap
gsave
/o {
gsave
newpath
translate
1.0 setlinewidth
1 setlinejoin
0 setlinecap
0 -1.5 m
0.397805 -1.5 0.77937 -1.341951 1.06066 -1.06066 c
1.341951 -0.77937 1.5 -0.397805 1.5 0 c
1.5 0.397805 1.341951 0.77937 1.06066 1.06066 c
0.77937 1.341951 0.397805 1.5 0 1.5 c
-0.397805 1.5 -0.77937 1.341951 -1.06066 1.06066 c
-1.341951 0.77937 -1.5 0.397805 -1.5 0 c
-1.5 -0.397805 -1.341951 -0.77937 -1.06066 -1.06066 c
-0.77937 -1.341951 -0.397805 -1.5 0 -1.5 c
cl

gsave
1.000 0.498 0.055 setrgbcolor
fill
grestore
stroke
grestore
} bind def
76.6 276.362 o
grestore
0.000 setgray
gsave
94.600000 272.862375 translate
0.000000 rotate
0.000000 0.000000 m /y glyphshow
grestore
1.500 setlinewidth
2 setlinecap
0.173 0.627 0.173 setrgbcolor
gsave
66.6 261.6905 m
86.6 261.6905 l
stroke
grestore
1.000 setlinewidth
0 setlinecap
gsave
/o {
gsave
newpath
translate
1.0 setlinewidth
1 setlinejoin
0 setlinecap
0 -1.5 m
0.397805 -1.5 0.77937 -1.341951 1.06066 -1.06066 c
1.341951 -0.77937 1.5 -0.397805 1.5 0 c
1.5 0.397805 1.341951 0.77937 1.06066 1.06066 c
0.77937 1.341951 0.397805 1.5 0 1.5 c
-0.397805 1.5 -0.77937 1.341951 -1.06066 1.06066 c
-1.341951 0.77937 -1.5 0.397805 -1.5 0 c
-1.5 -0.397805 -1.341951 -0.77937 -1.06066 -1.06066 c
-0.77937 -1.341951 -0.397805 -1.5 0 -1.5 c
cl

gsave
0.173 0.627 0.173 setrgbcolor
fill
grestore
stroke
grestore
} bind def
76.6 261.69 o
grestore
0.000 setgray
gsave
94.600000 258.190500 translate
0.000000 rotate
0.000000 0.000000 m /z glyphshow
grestore
gsave
57.6 38.016 m
414.72 38.016 l
414.72 158.976 l
57.6 158.976 l
cl
1.000 setgray
fill
grestore
0.800 setlinewidth
2 setlinecap
0.690 setgray
gsave
357.1 121 57.6 38.02 clipbox
73.832727 38.016 m
73.832727 158.976 l
stroke
grestore
0 setlinecap
0.000 setgray
gsave
/o {
gsave
newpath
translate
0.8 setlinewidth
1 setlinejoin
0 setlinecap
0 0 m
0 -3.5 l

gsave
0.000 setgray
fill
grestore
stroke
grestore
} bind def
73.8327 38.016 o
grestore
gsave
70.653040 23.422250 translate
0.000000 rotate
0.000000 0.000000 m /zero glyphshow
grestore
2 setlinecap
0.690 setgray
gsave
357.1 121 57.6 38.02 clipbox
114.618474 38.016 m
114.618474 158.976 l
stroke
grestore
0 setlinecap
0.000 setgray
gsave
/o {
gsave
newpath
translate
0.8 setlinewidth
1 setlinejoin
0 setlinecap
0 0 m
0 -3.5 l

gsave
0.000 setgray
fill
grestore
stroke
grestore
} bind def
114.618 38.016 o
grestore
gsave
108.259099 23.422250 translate
0.000000 rotate
0.000000 0.000000 m /two glyphshow
6.362305 0.000000 m /five glyphshow
grestore
2 setlinecap
0.690 setgray
gsave
357.1 121 57.6 38.02 clipbox
155.404221 38.016 m
155.404221 158.976 l
stroke
grestore
0 setlinecap
0.000 setgray
gsave
/o {
gsave
newpath
translate
0.8 setlinewidth
1 setlinejoin
0 setlinecap
0 0 m
0 -3.5 l

gsave
0.000 setgray
fill
grestore
stroke
grestore
} bind def
155.404 38.016 o
grestore
gsave
149.044846 23.422250 translate
0.000000 rotate
0.000000 0.000000 m /five glyphshow
6.362305 0.000000 m /zero glyphshow
grestore
2 setlinecap
0.690 setgray
gsave
357.1 121 57.6 38.02 clipbox
196.189968 38.016 m
196.189968 158.976 l
stroke
grestore
0 setlinecap
0.000 setgray
gsave
/o {
gsave
newpath
translate
0.8 setlinewidth
1 setlinejoin
0 setlinecap
0 0 m
0 -3.5 l

gsave
0.000 setgray
fill
grestore
stroke
grestore
} bind def
196.19 38.016 o
grestore
gsave
189.830593 23.422250 translate
0.000000 rotate
0.000000 0.000000 m /seven glyphshow
6.362305 0.000000 m /five glyphshow
grestore
2 setlinecap
0.690 setgray
gsave
357.1 121 57.6 38.02 clipbox
236.975715 38.016 m
236.975715 158.976 l
stroke
grestore
0 setlinecap
0.000 setgray
gsave
/o {
gsave
newpath
translate
0.8 setlinewidth
1 setlinejoin
0 setlinecap
0 0 m
0 -3.5 l

gsave
0.000 setgray
fill
grestore
stroke
grestore
} bind def
236.976 38.016 o
grestore
gsave
227.436652 23.422250 translate
0.000000 rotate
0.000000 0.000000 m /one glyphshow
6.362305 0.000000 m /zero glyphshow
12.724609 0.000000 m /zero glyphshow
grestore
2 setlinecap
0.690 setgray
gsave
357.1 121 57.6 38.02 clipbox
277.761462 38.016 m
277.761462 158.976 l
stroke
grestore
0 setlinecap
0.000 setgray
gsave
/o {
gsave
newpath
translate
0.8 setlinewidth
1 setlinejoin
0 setlinecap
0 0 m
0 -3.5 l

gsave
0.000 setgray
fill
grestore
stroke
grestore
} bind def
277.761 38.016 o
grestore
gsave
268.222399 23.422250 translate
0.000000 rotate
0.000000 0.000000 m /one glyphshow
6.362305 0.000000 m /two glyphshow
12.724609 0.000000 m /five glyphshow
grestore
2 setlinecap
0.690 setgray
gsave
357.1 121 57.6 38.02 clipbox
318.547209 38.016 m
318.547209 158.976 l
stroke
grestore
0 setlinecap
0.000 setgray
gsave
/o {
gsave
newpath
translate
0.8 setlinewidth
1 setlinejoin
0 setlinecap
0 0 m
0 -3.5 l

gsave
0.000 setgray
fill
grestore
stroke
grestore
} bind def
318.547 38.016 o
grestore
gsave
309.008146 23.422250 translate
0.000000 rotate
0.000000 0.000000 m /one glyphshow
6.362305 0.000000 m /five glyphshow
12.724609 0.000000 m /zero glyphshow
grestore
2 setlinecap
0.690 setgray
gsave
357.1 121 57.6 38.02 clipbox
359.332956 38.016 m
359.332956 158.976 l
stroke
grestore
0 setlinecap
0.000 setgray
gsave
/o {
gsave
newpath
translate
0.8 setlinewidth
1 setlinejoin
0 setlinecap
0 0 m
0 -3.5 l

gsave
0.000 setgray
fill
grestore
stroke
grestore
} bind def
359.333 38.016 o
grestore
gsave
349.793893 23.422250 translate
0.000000 rotate
0.000000 0.000000 m /one glyphshow
6.362305 0.000000 m /seven glyphshow
12.724609 0.000000 m /five glyphshow
grestore
2 setlinecap
0.690 setgray
gsave
357.1 121 57.6 38.02 clipbox
400.118703 38.016 m
400.118703 158.976 l
stroke
grestore
0 setlinecap
0.000 setgray
gsave
/o {
gsave
newpath
translate
0.8 setlinewidth
1 setlinejoin
0 setlinecap
0 0 m
0 -3.5 l

gsave
0.000 setgray
fill
grestore
stroke
grestore
} bind def
400.119 38.016 o
grestore
gsave
390.579640 23.422250 translate
0.000000 rotate
0.000000 0.000000 m /two glyphshow
6.362305 0.000000 m /zero glyphshow
12.724609 0.000000 m /zero glyphshow
grestore
gsave
217.410000 9.750375 translate
0.000000 rotate
0.000000 0.000000 m /S glyphshow
6.347656 0.000000 m /a glyphshow
12.475586 0.000000 m /m glyphshow
22.216797 0.000000 m /p glyphshow
28.564453 0.000000 m /l glyphshow
31.342773 0.000000 m /e glyphshow
grestore
2 setlinecap
0.690 setgray
gsave
357.1 121 57.6 38.02 clipbox
57.6 43.959592 m
414.72 43.959592 l
stroke
grestore
0 setlinecap
0.000 setgray
gsave
/o {
gsave
newpath
translate
0.8 setlinewidth
1 setlinejoin
0 setlinecap
0 0 m
-3.5 0 l

gsave
0.000 setgray
fill
grestore
stroke
grestore
} bind def
57.6 43.9596 o
grestore
gsave
29.506250 40.162717 translate
0.000000 rotate
0.000000 0.000000 m /minus glyphshow
8.378906 0.000000 m /five glyphshow
14.741211 0.000000 m /zero glyphshow
grestore
2 setlinecap
0.690 setgray
gsave
357.1 121 57.6 38.02 clipbox
57.6 72.418075 m
414.72 72.418075 l
stroke
grestore
0 setlinecap
0.000 setgray
gsave
/o {
gsave
newpath
translate
0.8 setlinewidth
1 setlinejoin
0 setlinecap
0 0 m
-3.5 0 l

gsave
0.000 setgray
fill
grestore
stroke
grestore
} bind def
57.6 72.4181 o
grestore
gsave
44.240625 68.621200 translate
0.000000 rotate
0.000000 0.000000 m /zero glyphshow
grestore
2 setlinecap
0.690 setgray
gsave
357.1 121 57.6 38.02 clipbox
57.6 100.876559 m
414.72 100.876559 l
stroke
grestore
0 setlinecap
0.000 setgray
gsave
/o {
gsave
newpath
translate
0.8 setlinewidth
1 setlinejoin
0 setlinecap
0 0 m
-3.5 0 l

gsave
0.000 setgray
fill
grestore
stroke
grestore
} bind def
57.6 100.877 o
grestore
gsave
37.881250 97.079684 translate
0.000000 rotate
0.000000 0.000000 m /five glyphshow
6.362305 0.000000 m /zero glyphshow
grestore
2 setlinecap
0.690 setgray
gsave
357.1 121 57.6 38.02 clipbox
57.6 129.335042 m
414.72 129.335042 l
stroke
grestore
0 setlinecap
0.000 setgray
gsave
/o {
gsave
newpath
translate
0.8 setlinewidth
1 setlinejoin
0 setlinecap
0 0 m
-3.5 0 l

gsave
0.000 setgray
fill
grestore
stroke
grestore
} bind def
57.6 129.335 o
grestore
gsave
31.521875 125.538167 translate
0.000000 rotate
0.000000 0.000000 m /one glyphshow
6.362305 0.000000 m /zero glyphshow
12.724609 0.000000 m /zero glyphshow
grestore
2 setlinecap
0.690 setgray
gsave
357.1 121 57.6 38.02 clipbox
57.6 157.793525 m
414.72 157.793525 l
stroke
grestore
0 setlinecap
0.000 setgray
gsave
/o {
gsave
newpath
translate
0.8 setlinewidth
1 setlinejoin
0 setlinecap
0 0 m
-3.5 0 l

gsave
0.000 setgray
fill
grestore
stroke
grestore
} bind def
57.6 157.794 o
grestore
gsave
31.521875 153.996650 translate
0.000000 rotate
0.000000 0.000000 m /one glyphshow
6.362305 0.000000 m /five glyphshow
12.724609 0.000000 m /zero glyphshow
grestore
gsave
23.428125 38.746000 translate
90.000000 rotate
0.000000 0.000000 m /E glyphshow
6.318359 0.000000 m /u glyphshow
12.656250 0.000000 m /l glyphshow
15.434570 0.000000 m /e glyphshow
21.586914 0.000000 m /r glyphshow
25.698242 0.000000 m /space glyphshow
28.876953 0.000000 m /a glyphshow
35.004883 0.000000 m /n glyphshow
41.342773 0.000000 m /g glyphshow
47.690430 0.000000 m /l glyphshow
50.468750 0.000000 m /e glyphshow
56.621094 0.000000 m /s glyphshow
61.831055 0.000000 m /space glyphshow
65.009766 0.000000 m /e glyphshow
71.162109 0.000000 m /r glyphshow
75.273438 0.000000 m /r glyphshow
79.384766 0.000000 m /o glyphshow
85.502930 0.000000 m /r glyphshow
89.614258 0.000000 m /space glyphshow
92.792969 0.000000 m /bracketleft glyphshow
96.694336 0.000000 m /d glyphshow
103.041992 0.000000 m /e glyphshow
109.194336 0.000000 m /g glyphshow
115.541992 0.000000 m /bracketright glyphshow
grestore
1.500 setlinewidth
2 setlinecap
0.122 0.467 0.706 setrgbcolor
gsave
357.1 121 57.6 38.02 clipbox
73.832727 70.937896 m
75.464157 76.239727 l
77.095587 71.646973 l
78.727017 73.825618 l
80.358447 73.857358 l
81.989877 73.667552 l
83.621307 71.484867 l
86.884166 73.178702 l
88.515596 72.1754 l
90.147026 71.494598 l
91.778456 68.920664 l
93.409886 71.108362 l
95.041316 74.769106 l
96.672746 74.228639 l
98.304175 74.301231 l
99.935605 74.079039 l
101.567035 75.396624 l
103.198465 75.266617 l
104.829895 72.590105 l
106.461325 70.830465 l
108.092755 72.964259 l
109.724185 73.347836 l
111.355614 69.570679 l
112.987044 73.219122 l
114.618474 72.983223 l
116.249904 69.175999 l
117.881334 71.523478 l
119.512764 70.734346 l
121.144194 72.992889 l
122.775624 68.308041 l
124.407053 72.526475 l
126.038483 73.304114 l
127.669913 72.162296 l
129.301343 74.858681 l
130.932773 74.018133 l
132.564203 72.442381 l
135.827063 71.742714 l
137.458492 71.22858 l
139.089922 72.829338 l
140.721352 71.146927 l
142.352782 75.113396 l
143.984212 71.677967 l
145.615642 72.054087 l
147.247072 73.23347 l
148.878502 69.385328 l
150.509931 70.538327 l
152.141361 72.525906 l
153.772791 71.370152 l
155.404221 72.654027 l
157.035651 70.964959 l
158.667081 72.733248 l
160.298511 72.022064 l
161.929941 69.633772 l
163.56137 68.493362 l
165.1928 73.640206 l
166.82423 73.613748 l
168.45566 67.910455 l
170.08709 75.140862 l
171.71852 72.583261 l
173.34995 67.937529 l
174.98138 69.424857 l
176.61281 67.170786 l
178.244239 68.440837 l
179.875669 68.586055 l
181.507099 75.77772 l
183.138529 77.951739 l
184.769959 66.886484 l
186.401389 80.199036 l
188.032819 69.181512 l
189.664249 73.954427 l
191.295678 79.900624 l
192.927108 81.794071 l
194.558538 75.612824 l
196.189968 72.306926 l
197.821398 71.893261 l
199.452828 73.86774 l
201.084258 69.844485 l
202.715688 69.481458 l
204.347117 84.148135 l
205.978547 71.727365 l
207.609977 73.077268 l
209.241407 75.906785 l
210.872837 73.839308 l
212.504267 63.719118 l
214.135697 72.386487 l
215.767127 69.996723 l
217.398556 58.62496 l
219.029986 70.020136 l
220.661416 77.833881 l
222.292846 68.025628 l
223.924276 82.630154 l
225.555706 89.562632 l
227.187136 71.721018 l
228.818566 62.389085 l
230.449995 76.282864 l
232.081425 81.566479 l
233.712855 70.573371 l
235.344285 58.798532 l
236.975715 66.468683 l
238.607145 62.974122 l
240.238575 74.729314 l
241.870005 105.080558 l
243.501434 80.866746 l
245.132864 64.076655 l
246.764294 64.563021 l
248.395724 76.899614 l
250.027154 74.53459 l
251.658584 57.166398 l
253.290014 58.719174 l
254.921444 55.497268 l
256.552873 65.133442 l
258.184303 64.187199 l
259.815733 64.373541 l
261.447163 85.021376 l
263.078593 53.813333 l
264.710023 77.795007 l
266.341453 68.795117 l
267.972883 69.454121 l
269.604312 64.484169 l
271.235742 78.35276 l
272.867172 72.986243 l
274.498602 64.663613 l
276.130032 98.341027 l
277.761462 81.690379 l
279.392892 68.744763 l
281.024322 68.87215 l
282.655751 68.336321 l
284.287181 73.383735 l
285.918611 66.916789 l
287.550041 75.524363 l
289.181471 58.231412 l
290.812901 73.588934 l
292.444331 76.244889 l
294.075761 70.745945 l
295.70719 73.228202 l
297.33862 71.06833 l
298.97005 75.445963 l
300.60148 72.944249 l
302.23291 80.062596 l
303.86434 81.862242 l
305.49577 73.022798 l
307.1272 71.358566 l
308.75863 72.616237 l
310.390059 71.806403 l
312.021489 75.204637 l
313.652919 74.542933 l
315.284349 76.356846 l
316.915779 71.916866 l
318.547209 71.298146 l
320.178639 115.806185 l
321.810069 72.148731 l
323.441498 70.005703 l
325.072928 72.295342 l
326.704358 72.719862 l
328.335788 81.713279 l
329.967218 74.418914 l
331.598648 71.106172 l
333.230078 73.093216 l
334.861508 74.690709 l
336.492937 126.3946 l
338.124367 106.181946 l
339.755797 73.901753 l
341.387227 72.014831 l
343.018657 67.819841 l
344.650087 76.535261 l
346.281517 72.811975 l
347.912947 73.223159 l
349.544376 71.388957 l
351.175806 66.463467 l
352.807236 89.302961 l
354.438666 73.76939 l
357.701526 67.192978 l
359.332956 83.34134 l
360.964386 63.642671 l
362.595815 78.152699 l
364.227245 70.622446 l
365.858675 82.054512 l
367.490105 85.370719 l
369.121535 62.852487 l
370.752965 67.493306 l
372.384395 70.600536 l
374.015825 77.471265 l
375.647254 62.847698 l
377.278684 68.678321 l
378.910114 83.519471 l
380.541544 62.483619 l
382.172974 58.441589 l
383.804404 71.568731 l
385.435834 79.535843 l
387.067264 71.43349 l
388.698693 59.26873 l
390.330123 75.492999 l
391.961553 79.234618 l
393.592983 73.754594 l
395.224413 65.303926 l
396.855843 70.514007 l
398.487273 90.701274 l
398.487273 90.701274 l
stroke
grestore
1.000 setlinewidth
0 setlinecap
gsave
357.1 121 57.6 38.02 clipbox
/o {
gsave
newpath
translate
1.0 setlinewidth
1 setlinejoin
0 setlinecap
0 -1.5 m
0.397805 -1.5 0.77937 -1.341951 1.06066 -1.06066 c
1.341951 -0.77937 1.5 -0.397805 1.5 0 c
1.5 0.397805 1.341951 0.77937 1.06066 1.06066 c
0.77937 1.341951 0.397805 1.5 0 1.5 c
-0.397805 1.5 -0.77937 1.341951 -1.06066 1.06066 c
-1.341951 0.77937 -1.5 0.397805 -1.5 0 c
-1.5 -0.397805 -1.341951 -0.77937 -1.06066 -1.06066 c
-0.77937 -1.341951 -0.397805 -1.5 0 -1.5 c
cl

gsave
0.122 0.467 0.706 setrgbcolor
fill
grestore
stroke
grestore
} bind def
73.8327 70.9379 o
75.4642 76.2397 o
77.0956 71.647 o
78.727 73.8256 o
80.3584 73.8574 o
81.9899 73.6676 o
83.6213 71.4849 o
85.2527 72.3555 o
86.8842 73.1787 o
88.5156 72.1754 o
90.147 71.4946 o
91.7785 68.9207 o
93.4099 71.1084 o
95.0413 74.7691 o
96.6727 74.2286 o
98.3042 74.3012 o
99.9356 74.079 o
101.567 75.3966 o
103.198 75.2666 o
104.83 72.5901 o
106.461 70.8305 o
108.093 72.9643 o
109.724 73.3478 o
111.356 69.5707 o
112.987 73.2191 o
114.618 72.9832 o
116.25 69.176 o
117.881 71.5235 o
119.513 70.7343 o
121.144 72.9929 o
122.776 68.308 o
124.407 72.5265 o
126.038 73.3041 o
127.67 72.1623 o
129.301 74.8587 o
130.933 74.0181 o
132.564 72.4424 o
134.196 72.1021 o
135.827 71.7427 o
137.458 71.2286 o
139.09 72.8293 o
140.721 71.1469 o
142.353 75.1134 o
143.984 71.678 o
145.616 72.0541 o
147.247 73.2335 o
148.879 69.3853 o
150.51 70.5383 o
152.141 72.5259 o
153.773 71.3702 o
155.404 72.654 o
157.036 70.965 o
158.667 72.7332 o
160.299 72.0221 o
161.93 69.6338 o
163.561 68.4934 o
165.193 73.6402 o
166.824 73.6137 o
168.456 67.9105 o
170.087 75.1409 o
171.719 72.5833 o
173.35 67.9375 o
174.981 69.4249 o
176.613 67.1708 o
178.244 68.4408 o
179.876 68.5861 o
181.507 75.7777 o
183.139 77.9517 o
184.77 66.8865 o
186.401 80.199 o
188.033 69.1815 o
189.664 73.9544 o
191.296 79.9006 o
192.927 81.7941 o
194.559 75.6128 o
196.19 72.3069 o
197.821 71.8933 o
199.453 73.8677 o
201.084 69.8445 o
202.716 69.4815 o
204.347 84.1481 o
205.979 71.7274 o
207.61 73.0773 o
209.241 75.9068 o
210.873 73.8393 o
212.504 63.7191 o
214.136 72.3865 o
215.767 69.9967 o
217.399 58.625 o
219.03 70.0201 o
220.661 77.8339 o
222.293 68.0256 o
223.924 82.6302 o
225.556 89.5626 o
227.187 71.721 o
228.819 62.3891 o
230.45 76.2829 o
232.081 81.5665 o
233.713 70.5734 o
235.344 58.7985 o
236.976 66.4687 o
238.607 62.9741 o
240.239 74.7293 o
241.87 105.081 o
243.501 80.8667 o
245.133 64.0767 o
246.764 64.563 o
248.396 76.8996 o
250.027 74.5346 o
251.659 57.1664 o
253.29 58.7192 o
254.921 55.4973 o
256.553 65.1334 o
258.184 64.1872 o
259.816 64.3735 o
261.447 85.0214 o
263.079 53.8133 o
264.71 77.795 o
266.341 68.7951 o
267.973 69.4541 o
269.604 64.4842 o
271.236 78.3528 o
272.867 72.9862 o
274.499 64.6636 o
276.13 98.341 o
277.761 81.6904 o
279.393 68.7448 o
281.024 68.8721 o
282.656 68.3363 o
284.287 73.3837 o
285.919 66.9168 o
287.55 75.5244 o
289.181 58.2314 o
290.813 73.5889 o
292.444 76.2449 o
294.076 70.7459 o
295.707 73.2282 o
297.339 71.0683 o
298.97 75.446 o
300.601 72.9442 o
302.233 80.0626 o
303.864 81.8622 o
305.496 73.0228 o
307.127 71.3586 o
308.759 72.6162 o
310.39 71.8064 o
312.021 75.2046 o
313.653 74.5429 o
315.284 76.3568 o
316.916 71.9169 o
318.547 71.2981 o
320.179 115.806 o
321.81 72.1487 o
323.441 70.0057 o
325.073 72.2953 o
326.704 72.7199 o
328.336 81.7133 o
329.967 74.4189 o
331.599 71.1062 o
333.23 73.0932 o
334.862 74.6907 o
336.493 126.395 o
338.124 106.182 o
339.756 73.9018 o
341.387 72.0148 o
343.019 67.8198 o
344.65 76.5353 o
346.282 72.812 o
347.913 73.2232 o
349.544 71.389 o
351.176 66.4635 o
352.807 89.303 o
354.439 73.7694 o
356.07 70.4538 o
357.702 67.193 o
359.333 83.3413 o
360.964 63.6427 o
362.596 78.1527 o
364.227 70.6224 o
365.859 82.0545 o
367.49 85.3707 o
369.122 62.8525 o
370.753 67.4933 o
372.384 70.6005 o
374.016 77.4713 o
375.647 62.8477 o
377.279 68.6783 o
378.91 83.5195 o
380.542 62.4836 o
382.173 58.4416 o
383.804 71.5687 o
385.436 79.5358 o
387.067 71.4335 o
388.699 59.2687 o
390.33 75.493 o
391.962 79.2346 o
393.593 73.7546 o
395.224 65.3039 o
396.856 70.514 o
398.487 90.7013 o
grestore
1.500 setlinewidth
2 setlinecap
1.000 0.498 0.055 setrgbcolor
gsave
357.1 121 57.6 38.02 clipbox
73.832727 73.153806 m
75.464157 74.275592 l
77.095587 73.604316 l
78.727017 70.844706 l
80.358447 69.614217 l
81.989877 71.126592 l
83.621307 73.772347 l
85.252736 75.04787 l
86.884166 72.733841 l
88.515596 72.367161 l
90.147026 74.539274 l
91.778456 68.401065 l
93.409886 71.443456 l
95.041316 71.753231 l
96.672746 71.865158 l
98.304175 73.055643 l
99.935605 73.23335 l
101.567035 72.942609 l
103.198465 74.699725 l
104.829895 71.721244 l
106.461325 70.20133 l
108.092755 73.128976 l
109.724185 71.490869 l
111.355614 72.117967 l
112.987044 74.997857 l
114.618474 72.305671 l
116.249904 69.167134 l
117.881334 69.580057 l
119.512764 73.429321 l
121.144194 73.032431 l
122.775624 69.320102 l
126.038483 72.567559 l
127.669913 69.350461 l
129.301343 73.301242 l
130.932773 72.881119 l
132.564203 74.117108 l
134.195633 71.427883 l
135.827063 71.457686 l
137.458492 73.025228 l
139.089922 69.316229 l
140.721352 68.500777 l
142.352782 76.841484 l
143.984212 72.833516 l
145.615642 75.090718 l
147.247072 74.803532 l
148.878502 73.753823 l
150.509931 76.283206 l
152.141361 69.248816 l
153.772791 73.640214 l
155.404221 75.159254 l
157.035651 75.931508 l
158.667081 69.534704 l
160.298511 72.12877 l
161.929941 75.831755 l
163.56137 76.504203 l
165.1928 75.06417 l
168.45566 73.001937 l
170.08709 63.788753 l
171.71852 73.336127 l
173.34995 79.524803 l
174.98138 72.225129 l
176.61281 77.846611 l
178.244239 76.058555 l
179.875669 77.524772 l
181.507099 68.294912 l
183.138529 63.451082 l
184.769959 77.553809 l
186.401389 65.002981 l
188.032819 73.649551 l
189.664249 71.435196 l
191.295678 67.418678 l
192.927108 70.188173 l
194.558538 70.892465 l
196.189968 71.049728 l
197.821398 69.983929 l
199.452828 73.80687 l
201.084258 74.705464 l
202.715688 75.831584 l
204.347117 68.641119 l
205.978547 70.802938 l
207.609977 70.174675 l
209.241407 71.390436 l
210.872837 71.743911 l
212.504267 75.263771 l
214.135697 71.251422 l
215.767127 73.906997 l
217.398556 74.601805 l
219.029986 73.392918 l
220.661416 71.252942 l
222.292846 73.113948 l
223.924276 68.091836 l
225.555706 69.917113 l
227.187136 73.889349 l
228.818566 70.163995 l
230.449995 70.343762 l
232.081425 72.064863 l
233.712855 71.85923 l
235.344285 69.597275 l
236.975715 71.589345 l
238.607145 69.655012 l
240.238575 71.800538 l
241.870005 66.023922 l
243.501434 73.644461 l
245.132864 67.935805 l
246.764294 70.532813 l
248.395724 72.251993 l
250.027154 71.637872 l
251.658584 67.796883 l
253.290014 64.836001 l
254.921444 61.55271 l
256.552873 69.202238 l
258.184303 70.072946 l
259.815733 67.182192 l
261.447163 75.654206 l
263.078593 58.73129 l
264.710023 74.414659 l
266.341453 68.777781 l
267.972883 69.468644 l
269.604312 62.436714 l
271.235742 76.353373 l
272.867172 72.762925 l
274.498602 63.808206 l
276.130032 83.201463 l
277.761462 82.334439 l
279.392892 67.898925 l
281.024322 65.542384 l
282.655751 70.39278 l
284.287181 74.379793 l
285.918611 65.29659 l
287.550041 76.918936 l
289.181471 43.514182 l
290.812901 77.042175 l
292.444331 77.002671 l
294.075761 61.473854 l
295.70719 75.016713 l
297.33862 66.456542 l
298.97005 78.655932 l
300.60148 53.856694 l
302.23291 81.615848 l
303.86434 85.676157 l
305.49577 72.661061 l
307.1272 70.518509 l
308.75863 74.969947 l
310.390059 70.303261 l
312.021489 55.729634 l
313.652919 85.904857 l
315.284349 79.998801 l
316.915779 59.075993 l
318.547209 82.283791 l
320.178639 46.457689 l
321.810069 66.208191 l
323.441498 74.490614 l
325.072928 67.939833 l
326.704358 77.912191 l
328.335788 60.045028 l
329.967218 85.755658 l
331.598648 88.163921 l
333.230078 67.669462 l
334.861508 68.634808 l
336.492937 66.310422 l
338.124367 56.077191 l
339.755797 69.466676 l
341.387227 72.77979 l
343.018657 77.5178 l
344.650087 69.541822 l
346.281517 68.924655 l
347.912947 70.515151 l
349.544376 69.100113 l
351.175806 92.951452 l
352.807236 61.290192 l
354.438666 71.531169 l
356.070096 72.10879 l
357.701526 75.971701 l
359.332956 65.317698 l
360.964386 86.728457 l
362.595815 65.771428 l
364.227245 75.083306 l
365.858675 66.649719 l
367.490105 64.033771 l
369.121535 84.245108 l
370.752965 78.099784 l
372.384395 71.432084 l
374.015825 71.296027 l
375.647254 80.294683 l
377.278684 75.1738 l
378.910114 69.199762 l
380.541544 79.888686 l
382.172974 81.834063 l
383.804404 74.253489 l
385.435834 72.83553 l
387.067264 72.749705 l
388.698693 80.191455 l
390.330123 70.33452 l
393.592983 68.7418 l
398.487273 76.905053 l
398.487273 76.905053 l
stroke
grestore
1.000 setlinewidth
0 setlinecap
gsave
357.1 121 57.6 38.02 clipbox
/o {
gsave
newpath
translate
1.0 setlinewidth
1 setlinejoin
0 setlinecap
0 -1.5 m
0.397805 -1.5 0.77937 -1.341951 1.06066 -1.06066 c
1.341951 -0.77937 1.5 -0.397805 1.5 0 c
1.5 0.397805 1.341951 0.77937 1.06066 1.06066 c
0.77937 1.341951 0.397805 1.5 0 1.5 c
-0.397805 1.5 -0.77937 1.341951 -1.06066 1.06066 c
-1.341951 0.77937 -1.5 0.397805 -1.5 0 c
-1.5 -0.397805 -1.341951 -0.77937 -1.06066 -1.06066 c
-0.77937 -1.341951 -0.397805 -1.5 0 -1.5 c
cl

gsave
1.000 0.498 0.055 setrgbcolor
fill
grestore
stroke
grestore
} bind def
73.8327 73.1538 o
75.4642 74.2756 o
77.0956 73.6043 o
78.727 70.8447 o
80.3584 69.6142 o
81.9899 71.1266 o
83.6213 73.7723 o
85.2527 75.0479 o
86.8842 72.7338 o
88.5156 72.3672 o
90.147 74.5393 o
91.7785 68.4011 o
93.4099 71.4435 o
95.0413 71.7532 o
96.6727 71.8652 o
98.3042 73.0556 o
99.9356 73.2334 o
101.567 72.9426 o
103.198 74.6997 o
104.83 71.7212 o
106.461 70.2013 o
108.093 73.129 o
109.724 71.4909 o
111.356 72.118 o
112.987 74.9979 o
114.618 72.3057 o
116.25 69.1671 o
117.881 69.5801 o
119.513 73.4293 o
121.144 73.0324 o
122.776 69.3201 o
124.407 71.0045 o
126.038 72.5676 o
127.67 69.3505 o
129.301 73.3012 o
130.933 72.8811 o
132.564 74.1171 o
134.196 71.4279 o
135.827 71.4577 o
137.458 73.0252 o
139.09 69.3162 o
140.721 68.5008 o
142.353 76.8415 o
143.984 72.8335 o
145.616 75.0907 o
147.247 74.8035 o
148.879 73.7538 o
150.51 76.2832 o
152.141 69.2488 o
153.773 73.6402 o
155.404 75.1593 o
157.036 75.9315 o
158.667 69.5347 o
160.299 72.1288 o
161.93 75.8318 o
163.561 76.5042 o
165.193 75.0642 o
166.824 74.059 o
168.456 73.0019 o
170.087 63.7888 o
171.719 73.3361 o
173.35 79.5248 o
174.981 72.2251 o
176.613 77.8466 o
178.244 76.0586 o
179.876 77.5248 o
181.507 68.2949 o
183.139 63.4511 o
184.77 77.5538 o
186.401 65.003 o
188.033 73.6496 o
189.664 71.4352 o
191.296 67.4187 o
192.927 70.1882 o
194.559 70.8925 o
196.19 71.0497 o
197.821 69.9839 o
199.453 73.8069 o
201.084 74.7055 o
202.716 75.8316 o
204.347 68.6411 o
205.979 70.8029 o
207.61 70.1747 o
209.241 71.3904 o
210.873 71.7439 o
212.504 75.2638 o
214.136 71.2514 o
215.767 73.907 o
217.399 74.6018 o
219.03 73.3929 o
220.661 71.2529 o
222.293 73.1139 o
223.924 68.0918 o
225.556 69.9171 o
227.187 73.8893 o
228.819 70.164 o
230.45 70.3438 o
232.081 72.0649 o
233.713 71.8592 o
235.344 69.5973 o
236.976 71.5893 o
238.607 69.655 o
240.239 71.8005 o
241.87 66.0239 o
243.501 73.6445 o
245.133 67.9358 o
246.764 70.5328 o
248.396 72.252 o
250.027 71.6379 o
251.659 67.7969 o
253.29 64.836 o
254.921 61.5527 o
256.553 69.2022 o
258.184 70.0729 o
259.816 67.1822 o
261.447 75.6542 o
263.079 58.7313 o
264.71 74.4147 o
266.341 68.7778 o
267.973 69.4686 o
269.604 62.4367 o
271.236 76.3534 o
272.867 72.7629 o
274.499 63.8082 o
276.13 83.2015 o
277.761 82.3344 o
279.393 67.8989 o
281.024 65.5424 o
282.656 70.3928 o
284.287 74.3798 o
285.919 65.2966 o
287.55 76.9189 o
289.181 43.5142 o
290.813 77.0422 o
292.444 77.0027 o
294.076 61.4739 o
295.707 75.0167 o
297.339 66.4565 o
298.97 78.6559 o
300.601 53.8567 o
302.233 81.6158 o
303.864 85.6762 o
305.496 72.6611 o
307.127 70.5185 o
308.759 74.9699 o
310.39 70.3033 o
312.021 55.7296 o
313.653 85.9049 o
315.284 79.9988 o
316.916 59.076 o
318.547 82.2838 o
320.179 46.4577 o
321.81 66.2082 o
323.441 74.4906 o
325.073 67.9398 o
326.704 77.9122 o
328.336 60.045 o
329.967 85.7557 o
331.599 88.1639 o
333.23 67.6695 o
334.862 68.6348 o
336.493 66.3104 o
338.124 56.0772 o
339.756 69.4667 o
341.387 72.7798 o
343.019 77.5178 o
344.65 69.5418 o
346.282 68.9247 o
347.913 70.5152 o
349.544 69.1001 o
351.176 92.9515 o
352.807 61.2902 o
354.439 71.5312 o
356.07 72.1088 o
357.702 75.9717 o
359.333 65.3177 o
360.964 86.7285 o
362.596 65.7714 o
364.227 75.0833 o
365.859 66.6497 o
367.49 64.0338 o
369.122 84.2451 o
370.753 78.0998 o
372.384 71.4321 o
374.016 71.296 o
375.647 80.2947 o
377.279 75.1738 o
378.91 69.1998 o
380.542 79.8887 o
382.173 81.8341 o
383.804 74.2535 o
385.436 72.8355 o
387.067 72.7497 o
388.699 80.1915 o
390.33 70.3345 o
391.962 69.544 o
393.593 68.7418 o
395.224 71.5252 o
396.856 74.3024 o
398.487 76.9051 o
grestore
1.500 setlinewidth
2 setlinecap
0.173 0.627 0.173 setrgbcolor
gsave
357.1 121 57.6 38.02 clipbox
73.832727 72.753644 m
75.464157 73.247313 l
77.095587 74.387667 l
78.727017 71.389321 l
80.358447 77.359851 l
81.989877 74.72463 l
83.621307 69.723983 l
85.252736 69.196192 l
86.884166 70.597116 l
88.515596 74.539912 l
90.147026 70.205102 l
91.778456 67.766057 l
93.409886 72.452666 l
95.041316 73.691597 l
96.672746 72.422065 l
98.304175 70.738973 l
101.567035 75.697633 l
103.198465 74.836811 l
104.829895 72.824115 l
106.461325 78.927964 l
108.092755 72.737022 l
109.724185 71.093706 l
111.355614 72.2709 l
112.987044 73.283539 l
114.618474 71.758472 l
116.249904 65.355401 l
117.881334 71.449371 l
119.512764 70.997135 l
121.144194 71.174953 l
122.775624 70.44843 l
124.407053 76.621134 l
126.038483 71.840924 l
127.669913 72.913211 l
129.301343 71.599113 l
130.932773 69.871712 l
132.564203 72.539241 l
134.195633 72.353649 l
135.827063 69.548768 l
137.458492 74.954125 l
139.089922 67.738528 l
140.721352 65.493519 l
142.352782 75.232765 l
143.984212 73.894061 l
145.615642 73.201318 l
147.247072 72.056584 l
148.878502 74.294447 l
150.509931 75.048145 l
152.141361 69.63432 l
153.772791 72.637955 l
155.404221 73.686294 l
157.035651 75.798359 l
158.667081 69.954478 l
161.929941 76.594585 l
163.56137 78.881732 l
165.1928 74.578488 l
166.82423 74.563671 l
168.45566 75.355381 l
170.08709 65.394799 l
171.71852 70.102244 l
173.34995 80.043907 l
174.98138 74.424726 l
176.61281 77.490929 l
178.244239 77.276812 l
179.875669 80.83631 l
181.507099 69.752727 l
183.138529 68.078204 l
184.769959 75.084486 l
186.401389 62.83389 l
188.032819 77.628774 l
189.664249 68.305491 l
191.295678 66.301097 l
192.927108 65.326484 l
194.558538 67.440222 l
196.189968 74.900551 l
197.821398 70.929966 l
199.452828 72.683518 l
201.084258 75.919161 l
202.715688 75.686581 l
204.347117 60.225064 l
205.978547 72.910261 l
207.609977 69.990228 l
209.241407 68.736145 l
210.872837 73.08748 l
212.504267 83.812207 l
214.135697 72.276308 l
215.767127 76.044072 l
217.398556 80.987643 l
219.029986 70.231772 l
220.661416 65.928861 l
222.292846 70.82495 l
223.924276 62.297538 l
225.555706 63.670756 l
227.187136 72.474909 l
228.818566 82.987174 l
230.449995 69.891694 l
232.081425 62.566789 l
233.712855 68.458516 l
235.344285 86.12099 l
236.975715 79.32965 l
238.607145 79.836779 l
240.238575 69.117232 l
241.870005 46.048854 l
243.501434 63.96341 l
245.132864 78.941983 l
246.764294 75.10205 l
248.395724 71.983413 l
250.027154 73.312443 l
251.658584 81.037129 l
253.290014 84.092822 l
254.921444 83.508497 l
256.552873 78.517822 l
258.184303 78.279378 l
259.815733 82.61255 l
261.447163 62.39429 l
263.078593 88.250929 l
264.710023 72.323851 l
266.341453 77.442729 l
267.972883 76.442977 l
269.604312 83.06833 l
271.235742 65.517222 l
272.867172 71.670315 l
274.498602 81.505051 l
276.130032 46.190543 l
277.761462 61.925452 l
279.392892 73.211102 l
281.024322 79.422881 l
282.655751 72.6831 l
284.287181 72.910173 l
285.918611 75.770835 l
287.550041 64.25386 l
289.181471 89.274317 l
290.812901 72.085461 l
292.444331 65.593992 l
294.075761 83.63036 l
295.70719 69.398303 l
297.33862 75.407108 l
298.97005 61.47572 l
300.60148 89.261844 l
302.23291 62.738554 l
303.86434 58.773362 l
305.49577 73.954466 l
307.1272 75.291879 l
308.75863 71.072057 l
310.390059 75.200127 l
312.021489 89.247641 l
313.652919 63.399667 l
315.284349 67.052547 l
316.915779 82.125593 l
318.547209 62.747159 l
320.178639 146.13518 l
321.810069 76.382896 l
323.441498 69.153366 l
325.072928 75.614601 l
326.704358 65.003566 l
328.335788 87.34438 l
329.967218 62.077622 l
331.598648 56.977034 l
333.230078 76.144352 l
334.861508 76.435032 l
336.492937 153.477818 l
338.124367 125.187382 l
339.755797 75.552573 l
341.387227 72.014111 l
343.018657 65.280816 l
344.650087 75.560259 l
346.281517 77.043494 l
349.544376 74.918818 l
351.175806 54.103518 l
352.807236 95.368494 l
354.438666 76.455315 l
356.070096 71.842658 l
357.701526 65.66926 l
359.332956 86.446625 l
360.964386 57.749547 l
362.595815 77.260047 l
364.227245 67.736779 l
365.858675 80.47765 l
367.490105 88.251638 l
369.121535 60.791022 l
370.752965 67.245878 l
372.384395 73.094657 l
374.015825 78.013126 l
375.647254 62.64554 l
377.278684 69.710523 l
378.910114 85.574141 l
380.541544 63.23565 l
382.172974 58.818605 l
383.804404 71.973257 l
385.435834 78.702907 l
387.067264 70.65762 l
388.698693 59.003282 l
390.330123 76.181654 l
391.961553 81.966998 l
393.592983 73.120223 l
395.224413 67.193364 l
396.855843 76.710843 l
398.487273 92.542779 l
398.487273 92.542779 l
stroke
grestore
1.000 setlinewidth
0 setlinecap
gsave
357.1 121 57.6 38.02 clipbox
/o {
gsave
newpath
translate
1.0 setlinewidth
1 setlinejoin
0 setlinecap
0 -1.5 m
0.397805 -1.5 0.77937 -1.341951 1.06066 -1.06066 c
1.341951 -0.77937 1.5 -0.397805 1.5 0 c
1.5 0.397805 1.341951 0.77937 1.06066 1.06066 c
0.77937 1.341951 0.397805 1.5 0 1.5 c
-0.397805 1.5 -0.77937 1.341951 -1.06066 1.06066 c
-1.341951 0.77937 -1.5 0.397805 -1.5 0 c
-1.5 -0.397805 -1.341951 -0.77937 -1.06066 -1.06066 c
-0.77937 -1.341951 -0.397805 -1.5 0 -1.5 c
cl

gsave
0.173 0.627 0.173 setrgbcolor
fill
grestore
stroke
grestore
} bind def
73.8327 72.7536 o
75.4642 73.2473 o
77.0956 74.3877 o
78.727 71.3893 o
80.3584 77.3599 o
81.9899 74.7246 o
83.6213 69.724 o
85.2527 69.1962 o
86.8842 70.5971 o
88.5156 74.5399 o
90.147 70.2051 o
91.7785 67.7661 o
93.4099 72.4527 o
95.0413 73.6916 o
96.6727 72.4221 o
98.3042 70.739 o
99.9356 73.3079 o
101.567 75.6976 o
103.198 74.8368 o
104.83 72.8241 o
106.461 78.928 o
108.093 72.737 o
109.724 71.0937 o
111.356 72.2709 o
112.987 73.2835 o
114.618 71.7585 o
116.25 65.3554 o
117.881 71.4494 o
119.513 70.9971 o
121.144 71.175 o
122.776 70.4484 o
124.407 76.6211 o
126.038 71.8409 o
127.67 72.9132 o
129.301 71.5991 o
130.933 69.8717 o
132.564 72.5392 o
134.196 72.3536 o
135.827 69.5488 o
137.458 74.9541 o
139.09 67.7385 o
140.721 65.4935 o
142.353 75.2328 o
143.984 73.8941 o
145.616 73.2013 o
147.247 72.0566 o
148.879 74.2944 o
150.51 75.0481 o
152.141 69.6343 o
153.773 72.638 o
155.404 73.6863 o
157.036 75.7984 o
158.667 69.9545 o
160.299 73.3194 o
161.93 76.5946 o
163.561 78.8817 o
165.193 74.5785 o
166.824 74.5637 o
168.456 75.3554 o
170.087 65.3948 o
171.719 70.1022 o
173.35 80.0439 o
174.981 74.4247 o
176.613 77.4909 o
178.244 77.2768 o
179.876 80.8363 o
181.507 69.7527 o
183.139 68.0782 o
184.77 75.0845 o
186.401 62.8339 o
188.033 77.6288 o
189.664 68.3055 o
191.296 66.3011 o
192.927 65.3265 o
194.559 67.4402 o
196.19 74.9006 o
197.821 70.93 o
199.453 72.6835 o
201.084 75.9192 o
202.716 75.6866 o
204.347 60.2251 o
205.979 72.9103 o
207.61 69.9902 o
209.241 68.7361 o
210.873 73.0875 o
212.504 83.8122 o
214.136 72.2763 o
215.767 76.0441 o
217.399 80.9876 o
219.03 70.2318 o
220.661 65.9289 o
222.293 70.8249 o
223.924 62.2975 o
225.556 63.6708 o
227.187 72.4749 o
228.819 82.9872 o
230.45 69.8917 o
232.081 62.5668 o
233.713 68.4585 o
235.344 86.121 o
236.976 79.3296 o
238.607 79.8368 o
240.239 69.1172 o
241.87 46.0489 o
243.501 63.9634 o
245.133 78.942 o
246.764 75.1021 o
248.396 71.9834 o
250.027 73.3124 o
251.659 81.0371 o
253.29 84.0928 o
254.921 83.5085 o
256.553 78.5178 o
258.184 78.2794 o
259.816 82.6125 o
261.447 62.3943 o
263.079 88.2509 o
264.71 72.3239 o
266.341 77.4427 o
267.973 76.443 o
269.604 83.0683 o
271.236 65.5172 o
272.867 71.6703 o
274.499 81.5051 o
276.13 46.1905 o
277.761 61.9255 o
279.393 73.2111 o
281.024 79.4229 o
282.656 72.6831 o
284.287 72.9102 o
285.919 75.7708 o
287.55 64.2539 o
289.181 89.2743 o
290.813 72.0855 o
292.444 65.594 o
294.076 83.6304 o
295.707 69.3983 o
297.339 75.4071 o
298.97 61.4757 o
300.601 89.2618 o
302.233 62.7386 o
303.864 58.7734 o
305.496 73.9545 o
307.127 75.2919 o
308.759 71.0721 o
310.39 75.2001 o
312.021 89.2476 o
313.653 63.3997 o
315.284 67.0525 o
316.916 82.1256 o
318.547 62.7472 o
320.179 146.135 o
321.81 76.3829 o
323.441 69.1534 o
325.073 75.6146 o
326.704 65.0036 o
328.336 87.3444 o
329.967 62.0776 o
331.599 56.977 o
333.23 76.1444 o
334.862 76.435 o
336.493 153.478 o
338.124 125.187 o
339.756 75.5526 o
341.387 72.0141 o
343.019 65.2808 o
344.65 75.5603 o
346.282 77.0435 o
347.913 75.9968 o
349.544 74.9188 o
351.176 54.1035 o
352.807 95.3685 o
354.439 76.4553 o
356.07 71.8427 o
357.702 65.6693 o
359.333 86.4466 o
360.964 57.7495 o
362.596 77.26 o
364.227 67.7368 o
365.859 80.4776 o
367.49 88.2516 o
369.122 60.791 o
370.753 67.2459 o
372.384 73.0947 o
374.016 78.0131 o
375.647 62.6455 o
377.279 69.7105 o
378.91 85.5741 o
380.542 63.2357 o
382.173 58.8186 o
383.804 71.9733 o
385.436 78.7029 o
387.067 70.6576 o
388.699 59.0033 o
390.33 76.1817 o
391.962 81.967 o
393.593 73.1202 o
395.224 67.1934 o
396.856 76.7108 o
398.487 92.5428 o
grestore
0.800 setlinewidth
0 setlinejoin
2 setlinecap
[] 0 setdash
0.000 setgray
gsave
57.6 38.016 m
57.6 158.976 l
stroke
grestore
gsave
414.72 38.016 m
414.72 158.976 l
stroke
grestore
gsave
57.6 38.016 m
414.72 38.016 l
stroke
grestore
gsave
57.6 158.976 m
414.72 158.976 l
stroke
grestore
1.000 setlinewidth
0 setlinecap
0.800 setgray
gsave
350.829375 106.960375 m
407.72 106.960375 l
409.053333 106.960375 409.72 107.627042 409.72 108.960375 c
409.72 151.976 l
409.72 153.309333 409.053333 153.976 407.72 153.976 c
350.829375 153.976 l
349.496042 153.976 348.829375 153.309333 348.829375 151.976 c
348.829375 108.960375 l
348.829375 107.627042 349.496042 106.960375 350.829375 106.960375 c
cl
gsave
1.000 setgray
fill
grestore
stroke
grestore
1.500 setlinewidth
1 setlinejoin
2 setlinecap
[] 0 setdash
0.122 0.467 0.706 setrgbcolor
gsave
352.829375 145.88225 m
372.829375 145.88225 l
stroke
grestore
1.000 setlinewidth
0 setlinecap
gsave
/o {
gsave
newpath
translate
1.0 setlinewidth
1 setlinejoin
0 setlinecap
0 -1.5 m
0.397805 -1.5 0.77937 -1.341951 1.06066 -1.06066 c
1.341951 -0.77937 1.5 -0.397805 1.5 0 c
1.5 0.397805 1.341951 0.77937 1.06066 1.06066 c
0.77937 1.341951 0.397805 1.5 0 1.5 c
-0.397805 1.5 -0.77937 1.341951 -1.06066 1.06066 c
-1.341951 0.77937 -1.5 0.397805 -1.5 0 c
-1.5 -0.397805 -1.341951 -0.77937 -1.06066 -1.06066 c
-0.77937 -1.341951 -0.397805 -1.5 0 -1.5 c
cl

gsave
0.122 0.467 0.706 setrgbcolor
fill
grestore
stroke
grestore
} bind def
362.829 145.882 o
grestore
0.000 setgray
gsave
380.829375 142.382250 translate
0.000000 rotate
0.000000 0.000000 m /r glyphshow
4.111328 0.000000 m /o glyphshow
10.229492 0.000000 m /l glyphshow
13.007812 0.000000 m /l glyphshow
grestore
1.500 setlinewidth
2 setlinecap
1.000 0.498 0.055 setrgbcolor
gsave
352.829375 131.210375 m
372.829375 131.210375 l
stroke
grestore
1.000 setlinewidth
0 setlinecap
gsave
/o {
gsave
newpath
translate
1.0 setlinewidth
1 setlinejoin
0 setlinecap
0 -1.5 m
0.397805 -1.5 0.77937 -1.341951 1.06066 -1.06066 c
1.341951 -0.77937 1.5 -0.397805 1.5 0 c
1.5 0.397805 1.341951 0.77937 1.06066 1.06066 c
0.77937 1.341951 0.397805 1.5 0 1.5 c
-0.397805 1.5 -0.77937 1.341951 -1.06066 1.06066 c
-1.341951 0.77937 -1.5 0.397805 -1.5 0 c
-1.5 -0.397805 -1.341951 -0.77937 -1.06066 -1.06066 c
-0.77937 -1.341951 -0.397805 -1.5 0 -1.5 c
cl

gsave
1.000 0.498 0.055 setrgbcolor
fill
grestore
stroke
grestore
} bind def
362.829 131.21 o
grestore
0.000 setgray
gsave
380.829375 127.710375 translate
0.000000 rotate
0.000000 0.000000 m /p glyphshow
6.347656 0.000000 m /i glyphshow
9.125977 0.000000 m /t glyphshow
13.046875 0.000000 m /c glyphshow
18.544922 0.000000 m /h glyphshow
grestore
1.500 setlinewidth
2 setlinecap
0.173 0.627 0.173 setrgbcolor
gsave
352.829375 116.5385 m
372.829375 116.5385 l
stroke
grestore
1.000 setlinewidth
0 setlinecap
gsave
/o {
gsave
newpath
translate
1.0 setlinewidth
1 setlinejoin
0 setlinecap
0 -1.5 m
0.397805 -1.5 0.77937 -1.341951 1.06066 -1.06066 c
1.341951 -0.77937 1.5 -0.397805 1.5 0 c
1.5 0.397805 1.341951 0.77937 1.06066 1.06066 c
0.77937 1.341951 0.397805 1.5 0 1.5 c
-0.397805 1.5 -0.77937 1.341951 -1.06066 1.06066 c
-1.341951 0.77937 -1.5 0.397805 -1.5 0 c
-1.5 -0.397805 -1.341951 -0.77937 -1.06066 -1.06066 c
-0.77937 -1.341951 -0.397805 -1.5 0 -1.5 c
cl

gsave
0.173 0.627 0.173 setrgbcolor
fill
grestore
stroke
grestore
} bind def
362.829 116.538 o
grestore
0.000 setgray
gsave
380.829375 113.038500 translate
0.000000 rotate
0.000000 0.000000 m /y glyphshow
5.917969 0.000000 m /a glyphshow
12.045898 0.000000 m /w glyphshow
grestore

end
showpage
