%!PS-Adobe-3.0 EPSF-3.0
%%Title: figures/repeater_ls.eps
%%Creator: matplotlib version 2.0.0, http://matplotlib.org/
%%CreationDate: Mon Feb 27 22:19:24 2017
%%Orientation: portrait
%%BoundingBox: 75 223 536 568
%%EndComments
%%BeginProlog
/mpldict 8 dict def
mpldict begin
/m { moveto } bind def
/l { lineto } bind def
/r { rlineto } bind def
/c { curveto } bind def
/cl { closepath } bind def
/box {
m
1 index 0 r
0 exch r
neg 0 r
cl
} bind def
/clipbox {
box
clip
newpath
} bind def
%!PS-Adobe-3.0 Resource-Font
%%Title: DejaVu Sans
%%Copyright: Copyright (c) 2003 by Bitstream, Inc. All Rights Reserved. Copyright (c) 2006 by Tavmjong Bah. All Rights Reserved. DejaVu changes are in public domain 
%%Creator: Converted from TrueType to type 3 by PPR
25 dict begin
/_d{bind def}bind def
/_m{moveto}_d
/_l{lineto}_d
/_cl{closepath eofill}_d
/_c{curveto}_d
/_sc{7 -1 roll{setcachedevice}{pop pop pop pop pop pop}ifelse}_d
/_e{exec}_d
/FontName /DejaVuSans def
/PaintType 0 def
/FontMatrix[.001 0 0 .001 0 0]def
/FontBBox[-1021 -463 1793 1232]def
/FontType 3 def
/Encoding [ /space /zero /one /two /five /seven /E /P /S /bracketleft /bracketright /a /c /d /e /g /h /i /l /m /n /o /p /r /s /t /u /w /x /y /z /minus ] def
/FontInfo 10 dict dup begin
/FamilyName (DejaVu Sans) def
/FullName (DejaVu Sans) def
/Notice (Copyright (c) 2003 by Bitstream, Inc. All Rights Reserved. Copyright (c) 2006 by Tavmjong Bah. All Rights Reserved. DejaVu changes are in public domain ) def
/Weight (Book) def
/Version (Version 2.35) def
/ItalicAngle 0.0 def
/isFixedPitch false def
/UnderlinePosition -130 def
/UnderlineThickness 90 def
end readonly def
/CharStrings 32 dict dup begin
/space{318 0 0 0 0 0 _sc
}_d
/zero{636 0 66 -13 570 742 _sc
318 664 _m
267 664 229 639 203 589 _c
177 539 165 464 165 364 _c
165 264 177 189 203 139 _c
229 89 267 64 318 64 _c
369 64 407 89 433 139 _c
458 189 471 264 471 364 _c
471 464 458 539 433 589 _c
407 639 369 664 318 664 _c
318 742 _m
399 742 461 709 505 645 _c
548 580 570 486 570 364 _c
570 241 548 147 505 83 _c
461 19 399 -13 318 -13 _c
236 -13 173 19 130 83 _c
87 147 66 241 66 364 _c
66 486 87 580 130 645 _c
173 709 236 742 318 742 _c
_cl}_d
/one{636 0 110 0 544 729 _sc
124 83 _m
285 83 _l
285 639 _l
110 604 _l
110 694 _l
284 729 _l
383 729 _l
383 83 _l
544 83 _l
544 0 _l
124 0 _l
124 83 _l
_cl}_d
/two{{636 0 73 0 536 742 _sc
192 83 _m
536 83 _l
536 0 _l
73 0 _l
73 83 _l
110 121 161 173 226 239 _c
290 304 331 346 348 365 _c
380 400 402 430 414 455 _c
426 479 433 504 433 528 _c
433 566 419 598 392 622 _c
365 646 330 659 286 659 _c
255 659 222 653 188 643 _c
154 632 117 616 78 594 _c
78 694 _l
118 710 155 722 189 730 _c
223 738 255 742 284 742 _c
}_e{359 742 419 723 464 685 _c
509 647 532 597 532 534 _c
532 504 526 475 515 449 _c
504 422 484 390 454 354 _c
446 344 420 317 376 272 _c
332 227 271 164 192 83 _c
_cl}_e}_d
/five{{636 0 77 -13 549 729 _sc
108 729 _m
495 729 _l
495 646 _l
198 646 _l
198 467 _l
212 472 227 476 241 478 _c
255 480 270 482 284 482 _c
365 482 429 459 477 415 _c
525 370 549 310 549 234 _c
549 155 524 94 475 51 _c
426 8 357 -13 269 -13 _c
238 -13 207 -10 175 -6 _c
143 -1 111 6 77 17 _c
77 116 _l
106 100 136 88 168 80 _c
199 72 232 69 267 69 _c
}_e{323 69 368 83 401 113 _c
433 143 450 183 450 234 _c
450 284 433 324 401 354 _c
368 384 323 399 267 399 _c
241 399 214 396 188 390 _c
162 384 135 375 108 363 _c
108 729 _l
_cl}_e}_d
/seven{636 0 82 0 551 729 _sc
82 729 _m
551 729 _l
551 687 _l
286 0 _l
183 0 _l
432 646 _l
82 646 _l
82 729 _l
_cl}_d
/E{632 0 98 0 568 729 _sc
98 729 _m
559 729 _l
559 646 _l
197 646 _l
197 430 _l
544 430 _l
544 347 _l
197 347 _l
197 83 _l
568 83 _l
568 0 _l
98 0 _l
98 729 _l
_cl}_d
/P{603 0 98 0 569 729 _sc
197 648 _m
197 374 _l
321 374 _l
367 374 402 385 427 409 _c
452 433 465 467 465 511 _c
465 555 452 588 427 612 _c
402 636 367 648 321 648 _c
197 648 _l
98 729 _m
321 729 _l
402 729 464 710 506 673 _c
548 636 569 582 569 511 _c
569 439 548 384 506 348 _c
464 311 402 293 321 293 _c
197 293 _l
197 0 _l
98 0 _l
98 729 _l
_cl}_d
/S{{635 0 66 -13 579 742 _sc
535 705 _m
535 609 _l
497 627 462 640 429 649 _c
395 657 363 662 333 662 _c
279 662 237 651 208 631 _c
179 610 165 580 165 542 _c
165 510 174 485 194 469 _c
213 452 250 439 304 429 _c
364 417 _l
437 403 491 378 526 343 _c
561 307 579 260 579 201 _c
579 130 555 77 508 41 _c
460 5 391 -13 300 -13 _c
265 -13 228 -9 189 -2 _c
}_e{150 5 110 16 69 32 _c
69 134 _l
109 111 148 94 186 83 _c
224 71 262 66 300 66 _c
356 66 399 77 430 99 _c
460 121 476 152 476 194 _c
476 230 465 258 443 278 _c
421 298 385 313 335 323 _c
275 335 _l
201 349 148 372 115 404 _c
82 435 66 478 66 534 _c
66 598 88 649 134 686 _c
179 723 242 742 322 742 _c
356 742 390 739 426 733 _c
461 727 497 717 535 705 _c
}_e{_cl}_e}_d
/bracketleft{390 0 86 -131 293 760 _sc
86 760 _m
293 760 _l
293 690 _l
176 690 _l
176 -61 _l
293 -61 _l
293 -131 _l
86 -131 _l
86 760 _l
_cl}_d
/bracketright{390 0 97 -131 304 760 _sc
304 760 _m
304 -131 _l
97 -131 _l
97 -61 _l
214 -61 _l
214 690 _l
97 690 _l
97 760 _l
304 760 _l
_cl}_d
/a{{613 0 60 -13 522 560 _sc
343 275 _m
270 275 220 266 192 250 _c
164 233 150 205 150 165 _c
150 133 160 107 181 89 _c
202 70 231 61 267 61 _c
317 61 357 78 387 114 _c
417 149 432 196 432 255 _c
432 275 _l
343 275 _l
522 312 _m
522 0 _l
432 0 _l
432 83 _l
411 49 385 25 355 10 _c
325 -5 287 -13 243 -13 _c
187 -13 142 2 109 33 _c
76 64 60 106 60 159 _c
}_e{60 220 80 266 122 298 _c
163 329 224 345 306 345 _c
432 345 _l
432 354 _l
432 395 418 427 391 450 _c
364 472 326 484 277 484 _c
245 484 215 480 185 472 _c
155 464 127 453 100 439 _c
100 522 _l
132 534 164 544 195 550 _c
226 556 256 560 286 560 _c
365 560 424 539 463 498 _c
502 457 522 395 522 312 _c
_cl}_e}_d
/c{{550 0 55 -13 488 560 _sc
488 526 _m
488 442 _l
462 456 437 466 411 473 _c
385 480 360 484 334 484 _c
276 484 230 465 198 428 _c
166 391 150 339 150 273 _c
150 206 166 154 198 117 _c
230 80 276 62 334 62 _c
360 62 385 65 411 72 _c
437 79 462 90 488 104 _c
488 21 _l
462 9 436 0 410 -5 _c
383 -10 354 -13 324 -13 _c
242 -13 176 12 128 64 _c
}_e{79 115 55 185 55 273 _c
55 362 79 432 128 483 _c
177 534 244 560 330 560 _c
358 560 385 557 411 551 _c
437 545 463 537 488 526 _c
_cl}_e}_d
/d{{635 0 55 -13 544 760 _sc
454 464 _m
454 760 _l
544 760 _l
544 0 _l
454 0 _l
454 82 _l
435 49 411 25 382 10 _c
353 -5 319 -13 279 -13 _c
213 -13 159 13 117 65 _c
75 117 55 187 55 273 _c
55 359 75 428 117 481 _c
159 533 213 560 279 560 _c
319 560 353 552 382 536 _c
411 520 435 496 454 464 _c
148 273 _m
148 207 161 155 188 117 _c
215 79 253 61 301 61 _c
}_e{348 61 385 79 413 117 _c
440 155 454 207 454 273 _c
454 339 440 390 413 428 _c
385 466 348 485 301 485 _c
253 485 215 466 188 428 _c
161 390 148 339 148 273 _c
_cl}_e}_d
/e{{615 0 55 -13 562 560 _sc
562 296 _m
562 252 _l
149 252 _l
153 190 171 142 205 110 _c
238 78 284 62 344 62 _c
378 62 412 66 444 74 _c
476 82 509 95 541 113 _c
541 28 _l
509 14 476 3 442 -3 _c
408 -9 373 -13 339 -13 _c
251 -13 182 12 131 62 _c
80 112 55 181 55 268 _c
55 357 79 428 127 481 _c
175 533 241 560 323 560 _c
397 560 455 536 498 489 _c
}_e{540 441 562 377 562 296 _c
472 322 _m
471 371 457 410 431 440 _c
404 469 368 484 324 484 _c
274 484 234 469 204 441 _c
174 413 156 373 152 322 _c
472 322 _l
_cl}_e}_d
/g{{635 0 55 -207 544 560 _sc
454 280 _m
454 344 440 395 414 431 _c
387 467 349 485 301 485 _c
253 485 215 467 188 431 _c
161 395 148 344 148 280 _c
148 215 161 165 188 129 _c
215 93 253 75 301 75 _c
349 75 387 93 414 129 _c
440 165 454 215 454 280 _c
544 68 _m
544 -24 523 -93 482 -139 _c
440 -184 377 -207 292 -207 _c
260 -207 231 -204 203 -200 _c
175 -195 147 -188 121 -178 _c
}_e{121 -91 _l
147 -105 173 -115 199 -122 _c
225 -129 251 -133 278 -133 _c
336 -133 380 -117 410 -87 _c
439 -56 454 -10 454 52 _c
454 96 _l
435 64 411 40 382 24 _c
353 8 319 0 279 0 _c
211 0 157 25 116 76 _c
75 127 55 195 55 280 _c
55 364 75 432 116 483 _c
157 534 211 560 279 560 _c
319 560 353 552 382 536 _c
411 520 435 496 454 464 _c
454 547 _l
544 547 _l
}_e{544 68 _l
_cl}_e}_d
/h{634 0 91 0 549 760 _sc
549 330 _m
549 0 _l
459 0 _l
459 327 _l
459 379 448 417 428 443 _c
408 469 378 482 338 482 _c
289 482 251 466 223 435 _c
195 404 181 362 181 309 _c
181 0 _l
91 0 _l
91 760 _l
181 760 _l
181 462 _l
202 494 227 519 257 535 _c
286 551 320 560 358 560 _c
420 560 468 540 500 501 _c
532 462 549 405 549 330 _c
_cl}_d
/i{278 0 94 0 184 760 _sc
94 547 _m
184 547 _l
184 0 _l
94 0 _l
94 547 _l
94 760 _m
184 760 _l
184 646 _l
94 646 _l
94 760 _l
_cl}_d
/l{278 0 94 0 184 760 _sc
94 760 _m
184 760 _l
184 0 _l
94 0 _l
94 760 _l
_cl}_d
/m{{974 0 91 0 889 560 _sc
520 442 _m
542 482 569 511 600 531 _c
631 550 668 560 711 560 _c
767 560 811 540 842 500 _c
873 460 889 403 889 330 _c
889 0 _l
799 0 _l
799 327 _l
799 379 789 418 771 444 _c
752 469 724 482 686 482 _c
639 482 602 466 575 435 _c
548 404 535 362 535 309 _c
535 0 _l
445 0 _l
445 327 _l
445 379 435 418 417 444 _c
398 469 369 482 331 482 _c
}_e{285 482 248 466 221 435 _c
194 404 181 362 181 309 _c
181 0 _l
91 0 _l
91 547 _l
181 547 _l
181 462 _l
201 495 226 520 255 536 _c
283 552 317 560 357 560 _c
397 560 430 550 458 530 _c
486 510 506 480 520 442 _c
_cl}_e}_d
/n{634 0 91 0 549 560 _sc
549 330 _m
549 0 _l
459 0 _l
459 327 _l
459 379 448 417 428 443 _c
408 469 378 482 338 482 _c
289 482 251 466 223 435 _c
195 404 181 362 181 309 _c
181 0 _l
91 0 _l
91 547 _l
181 547 _l
181 462 _l
202 494 227 519 257 535 _c
286 551 320 560 358 560 _c
420 560 468 540 500 501 _c
532 462 549 405 549 330 _c
_cl}_d
/o{612 0 55 -13 557 560 _sc
306 484 _m
258 484 220 465 192 427 _c
164 389 150 338 150 273 _c
150 207 163 156 191 118 _c
219 80 257 62 306 62 _c
354 62 392 80 420 118 _c
448 156 462 207 462 273 _c
462 337 448 389 420 427 _c
392 465 354 484 306 484 _c
306 560 _m
384 560 445 534 490 484 _c
534 433 557 363 557 273 _c
557 183 534 113 490 63 _c
445 12 384 -13 306 -13 _c
227 -13 165 12 121 63 _c
77 113 55 183 55 273 _c
55 363 77 433 121 484 _c
165 534 227 560 306 560 _c
_cl}_d
/p{{635 0 91 -207 580 560 _sc
181 82 _m
181 -207 _l
91 -207 _l
91 547 _l
181 547 _l
181 464 _l
199 496 223 520 252 536 _c
281 552 316 560 356 560 _c
422 560 476 533 518 481 _c
559 428 580 359 580 273 _c
580 187 559 117 518 65 _c
476 13 422 -13 356 -13 _c
316 -13 281 -5 252 10 _c
223 25 199 49 181 82 _c
487 273 _m
487 339 473 390 446 428 _c
418 466 381 485 334 485 _c
}_e{286 485 249 466 222 428 _c
194 390 181 339 181 273 _c
181 207 194 155 222 117 _c
249 79 286 61 334 61 _c
381 61 418 79 446 117 _c
473 155 487 207 487 273 _c
_cl}_e}_d
/r{411 0 91 0 411 560 _sc
411 463 _m
401 469 390 473 378 476 _c
366 478 353 480 339 480 _c
288 480 249 463 222 430 _c
194 397 181 350 181 288 _c
181 0 _l
91 0 _l
91 547 _l
181 547 _l
181 462 _l
199 495 224 520 254 536 _c
284 552 321 560 365 560 _c
371 560 378 559 386 559 _c
393 558 401 557 411 555 _c
411 463 _l
_cl}_d
/s{{521 0 54 -13 472 560 _sc
443 531 _m
443 446 _l
417 458 391 468 364 475 _c
336 481 308 485 279 485 _c
234 485 200 478 178 464 _c
156 450 145 430 145 403 _c
145 382 153 366 169 354 _c
185 342 217 330 265 320 _c
296 313 _l
360 299 405 279 432 255 _c
458 230 472 195 472 151 _c
472 100 452 60 412 31 _c
372 1 316 -13 246 -13 _c
216 -13 186 -10 154 -5 _c
}_e{122 0 89 8 54 20 _c
54 113 _l
87 95 120 82 152 74 _c
184 65 216 61 248 61 _c
290 61 323 68 346 82 _c
368 96 380 117 380 144 _c
380 168 371 187 355 200 _c
339 213 303 226 247 238 _c
216 245 _l
160 257 119 275 95 299 _c
70 323 58 356 58 399 _c
58 450 76 490 112 518 _c
148 546 200 560 268 560 _c
301 560 332 557 362 552 _c
391 547 418 540 443 531 _c
}_e{_cl}_e}_d
/t{392 0 27 0 368 702 _sc
183 702 _m
183 547 _l
368 547 _l
368 477 _l
183 477 _l
183 180 _l
183 135 189 106 201 94 _c
213 81 238 75 276 75 _c
368 75 _l
368 0 _l
276 0 _l
206 0 158 13 132 39 _c
106 65 93 112 93 180 _c
93 477 _l
27 477 _l
27 547 _l
93 547 _l
93 702 _l
183 702 _l
_cl}_d
/u{634 0 85 -13 543 560 _sc
85 216 _m
85 547 _l
175 547 _l
175 219 _l
175 167 185 129 205 103 _c
225 77 255 64 296 64 _c
344 64 383 79 411 110 _c
439 141 453 183 453 237 _c
453 547 _l
543 547 _l
543 0 _l
453 0 _l
453 84 _l
431 50 405 26 377 10 _c
348 -5 315 -13 277 -13 _c
214 -13 166 6 134 45 _c
101 83 85 140 85 216 _c
311 560 _m
311 560 _l
_cl}_d
/w{818 0 42 0 776 547 _sc
42 547 _m
132 547 _l
244 120 _l
356 547 _l
462 547 _l
574 120 _l
686 547 _l
776 547 _l
633 0 _l
527 0 _l
409 448 _l
291 0 _l
185 0 _l
42 547 _l
_cl}_d
/x{592 0 29 0 559 547 _sc
549 547 _m
351 281 _l
559 0 _l
453 0 _l
294 215 _l
135 0 _l
29 0 _l
241 286 _l
47 547 _l
153 547 _l
298 352 _l
443 547 _l
549 547 _l
_cl}_d
/y{592 0 30 -207 562 547 _sc
322 -50 _m
296 -114 271 -157 247 -177 _c
223 -197 191 -207 151 -207 _c
79 -207 _l
79 -132 _l
132 -132 _l
156 -132 175 -126 189 -114 _c
203 -102 218 -75 235 -31 _c
251 9 _l
30 547 _l
125 547 _l
296 119 _l
467 547 _l
562 547 _l
322 -50 _l
_cl}_d
/z{525 0 43 0 482 547 _sc
55 547 _m
482 547 _l
482 465 _l
144 72 _l
482 72 _l
482 0 _l
43 0 _l
43 82 _l
381 475 _l
55 475 _l
55 547 _l
_cl}_d
/minus{838 0 106 272 732 355 _sc
106 355 _m
732 355 _l
732 272 _l
106 272 _l
106 355 _l
_cl}_d
end readonly def

/BuildGlyph
 {exch begin
 CharStrings exch
 2 copy known not{pop /.notdef}if
 true 3 1 roll get exec
 end}_d

/BuildChar {
 1 index /Encoding get exch get
 1 index /BuildGlyph get exec
}_d

FontName currentdict end definefont pop
end
%%EndProlog
mpldict begin
75.6 223.2 translate
460.8 345.6 0 0 clipbox
gsave
0 0 m
460.8 0 l
460.8 345.6 l
0 345.6 l
cl
1.000 setgray
fill
grestore
gsave
57.6 183.168 m
414.72 183.168 l
414.72 304.128 l
57.6 304.128 l
cl
1.000 setgray
fill
grestore
0.800 setlinewidth
1 setlinejoin
2 setlinecap
[] 0 setdash
0.690 setgray
gsave
357.1 121 57.6 183.2 clipbox
73.832727 183.168 m
73.832727 304.128 l
stroke
grestore
0 setlinecap
0.000 setgray
gsave
/o {
gsave
newpath
translate
0.8 setlinewidth
1 setlinejoin
0 setlinecap
0 0 m
0 -3.5 l

gsave
0.000 setgray
fill
grestore
stroke
grestore
} bind def
73.8327 183.168 o
grestore
/DejaVuSans findfont
10.000 scalefont
setfont
gsave
70.653040 168.574250 translate
0.000000 rotate
0.000000 0.000000 m /zero glyphshow
grestore
2 setlinecap
0.690 setgray
gsave
357.1 121 57.6 183.2 clipbox
114.618474 183.168 m
114.618474 304.128 l
stroke
grestore
0 setlinecap
0.000 setgray
gsave
/o {
gsave
newpath
translate
0.8 setlinewidth
1 setlinejoin
0 setlinecap
0 0 m
0 -3.5 l

gsave
0.000 setgray
fill
grestore
stroke
grestore
} bind def
114.618 183.168 o
grestore
gsave
108.259099 168.574250 translate
0.000000 rotate
0.000000 0.000000 m /two glyphshow
6.362305 0.000000 m /five glyphshow
grestore
2 setlinecap
0.690 setgray
gsave
357.1 121 57.6 183.2 clipbox
155.404221 183.168 m
155.404221 304.128 l
stroke
grestore
0 setlinecap
0.000 setgray
gsave
/o {
gsave
newpath
translate
0.8 setlinewidth
1 setlinejoin
0 setlinecap
0 0 m
0 -3.5 l

gsave
0.000 setgray
fill
grestore
stroke
grestore
} bind def
155.404 183.168 o
grestore
gsave
149.044846 168.574250 translate
0.000000 rotate
0.000000 0.000000 m /five glyphshow
6.362305 0.000000 m /zero glyphshow
grestore
2 setlinecap
0.690 setgray
gsave
357.1 121 57.6 183.2 clipbox
196.189968 183.168 m
196.189968 304.128 l
stroke
grestore
0 setlinecap
0.000 setgray
gsave
/o {
gsave
newpath
translate
0.8 setlinewidth
1 setlinejoin
0 setlinecap
0 0 m
0 -3.5 l

gsave
0.000 setgray
fill
grestore
stroke
grestore
} bind def
196.19 183.168 o
grestore
gsave
189.830593 168.574250 translate
0.000000 rotate
0.000000 0.000000 m /seven glyphshow
6.362305 0.000000 m /five glyphshow
grestore
2 setlinecap
0.690 setgray
gsave
357.1 121 57.6 183.2 clipbox
236.975715 183.168 m
236.975715 304.128 l
stroke
grestore
0 setlinecap
0.000 setgray
gsave
/o {
gsave
newpath
translate
0.8 setlinewidth
1 setlinejoin
0 setlinecap
0 0 m
0 -3.5 l

gsave
0.000 setgray
fill
grestore
stroke
grestore
} bind def
236.976 183.168 o
grestore
gsave
227.436652 168.574250 translate
0.000000 rotate
0.000000 0.000000 m /one glyphshow
6.362305 0.000000 m /zero glyphshow
12.724609 0.000000 m /zero glyphshow
grestore
2 setlinecap
0.690 setgray
gsave
357.1 121 57.6 183.2 clipbox
277.761462 183.168 m
277.761462 304.128 l
stroke
grestore
0 setlinecap
0.000 setgray
gsave
/o {
gsave
newpath
translate
0.8 setlinewidth
1 setlinejoin
0 setlinecap
0 0 m
0 -3.5 l

gsave
0.000 setgray
fill
grestore
stroke
grestore
} bind def
277.761 183.168 o
grestore
gsave
268.222399 168.574250 translate
0.000000 rotate
0.000000 0.000000 m /one glyphshow
6.362305 0.000000 m /two glyphshow
12.724609 0.000000 m /five glyphshow
grestore
2 setlinecap
0.690 setgray
gsave
357.1 121 57.6 183.2 clipbox
318.547209 183.168 m
318.547209 304.128 l
stroke
grestore
0 setlinecap
0.000 setgray
gsave
/o {
gsave
newpath
translate
0.8 setlinewidth
1 setlinejoin
0 setlinecap
0 0 m
0 -3.5 l

gsave
0.000 setgray
fill
grestore
stroke
grestore
} bind def
318.547 183.168 o
grestore
gsave
309.008146 168.574250 translate
0.000000 rotate
0.000000 0.000000 m /one glyphshow
6.362305 0.000000 m /five glyphshow
12.724609 0.000000 m /zero glyphshow
grestore
2 setlinecap
0.690 setgray
gsave
357.1 121 57.6 183.2 clipbox
359.332956 183.168 m
359.332956 304.128 l
stroke
grestore
0 setlinecap
0.000 setgray
gsave
/o {
gsave
newpath
translate
0.8 setlinewidth
1 setlinejoin
0 setlinecap
0 0 m
0 -3.5 l

gsave
0.000 setgray
fill
grestore
stroke
grestore
} bind def
359.333 183.168 o
grestore
gsave
349.793893 168.574250 translate
0.000000 rotate
0.000000 0.000000 m /one glyphshow
6.362305 0.000000 m /seven glyphshow
12.724609 0.000000 m /five glyphshow
grestore
2 setlinecap
0.690 setgray
gsave
357.1 121 57.6 183.2 clipbox
400.118703 183.168 m
400.118703 304.128 l
stroke
grestore
0 setlinecap
0.000 setgray
gsave
/o {
gsave
newpath
translate
0.8 setlinewidth
1 setlinejoin
0 setlinecap
0 0 m
0 -3.5 l

gsave
0.000 setgray
fill
grestore
stroke
grestore
} bind def
400.119 183.168 o
grestore
gsave
390.579640 168.574250 translate
0.000000 rotate
0.000000 0.000000 m /two glyphshow
6.362305 0.000000 m /zero glyphshow
12.724609 0.000000 m /zero glyphshow
grestore
gsave
217.410000 154.902375 translate
0.000000 rotate
0.000000 0.000000 m /S glyphshow
6.347656 0.000000 m /a glyphshow
12.475586 0.000000 m /m glyphshow
22.216797 0.000000 m /p glyphshow
28.564453 0.000000 m /l glyphshow
31.342773 0.000000 m /e glyphshow
grestore
2 setlinecap
0.690 setgray
gsave
357.1 121 57.6 183.2 clipbox
57.6 208.156737 m
414.72 208.156737 l
stroke
grestore
0 setlinecap
0.000 setgray
gsave
/o {
gsave
newpath
translate
0.8 setlinewidth
1 setlinejoin
0 setlinecap
0 0 m
-3.5 0 l

gsave
0.000 setgray
fill
grestore
stroke
grestore
} bind def
57.6 208.157 o
grestore
gsave
35.865625 204.359862 translate
0.000000 rotate
0.000000 0.000000 m /minus glyphshow
8.378906 0.000000 m /five glyphshow
grestore
2 setlinecap
0.690 setgray
gsave
357.1 121 57.6 183.2 clipbox
57.6 236.802954 m
414.72 236.802954 l
stroke
grestore
0 setlinecap
0.000 setgray
gsave
/o {
gsave
newpath
translate
0.8 setlinewidth
1 setlinejoin
0 setlinecap
0 0 m
-3.5 0 l

gsave
0.000 setgray
fill
grestore
stroke
grestore
} bind def
57.6 236.803 o
grestore
gsave
44.240625 233.006079 translate
0.000000 rotate
0.000000 0.000000 m /zero glyphshow
grestore
2 setlinecap
0.690 setgray
gsave
357.1 121 57.6 183.2 clipbox
57.6 265.449171 m
414.72 265.449171 l
stroke
grestore
0 setlinecap
0.000 setgray
gsave
/o {
gsave
newpath
translate
0.8 setlinewidth
1 setlinejoin
0 setlinecap
0 0 m
-3.5 0 l

gsave
0.000 setgray
fill
grestore
stroke
grestore
} bind def
57.6 265.449 o
grestore
gsave
44.240625 261.652296 translate
0.000000 rotate
0.000000 0.000000 m /five glyphshow
grestore
2 setlinecap
0.690 setgray
gsave
357.1 121 57.6 183.2 clipbox
57.6 294.095388 m
414.72 294.095388 l
stroke
grestore
0 setlinecap
0.000 setgray
gsave
/o {
gsave
newpath
translate
0.8 setlinewidth
1 setlinejoin
0 setlinecap
0 0 m
-3.5 0 l

gsave
0.000 setgray
fill
grestore
stroke
grestore
} bind def
57.6 294.095 o
grestore
gsave
37.881250 290.298513 translate
0.000000 rotate
0.000000 0.000000 m /one glyphshow
6.362305 0.000000 m /zero glyphshow
grestore
gsave
29.787500 213.608937 translate
90.000000 rotate
0.000000 0.000000 m /P glyphshow
6.030273 0.000000 m /o glyphshow
12.148438 0.000000 m /s glyphshow
17.358398 0.000000 m /i glyphshow
20.136719 0.000000 m /t glyphshow
24.057617 0.000000 m /i glyphshow
26.835938 0.000000 m /o glyphshow
32.954102 0.000000 m /n glyphshow
39.291992 0.000000 m /space glyphshow
42.470703 0.000000 m /bracketleft glyphshow
46.372070 0.000000 m /m glyphshow
56.113281 0.000000 m /bracketright glyphshow
grestore
1.500 setlinewidth
2 setlinecap
0.122 0.467 0.706 setrgbcolor
gsave
357.1 121 57.6 183.2 clipbox
73.832727 239.667576 m
85.252736 241.564183 l
93.409886 242.674205 l
99.935605 243.340771 l
106.461325 243.762791 l
112.987044 243.902682 l
117.881334 243.803891 l
122.775624 243.519322 l
127.669913 243.041909 l
132.564203 242.367503 l
137.458492 241.494987 l
142.352782 240.426348 l
147.247072 239.166712 l
152.141361 237.72434 l
158.667081 235.536966 l
165.1928 233.080379 l
171.71852 230.398608 l
179.875669 226.80987 l
209.241407 213.59259 l
215.767127 211.036694 l
220.661416 209.311992 l
225.555706 207.785484 l
230.449995 206.485835 l
235.344285 205.439975 l
240.238575 204.672718 l
245.132864 204.206405 l
250.027154 204.060564 l
253.290014 204.149613 l
256.552873 204.392481 l
259.815733 204.79249 l
263.078593 205.352224 l
266.341453 206.0735 l
269.604312 206.957348 l
272.867172 208.003993 l
276.130032 209.212831 l
281.024322 211.326831 l
285.918611 213.793928 l
290.812901 216.601429 l
295.70719 219.732388 l
300.60148 223.165679 l
305.49577 226.876132 l
310.390059 230.834699 l
316.915779 236.441738 l
323.441498 242.344633 l
333.230078 251.541425 l
347.912947 265.391952 l
354.438666 271.277121 l
360.964386 276.831573 l
365.858675 280.711511 l
370.752965 284.294237 l
375.647254 287.534727 l
378.910114 289.483721 l
382.172974 291.249595 l
385.435834 292.820995 l
388.698693 294.187253 l
391.961553 295.338445 l
395.224413 296.265452 l
398.487273 296.960009 l
398.487273 296.960009 l
stroke
grestore
1.000 0.498 0.055 setrgbcolor
gsave
357.1 121 57.6 183.2 clipbox
73.832727 236.802954 m
80.358447 237.308837 l
86.884166 238.094463 l
93.409886 239.140422 l
99.935605 240.418684 l
108.092755 242.287609 l
117.881334 244.812525 l
142.352782 251.313904 l
148.878502 252.798275 l
155.404221 254.062122 l
161.929941 255.048752 l
166.82423 255.575169 l
171.71852 255.896212 l
176.61281 255.994119 l
181.507099 255.853595 l
186.401389 255.462079 l
191.295678 254.809977 l
196.189968 253.890869 l
201.084258 252.701675 l
205.978547 251.242785 l
210.872837 249.518145 l
215.767127 247.535307 l
220.661416 245.305431 l
225.555706 242.843243 l
230.449995 240.166952 l
236.975715 236.303244 l
243.501434 232.15742 l
251.658584 226.684198 l
279.392892 207.743672 l
285.918611 203.727025 l
290.812901 200.946612 l
295.70719 198.407471 l
300.60148 196.146188 l
305.49577 194.197456 l
308.75863 193.088026 l
312.021489 192.140865 l
315.284349 191.364296 l
318.547209 190.765991 l
321.810069 190.352924 l
325.072928 190.131323 l
328.335788 190.106627 l
331.598648 190.283447 l
334.861508 190.665531 l
338.124367 191.255727 l
341.387227 192.05596 l
344.650087 193.067202 l
347.912947 194.289455 l
351.175806 195.721732 l
354.438666 197.36205 l
357.701526 199.207418 l
360.964386 201.253836 l
364.227245 203.496302 l
367.490105 205.928812 l
372.384395 209.91836 l
377.278684 214.291911 l
382.172974 219.01709 l
387.067264 224.057029 l
391.961553 229.370645 l
398.487273 236.802954 l
398.487273 236.802954 l
stroke
grestore
0.173 0.627 0.173 setrgbcolor
gsave
357.1 121 57.6 183.2 clipbox
73.832727 239.667576 m
398.487273 296.960009 l
398.487273 296.960009 l
stroke
grestore
1.000 setlinewidth
0 setlinecap
0.839 0.153 0.157 setrgbcolor
gsave
357.1 121 57.6 183.2 clipbox
/o {
gsave
newpath
translate
1.0 setlinewidth
1 setlinejoin
0 setlinecap
0 -1.5 m
0.397805 -1.5 0.77937 -1.341951 1.06066 -1.06066 c
1.341951 -0.77937 1.5 -0.397805 1.5 0 c
1.5 0.397805 1.341951 0.77937 1.06066 1.06066 c
0.77937 1.341951 0.397805 1.5 0 1.5 c
-0.397805 1.5 -0.77937 1.341951 -1.06066 1.06066 c
-1.341951 0.77937 -1.5 0.397805 -1.5 0 c
-1.5 -0.397805 -1.341951 -0.77937 -1.06066 -1.06066 c
-0.77937 -1.341951 -0.397805 -1.5 0 -1.5 c
cl

gsave
0.839 0.153 0.157 setrgbcolor
fill
grestore
stroke
grestore
} bind def
73.8327 239.671 o
75.4642 240.132 o
77.0956 240.093 o
78.727 240.672 o
80.3584 240.649 o
81.9899 241.04 o
83.6213 241.532 o
85.2527 241.225 o
86.8842 241.83 o
88.5156 241.911 o
90.147 242.08 o
91.7785 242.377 o
93.4099 242.789 o
95.0413 242.819 o
96.6727 243.294 o
98.3042 243.411 o
99.9356 243.445 o
101.567 243.486 o
103.198 243.62 o
104.83 243.769 o
106.461 243.516 o
108.093 243.865 o
109.724 243.735 o
111.356 243.756 o
112.987 243.764 o
114.618 243.59 o
116.25 243.798 o
117.881 243.874 o
119.513 243.431 o
121.144 243.969 o
122.776 243.567 o
124.407 243.413 o
126.038 243.021 o
127.67 242.674 o
129.301 243.099 o
130.933 243.085 o
132.564 242.761 o
134.196 241.67 o
135.827 241.723 o
137.458 241.478 o
139.09 241.358 o
140.721 240.724 o
142.353 241.169 o
143.984 240.122 o
145.616 239.508 o
147.247 239.592 o
148.879 238.885 o
150.51 237.455 o
152.141 238.257 o
153.773 237.598 o
155.404 236.299 o
157.036 236.583 o
158.667 236.577 o
160.299 234.097 o
161.93 234.893 o
163.561 233.209 o
165.193 232.163 o
166.824 231.89 o
168.456 231.821 o
170.087 232.387 o
171.719 231.003 o
173.35 229.759 o
174.981 228.61 o
176.613 228 o
178.244 228.217 o
179.876 226.609 o
181.507 226.747 o
183.139 225.894 o
184.77 224.513 o
186.401 224.152 o
188.033 222.662 o
189.664 222.191 o
191.296 220.375 o
192.927 221.677 o
194.559 219.604 o
196.19 219.211 o
197.821 219.096 o
199.453 218.014 o
201.084 217.256 o
202.716 216.239 o
204.347 215.028 o
205.979 214.214 o
207.61 213.552 o
209.241 213.542 o
210.873 212.845 o
212.504 213.518 o
214.136 210.728 o
215.767 210.331 o
217.399 210.865 o
219.03 209.998 o
220.661 207.65 o
222.293 208.445 o
223.924 209.825 o
225.556 209.25 o
227.187 206.93 o
228.819 207.57 o
230.45 206.182 o
232.081 206.696 o
233.713 204.7 o
235.344 205.516 o
236.976 204.779 o
238.607 204.708 o
240.239 204.511 o
241.87 204.445 o
243.501 207.617 o
245.133 202.72 o
246.764 204.278 o
248.396 203.992 o
250.027 203.258 o
251.659 202.375 o
253.29 203.643 o
254.921 203.794 o
256.553 202.408 o
258.184 202.424 o
259.816 205.514 o
261.447 203.986 o
263.079 205.732 o
264.71 205.594 o
266.341 204.02 o
267.973 206.437 o
269.604 206.638 o
271.236 207.252 o
272.867 207.808 o
274.499 209.84 o
276.13 209.482 o
277.761 207.77 o
279.393 210.928 o
281.024 210.673 o
282.656 213.425 o
284.287 214.876 o
285.919 215.598 o
287.55 214.005 o
289.181 217.393 o
290.813 216.63 o
292.444 216.594 o
294.076 215.831 o
295.707 219.005 o
297.339 222.401 o
298.97 221.412 o
300.601 222.576 o
302.233 224.182 o
303.864 227.134 o
305.496 227.399 o
307.127 227.071 o
308.759 228.397 o
310.39 229.482 o
312.021 232.279 o
313.653 231.188 o
315.284 232.886 o
316.916 234.446 o
318.547 237.956 o
320.179 237.777 o
321.81 239.846 o
323.441 242.144 o
325.073 244.498 o
326.704 243.508 o
328.336 243.314 o
329.967 249.455 o
331.599 250.501 o
333.23 249.087 o
334.862 250.193 o
336.493 253.683 o
338.124 256.247 o
339.756 256.293 o
341.387 256.564 o
343.019 259.059 o
344.65 258.366 o
346.282 261.922 o
347.913 264.836 o
349.544 265.978 o
351.176 267.971 o
352.807 269.125 o
354.439 272.415 o
356.07 271.234 o
357.702 270.971 o
359.333 274.852 o
360.964 274.591 o
362.596 275.069 o
364.227 278.858 o
365.859 279.731 o
367.49 282.623 o
369.122 282.622 o
370.753 283.072 o
372.384 283.958 o
374.016 282.712 o
375.647 286.085 o
377.279 289.09 o
378.91 287.55 o
380.542 289.257 o
382.173 291.747 o
383.804 290.521 o
385.436 291.909 o
387.067 293.167 o
388.699 295.105 o
390.33 294.687 o
391.962 294.978 o
393.593 295.546 o
395.224 296.718 o
396.856 293.869 o
398.487 296.765 o
grestore
0.580 0.404 0.741 setrgbcolor
gsave
357.1 121 57.6 183.2 clipbox
/o {
gsave
newpath
translate
1.0 setlinewidth
1 setlinejoin
0 setlinecap
0 -1.5 m
0.397805 -1.5 0.77937 -1.341951 1.06066 -1.06066 c
1.341951 -0.77937 1.5 -0.397805 1.5 0 c
1.5 0.397805 1.341951 0.77937 1.06066 1.06066 c
0.77937 1.341951 0.397805 1.5 0 1.5 c
-0.397805 1.5 -0.77937 1.341951 -1.06066 1.06066 c
-1.341951 0.77937 -1.5 0.397805 -1.5 0 c
-1.5 -0.397805 -1.341951 -0.77937 -1.06066 -1.06066 c
-0.77937 -1.341951 -0.397805 -1.5 0 -1.5 c
cl

gsave
0.580 0.404 0.741 setrgbcolor
fill
grestore
stroke
grestore
} bind def
73.8327 236.521 o
75.4642 237.019 o
77.0956 236.946 o
78.727 237.227 o
80.3584 237.105 o
81.9899 237.684 o
83.6213 237.463 o
85.2527 238.149 o
86.8842 237.742 o
88.5156 238.441 o
90.147 238.828 o
91.7785 239.216 o
93.4099 239.107 o
95.0413 239.48 o
96.6727 239.417 o
98.3042 239.638 o
99.9356 240.285 o
101.567 240.689 o
103.198 240.869 o
104.83 241.521 o
106.461 242.097 o
108.093 242.049 o
109.724 242.865 o
111.356 243.165 o
112.987 243.43 o
114.618 244.564 o
116.25 244.601 o
117.881 244.81 o
119.513 245.64 o
121.144 245.867 o
122.776 245.921 o
124.407 246.763 o
126.038 247.31 o
127.67 247.673 o
129.301 247.728 o
130.933 248.495 o
132.564 248.862 o
134.196 249.602 o
135.827 249.568 o
137.458 250.633 o
139.09 250.652 o
140.721 251.656 o
142.353 251.253 o
143.984 251.956 o
145.616 251.903 o
147.247 252.341 o
148.879 252.925 o
150.51 253.703 o
152.141 253.82 o
153.773 254.37 o
155.404 254.275 o
157.036 254.358 o
158.667 254.491 o
160.299 254.62 o
161.93 254.563 o
163.561 255.03 o
165.193 255.573 o
166.824 255.936 o
168.456 255.606 o
170.087 258 o
171.719 256.729 o
173.35 256.156 o
174.981 256.477 o
176.613 256.342 o
178.244 255.859 o
179.876 256.147 o
181.507 256.715 o
183.139 255.748 o
184.77 256.694 o
186.401 255.566 o
188.033 254.813 o
189.664 255.336 o
191.296 254.6 o
192.927 255.188 o
194.559 254.202 o
196.19 253.686 o
197.821 254.071 o
199.453 253.959 o
201.084 253.204 o
202.716 252.965 o
204.347 252.241 o
205.979 252.306 o
207.61 250.511 o
209.241 250.26 o
210.873 249.853 o
212.504 249.25 o
214.136 248.915 o
215.767 248.064 o
217.399 249.908 o
219.03 246.798 o
220.661 245.93 o
222.293 243.938 o
223.924 244.017 o
225.556 242.322 o
227.187 240.833 o
228.819 242.069 o
230.45 240.401 o
232.081 238.579 o
233.713 239.086 o
235.344 239.332 o
236.976 235.588 o
238.607 236.629 o
240.239 233.71 o
241.87 233.092 o
243.501 232.974 o
245.133 231.087 o
246.764 231.456 o
248.396 229.237 o
250.027 228.378 o
251.659 225.676 o
253.29 226.077 o
254.921 225.071 o
256.553 224.197 o
258.184 221.345 o
259.816 222.539 o
261.447 219.601 o
263.079 217.16 o
264.71 218.802 o
266.341 217.338 o
267.973 216.075 o
269.604 214.377 o
271.236 213.479 o
272.867 214.36 o
274.499 211.354 o
276.13 209.561 o
277.761 208.35 o
279.393 207.592 o
281.024 207.22 o
282.656 206.743 o
284.287 203.994 o
285.919 206.031 o
287.55 203.262 o
289.181 199.13 o
290.813 202.153 o
292.444 200.273 o
294.076 202.102 o
295.707 200.58 o
297.339 195.4 o
298.97 199.358 o
300.601 196.335 o
302.233 193.989 o
303.864 197.645 o
305.496 193.383 o
307.127 192.148 o
308.759 192.067 o
310.39 192.316 o
312.021 192.36 o
313.653 193.403 o
315.284 190.868 o
316.916 190.639 o
318.547 191.346 o
320.179 192.936 o
321.81 188.666 o
323.441 189.596 o
325.073 191.022 o
326.704 189.636 o
328.336 189.285 o
329.967 191.135 o
331.599 190.604 o
333.23 189.766 o
334.862 192.935 o
336.493 191.085 o
338.124 190.764 o
339.756 195.543 o
341.387 192.233 o
343.019 190.395 o
344.65 193.825 o
346.282 193.69 o
347.913 194.721 o
349.544 195.804 o
351.176 195.946 o
352.807 195.199 o
354.439 197.299 o
356.07 198.82 o
357.702 198.423 o
359.333 197.91 o
360.964 202.424 o
362.596 200.689 o
364.227 203.491 o
365.859 203.923 o
367.49 205.058 o
369.122 209.123 o
370.753 208.581 o
372.384 211.969 o
374.016 209.335 o
375.647 212.799 o
377.279 213.306 o
378.91 215.749 o
380.542 216.3 o
382.173 218.955 o
383.804 220.674 o
385.436 219.749 o
387.067 225.064 o
388.699 225.016 o
390.33 226.921 o
391.962 228.02 o
393.593 232.758 o
395.224 232.422 o
396.856 236.394 o
398.487 235.305 o
grestore
0.549 0.337 0.294 setrgbcolor
gsave
357.1 121 57.6 183.2 clipbox
/o {
gsave
newpath
translate
1.0 setlinewidth
1 setlinejoin
0 setlinecap
0 -1.5 m
0.397805 -1.5 0.77937 -1.341951 1.06066 -1.06066 c
1.341951 -0.77937 1.5 -0.397805 1.5 0 c
1.5 0.397805 1.341951 0.77937 1.06066 1.06066 c
0.77937 1.341951 0.397805 1.5 0 1.5 c
-0.397805 1.5 -0.77937 1.341951 -1.06066 1.06066 c
-1.341951 0.77937 -1.5 0.397805 -1.5 0 c
-1.5 -0.397805 -1.341951 -0.77937 -1.06066 -1.06066 c
-0.77937 -1.341951 -0.397805 -1.5 0 -1.5 c
cl

gsave
0.549 0.337 0.294 setrgbcolor
fill
grestore
stroke
grestore
} bind def
73.8327 239.859 o
75.4642 239.852 o
77.0956 239.914 o
78.727 240.819 o
80.3584 240.827 o
81.9899 241.073 o
83.6213 241.73 o
85.2527 241.859 o
86.8842 241.742 o
88.5156 242.036 o
90.147 242.285 o
91.7785 243.013 o
93.4099 243.106 o
95.0413 243.95 o
96.6727 243.899 o
98.3042 243.59 o
99.9356 244.066 o
101.567 244.491 o
103.198 244.932 o
104.83 245.661 o
106.461 244.943 o
108.093 245.688 o
109.724 246.054 o
111.356 245.779 o
112.987 246.621 o
114.618 246.658 o
116.25 246.763 o
117.881 247.882 o
119.513 248.118 o
121.144 248.471 o
122.776 248.615 o
124.407 248.865 o
126.038 248.751 o
127.67 248.255 o
129.301 249.307 o
130.933 250.457 o
132.564 249.29 o
134.196 250.879 o
135.827 250.861 o
137.458 251.481 o
139.09 252.139 o
140.721 252.581 o
142.353 251.982 o
143.984 251.136 o
145.616 251.443 o
147.247 253.213 o
148.879 253.651 o
150.51 253.068 o
152.141 253.352 o
153.773 253.894 o
155.404 254.394 o
157.036 254.348 o
158.667 254.975 o
160.299 253.414 o
161.93 254.812 o
163.561 254.9 o
165.193 254.869 o
166.824 255.68 o
168.456 256.532 o
170.087 258.913 o
171.719 258.499 o
173.35 255.445 o
174.981 257.099 o
176.613 257.775 o
178.244 258.88 o
179.876 257.85 o
181.507 259.735 o
183.139 259.176 o
184.77 261.181 o
186.401 259.613 o
188.033 259.921 o
189.664 260.838 o
191.296 259.851 o
192.927 261.283 o
194.559 260.805 o
196.19 260.01 o
197.821 261.246 o
199.453 260.845 o
201.084 263.694 o
202.716 262.7 o
204.347 262.52 o
205.979 262.033 o
207.61 263.368 o
209.241 263.992 o
210.873 263.783 o
212.504 264.647 o
214.136 265.056 o
215.767 266.291 o
217.399 266.882 o
219.03 263.837 o
220.661 264.939 o
222.293 264.554 o
223.924 266.863 o
225.556 266.469 o
227.187 267.047 o
228.819 269.397 o
230.45 267.071 o
232.081 265.875 o
233.713 268.209 o
235.344 268.828 o
236.976 268.124 o
238.607 267.667 o
240.239 268.191 o
241.87 269.097 o
243.501 272.179 o
245.133 268.668 o
246.764 271.049 o
248.396 271.854 o
250.027 271.791 o
251.659 270.592 o
253.29 269.964 o
254.921 269.468 o
256.553 272.649 o
258.184 271.324 o
259.816 272.661 o
261.447 272.127 o
263.079 274.149 o
264.71 274.573 o
266.341 275.162 o
267.973 273.574 o
269.604 273.746 o
271.236 272.926 o
272.867 274.509 o
274.499 274.221 o
276.13 275.216 o
277.761 276.061 o
279.393 275.285 o
281.024 274.08 o
282.656 278.027 o
284.287 277.039 o
285.919 277.566 o
287.55 279.589 o
289.181 275.706 o
290.813 277.968 o
292.444 278.553 o
294.076 277.28 o
295.707 279.747 o
297.339 276.85 o
298.97 280.237 o
300.601 278.551 o
302.233 279.603 o
303.864 280.017 o
305.496 278.691 o
307.127 278.916 o
308.759 278.267 o
310.39 281.733 o
312.021 280.14 o
313.653 281.345 o
315.284 281.092 o
316.916 279.475 o
318.547 282.947 o
320.179 282.765 o
321.81 280.2 o
323.441 283.679 o
325.073 286.178 o
326.704 284.879 o
328.336 281.106 o
329.967 285.633 o
331.599 286.657 o
333.23 284.458 o
334.862 286.631 o
336.493 284.338 o
338.124 283.964 o
339.756 286.41 o
341.387 283.534 o
343.019 287.117 o
344.65 288.005 o
346.282 286.999 o
347.913 287.748 o
349.544 289.176 o
351.176 289.229 o
352.807 287.488 o
354.439 291.652 o
356.07 287.665 o
357.702 288.871 o
359.333 288.305 o
360.964 288.27 o
362.596 288.221 o
364.227 288.754 o
365.859 291.691 o
367.49 290.929 o
369.122 292.414 o
370.753 289.908 o
372.384 290.971 o
374.016 290.835 o
375.647 294.057 o
377.279 294.148 o
378.91 292.934 o
380.542 291.652 o
382.173 294.374 o
383.804 296.052 o
385.436 293.05 o
387.067 295.538 o
388.699 297.087 o
390.33 296.143 o
391.962 296.05 o
393.593 291.826 o
395.224 296.291 o
396.856 298.63 o
398.487 295.736 o
grestore
0.800 setlinewidth
0 setlinejoin
2 setlinecap
[] 0 setdash
0.000 setgray
gsave
57.6 183.168 m
57.6 304.128 l
stroke
grestore
gsave
414.72 183.168 m
414.72 304.128 l
stroke
grestore
gsave
57.6 183.168 m
414.72 183.168 l
stroke
grestore
gsave
57.6 304.128 m
414.72 304.128 l
stroke
grestore
1.000 setlinewidth
0 setlinecap
0.800 setgray
gsave
64.6 252.112375 m
102.521875 252.112375 l
103.855208 252.112375 104.521875 252.779042 104.521875 254.112375 c
104.521875 297.128 l
104.521875 298.461333 103.855208 299.128 102.521875 299.128 c
64.6 299.128 l
63.266667 299.128 62.6 298.461333 62.6 297.128 c
62.6 254.112375 l
62.6 252.779042 63.266667 252.112375 64.6 252.112375 c
cl
gsave
1.000 setgray
fill
grestore
stroke
grestore
1.500 setlinewidth
1 setlinejoin
2 setlinecap
[] 0 setdash
0.122 0.467 0.706 setrgbcolor
gsave
66.6 291.03425 m
86.6 291.03425 l
stroke
grestore
0.000 setgray
gsave
94.600000 287.534250 translate
0.000000 rotate
0.000000 0.000000 m /x glyphshow
grestore
1.000 0.498 0.055 setrgbcolor
gsave
66.6 276.362375 m
86.6 276.362375 l
stroke
grestore
0.000 setgray
gsave
94.600000 272.862375 translate
0.000000 rotate
0.000000 0.000000 m /y glyphshow
grestore
0.173 0.627 0.173 setrgbcolor
gsave
66.6 261.6905 m
86.6 261.6905 l
stroke
grestore
0.000 setgray
gsave
94.600000 258.190500 translate
0.000000 rotate
0.000000 0.000000 m /z glyphshow
grestore
gsave
57.6 38.016 m
414.72 38.016 l
414.72 158.976 l
57.6 158.976 l
cl
1.000 setgray
fill
grestore
0.800 setlinewidth
0.690 setgray
gsave
357.1 121 57.6 38.02 clipbox
73.832727 38.016 m
73.832727 158.976 l
stroke
grestore
0 setlinecap
0.000 setgray
gsave
/o {
gsave
newpath
translate
0.8 setlinewidth
1 setlinejoin
0 setlinecap
0 0 m
0 -3.5 l

gsave
0.000 setgray
fill
grestore
stroke
grestore
} bind def
73.8327 38.016 o
grestore
gsave
70.653040 23.422250 translate
0.000000 rotate
0.000000 0.000000 m /zero glyphshow
grestore
2 setlinecap
0.690 setgray
gsave
357.1 121 57.6 38.02 clipbox
114.618474 38.016 m
114.618474 158.976 l
stroke
grestore
0 setlinecap
0.000 setgray
gsave
/o {
gsave
newpath
translate
0.8 setlinewidth
1 setlinejoin
0 setlinecap
0 0 m
0 -3.5 l

gsave
0.000 setgray
fill
grestore
stroke
grestore
} bind def
114.618 38.016 o
grestore
gsave
108.259099 23.422250 translate
0.000000 rotate
0.000000 0.000000 m /two glyphshow
6.362305 0.000000 m /five glyphshow
grestore
2 setlinecap
0.690 setgray
gsave
357.1 121 57.6 38.02 clipbox
155.404221 38.016 m
155.404221 158.976 l
stroke
grestore
0 setlinecap
0.000 setgray
gsave
/o {
gsave
newpath
translate
0.8 setlinewidth
1 setlinejoin
0 setlinecap
0 0 m
0 -3.5 l

gsave
0.000 setgray
fill
grestore
stroke
grestore
} bind def
155.404 38.016 o
grestore
gsave
149.044846 23.422250 translate
0.000000 rotate
0.000000 0.000000 m /five glyphshow
6.362305 0.000000 m /zero glyphshow
grestore
2 setlinecap
0.690 setgray
gsave
357.1 121 57.6 38.02 clipbox
196.189968 38.016 m
196.189968 158.976 l
stroke
grestore
0 setlinecap
0.000 setgray
gsave
/o {
gsave
newpath
translate
0.8 setlinewidth
1 setlinejoin
0 setlinecap
0 0 m
0 -3.5 l

gsave
0.000 setgray
fill
grestore
stroke
grestore
} bind def
196.19 38.016 o
grestore
gsave
189.830593 23.422250 translate
0.000000 rotate
0.000000 0.000000 m /seven glyphshow
6.362305 0.000000 m /five glyphshow
grestore
2 setlinecap
0.690 setgray
gsave
357.1 121 57.6 38.02 clipbox
236.975715 38.016 m
236.975715 158.976 l
stroke
grestore
0 setlinecap
0.000 setgray
gsave
/o {
gsave
newpath
translate
0.8 setlinewidth
1 setlinejoin
0 setlinecap
0 0 m
0 -3.5 l

gsave
0.000 setgray
fill
grestore
stroke
grestore
} bind def
236.976 38.016 o
grestore
gsave
227.436652 23.422250 translate
0.000000 rotate
0.000000 0.000000 m /one glyphshow
6.362305 0.000000 m /zero glyphshow
12.724609 0.000000 m /zero glyphshow
grestore
2 setlinecap
0.690 setgray
gsave
357.1 121 57.6 38.02 clipbox
277.761462 38.016 m
277.761462 158.976 l
stroke
grestore
0 setlinecap
0.000 setgray
gsave
/o {
gsave
newpath
translate
0.8 setlinewidth
1 setlinejoin
0 setlinecap
0 0 m
0 -3.5 l

gsave
0.000 setgray
fill
grestore
stroke
grestore
} bind def
277.761 38.016 o
grestore
gsave
268.222399 23.422250 translate
0.000000 rotate
0.000000 0.000000 m /one glyphshow
6.362305 0.000000 m /two glyphshow
12.724609 0.000000 m /five glyphshow
grestore
2 setlinecap
0.690 setgray
gsave
357.1 121 57.6 38.02 clipbox
318.547209 38.016 m
318.547209 158.976 l
stroke
grestore
0 setlinecap
0.000 setgray
gsave
/o {
gsave
newpath
translate
0.8 setlinewidth
1 setlinejoin
0 setlinecap
0 0 m
0 -3.5 l

gsave
0.000 setgray
fill
grestore
stroke
grestore
} bind def
318.547 38.016 o
grestore
gsave
309.008146 23.422250 translate
0.000000 rotate
0.000000 0.000000 m /one glyphshow
6.362305 0.000000 m /five glyphshow
12.724609 0.000000 m /zero glyphshow
grestore
2 setlinecap
0.690 setgray
gsave
357.1 121 57.6 38.02 clipbox
359.332956 38.016 m
359.332956 158.976 l
stroke
grestore
0 setlinecap
0.000 setgray
gsave
/o {
gsave
newpath
translate
0.8 setlinewidth
1 setlinejoin
0 setlinecap
0 0 m
0 -3.5 l

gsave
0.000 setgray
fill
grestore
stroke
grestore
} bind def
359.333 38.016 o
grestore
gsave
349.793893 23.422250 translate
0.000000 rotate
0.000000 0.000000 m /one glyphshow
6.362305 0.000000 m /seven glyphshow
12.724609 0.000000 m /five glyphshow
grestore
2 setlinecap
0.690 setgray
gsave
357.1 121 57.6 38.02 clipbox
400.118703 38.016 m
400.118703 158.976 l
stroke
grestore
0 setlinecap
0.000 setgray
gsave
/o {
gsave
newpath
translate
0.8 setlinewidth
1 setlinejoin
0 setlinecap
0 0 m
0 -3.5 l

gsave
0.000 setgray
fill
grestore
stroke
grestore
} bind def
400.119 38.016 o
grestore
gsave
390.579640 23.422250 translate
0.000000 rotate
0.000000 0.000000 m /two glyphshow
6.362305 0.000000 m /zero glyphshow
12.724609 0.000000 m /zero glyphshow
grestore
gsave
217.410000 9.750375 translate
0.000000 rotate
0.000000 0.000000 m /S glyphshow
6.347656 0.000000 m /a glyphshow
12.475586 0.000000 m /m glyphshow
22.216797 0.000000 m /p glyphshow
28.564453 0.000000 m /l glyphshow
31.342773 0.000000 m /e glyphshow
grestore
2 setlinecap
0.690 setgray
gsave
357.1 121 57.6 38.02 clipbox
57.6 68.167085 m
414.72 68.167085 l
stroke
grestore
0 setlinecap
0.000 setgray
gsave
/o {
gsave
newpath
translate
0.8 setlinewidth
1 setlinejoin
0 setlinecap
0 0 m
-3.5 0 l

gsave
0.000 setgray
fill
grestore
stroke
grestore
} bind def
57.6 68.1671 o
grestore
gsave
23.146875 64.370210 translate
0.000000 rotate
0.000000 0.000000 m /minus glyphshow
8.378906 0.000000 m /one glyphshow
14.741211 0.000000 m /zero glyphshow
21.103516 0.000000 m /zero glyphshow
grestore
2 setlinecap
0.690 setgray
gsave
357.1 121 57.6 38.02 clipbox
57.6 99.173427 m
414.72 99.173427 l
stroke
grestore
0 setlinecap
0.000 setgray
gsave
/o {
gsave
newpath
translate
0.8 setlinewidth
1 setlinejoin
0 setlinecap
0 0 m
-3.5 0 l

gsave
0.000 setgray
fill
grestore
stroke
grestore
} bind def
57.6 99.1734 o
grestore
gsave
44.240625 95.376552 translate
0.000000 rotate
0.000000 0.000000 m /zero glyphshow
grestore
2 setlinecap
0.690 setgray
gsave
357.1 121 57.6 38.02 clipbox
57.6 130.179769 m
414.72 130.179769 l
stroke
grestore
0 setlinecap
0.000 setgray
gsave
/o {
gsave
newpath
translate
0.8 setlinewidth
1 setlinejoin
0 setlinecap
0 0 m
-3.5 0 l

gsave
0.000 setgray
fill
grestore
stroke
grestore
} bind def
57.6 130.18 o
grestore
gsave
31.521875 126.382894 translate
0.000000 rotate
0.000000 0.000000 m /one glyphshow
6.362305 0.000000 m /zero glyphshow
12.724609 0.000000 m /zero glyphshow
grestore
gsave
17.068750 51.050687 translate
90.000000 rotate
0.000000 0.000000 m /E glyphshow
6.318359 0.000000 m /u glyphshow
12.656250 0.000000 m /l glyphshow
15.434570 0.000000 m /e glyphshow
21.586914 0.000000 m /r glyphshow
25.698242 0.000000 m /space glyphshow
28.876953 0.000000 m /a glyphshow
35.004883 0.000000 m /n glyphshow
41.342773 0.000000 m /g glyphshow
47.690430 0.000000 m /l glyphshow
50.468750 0.000000 m /e glyphshow
56.621094 0.000000 m /s glyphshow
61.831055 0.000000 m /space glyphshow
65.009766 0.000000 m /space glyphshow
68.188477 0.000000 m /bracketleft glyphshow
72.089844 0.000000 m /d glyphshow
78.437500 0.000000 m /e glyphshow
84.589844 0.000000 m /g glyphshow
90.937500 0.000000 m /bracketright glyphshow
grestore
1.500 setlinewidth
2 setlinecap
0.122 0.467 0.706 setrgbcolor
gsave
357.1 121 57.6 38.02 clipbox
73.832727 99.173427 m
101.567035 96.648679 l
148.878502 92.066961 l
186.401389 88.537333 l
212.504267 86.300619 l
236.975715 84.43275 l
259.815733 82.918593 l
281.024322 81.727327 l
302.23291 80.758778 l
321.810069 80.082593 l
339.755797 79.673345 l
356.070096 79.509645 l
370.752965 79.570879 l
383.804404 79.832806 l
395.224413 80.262822 l
398.487273 80.426492 l
398.487273 80.426492 l
stroke
grestore
1.000 0.498 0.055 setrgbcolor
gsave
357.1 121 57.6 38.02 clipbox
73.832727 99.173427 m
91.778456 99.848789 l
109.724185 100.300426 l
127.669913 100.515638 l
145.615642 100.488093 l
163.56137 100.218612 l
181.507099 99.715064 l
199.452828 98.991407 l
219.029986 97.972761 l
240.238575 96.630807 l
263.078593 94.950221 l
289.181471 92.78889 l
320.178639 89.977383 l
367.490105 85.416827 l
398.487273 82.4603 l
398.487273 82.4603 l
stroke
grestore
0.173 0.627 0.173 setrgbcolor
gsave
357.1 121 57.6 38.02 clipbox
73.832727 99.173427 m
108.092755 103.760698 l
204.347117 116.808295 l
235.344285 120.688823 l
269.604312 124.747903 l
352.807236 134.474492 l
370.752965 136.852833 l
385.435834 139.002507 l
398.487273 141.137824 l
398.487273 141.137824 l
stroke
grestore
1.000 setlinewidth
0 setlinecap
0.839 0.153 0.157 setrgbcolor
gsave
357.1 121 57.6 38.02 clipbox
/o {
gsave
newpath
translate
1.0 setlinewidth
1 setlinejoin
0 setlinecap
0 -1.5 m
0.397805 -1.5 0.77937 -1.341951 1.06066 -1.06066 c
1.341951 -0.77937 1.5 -0.397805 1.5 0 c
1.5 0.397805 1.341951 0.77937 1.06066 1.06066 c
0.77937 1.341951 0.397805 1.5 0 1.5 c
-0.397805 1.5 -0.77937 1.341951 -1.06066 1.06066 c
-1.341951 0.77937 -1.5 0.397805 -1.5 0 c
-1.5 -0.397805 -1.341951 -0.77937 -1.06066 -1.06066 c
-0.77937 -1.341951 -0.397805 -1.5 0 -1.5 c
cl

gsave
0.839 0.153 0.157 setrgbcolor
fill
grestore
stroke
grestore
} bind def
73.8327 96.7835 o
75.4642 101.184 o
77.0956 99.7573 o
78.727 97.5147 o
80.3584 97.4272 o
81.9899 100.031 o
83.6213 95.1553 o
85.2527 97.6916 o
86.8842 97.6933 o
88.5156 100.911 o
90.147 100.174 o
91.7785 98.4792 o
93.4099 96.6942 o
95.0413 95.3481 o
96.6727 95.5699 o
98.3042 95.651 o
99.9356 98.8653 o
101.567 95.1631 o
103.198 95.4827 o
104.83 93.817 o
106.461 97.0118 o
108.093 94.6411 o
109.724 98.1194 o
111.356 102.042 o
112.987 95.3236 o
114.618 100.953 o
116.25 98.575 o
117.881 92.5864 o
119.513 97.0134 o
121.144 93.08 o
122.776 95.2185 o
124.407 96.5003 o
126.038 94.3943 o
127.67 101.661 o
129.301 93.1378 o
130.933 88.3195 o
132.564 100.5 o
134.196 90.9039 o
135.827 92.4314 o
137.458 92.3669 o
139.09 89.2522 o
140.721 92.2727 o
142.353 96.9506 o
143.984 97.7217 o
145.616 97.89 o
147.247 93.2866 o
148.879 92.7742 o
150.51 92.7135 o
152.141 92.4394 o
153.773 90.4677 o
155.404 86.4748 o
157.036 90.6266 o
158.667 92.4614 o
160.299 99.5919 o
161.93 91.6675 o
163.561 97.1886 o
165.193 98.7689 o
166.824 99.2307 o
168.456 92.9033 o
170.087 88.4061 o
171.719 88.6 o
173.35 101.346 o
174.981 86.0752 o
176.613 90.4551 o
178.244 85.7054 o
179.876 100.174 o
181.507 82.961 o
183.139 88.3752 o
184.77 77.6371 o
186.401 80.3624 o
188.033 84.4945 o
189.664 82.4327 o
191.296 83.8004 o
192.927 83.3112 o
194.559 93.9354 o
196.19 94.0197 o
197.821 94.5188 o
199.453 90.2203 o
201.084 84.8851 o
202.716 88.7255 o
204.347 82.0993 o
205.979 98.1726 o
207.61 84.3872 o
209.241 72.043 o
210.873 80.1993 o
212.504 76.0128 o
214.136 104.629 o
215.767 87.7165 o
217.399 74.6871 o
219.03 91.8744 o
220.661 89.7219 o
222.293 95.5357 o
223.924 94.3962 o
225.556 89.7594 o
227.187 84.3572 o
228.819 82.2734 o
230.45 90.5891 o
232.081 93.9147 o
233.713 89.2402 o
235.344 83.3414 o
236.976 91.5239 o
238.607 86.669 o
240.239 90.5065 o
241.87 106.995 o
243.501 84.6044 o
245.133 92.9676 o
246.764 76.4148 o
248.396 84.2017 o
250.027 82.6826 o
251.659 81.2972 o
253.29 98.9429 o
254.921 102.219 o
256.553 71.3093 o
258.184 153.397 o
259.816 91.3147 o
261.447 107.257 o
263.079 88.8657 o
264.71 65.1789 o
266.341 79.0214 o
267.973 78.7785 o
269.604 78.7294 o
271.236 87.9186 o
272.867 61.1751 o
274.499 83.9835 o
276.13 76.0519 o
277.761 79.3034 o
279.393 79.366 o
281.024 84.1949 o
282.656 89.8183 o
284.287 93.4191 o
285.919 55.2408 o
287.55 66.8948 o
289.181 86.2579 o
290.813 153.478 o
292.444 62.7314 o
294.076 119.835 o
295.707 70.276 o
297.339 89.9744 o
298.97 63.9461 o
300.601 79.9192 o
302.233 75.4864 o
303.864 114.79 o
305.496 75.0757 o
307.127 70.4886 o
308.759 85.4577 o
310.39 73.0315 o
312.021 85.4502 o
313.653 77.5734 o
315.284 101.139 o
316.916 104.25 o
318.547 70.5297 o
320.179 84.8086 o
321.81 87.6838 o
323.441 78.977 o
325.073 71.1263 o
326.704 64.0169 o
328.336 125.129 o
329.967 83.4623 o
331.599 100.505 o
333.23 64.7356 o
334.862 54.0621 o
336.493 79.7174 o
338.124 81.6933 o
339.756 96.1591 o
341.387 52.9206 o
343.019 79.2781 o
344.65 73.8153 o
346.282 55.4964 o
347.913 74.8406 o
349.544 80.5767 o
351.176 59.204 o
352.807 73.9034 o
354.439 75.3207 o
356.07 136.394 o
357.702 77.7446 o
359.333 84.8833 o
360.964 83.1565 o
362.596 100.192 o
364.227 84.8624 o
365.859 103.287 o
367.49 88.016 o
369.122 83.3539 o
370.753 89.9039 o
372.384 46.102 o
374.016 100.706 o
375.647 80.7474 o
377.279 92.885 o
378.91 101.737 o
380.542 48.9074 o
382.173 106.323 o
383.804 76.7012 o
385.436 66.1855 o
387.067 100.479 o
388.699 94.1344 o
390.33 75.8586 o
391.962 87.1417 o
393.593 89.1045 o
395.224 100.168 o
396.856 104.824 o
398.487 67.0669 o
grestore
0.580 0.404 0.741 setrgbcolor
gsave
357.1 121 57.6 38.02 clipbox
/o {
gsave
newpath
translate
1.0 setlinewidth
1 setlinejoin
0 setlinecap
0 -1.5 m
0.397805 -1.5 0.77937 -1.341951 1.06066 -1.06066 c
1.341951 -0.77937 1.5 -0.397805 1.5 0 c
1.5 0.397805 1.341951 0.77937 1.06066 1.06066 c
0.77937 1.341951 0.397805 1.5 0 1.5 c
-0.397805 1.5 -0.77937 1.341951 -1.06066 1.06066 c
-1.341951 0.77937 -1.5 0.397805 -1.5 0 c
-1.5 -0.397805 -1.341951 -0.77937 -1.06066 -1.06066 c
-0.77937 -1.341951 -0.397805 -1.5 0 -1.5 c
cl

gsave
0.580 0.404 0.741 setrgbcolor
fill
grestore
stroke
grestore
} bind def
73.8327 98.2249 o
75.4642 98.2518 o
77.0956 100.779 o
78.727 99.1221 o
80.3584 102.008 o
81.9899 100.419 o
83.6213 99.318 o
85.2527 99.289 o
86.8842 99.2848 o
88.5156 99.6083 o
90.147 98.7775 o
91.7785 99.9101 o
93.4099 99.145 o
95.0413 105.491 o
96.6727 97.6196 o
98.3042 98.8042 o
99.9356 97.9019 o
101.567 100.5 o
103.198 100.615 o
104.83 101.078 o
106.461 99.1693 o
108.093 100.166 o
109.724 100.284 o
111.356 101.606 o
112.987 100.167 o
114.618 102.069 o
116.25 100.129 o
117.881 104.165 o
119.513 106.5 o
121.144 98.5942 o
122.776 100.854 o
124.407 105.879 o
126.038 98.3578 o
127.67 99.8902 o
129.301 96.1307 o
130.933 103.539 o
132.564 94.0047 o
134.196 103.852 o
135.827 99.8966 o
137.458 99.308 o
139.09 102.733 o
140.721 107.079 o
142.353 99.7188 o
143.984 95.0169 o
145.616 102.836 o
147.247 97.6775 o
148.879 108.58 o
150.51 103.016 o
152.141 92.0081 o
153.773 104.624 o
155.404 108.737 o
157.036 94.2903 o
158.667 93.2365 o
160.299 100.168 o
161.93 103.57 o
163.561 102.119 o
165.193 99.8714 o
166.824 111.241 o
168.456 99.6477 o
170.087 79.6771 o
171.719 102.951 o
173.35 100.601 o
174.981 103.495 o
176.613 97.9054 o
178.244 94.6328 o
179.876 99.3616 o
181.507 93.324 o
183.139 96.8456 o
184.77 88.4385 o
186.401 97.208 o
188.033 98.4807 o
189.664 103.663 o
191.296 94.4456 o
192.927 98.7793 o
194.559 107.82 o
196.19 92.508 o
197.821 94.0275 o
199.453 98.8704 o
201.084 92.1185 o
202.716 83.8769 o
204.347 105.558 o
205.979 104.839 o
207.61 105.554 o
209.241 102.861 o
210.873 105.55 o
212.504 96.8989 o
214.136 112.35 o
215.767 99.4941 o
217.399 85.3111 o
219.03 106.978 o
220.661 106.07 o
222.293 95.4382 o
223.924 92.0611 o
225.556 104.278 o
227.187 103.052 o
228.819 113.906 o
230.45 102.102 o
232.081 97.7923 o
233.713 105.383 o
235.344 88.1084 o
236.976 85.9873 o
238.607 92.3273 o
240.239 98.3789 o
241.87 113.373 o
243.501 84.8774 o
245.133 105.106 o
246.764 85.47 o
248.396 104.614 o
250.027 91.4205 o
251.659 102.68 o
253.29 102.213 o
254.921 102.862 o
256.553 102.246 o
258.184 121.361 o
259.816 96.8266 o
261.447 113.809 o
263.079 88.7223 o
264.71 77.4418 o
266.341 97.6462 o
267.973 95.0131 o
269.604 89.6722 o
271.236 92.3246 o
272.867 92.3826 o
274.499 94.2781 o
276.13 104.341 o
277.761 99.855 o
279.393 94.4992 o
281.024 94.2809 o
282.656 95.6367 o
284.287 94.4866 o
285.919 85.1696 o
287.55 95.8125 o
289.181 102.713 o
290.813 103.035 o
292.444 84.535 o
294.076 91.1948 o
295.707 93.3923 o
297.339 92.8635 o
298.97 85.4594 o
300.601 89.0728 o
302.233 96.1174 o
303.864 87.0827 o
305.496 98.2617 o
307.127 116.974 o
308.759 104.751 o
310.39 100.367 o
312.021 108.564 o
313.653 83.4957 o
315.284 81.4452 o
316.916 101.566 o
318.547 113.448 o
320.179 83.0252 o
321.81 94.6616 o
323.441 91.2173 o
325.073 85.686 o
326.704 77.2138 o
328.336 108.398 o
329.967 92.1581 o
331.599 80.7714 o
333.23 89.4963 o
334.862 91.7171 o
336.493 101.175 o
338.124 99.7199 o
339.756 80.9157 o
341.387 74.7469 o
343.019 95.2062 o
344.65 106.722 o
346.282 87.6096 o
347.913 89.9841 o
349.544 87.5072 o
351.176 85.626 o
352.807 90.0544 o
354.439 84.0241 o
356.07 109.749 o
357.702 85.9011 o
359.333 97.2175 o
360.964 88.4799 o
362.596 109.407 o
364.227 82.1214 o
365.859 89.2304 o
367.49 105.384 o
369.122 86.607 o
370.753 113.895 o
372.384 87.5326 o
374.016 121.52 o
375.647 85.7244 o
377.279 109.08 o
378.91 118.664 o
380.542 95.6043 o
382.173 83.4357 o
383.804 86.8222 o
385.436 94.4516 o
387.067 92.5053 o
388.699 88.059 o
390.33 92.219 o
391.962 76.3697 o
393.593 90.1684 o
395.224 88.4441 o
396.856 108.735 o
398.487 85.5145 o
grestore
0.549 0.337 0.294 setrgbcolor
gsave
357.1 121 57.6 38.02 clipbox
/o {
gsave
newpath
translate
1.0 setlinewidth
1 setlinejoin
0 setlinecap
0 -1.5 m
0.397805 -1.5 0.77937 -1.341951 1.06066 -1.06066 c
1.341951 -0.77937 1.5 -0.397805 1.5 0 c
1.5 0.397805 1.341951 0.77937 1.06066 1.06066 c
0.77937 1.341951 0.397805 1.5 0 1.5 c
-0.397805 1.5 -0.77937 1.341951 -1.06066 1.06066 c
-1.341951 0.77937 -1.5 0.397805 -1.5 0 c
-1.5 -0.397805 -1.341951 -0.77937 -1.06066 -1.06066 c
-0.77937 -1.341951 -0.397805 -1.5 0 -1.5 c
cl

gsave
0.549 0.337 0.294 setrgbcolor
fill
grestore
stroke
grestore
} bind def
73.8327 99.9341 o
75.4642 99.3168 o
77.0956 100.695 o
78.727 100.308 o
80.3584 101.083 o
81.9899 98.2774 o
83.6213 102.881 o
85.2527 100.351 o
86.8842 101.758 o
88.5156 96.7908 o
90.147 101.292 o
91.7785 99.9095 o
93.4099 102.547 o
95.0413 101.312 o
96.6727 104.737 o
98.3042 104.206 o
99.9356 102.72 o
101.567 104.065 o
103.198 104.923 o
104.83 102.976 o
106.461 104.076 o
108.093 105.338 o
109.724 101.506 o
111.356 101.086 o
112.987 104.067 o
114.618 102.372 o
116.25 102.853 o
117.881 107.935 o
119.513 102.882 o
121.144 106.442 o
122.776 104.302 o
124.407 106.788 o
126.038 106.658 o
127.67 103.929 o
129.301 108.094 o
130.933 109.095 o
132.564 108.124 o
134.196 104.659 o
135.827 105.699 o
137.458 107.448 o
139.09 107.962 o
140.721 105.4 o
142.353 111.943 o
143.984 109.495 o
145.616 108.368 o
147.247 109.534 o
148.879 108.469 o
150.51 108.092 o
152.141 112.048 o
153.773 112.952 o
155.404 107.917 o
157.036 111.29 o
158.667 111.131 o
160.299 109.809 o
161.93 112.631 o
163.561 107.704 o
165.193 106.262 o
166.824 112.263 o
168.456 113.337 o
170.087 129.649 o
171.719 114.827 o
173.35 120.021 o
174.981 112.616 o
176.613 113.179 o
178.244 114.051 o
179.876 114.136 o
181.507 112.573 o
183.139 117.979 o
184.77 110.904 o
186.401 109.451 o
188.033 112.097 o
189.664 116.122 o
191.296 108.695 o
192.927 121.862 o
194.559 109.564 o
196.19 115.198 o
197.821 124.103 o
199.453 112.425 o
201.084 112.614 o
202.716 119.072 o
204.347 115.758 o
205.979 108.262 o
207.61 113.167 o
209.241 115.96 o
210.873 116.432 o
212.504 116.43 o
214.136 101.904 o
215.767 119.232 o
217.399 123.018 o
219.03 125.612 o
220.661 110.005 o
222.293 122.179 o
223.924 121.825 o
225.556 119.468 o
227.187 115.316 o
228.819 114.017 o
230.45 113.958 o
232.081 126.382 o
233.713 111.383 o
235.344 123.831 o
236.976 129.291 o
238.607 126.824 o
240.239 118.653 o
241.87 112.613 o
243.501 122.394 o
245.133 120.49 o
246.764 118.745 o
248.396 114.174 o
250.027 116.869 o
251.659 114.091 o
253.29 112.383 o
254.921 122.32 o
256.553 118.459 o
258.184 54.3563 o
259.816 143.197 o
261.447 107.154 o
263.079 119.866 o
264.71 107.52 o
266.341 113.244 o
267.973 130.334 o
269.604 123.505 o
271.236 130.604 o
272.867 128.894 o
274.499 128.662 o
276.13 126.286 o
277.761 112.238 o
279.393 119.124 o
281.024 135.743 o
282.656 126.995 o
284.287 121.403 o
285.919 141.79 o
287.55 112.748 o
289.181 131.47 o
290.813 106.28 o
292.444 101.731 o
294.076 81.2088 o
295.707 133.092 o
297.339 135.515 o
298.97 123.883 o
300.601 134.701 o
302.233 128.782 o
303.864 49.6647 o
305.496 135.984 o
307.127 135.258 o
308.759 126.497 o
310.39 120.194 o
312.021 134.146 o
313.653 129.256 o
315.284 146.951 o
316.916 123.235 o
318.547 141.888 o
320.179 143.23 o
321.81 144.63 o
323.441 114.364 o
325.073 122.579 o
326.704 100.886 o
328.336 91.5524 o
329.967 130.952 o
331.599 137.394 o
333.23 104.214 o
334.862 101.868 o
336.493 43.5142 o
338.124 43.6063 o
339.756 49.3552 o
341.387 112.533 o
343.019 121.668 o
344.65 107.383 o
346.282 112.089 o
347.913 128.343 o
349.544 137.099 o
351.176 120.785 o
352.807 128.468 o
354.439 129.058 o
356.07 108.063 o
357.702 134.327 o
359.333 123.879 o
360.964 147.443 o
362.596 101.5 o
364.227 44.4306 o
365.859 136.151 o
367.49 144.608 o
369.122 138.427 o
370.753 149.11 o
372.384 115.392 o
374.016 89.8887 o
375.647 128.681 o
377.279 134.386 o
378.91 65.9087 o
380.542 134.753 o
382.173 48.4835 o
383.804 138.611 o
385.436 139.042 o
387.067 43.8344 o
388.699 152.334 o
390.33 133.583 o
391.962 150.706 o
393.593 50.0093 o
395.224 144.101 o
396.856 62.9462 o
398.487 132.512 o
grestore
0.800 setlinewidth
0 setlinejoin
2 setlinecap
[] 0 setdash
0.000 setgray
gsave
57.6 38.016 m
57.6 158.976 l
stroke
grestore
gsave
414.72 38.016 m
414.72 158.976 l
stroke
grestore
gsave
57.6 38.016 m
414.72 38.016 l
stroke
grestore
gsave
57.6 158.976 m
414.72 158.976 l
stroke
grestore
1.000 setlinewidth
0 setlinecap
0.800 setgray
gsave
64.6 43.016 m
121.490625 43.016 l
122.823958 43.016 123.490625 43.682667 123.490625 45.016 c
123.490625 88.031625 l
123.490625 89.364958 122.823958 90.031625 121.490625 90.031625 c
64.6 90.031625 l
63.266667 90.031625 62.6 89.364958 62.6 88.031625 c
62.6 45.016 l
62.6 43.682667 63.266667 43.016 64.6 43.016 c
cl
gsave
1.000 setgray
fill
grestore
stroke
grestore
1.500 setlinewidth
1 setlinejoin
2 setlinecap
[] 0 setdash
0.122 0.467 0.706 setrgbcolor
gsave
66.6 81.937875 m
86.6 81.937875 l
stroke
grestore
0.000 setgray
gsave
94.600000 78.437875 translate
0.000000 rotate
0.000000 0.000000 m /r glyphshow
4.111328 0.000000 m /o glyphshow
10.229492 0.000000 m /l glyphshow
13.007812 0.000000 m /l glyphshow
grestore
1.000 0.498 0.055 setrgbcolor
gsave
66.6 67.266 m
86.6 67.266 l
stroke
grestore
0.000 setgray
gsave
94.600000 63.766000 translate
0.000000 rotate
0.000000 0.000000 m /p glyphshow
6.347656 0.000000 m /i glyphshow
9.125977 0.000000 m /t glyphshow
13.046875 0.000000 m /c glyphshow
18.544922 0.000000 m /h glyphshow
grestore
0.173 0.627 0.173 setrgbcolor
gsave
66.6 52.594125 m
86.6 52.594125 l
stroke
grestore
0.000 setgray
gsave
94.600000 49.094125 translate
0.000000 rotate
0.000000 0.000000 m /y glyphshow
5.917969 0.000000 m /a glyphshow
12.045898 0.000000 m /w glyphshow
grestore

end
showpage
