%!PS-Adobe-3.0 EPSF-3.0
%%Title: figures/repeater_err.eps
%%Creator: matplotlib version 2.0.0, http://matplotlib.org/
%%CreationDate: Mon Feb 27 22:23:16 2017
%%Orientation: portrait
%%BoundingBox: 75 223 536 568
%%EndComments
%%BeginProlog
/mpldict 8 dict def
mpldict begin
/m { moveto } bind def
/l { lineto } bind def
/r { rlineto } bind def
/c { curveto } bind def
/cl { closepath } bind def
/box {
m
1 index 0 r
0 exch r
neg 0 r
cl
} bind def
/clipbox {
box
clip
newpath
} bind def
%!PS-Adobe-3.0 Resource-Font
%%Title: DejaVu Sans
%%Copyright: Copyright (c) 2003 by Bitstream, Inc. All Rights Reserved. Copyright (c) 2006 by Tavmjong Bah. All Rights Reserved. DejaVu changes are in public domain 
%%Creator: Converted from TrueType to type 3 by PPR
25 dict begin
/_d{bind def}bind def
/_m{moveto}_d
/_l{lineto}_d
/_cl{closepath eofill}_d
/_c{curveto}_d
/_sc{7 -1 roll{setcachedevice}{pop pop pop pop pop pop}ifelse}_d
/_e{exec}_d
/FontName /DejaVuSans def
/PaintType 0 def
/FontMatrix[.001 0 0 .001 0 0]def
/FontBBox[-1021 -463 1793 1232]def
/FontType 3 def
/Encoding [ /space /period /zero /one /two /five /seven /E /P /S /bracketleft /bracketright /a /c /d /e /g /h /i /l /m /n /o /p /r /s /t /u /w /x /y /z /minus ] def
/FontInfo 10 dict dup begin
/FamilyName (DejaVu Sans) def
/FullName (DejaVu Sans) def
/Notice (Copyright (c) 2003 by Bitstream, Inc. All Rights Reserved. Copyright (c) 2006 by Tavmjong Bah. All Rights Reserved. DejaVu changes are in public domain ) def
/Weight (Book) def
/Version (Version 2.35) def
/ItalicAngle 0.0 def
/isFixedPitch false def
/UnderlinePosition -130 def
/UnderlineThickness 90 def
end readonly def
/CharStrings 33 dict dup begin
/space{318 0 0 0 0 0 _sc
}_d
/period{318 0 107 0 210 124 _sc
107 124 _m
210 124 _l
210 0 _l
107 0 _l
107 124 _l
_cl}_d
/zero{636 0 66 -13 570 742 _sc
318 664 _m
267 664 229 639 203 589 _c
177 539 165 464 165 364 _c
165 264 177 189 203 139 _c
229 89 267 64 318 64 _c
369 64 407 89 433 139 _c
458 189 471 264 471 364 _c
471 464 458 539 433 589 _c
407 639 369 664 318 664 _c
318 742 _m
399 742 461 709 505 645 _c
548 580 570 486 570 364 _c
570 241 548 147 505 83 _c
461 19 399 -13 318 -13 _c
236 -13 173 19 130 83 _c
87 147 66 241 66 364 _c
66 486 87 580 130 645 _c
173 709 236 742 318 742 _c
_cl}_d
/one{636 0 110 0 544 729 _sc
124 83 _m
285 83 _l
285 639 _l
110 604 _l
110 694 _l
284 729 _l
383 729 _l
383 83 _l
544 83 _l
544 0 _l
124 0 _l
124 83 _l
_cl}_d
/two{{636 0 73 0 536 742 _sc
192 83 _m
536 83 _l
536 0 _l
73 0 _l
73 83 _l
110 121 161 173 226 239 _c
290 304 331 346 348 365 _c
380 400 402 430 414 455 _c
426 479 433 504 433 528 _c
433 566 419 598 392 622 _c
365 646 330 659 286 659 _c
255 659 222 653 188 643 _c
154 632 117 616 78 594 _c
78 694 _l
118 710 155 722 189 730 _c
223 738 255 742 284 742 _c
}_e{359 742 419 723 464 685 _c
509 647 532 597 532 534 _c
532 504 526 475 515 449 _c
504 422 484 390 454 354 _c
446 344 420 317 376 272 _c
332 227 271 164 192 83 _c
_cl}_e}_d
/five{{636 0 77 -13 549 729 _sc
108 729 _m
495 729 _l
495 646 _l
198 646 _l
198 467 _l
212 472 227 476 241 478 _c
255 480 270 482 284 482 _c
365 482 429 459 477 415 _c
525 370 549 310 549 234 _c
549 155 524 94 475 51 _c
426 8 357 -13 269 -13 _c
238 -13 207 -10 175 -6 _c
143 -1 111 6 77 17 _c
77 116 _l
106 100 136 88 168 80 _c
199 72 232 69 267 69 _c
}_e{323 69 368 83 401 113 _c
433 143 450 183 450 234 _c
450 284 433 324 401 354 _c
368 384 323 399 267 399 _c
241 399 214 396 188 390 _c
162 384 135 375 108 363 _c
108 729 _l
_cl}_e}_d
/seven{636 0 82 0 551 729 _sc
82 729 _m
551 729 _l
551 687 _l
286 0 _l
183 0 _l
432 646 _l
82 646 _l
82 729 _l
_cl}_d
/E{632 0 98 0 568 729 _sc
98 729 _m
559 729 _l
559 646 _l
197 646 _l
197 430 _l
544 430 _l
544 347 _l
197 347 _l
197 83 _l
568 83 _l
568 0 _l
98 0 _l
98 729 _l
_cl}_d
/P{603 0 98 0 569 729 _sc
197 648 _m
197 374 _l
321 374 _l
367 374 402 385 427 409 _c
452 433 465 467 465 511 _c
465 555 452 588 427 612 _c
402 636 367 648 321 648 _c
197 648 _l
98 729 _m
321 729 _l
402 729 464 710 506 673 _c
548 636 569 582 569 511 _c
569 439 548 384 506 348 _c
464 311 402 293 321 293 _c
197 293 _l
197 0 _l
98 0 _l
98 729 _l
_cl}_d
/S{{635 0 66 -13 579 742 _sc
535 705 _m
535 609 _l
497 627 462 640 429 649 _c
395 657 363 662 333 662 _c
279 662 237 651 208 631 _c
179 610 165 580 165 542 _c
165 510 174 485 194 469 _c
213 452 250 439 304 429 _c
364 417 _l
437 403 491 378 526 343 _c
561 307 579 260 579 201 _c
579 130 555 77 508 41 _c
460 5 391 -13 300 -13 _c
265 -13 228 -9 189 -2 _c
}_e{150 5 110 16 69 32 _c
69 134 _l
109 111 148 94 186 83 _c
224 71 262 66 300 66 _c
356 66 399 77 430 99 _c
460 121 476 152 476 194 _c
476 230 465 258 443 278 _c
421 298 385 313 335 323 _c
275 335 _l
201 349 148 372 115 404 _c
82 435 66 478 66 534 _c
66 598 88 649 134 686 _c
179 723 242 742 322 742 _c
356 742 390 739 426 733 _c
461 727 497 717 535 705 _c
}_e{_cl}_e}_d
/bracketleft{390 0 86 -131 293 760 _sc
86 760 _m
293 760 _l
293 690 _l
176 690 _l
176 -61 _l
293 -61 _l
293 -131 _l
86 -131 _l
86 760 _l
_cl}_d
/bracketright{390 0 97 -131 304 760 _sc
304 760 _m
304 -131 _l
97 -131 _l
97 -61 _l
214 -61 _l
214 690 _l
97 690 _l
97 760 _l
304 760 _l
_cl}_d
/a{{613 0 60 -13 522 560 _sc
343 275 _m
270 275 220 266 192 250 _c
164 233 150 205 150 165 _c
150 133 160 107 181 89 _c
202 70 231 61 267 61 _c
317 61 357 78 387 114 _c
417 149 432 196 432 255 _c
432 275 _l
343 275 _l
522 312 _m
522 0 _l
432 0 _l
432 83 _l
411 49 385 25 355 10 _c
325 -5 287 -13 243 -13 _c
187 -13 142 2 109 33 _c
76 64 60 106 60 159 _c
}_e{60 220 80 266 122 298 _c
163 329 224 345 306 345 _c
432 345 _l
432 354 _l
432 395 418 427 391 450 _c
364 472 326 484 277 484 _c
245 484 215 480 185 472 _c
155 464 127 453 100 439 _c
100 522 _l
132 534 164 544 195 550 _c
226 556 256 560 286 560 _c
365 560 424 539 463 498 _c
502 457 522 395 522 312 _c
_cl}_e}_d
/c{{550 0 55 -13 488 560 _sc
488 526 _m
488 442 _l
462 456 437 466 411 473 _c
385 480 360 484 334 484 _c
276 484 230 465 198 428 _c
166 391 150 339 150 273 _c
150 206 166 154 198 117 _c
230 80 276 62 334 62 _c
360 62 385 65 411 72 _c
437 79 462 90 488 104 _c
488 21 _l
462 9 436 0 410 -5 _c
383 -10 354 -13 324 -13 _c
242 -13 176 12 128 64 _c
}_e{79 115 55 185 55 273 _c
55 362 79 432 128 483 _c
177 534 244 560 330 560 _c
358 560 385 557 411 551 _c
437 545 463 537 488 526 _c
_cl}_e}_d
/d{{635 0 55 -13 544 760 _sc
454 464 _m
454 760 _l
544 760 _l
544 0 _l
454 0 _l
454 82 _l
435 49 411 25 382 10 _c
353 -5 319 -13 279 -13 _c
213 -13 159 13 117 65 _c
75 117 55 187 55 273 _c
55 359 75 428 117 481 _c
159 533 213 560 279 560 _c
319 560 353 552 382 536 _c
411 520 435 496 454 464 _c
148 273 _m
148 207 161 155 188 117 _c
215 79 253 61 301 61 _c
}_e{348 61 385 79 413 117 _c
440 155 454 207 454 273 _c
454 339 440 390 413 428 _c
385 466 348 485 301 485 _c
253 485 215 466 188 428 _c
161 390 148 339 148 273 _c
_cl}_e}_d
/e{{615 0 55 -13 562 560 _sc
562 296 _m
562 252 _l
149 252 _l
153 190 171 142 205 110 _c
238 78 284 62 344 62 _c
378 62 412 66 444 74 _c
476 82 509 95 541 113 _c
541 28 _l
509 14 476 3 442 -3 _c
408 -9 373 -13 339 -13 _c
251 -13 182 12 131 62 _c
80 112 55 181 55 268 _c
55 357 79 428 127 481 _c
175 533 241 560 323 560 _c
397 560 455 536 498 489 _c
}_e{540 441 562 377 562 296 _c
472 322 _m
471 371 457 410 431 440 _c
404 469 368 484 324 484 _c
274 484 234 469 204 441 _c
174 413 156 373 152 322 _c
472 322 _l
_cl}_e}_d
/g{{635 0 55 -207 544 560 _sc
454 280 _m
454 344 440 395 414 431 _c
387 467 349 485 301 485 _c
253 485 215 467 188 431 _c
161 395 148 344 148 280 _c
148 215 161 165 188 129 _c
215 93 253 75 301 75 _c
349 75 387 93 414 129 _c
440 165 454 215 454 280 _c
544 68 _m
544 -24 523 -93 482 -139 _c
440 -184 377 -207 292 -207 _c
260 -207 231 -204 203 -200 _c
175 -195 147 -188 121 -178 _c
}_e{121 -91 _l
147 -105 173 -115 199 -122 _c
225 -129 251 -133 278 -133 _c
336 -133 380 -117 410 -87 _c
439 -56 454 -10 454 52 _c
454 96 _l
435 64 411 40 382 24 _c
353 8 319 0 279 0 _c
211 0 157 25 116 76 _c
75 127 55 195 55 280 _c
55 364 75 432 116 483 _c
157 534 211 560 279 560 _c
319 560 353 552 382 536 _c
411 520 435 496 454 464 _c
454 547 _l
544 547 _l
}_e{544 68 _l
_cl}_e}_d
/h{634 0 91 0 549 760 _sc
549 330 _m
549 0 _l
459 0 _l
459 327 _l
459 379 448 417 428 443 _c
408 469 378 482 338 482 _c
289 482 251 466 223 435 _c
195 404 181 362 181 309 _c
181 0 _l
91 0 _l
91 760 _l
181 760 _l
181 462 _l
202 494 227 519 257 535 _c
286 551 320 560 358 560 _c
420 560 468 540 500 501 _c
532 462 549 405 549 330 _c
_cl}_d
/i{278 0 94 0 184 760 _sc
94 547 _m
184 547 _l
184 0 _l
94 0 _l
94 547 _l
94 760 _m
184 760 _l
184 646 _l
94 646 _l
94 760 _l
_cl}_d
/l{278 0 94 0 184 760 _sc
94 760 _m
184 760 _l
184 0 _l
94 0 _l
94 760 _l
_cl}_d
/m{{974 0 91 0 889 560 _sc
520 442 _m
542 482 569 511 600 531 _c
631 550 668 560 711 560 _c
767 560 811 540 842 500 _c
873 460 889 403 889 330 _c
889 0 _l
799 0 _l
799 327 _l
799 379 789 418 771 444 _c
752 469 724 482 686 482 _c
639 482 602 466 575 435 _c
548 404 535 362 535 309 _c
535 0 _l
445 0 _l
445 327 _l
445 379 435 418 417 444 _c
398 469 369 482 331 482 _c
}_e{285 482 248 466 221 435 _c
194 404 181 362 181 309 _c
181 0 _l
91 0 _l
91 547 _l
181 547 _l
181 462 _l
201 495 226 520 255 536 _c
283 552 317 560 357 560 _c
397 560 430 550 458 530 _c
486 510 506 480 520 442 _c
_cl}_e}_d
/n{634 0 91 0 549 560 _sc
549 330 _m
549 0 _l
459 0 _l
459 327 _l
459 379 448 417 428 443 _c
408 469 378 482 338 482 _c
289 482 251 466 223 435 _c
195 404 181 362 181 309 _c
181 0 _l
91 0 _l
91 547 _l
181 547 _l
181 462 _l
202 494 227 519 257 535 _c
286 551 320 560 358 560 _c
420 560 468 540 500 501 _c
532 462 549 405 549 330 _c
_cl}_d
/o{612 0 55 -13 557 560 _sc
306 484 _m
258 484 220 465 192 427 _c
164 389 150 338 150 273 _c
150 207 163 156 191 118 _c
219 80 257 62 306 62 _c
354 62 392 80 420 118 _c
448 156 462 207 462 273 _c
462 337 448 389 420 427 _c
392 465 354 484 306 484 _c
306 560 _m
384 560 445 534 490 484 _c
534 433 557 363 557 273 _c
557 183 534 113 490 63 _c
445 12 384 -13 306 -13 _c
227 -13 165 12 121 63 _c
77 113 55 183 55 273 _c
55 363 77 433 121 484 _c
165 534 227 560 306 560 _c
_cl}_d
/p{{635 0 91 -207 580 560 _sc
181 82 _m
181 -207 _l
91 -207 _l
91 547 _l
181 547 _l
181 464 _l
199 496 223 520 252 536 _c
281 552 316 560 356 560 _c
422 560 476 533 518 481 _c
559 428 580 359 580 273 _c
580 187 559 117 518 65 _c
476 13 422 -13 356 -13 _c
316 -13 281 -5 252 10 _c
223 25 199 49 181 82 _c
487 273 _m
487 339 473 390 446 428 _c
418 466 381 485 334 485 _c
}_e{286 485 249 466 222 428 _c
194 390 181 339 181 273 _c
181 207 194 155 222 117 _c
249 79 286 61 334 61 _c
381 61 418 79 446 117 _c
473 155 487 207 487 273 _c
_cl}_e}_d
/r{411 0 91 0 411 560 _sc
411 463 _m
401 469 390 473 378 476 _c
366 478 353 480 339 480 _c
288 480 249 463 222 430 _c
194 397 181 350 181 288 _c
181 0 _l
91 0 _l
91 547 _l
181 547 _l
181 462 _l
199 495 224 520 254 536 _c
284 552 321 560 365 560 _c
371 560 378 559 386 559 _c
393 558 401 557 411 555 _c
411 463 _l
_cl}_d
/s{{521 0 54 -13 472 560 _sc
443 531 _m
443 446 _l
417 458 391 468 364 475 _c
336 481 308 485 279 485 _c
234 485 200 478 178 464 _c
156 450 145 430 145 403 _c
145 382 153 366 169 354 _c
185 342 217 330 265 320 _c
296 313 _l
360 299 405 279 432 255 _c
458 230 472 195 472 151 _c
472 100 452 60 412 31 _c
372 1 316 -13 246 -13 _c
216 -13 186 -10 154 -5 _c
}_e{122 0 89 8 54 20 _c
54 113 _l
87 95 120 82 152 74 _c
184 65 216 61 248 61 _c
290 61 323 68 346 82 _c
368 96 380 117 380 144 _c
380 168 371 187 355 200 _c
339 213 303 226 247 238 _c
216 245 _l
160 257 119 275 95 299 _c
70 323 58 356 58 399 _c
58 450 76 490 112 518 _c
148 546 200 560 268 560 _c
301 560 332 557 362 552 _c
391 547 418 540 443 531 _c
}_e{_cl}_e}_d
/t{392 0 27 0 368 702 _sc
183 702 _m
183 547 _l
368 547 _l
368 477 _l
183 477 _l
183 180 _l
183 135 189 106 201 94 _c
213 81 238 75 276 75 _c
368 75 _l
368 0 _l
276 0 _l
206 0 158 13 132 39 _c
106 65 93 112 93 180 _c
93 477 _l
27 477 _l
27 547 _l
93 547 _l
93 702 _l
183 702 _l
_cl}_d
/u{634 0 85 -13 543 560 _sc
85 216 _m
85 547 _l
175 547 _l
175 219 _l
175 167 185 129 205 103 _c
225 77 255 64 296 64 _c
344 64 383 79 411 110 _c
439 141 453 183 453 237 _c
453 547 _l
543 547 _l
543 0 _l
453 0 _l
453 84 _l
431 50 405 26 377 10 _c
348 -5 315 -13 277 -13 _c
214 -13 166 6 134 45 _c
101 83 85 140 85 216 _c
311 560 _m
311 560 _l
_cl}_d
/w{818 0 42 0 776 547 _sc
42 547 _m
132 547 _l
244 120 _l
356 547 _l
462 547 _l
574 120 _l
686 547 _l
776 547 _l
633 0 _l
527 0 _l
409 448 _l
291 0 _l
185 0 _l
42 547 _l
_cl}_d
/x{592 0 29 0 559 547 _sc
549 547 _m
351 281 _l
559 0 _l
453 0 _l
294 215 _l
135 0 _l
29 0 _l
241 286 _l
47 547 _l
153 547 _l
298 352 _l
443 547 _l
549 547 _l
_cl}_d
/y{592 0 30 -207 562 547 _sc
322 -50 _m
296 -114 271 -157 247 -177 _c
223 -197 191 -207 151 -207 _c
79 -207 _l
79 -132 _l
132 -132 _l
156 -132 175 -126 189 -114 _c
203 -102 218 -75 235 -31 _c
251 9 _l
30 547 _l
125 547 _l
296 119 _l
467 547 _l
562 547 _l
322 -50 _l
_cl}_d
/z{525 0 43 0 482 547 _sc
55 547 _m
482 547 _l
482 465 _l
144 72 _l
482 72 _l
482 0 _l
43 0 _l
43 82 _l
381 475 _l
55 475 _l
55 547 _l
_cl}_d
/minus{838 0 106 272 732 355 _sc
106 355 _m
732 355 _l
732 272 _l
106 272 _l
106 355 _l
_cl}_d
end readonly def

/BuildGlyph
 {exch begin
 CharStrings exch
 2 copy known not{pop /.notdef}if
 true 3 1 roll get exec
 end}_d

/BuildChar {
 1 index /Encoding get exch get
 1 index /BuildGlyph get exec
}_d

FontName currentdict end definefont pop
end
%%EndProlog
mpldict begin
75.6 223.2 translate
460.8 345.6 0 0 clipbox
gsave
0 0 m
460.8 0 l
460.8 345.6 l
0 345.6 l
cl
1.000 setgray
fill
grestore
gsave
57.6 183.168 m
414.72 183.168 l
414.72 304.128 l
57.6 304.128 l
cl
1.000 setgray
fill
grestore
0.800 setlinewidth
1 setlinejoin
2 setlinecap
[] 0 setdash
0.690 setgray
gsave
357.1 121 57.6 183.2 clipbox
73.832727 183.168 m
73.832727 304.128 l
stroke
grestore
0 setlinecap
0.000 setgray
gsave
/o {
gsave
newpath
translate
0.8 setlinewidth
1 setlinejoin
0 setlinecap
0 0 m
0 -3.5 l

gsave
0.000 setgray
fill
grestore
stroke
grestore
} bind def
73.8327 183.168 o
grestore
/DejaVuSans findfont
10.000 scalefont
setfont
gsave
70.653040 168.574250 translate
0.000000 rotate
0.000000 0.000000 m /zero glyphshow
grestore
2 setlinecap
0.690 setgray
gsave
357.1 121 57.6 183.2 clipbox
114.618474 183.168 m
114.618474 304.128 l
stroke
grestore
0 setlinecap
0.000 setgray
gsave
/o {
gsave
newpath
translate
0.8 setlinewidth
1 setlinejoin
0 setlinecap
0 0 m
0 -3.5 l

gsave
0.000 setgray
fill
grestore
stroke
grestore
} bind def
114.618 183.168 o
grestore
gsave
108.259099 168.574250 translate
0.000000 rotate
0.000000 0.000000 m /two glyphshow
6.362305 0.000000 m /five glyphshow
grestore
2 setlinecap
0.690 setgray
gsave
357.1 121 57.6 183.2 clipbox
155.404221 183.168 m
155.404221 304.128 l
stroke
grestore
0 setlinecap
0.000 setgray
gsave
/o {
gsave
newpath
translate
0.8 setlinewidth
1 setlinejoin
0 setlinecap
0 0 m
0 -3.5 l

gsave
0.000 setgray
fill
grestore
stroke
grestore
} bind def
155.404 183.168 o
grestore
gsave
149.044846 168.574250 translate
0.000000 rotate
0.000000 0.000000 m /five glyphshow
6.362305 0.000000 m /zero glyphshow
grestore
2 setlinecap
0.690 setgray
gsave
357.1 121 57.6 183.2 clipbox
196.189968 183.168 m
196.189968 304.128 l
stroke
grestore
0 setlinecap
0.000 setgray
gsave
/o {
gsave
newpath
translate
0.8 setlinewidth
1 setlinejoin
0 setlinecap
0 0 m
0 -3.5 l

gsave
0.000 setgray
fill
grestore
stroke
grestore
} bind def
196.19 183.168 o
grestore
gsave
189.830593 168.574250 translate
0.000000 rotate
0.000000 0.000000 m /seven glyphshow
6.362305 0.000000 m /five glyphshow
grestore
2 setlinecap
0.690 setgray
gsave
357.1 121 57.6 183.2 clipbox
236.975715 183.168 m
236.975715 304.128 l
stroke
grestore
0 setlinecap
0.000 setgray
gsave
/o {
gsave
newpath
translate
0.8 setlinewidth
1 setlinejoin
0 setlinecap
0 0 m
0 -3.5 l

gsave
0.000 setgray
fill
grestore
stroke
grestore
} bind def
236.976 183.168 o
grestore
gsave
227.436652 168.574250 translate
0.000000 rotate
0.000000 0.000000 m /one glyphshow
6.362305 0.000000 m /zero glyphshow
12.724609 0.000000 m /zero glyphshow
grestore
2 setlinecap
0.690 setgray
gsave
357.1 121 57.6 183.2 clipbox
277.761462 183.168 m
277.761462 304.128 l
stroke
grestore
0 setlinecap
0.000 setgray
gsave
/o {
gsave
newpath
translate
0.8 setlinewidth
1 setlinejoin
0 setlinecap
0 0 m
0 -3.5 l

gsave
0.000 setgray
fill
grestore
stroke
grestore
} bind def
277.761 183.168 o
grestore
gsave
268.222399 168.574250 translate
0.000000 rotate
0.000000 0.000000 m /one glyphshow
6.362305 0.000000 m /two glyphshow
12.724609 0.000000 m /five glyphshow
grestore
2 setlinecap
0.690 setgray
gsave
357.1 121 57.6 183.2 clipbox
318.547209 183.168 m
318.547209 304.128 l
stroke
grestore
0 setlinecap
0.000 setgray
gsave
/o {
gsave
newpath
translate
0.8 setlinewidth
1 setlinejoin
0 setlinecap
0 0 m
0 -3.5 l

gsave
0.000 setgray
fill
grestore
stroke
grestore
} bind def
318.547 183.168 o
grestore
gsave
309.008146 168.574250 translate
0.000000 rotate
0.000000 0.000000 m /one glyphshow
6.362305 0.000000 m /five glyphshow
12.724609 0.000000 m /zero glyphshow
grestore
2 setlinecap
0.690 setgray
gsave
357.1 121 57.6 183.2 clipbox
359.332956 183.168 m
359.332956 304.128 l
stroke
grestore
0 setlinecap
0.000 setgray
gsave
/o {
gsave
newpath
translate
0.8 setlinewidth
1 setlinejoin
0 setlinecap
0 0 m
0 -3.5 l

gsave
0.000 setgray
fill
grestore
stroke
grestore
} bind def
359.333 183.168 o
grestore
gsave
349.793893 168.574250 translate
0.000000 rotate
0.000000 0.000000 m /one glyphshow
6.362305 0.000000 m /seven glyphshow
12.724609 0.000000 m /five glyphshow
grestore
2 setlinecap
0.690 setgray
gsave
357.1 121 57.6 183.2 clipbox
400.118703 183.168 m
400.118703 304.128 l
stroke
grestore
0 setlinecap
0.000 setgray
gsave
/o {
gsave
newpath
translate
0.8 setlinewidth
1 setlinejoin
0 setlinecap
0 0 m
0 -3.5 l

gsave
0.000 setgray
fill
grestore
stroke
grestore
} bind def
400.119 183.168 o
grestore
gsave
390.579640 168.574250 translate
0.000000 rotate
0.000000 0.000000 m /two glyphshow
6.362305 0.000000 m /zero glyphshow
12.724609 0.000000 m /zero glyphshow
grestore
gsave
217.410000 154.902375 translate
0.000000 rotate
0.000000 0.000000 m /S glyphshow
6.347656 0.000000 m /a glyphshow
12.475586 0.000000 m /m glyphshow
22.216797 0.000000 m /p glyphshow
28.564453 0.000000 m /l glyphshow
31.342773 0.000000 m /e glyphshow
grestore
2 setlinecap
0.690 setgray
gsave
357.1 121 57.6 183.2 clipbox
57.6 183.784278 m
414.72 183.784278 l
stroke
grestore
0 setlinecap
0.000 setgray
gsave
/o {
gsave
newpath
translate
0.8 setlinewidth
1 setlinejoin
0 setlinecap
0 0 m
-3.5 0 l

gsave
0.000 setgray
fill
grestore
stroke
grestore
} bind def
57.6 183.784 o
grestore
gsave
19.959375 179.987403 translate
0.000000 rotate
0.000000 0.000000 m /minus glyphshow
8.378906 0.000000 m /zero glyphshow
14.741211 0.000000 m /period glyphshow
17.919922 0.000000 m /five glyphshow
24.282227 0.000000 m /zero glyphshow
grestore
2 setlinecap
0.690 setgray
gsave
357.1 121 57.6 183.2 clipbox
57.6 206.482397 m
414.72 206.482397 l
stroke
grestore
0 setlinecap
0.000 setgray
gsave
/o {
gsave
newpath
translate
0.8 setlinewidth
1 setlinejoin
0 setlinecap
0 0 m
-3.5 0 l

gsave
0.000 setgray
fill
grestore
stroke
grestore
} bind def
57.6 206.482 o
grestore
gsave
19.959375 202.685522 translate
0.000000 rotate
0.000000 0.000000 m /minus glyphshow
8.378906 0.000000 m /zero glyphshow
14.741211 0.000000 m /period glyphshow
17.919922 0.000000 m /two glyphshow
24.282227 0.000000 m /five glyphshow
grestore
2 setlinecap
0.690 setgray
gsave
357.1 121 57.6 183.2 clipbox
57.6 229.180515 m
414.72 229.180515 l
stroke
grestore
0 setlinecap
0.000 setgray
gsave
/o {
gsave
newpath
translate
0.8 setlinewidth
1 setlinejoin
0 setlinecap
0 0 m
-3.5 0 l

gsave
0.000 setgray
fill
grestore
stroke
grestore
} bind def
57.6 229.181 o
grestore
gsave
28.334375 225.383640 translate
0.000000 rotate
0.000000 0.000000 m /zero glyphshow
6.362305 0.000000 m /period glyphshow
9.541016 0.000000 m /zero glyphshow
15.903320 0.000000 m /zero glyphshow
grestore
2 setlinecap
0.690 setgray
gsave
357.1 121 57.6 183.2 clipbox
57.6 251.878634 m
414.72 251.878634 l
stroke
grestore
0 setlinecap
0.000 setgray
gsave
/o {
gsave
newpath
translate
0.8 setlinewidth
1 setlinejoin
0 setlinecap
0 0 m
-3.5 0 l

gsave
0.000 setgray
fill
grestore
stroke
grestore
} bind def
57.6 251.879 o
grestore
gsave
28.334375 248.081759 translate
0.000000 rotate
0.000000 0.000000 m /zero glyphshow
6.362305 0.000000 m /period glyphshow
9.541016 0.000000 m /two glyphshow
15.903320 0.000000 m /five glyphshow
grestore
2 setlinecap
0.690 setgray
gsave
357.1 121 57.6 183.2 clipbox
57.6 274.576752 m
414.72 274.576752 l
stroke
grestore
0 setlinecap
0.000 setgray
gsave
/o {
gsave
newpath
translate
0.8 setlinewidth
1 setlinejoin
0 setlinecap
0 0 m
-3.5 0 l

gsave
0.000 setgray
fill
grestore
stroke
grestore
} bind def
57.6 274.577 o
grestore
gsave
28.334375 270.779877 translate
0.000000 rotate
0.000000 0.000000 m /zero glyphshow
6.362305 0.000000 m /period glyphshow
9.541016 0.000000 m /five glyphshow
15.903320 0.000000 m /zero glyphshow
grestore
2 setlinecap
0.690 setgray
gsave
357.1 121 57.6 183.2 clipbox
57.6 297.274871 m
414.72 297.274871 l
stroke
grestore
0 setlinecap
0.000 setgray
gsave
/o {
gsave
newpath
translate
0.8 setlinewidth
1 setlinejoin
0 setlinecap
0 0 m
-3.5 0 l

gsave
0.000 setgray
fill
grestore
stroke
grestore
} bind def
57.6 297.275 o
grestore
gsave
28.334375 293.477996 translate
0.000000 rotate
0.000000 0.000000 m /zero glyphshow
6.362305 0.000000 m /period glyphshow
9.541016 0.000000 m /seven glyphshow
15.903320 0.000000 m /five glyphshow
grestore
gsave
13.881250 199.632375 translate
90.000000 rotate
0.000000 0.000000 m /P glyphshow
6.030273 0.000000 m /o glyphshow
12.148438 0.000000 m /s glyphshow
17.358398 0.000000 m /i glyphshow
20.136719 0.000000 m /t glyphshow
24.057617 0.000000 m /i glyphshow
26.835938 0.000000 m /o glyphshow
32.954102 0.000000 m /n glyphshow
39.291992 0.000000 m /space glyphshow
42.470703 0.000000 m /E glyphshow
48.789062 0.000000 m /r glyphshow
52.900391 0.000000 m /r glyphshow
57.011719 0.000000 m /o glyphshow
63.129883 0.000000 m /r glyphshow
67.241211 0.000000 m /space glyphshow
70.419922 0.000000 m /bracketleft glyphshow
74.321289 0.000000 m /m glyphshow
84.062500 0.000000 m /bracketright glyphshow
grestore
1.500 setlinewidth
2 setlinecap
0.122 0.467 0.706 setrgbcolor
gsave
357.1 121 57.6 183.2 clipbox
73.832727 224.926983 m
75.464157 225.664556 l
77.095587 230.228537 l
78.727017 228.889339 l
80.358447 231.070888 l
81.989877 227.800823 l
83.621307 228.428434 l
85.252736 228.064301 l
86.884166 225.03081 l
88.515596 230.19627 l
90.147026 230.441298 l
91.778456 223.117148 l
93.409886 227.078297 l
95.041316 229.799868 l
96.672746 226.199258 l
98.304175 225.8817 l
99.935605 227.112058 l
101.567035 228.552544 l
103.198465 225.904227 l
104.829895 232.835569 l
106.461325 227.143268 l
108.092755 233.717289 l
109.724185 230.669838 l
111.355614 231.920894 l
112.987044 229.391196 l
114.618474 229.757776 l
116.249904 233.003725 l
117.881334 231.346376 l
119.512764 231.303537 l
121.144194 226.654378 l
122.775624 233.564155 l
124.407053 232.245093 l
126.038483 230.250305 l
127.669913 228.032075 l
129.301343 226.851765 l
130.932773 229.328714 l
132.564203 229.006388 l
134.195633 228.070517 l
135.827063 225.221994 l
137.458492 224.279833 l
139.089922 218.050462 l
140.721352 227.564978 l
142.352782 229.790826 l
143.984212 231.715506 l
145.615642 224.184595 l
147.247072 220.095832 l
148.878502 238.791322 l
150.509931 230.232281 l
152.141361 230.672919 l
153.772791 218.420622 l
155.404221 230.188761 l
157.035651 222.758385 l
158.667081 223.487609 l
160.298511 230.261034 l
161.929941 221.614869 l
163.56137 226.208168 l
165.1928 216.190422 l
166.82423 219.572169 l
168.45566 237.751365 l
170.08709 220.755394 l
171.71852 226.49321 l
173.34995 231.29733 l
174.98138 244.41269 l
176.61281 232.174667 l
178.244239 218.176529 l
179.875669 229.126212 l
181.507099 224.646399 l
183.138529 249.28245 l
184.769959 244.692585 l
186.401389 229.697078 l
188.032819 236.35435 l
189.664249 227.381069 l
191.295678 226.960948 l
192.927108 228.771606 l
194.558538 221.305634 l
196.189968 227.493451 l
197.821398 228.06918 l
199.452828 240.610808 l
201.084258 226.329324 l
202.715688 233.10147 l
204.347117 234.55006 l
205.978547 228.574827 l
207.609977 238.156057 l
209.241407 214.289707 l
210.872837 226.419363 l
212.504267 225.130342 l
214.135697 231.053577 l
215.767127 227.772514 l
217.398556 223.901317 l
219.029986 226.197962 l
220.661416 231.013187 l
222.292846 256.848159 l
223.924276 221.925089 l
225.555706 232.814338 l
227.187136 212.656585 l
228.818566 242.018733 l
230.449995 233.601649 l
232.081425 248.354245 l
233.712855 216.404637 l
235.344285 246.55021 l
236.975715 220.869258 l
238.607145 215.835533 l
240.238575 229.863196 l
241.870005 229.985666 l
243.501434 238.736826 l
245.132864 227.531824 l
246.764294 224.56189 l
248.395724 227.35681 l
250.027154 236.39514 l
251.658584 227.344464 l
253.290014 234.411285 l
254.921444 258.073451 l
256.552873 247.123541 l
258.184303 240.515161 l
259.815733 223.938 l
261.447163 259.308159 l
263.078593 220.214336 l
264.710023 216.709336 l
266.341453 246.837989 l
267.972883 236.998718 l
269.604312 212.108088 l
271.235742 279.891621 l
272.867172 219.470491 l
274.498602 240.866035 l
276.130032 221.28159 l
277.761462 240.990585 l
279.392892 245.535369 l
281.024322 241.081787 l
282.655751 224.703918 l
284.287181 248.291949 l
285.918611 221.477871 l
287.550041 240.748962 l
289.181471 232.35871 l
290.812901 238.382509 l
292.444331 209.290054 l
294.075761 237.300415 l
295.70719 257.941925 l
297.33862 287.383387 l
298.97005 227.951431 l
300.60148 233.940263 l
302.23291 206.863627 l
303.86434 266.642472 l
305.49577 244.868936 l
307.1272 238.849454 l
308.75863 244.09323 l
310.390059 253.115193 l
312.021489 264.68096 l
313.652919 228.925813 l
315.284349 225.461284 l
316.915779 228.236041 l
318.547209 235.887376 l
320.178639 237.737364 l
321.810069 238.497586 l
323.441498 241.286401 l
325.072928 222.380787 l
328.335788 245.064414 l
329.967218 234.618229 l
331.598648 243.692805 l
333.230078 227.723041 l
334.861508 229.969369 l
336.492937 203.269238 l
338.124367 209.959531 l
339.755797 249.746762 l
341.387227 298.629818 l
343.018657 208.12067 l
344.650087 228.980258 l
346.281517 228.648203 l
347.912947 224.645898 l
349.544376 212.317996 l
351.175806 227.530168 l
352.807236 214.58057 l
354.438666 221.226784 l
356.070096 222.447374 l
357.701526 237.185399 l
359.332956 230.31567 l
360.964386 254.577239 l
362.595815 241.375095 l
364.227245 246.886837 l
365.858675 218.366396 l
367.490105 237.576995 l
369.121535 234.572076 l
370.752965 226.512567 l
372.384395 217.61102 l
374.015825 226.982022 l
375.647254 241.93941 l
377.278684 219.446696 l
378.910114 249.421193 l
380.541544 231.686817 l
382.172974 245.199463 l
383.804404 234.125974 l
385.435834 249.725338 l
387.067264 251.619172 l
388.698693 242.267358 l
390.330123 236.848261 l
391.961553 281.24491 l
393.592983 228.243274 l
395.224413 251.726627 l
396.855843 258.95086 l
398.487273 216.810836 l
398.487273 216.810836 l
stroke
grestore
1.000 setlinewidth
0 setlinecap
gsave
357.1 121 57.6 183.2 clipbox
/o {
gsave
newpath
translate
1.0 setlinewidth
1 setlinejoin
0 setlinecap
0 -1.5 m
0.397805 -1.5 0.77937 -1.341951 1.06066 -1.06066 c
1.341951 -0.77937 1.5 -0.397805 1.5 0 c
1.5 0.397805 1.341951 0.77937 1.06066 1.06066 c
0.77937 1.341951 0.397805 1.5 0 1.5 c
-0.397805 1.5 -0.77937 1.341951 -1.06066 1.06066 c
-1.341951 0.77937 -1.5 0.397805 -1.5 0 c
-1.5 -0.397805 -1.341951 -0.77937 -1.06066 -1.06066 c
-0.77937 -1.341951 -0.397805 -1.5 0 -1.5 c
cl

gsave
0.122 0.467 0.706 setrgbcolor
fill
grestore
stroke
grestore
} bind def
73.8327 224.927 o
75.4642 225.665 o
77.0956 230.229 o
78.727 228.889 o
80.3584 231.071 o
81.9899 227.801 o
83.6213 228.428 o
85.2527 228.064 o
86.8842 225.031 o
88.5156 230.196 o
90.147 230.441 o
91.7785 223.117 o
93.4099 227.078 o
95.0413 229.8 o
96.6727 226.199 o
98.3042 225.882 o
99.9356 227.112 o
101.567 228.553 o
103.198 225.904 o
104.83 232.836 o
106.461 227.143 o
108.093 233.717 o
109.724 230.67 o
111.356 231.921 o
112.987 229.391 o
114.618 229.758 o
116.25 233.004 o
117.881 231.346 o
119.513 231.304 o
121.144 226.654 o
122.776 233.564 o
124.407 232.245 o
126.038 230.25 o
127.67 228.032 o
129.301 226.852 o
130.933 229.329 o
132.564 229.006 o
134.196 228.071 o
135.827 225.222 o
137.458 224.28 o
139.09 218.05 o
140.721 227.565 o
142.353 229.791 o
143.984 231.716 o
145.616 224.185 o
147.247 220.096 o
148.879 238.791 o
150.51 230.232 o
152.141 230.673 o
153.773 218.421 o
155.404 230.189 o
157.036 222.758 o
158.667 223.488 o
160.299 230.261 o
161.93 221.615 o
163.561 226.208 o
165.193 216.19 o
166.824 219.572 o
168.456 237.751 o
170.087 220.755 o
171.719 226.493 o
173.35 231.297 o
174.981 244.413 o
176.613 232.175 o
178.244 218.177 o
179.876 229.126 o
181.507 224.646 o
183.139 249.282 o
184.77 244.693 o
186.401 229.697 o
188.033 236.354 o
189.664 227.381 o
191.296 226.961 o
192.927 228.772 o
194.559 221.306 o
196.19 227.493 o
197.821 228.069 o
199.453 240.611 o
201.084 226.329 o
202.716 233.101 o
204.347 234.55 o
205.979 228.575 o
207.61 238.156 o
209.241 214.29 o
210.873 226.419 o
212.504 225.13 o
214.136 231.054 o
215.767 227.773 o
217.399 223.901 o
219.03 226.198 o
220.661 231.013 o
222.293 256.848 o
223.924 221.925 o
225.556 232.814 o
227.187 212.657 o
228.819 242.019 o
230.45 233.602 o
232.081 248.354 o
233.713 216.405 o
235.344 246.55 o
236.976 220.869 o
238.607 215.836 o
240.239 229.863 o
241.87 229.986 o
243.501 238.737 o
245.133 227.532 o
246.764 224.562 o
248.396 227.357 o
250.027 236.395 o
251.659 227.344 o
253.29 234.411 o
254.921 258.073 o
256.553 247.124 o
258.184 240.515 o
259.816 223.938 o
261.447 259.308 o
263.079 220.214 o
264.71 216.709 o
266.341 246.838 o
267.973 236.999 o
269.604 212.108 o
271.236 279.892 o
272.867 219.47 o
274.499 240.866 o
276.13 221.282 o
277.761 240.991 o
279.393 245.535 o
281.024 241.082 o
282.656 224.704 o
284.287 248.292 o
285.919 221.478 o
287.55 240.749 o
289.181 232.359 o
290.813 238.383 o
292.444 209.29 o
294.076 237.3 o
295.707 257.942 o
297.339 287.383 o
298.97 227.951 o
300.601 233.94 o
302.233 206.864 o
303.864 266.642 o
305.496 244.869 o
307.127 238.849 o
308.759 244.093 o
310.39 253.115 o
312.021 264.681 o
313.653 228.926 o
315.284 225.461 o
316.916 228.236 o
318.547 235.887 o
320.179 237.737 o
321.81 238.498 o
323.441 241.286 o
325.073 222.381 o
326.704 234.051 o
328.336 245.064 o
329.967 234.618 o
331.599 243.693 o
333.23 227.723 o
334.862 229.969 o
336.493 203.269 o
338.124 209.96 o
339.756 249.747 o
341.387 298.63 o
343.019 208.121 o
344.65 228.98 o
346.282 228.648 o
347.913 224.646 o
349.544 212.318 o
351.176 227.53 o
352.807 214.581 o
354.439 221.227 o
356.07 222.447 o
357.702 237.185 o
359.333 230.316 o
360.964 254.577 o
362.596 241.375 o
364.227 246.887 o
365.859 218.366 o
367.49 237.577 o
369.122 234.572 o
370.753 226.513 o
372.384 217.611 o
374.016 226.982 o
375.647 241.939 o
377.279 219.447 o
378.91 249.421 o
380.542 231.687 o
382.173 245.199 o
383.804 234.126 o
385.436 249.725 o
387.067 251.619 o
388.699 242.267 o
390.33 236.848 o
391.962 281.245 o
393.593 228.243 o
395.224 251.727 o
396.856 258.951 o
398.487 216.811 o
grestore
1.500 setlinewidth
2 setlinecap
1.000 0.498 0.055 setrgbcolor
gsave
357.1 121 57.6 183.2 clipbox
73.832727 228.916579 m
75.464157 232.430606 l
77.095587 229.653569 l
78.727017 232.244803 l
80.358447 230.347572 l
81.989877 229.962171 l
83.621307 228.121401 l
85.252736 228.547555 l
86.884166 229.198356 l
88.515596 228.618901 l
90.147026 230.049765 l
91.778456 232.16961 l
93.409886 229.502673 l
95.041316 226.201861 l
96.672746 227.835887 l
98.304175 230.902581 l
99.935605 230.210559 l
101.567035 230.157494 l
103.198465 231.505353 l
104.829895 226.625857 l
106.461325 236.568186 l
108.092755 225.222643 l
109.724185 228.79118 l
111.355614 226.905182 l
112.987044 229.943516 l
114.618474 229.55749 l
116.249904 231.949011 l
117.881334 232.781311 l
119.512764 226.918196 l
121.144194 232.796182 l
122.775624 229.05236 l
124.407053 226.688798 l
126.038483 222.455543 l
127.669913 231.146625 l
129.301343 237.151843 l
130.932773 230.25441 l
132.564203 229.960678 l
134.195633 231.816865 l
135.827063 232.755308 l
137.458492 228.330705 l
139.089922 234.239855 l
140.721352 233.926856 l
142.352782 229.723759 l
143.984212 225.940936 l
145.615642 229.311601 l
147.247072 226.82999 l
148.878502 230.872086 l
150.509931 230.372224 l
152.141361 229.659977 l
153.772791 232.459657 l
155.404221 229.523547 l
157.035651 232.987131 l
158.667081 232.834531 l
160.298511 232.151169 l
163.56137 226.650025 l
165.1928 226.415636 l
166.82423 228.197957 l
168.45566 230.730786 l
170.08709 223.443906 l
171.71852 234.639235 l
173.34995 232.377878 l
174.98138 234.259524 l
176.61281 222.263397 l
178.244239 231.022514 l
179.875669 227.11654 l
181.507099 231.174241 l
183.138529 234.925901 l
184.769959 226.713584 l
186.401389 228.375113 l
188.032819 239.158042 l
189.664249 225.353632 l
191.295678 226.571161 l
192.927108 233.916055 l
194.558538 228.941735 l
196.189968 228.315679 l
197.821398 233.612443 l
199.452828 228.48826 l
201.084258 238.214178 l
202.715688 227.895117 l
204.347117 229.408676 l
205.978547 231.766723 l
207.609977 230.220332 l
209.241407 221.179427 l
210.872837 226.567162 l
212.504267 228.388114 l
214.135697 244.875683 l
215.767127 231.608495 l
217.398556 221.786485 l
219.029986 229.111067 l
220.661416 257.118216 l
222.292846 251.047364 l
223.924276 220.686777 l
225.555706 222.049913 l
227.187136 227.483496 l
228.818566 240.53715 l
230.449995 244.045336 l
232.081425 235.284041 l
233.712855 221.602265 l
235.344285 238.346775 l
236.975715 227.522086 l
238.607145 229.307409 l
241.870005 238.259021 l
243.501434 237.074457 l
245.132864 218.049277 l
246.764294 246.454906 l
248.395724 243.294691 l
250.027154 232.063269 l
251.658584 208.380045 l
253.290014 243.027428 l
254.921444 230.372659 l
256.552873 225.636062 l
258.184303 234.297127 l
259.815733 218.159783 l
261.447163 224.67605 l
263.078593 221.568568 l
264.710023 223.316046 l
266.341453 268.615845 l
267.972883 245.430937 l
269.604312 232.597353 l
271.235742 221.61349 l
272.867172 193.771334 l
274.498602 243.09982 l
276.130032 236.393824 l
277.761462 234.8864 l
279.392892 225.910116 l
281.024322 188.666182 l
282.655751 243.801464 l
284.287181 205.74217 l
285.918611 215.798258 l
287.550041 230.087837 l
289.181471 225.154497 l
290.812901 255.323791 l
292.444331 220.662337 l
294.075761 234.447956 l
295.70719 233.770451 l
297.33862 239.933057 l
298.97005 233.335996 l
300.60148 210.891135 l
302.23291 213.755781 l
303.86434 225.944796 l
305.49577 247.193852 l
307.1272 235.268196 l
308.75863 240.23306 l
310.390059 209.675982 l
312.021489 227.919901 l
313.652919 223.844173 l
315.284349 235.605177 l
316.915779 237.896557 l
318.547209 217.62142 l
321.810069 252.215507 l
323.441498 229.460451 l
325.072928 229.29927 l
326.704358 198.099949 l
328.335788 262.059651 l
329.967218 214.465547 l
331.598648 226.385601 l
333.230078 242.611707 l
334.861508 224.488249 l
336.492937 236.774454 l
338.124367 207.319084 l
339.755797 232.242323 l
341.387227 236.033115 l
343.018657 244.47191 l
344.650087 217.354798 l
346.281517 218.560975 l
347.912947 196.097182 l
349.544376 205.473343 l
351.175806 223.497691 l
352.807236 272.189468 l
354.438666 203.171394 l
356.070096 234.938479 l
357.701526 221.410999 l
359.332956 255.656237 l
360.964386 192.296782 l
362.595815 254.542557 l
364.227245 202.606316 l
365.858675 213.67497 l
367.490105 258.796764 l
369.121535 255.634382 l
370.752965 229.556649 l
372.384395 232.726339 l
374.015825 267.41999 l
375.647254 222.672114 l
377.278684 260.370454 l
378.910114 226.15836 l
380.541544 207.230415 l
382.172974 223.496315 l
383.804404 274.219469 l
385.435834 220.897992 l
387.067264 235.829344 l
388.698693 223.469099 l
390.330123 209.48512 l
391.961553 228.288062 l
393.592983 218.668183 l
395.224413 234.037408 l
396.855843 223.157459 l
398.487273 250.397366 l
398.487273 250.397366 l
stroke
grestore
1.000 setlinewidth
0 setlinecap
gsave
357.1 121 57.6 183.2 clipbox
/o {
gsave
newpath
translate
1.0 setlinewidth
1 setlinejoin
0 setlinecap
0 -1.5 m
0.397805 -1.5 0.77937 -1.341951 1.06066 -1.06066 c
1.341951 -0.77937 1.5 -0.397805 1.5 0 c
1.5 0.397805 1.341951 0.77937 1.06066 1.06066 c
0.77937 1.341951 0.397805 1.5 0 1.5 c
-0.397805 1.5 -0.77937 1.341951 -1.06066 1.06066 c
-1.341951 0.77937 -1.5 0.397805 -1.5 0 c
-1.5 -0.397805 -1.341951 -0.77937 -1.06066 -1.06066 c
-0.77937 -1.341951 -0.397805 -1.5 0 -1.5 c
cl

gsave
1.000 0.498 0.055 setrgbcolor
fill
grestore
stroke
grestore
} bind def
73.8327 228.917 o
75.4642 232.431 o
77.0956 229.654 o
78.727 232.245 o
80.3584 230.348 o
81.9899 229.962 o
83.6213 228.121 o
85.2527 228.548 o
86.8842 229.198 o
88.5156 228.619 o
90.147 230.05 o
91.7785 232.17 o
93.4099 229.503 o
95.0413 226.202 o
96.6727 227.836 o
98.3042 230.903 o
99.9356 230.211 o
101.567 230.157 o
103.198 231.505 o
104.83 226.626 o
106.461 236.568 o
108.093 225.223 o
109.724 228.791 o
111.356 226.905 o
112.987 229.944 o
114.618 229.557 o
116.25 231.949 o
117.881 232.781 o
119.513 226.918 o
121.144 232.796 o
122.776 229.052 o
124.407 226.689 o
126.038 222.456 o
127.67 231.147 o
129.301 237.152 o
130.933 230.254 o
132.564 229.961 o
134.196 231.817 o
135.827 232.755 o
137.458 228.331 o
139.09 234.24 o
140.721 233.927 o
142.353 229.724 o
143.984 225.941 o
145.616 229.312 o
147.247 226.83 o
148.879 230.872 o
150.51 230.372 o
152.141 229.66 o
153.773 232.46 o
155.404 229.524 o
157.036 232.987 o
158.667 232.835 o
160.299 232.151 o
161.93 229.419 o
163.561 226.65 o
165.193 226.416 o
166.824 228.198 o
168.456 230.731 o
170.087 223.444 o
171.719 234.639 o
173.35 232.378 o
174.981 234.26 o
176.613 222.263 o
178.244 231.023 o
179.876 227.117 o
181.507 231.174 o
183.139 234.926 o
184.77 226.714 o
186.401 228.375 o
188.033 239.158 o
189.664 225.354 o
191.296 226.571 o
192.927 233.916 o
194.559 228.942 o
196.19 228.316 o
197.821 233.612 o
199.453 228.488 o
201.084 238.214 o
202.716 227.895 o
204.347 229.409 o
205.979 231.767 o
207.61 230.22 o
209.241 221.179 o
210.873 226.567 o
212.504 228.388 o
214.136 244.876 o
215.767 231.608 o
217.399 221.786 o
219.03 229.111 o
220.661 257.118 o
222.293 251.047 o
223.924 220.687 o
225.556 222.05 o
227.187 227.483 o
228.819 240.537 o
230.45 244.045 o
232.081 235.284 o
233.713 221.602 o
235.344 238.347 o
236.976 227.522 o
238.607 229.307 o
240.239 233.872 o
241.87 238.259 o
243.501 237.074 o
245.133 218.049 o
246.764 246.455 o
248.396 243.295 o
250.027 232.063 o
251.659 208.38 o
253.29 243.027 o
254.921 230.373 o
256.553 225.636 o
258.184 234.297 o
259.816 218.16 o
261.447 224.676 o
263.079 221.569 o
264.71 223.316 o
266.341 268.616 o
267.973 245.431 o
269.604 232.597 o
271.236 221.613 o
272.867 193.771 o
274.499 243.1 o
276.13 236.394 o
277.761 234.886 o
279.393 225.91 o
281.024 188.666 o
282.656 243.801 o
284.287 205.742 o
285.919 215.798 o
287.55 230.088 o
289.181 225.154 o
290.813 255.324 o
292.444 220.662 o
294.076 234.448 o
295.707 233.77 o
297.339 239.933 o
298.97 233.336 o
300.601 210.891 o
302.233 213.756 o
303.864 225.945 o
305.496 247.194 o
307.127 235.268 o
308.759 240.233 o
310.39 209.676 o
312.021 227.92 o
313.653 223.844 o
315.284 235.605 o
316.916 237.897 o
318.547 217.621 o
320.179 234.838 o
321.81 252.216 o
323.441 229.46 o
325.073 229.299 o
326.704 198.1 o
328.336 262.06 o
329.967 214.466 o
331.599 226.386 o
333.23 242.612 o
334.862 224.488 o
336.493 236.774 o
338.124 207.319 o
339.756 232.242 o
341.387 236.033 o
343.019 244.472 o
344.65 217.355 o
346.282 218.561 o
347.913 196.097 o
349.544 205.473 o
351.176 223.498 o
352.807 272.189 o
354.439 203.171 o
356.07 234.938 o
357.702 221.411 o
359.333 255.656 o
360.964 192.297 o
362.596 254.543 o
364.227 202.606 o
365.859 213.675 o
367.49 258.797 o
369.122 255.634 o
370.753 229.557 o
372.384 232.726 o
374.016 267.42 o
375.647 222.672 o
377.279 260.37 o
378.91 226.158 o
380.542 207.23 o
382.173 223.496 o
383.804 274.219 o
385.436 220.898 o
387.067 235.829 o
388.699 223.469 o
390.33 209.485 o
391.962 228.288 o
393.593 218.668 o
395.224 234.037 o
396.856 223.157 o
398.487 250.397 o
grestore
1.500 setlinewidth
2 setlinecap
0.173 0.627 0.173 setrgbcolor
gsave
357.1 121 57.6 183.2 clipbox
73.832727 228.782071 m
75.464157 233.29703 l
77.095587 227.335017 l
78.727017 229.480346 l
80.358447 229.36013 l
81.989877 225.096528 l
83.621307 231.061891 l
85.252736 228.842335 l
86.884166 229.17673 l
88.515596 231.268972 l
90.147026 232.559087 l
91.778456 229.465864 l
93.409886 225.391067 l
95.041316 231.144694 l
96.672746 231.577012 l
98.304175 229.964632 l
99.935605 230.729159 l
101.567035 231.279954 l
103.198465 227.771633 l
104.829895 227.491415 l
106.461325 228.361841 l
108.092755 228.27502 l
109.724185 229.231793 l
111.355614 227.922301 l
112.987044 227.44344 l
114.618474 230.352299 l
116.249904 225.608723 l
117.881334 228.396764 l
119.512764 229.270422 l
121.144194 230.444151 l
122.775624 228.002979 l
124.407053 229.57093 l
126.038483 230.978081 l
127.669913 229.918065 l
129.301343 225.941541 l
130.932773 229.492636 l
132.564203 229.400031 l
134.195633 228.1528 l
135.827063 225.979339 l
137.458492 231.987435 l
139.089922 234.512933 l
140.721352 228.60555 l
142.352782 231.08631 l
143.984212 233.127 l
145.615642 231.226248 l
147.247072 232.437534 l
148.878502 229.645249 l
150.509931 229.548438 l
152.141361 224.233901 l
153.772791 227.026249 l
155.404221 231.299277 l
157.035651 231.311079 l
158.667081 223.541041 l
160.298511 229.941436 l
161.929941 228.191637 l
163.56137 233.375339 l
165.1928 230.588228 l
166.82423 221.311943 l
168.45566 239.012896 l
170.08709 225.847349 l
171.71852 223.487653 l
173.34995 222.424176 l
174.98138 230.132962 l
176.61281 231.094863 l
178.244239 222.078559 l
179.875669 233.220266 l
181.507099 222.168091 l
183.138529 234.875412 l
184.769959 241.406162 l
186.401389 232.666591 l
188.032819 233.218889 l
189.664249 224.337959 l
191.295678 221.382291 l
192.927108 220.382669 l
194.558538 221.825074 l
196.189968 223.086069 l
197.821398 231.423946 l
199.452828 236.66414 l
201.084258 224.21915 l
202.715688 243.788842 l
204.347117 233.134475 l
205.978547 247.464679 l
207.609977 234.33259 l
209.241407 216.027391 l
210.872837 241.109957 l
212.504267 235.528153 l
214.135697 233.558158 l
215.767127 223.164711 l
217.398556 206.430828 l
219.029986 222.436688 l
220.661416 229.773702 l
222.292846 259.122701 l
223.924276 233.521155 l
225.555706 233.262987 l
227.187136 207.740961 l
228.818566 255.273624 l
230.449995 242.917083 l
232.081425 242.893258 l
233.712855 226.01661 l
235.344285 231.803695 l
236.975715 237.112904 l
238.607145 213.498291 l
240.238575 238.591038 l
241.870005 233.977327 l
243.501434 238.190613 l
245.132864 241.040757 l
246.764294 243.521333 l
248.395724 236.37276 l
250.027154 209.332231 l
251.658584 218.076214 l
253.290014 231.331003 l
254.921444 242.724056 l
256.552873 231.311915 l
258.184303 237.95553 l
259.815733 229.559613 l
261.447163 245.939744 l
263.078593 246.381498 l
264.710023 228.116254 l
266.341453 260.149114 l
267.972883 256.610886 l
269.604312 221.729034 l
271.235742 261.380779 l
272.867172 233.086944 l
274.498602 236.179594 l
276.130032 231.024806 l
277.761462 272.976466 l
279.392892 235.16181 l
281.024322 230.811928 l
282.655751 233.760193 l
284.287181 244.783511 l
285.918611 205.831228 l
287.550041 252.063379 l
289.181471 228.444325 l
290.812901 238.599491 l
292.444331 213.526782 l
294.075761 244.192448 l
295.70719 250.609216 l
297.33862 264.017059 l
298.97005 223.787615 l
300.60148 234.241817 l
302.23291 194.665879 l
303.86434 233.715507 l
305.49577 260.3544 l
307.1272 223.977472 l
308.75863 230.622897 l
310.390059 247.579213 l
312.021489 220.581054 l
315.284349 253.452974 l
316.915779 250.025217 l
318.547209 222.287972 l
320.178639 241.520291 l
321.810069 272.229531 l
323.441498 259.606375 l
325.072928 232.551653 l
326.704358 213.643853 l
328.335788 263.715069 l
329.967218 203.637192 l
331.598648 241.476676 l
333.230078 240.986857 l
334.861508 234.562579 l
336.492937 240.395173 l
338.124367 212.647485 l
339.755797 222.34986 l
341.387227 236.975551 l
343.018657 245.354347 l
344.650087 222.500158 l
346.281517 217.011669 l
347.912947 198.37664 l
349.544376 218.490803 l
351.175806 220.900533 l
352.807236 275.07575 l
354.438666 227.112893 l
356.070096 246.596914 l
357.701526 221.344431 l
359.332956 288.90972 l
360.964386 244.550444 l
362.595815 250.491006 l
364.227245 195.626274 l
365.858675 229.969713 l
367.490105 234.401646 l
369.121535 231.89658 l
370.752965 269.162364 l
372.384395 250.665137 l
374.015825 240.634699 l
375.647254 212.626835 l
377.278684 253.541887 l
378.910114 253.73801 l
380.541544 235.990118 l
382.172974 215.397675 l
383.804404 241.224396 l
385.435834 244.081774 l
387.067264 212.711993 l
388.698693 212.934202 l
390.330123 217.003546 l
391.961553 200.664132 l
393.592983 232.627852 l
395.224413 213.484827 l
396.855843 227.460911 l
398.487273 273.998724 l
398.487273 273.998724 l
stroke
grestore
1.000 setlinewidth
0 setlinecap
gsave
357.1 121 57.6 183.2 clipbox
/o {
gsave
newpath
translate
1.0 setlinewidth
1 setlinejoin
0 setlinecap
0 -1.5 m
0.397805 -1.5 0.77937 -1.341951 1.06066 -1.06066 c
1.341951 -0.77937 1.5 -0.397805 1.5 0 c
1.5 0.397805 1.341951 0.77937 1.06066 1.06066 c
0.77937 1.341951 0.397805 1.5 0 1.5 c
-0.397805 1.5 -0.77937 1.341951 -1.06066 1.06066 c
-1.341951 0.77937 -1.5 0.397805 -1.5 0 c
-1.5 -0.397805 -1.341951 -0.77937 -1.06066 -1.06066 c
-0.77937 -1.341951 -0.397805 -1.5 0 -1.5 c
cl

gsave
0.173 0.627 0.173 setrgbcolor
fill
grestore
stroke
grestore
} bind def
73.8327 228.782 o
75.4642 233.297 o
77.0956 227.335 o
78.727 229.48 o
80.3584 229.36 o
81.9899 225.097 o
83.6213 231.062 o
85.2527 228.842 o
86.8842 229.177 o
88.5156 231.269 o
90.147 232.559 o
91.7785 229.466 o
93.4099 225.391 o
95.0413 231.145 o
96.6727 231.577 o
98.3042 229.965 o
99.9356 230.729 o
101.567 231.28 o
103.198 227.772 o
104.83 227.491 o
106.461 228.362 o
108.093 228.275 o
109.724 229.232 o
111.356 227.922 o
112.987 227.443 o
114.618 230.352 o
116.25 225.609 o
117.881 228.397 o
119.513 229.27 o
121.144 230.444 o
122.776 228.003 o
124.407 229.571 o
126.038 230.978 o
127.67 229.918 o
129.301 225.942 o
130.933 229.493 o
132.564 229.4 o
134.196 228.153 o
135.827 225.979 o
137.458 231.987 o
139.09 234.513 o
140.721 228.606 o
142.353 231.086 o
143.984 233.127 o
145.616 231.226 o
147.247 232.438 o
148.879 229.645 o
150.51 229.548 o
152.141 224.234 o
153.773 227.026 o
155.404 231.299 o
157.036 231.311 o
158.667 223.541 o
160.299 229.941 o
161.93 228.192 o
163.561 233.375 o
165.193 230.588 o
166.824 221.312 o
168.456 239.013 o
170.087 225.847 o
171.719 223.488 o
173.35 222.424 o
174.981 230.133 o
176.613 231.095 o
178.244 222.079 o
179.876 233.22 o
181.507 222.168 o
183.139 234.875 o
184.77 241.406 o
186.401 232.667 o
188.033 233.219 o
189.664 224.338 o
191.296 221.382 o
192.927 220.383 o
194.559 221.825 o
196.19 223.086 o
197.821 231.424 o
199.453 236.664 o
201.084 224.219 o
202.716 243.789 o
204.347 233.134 o
205.979 247.465 o
207.61 234.333 o
209.241 216.027 o
210.873 241.11 o
212.504 235.528 o
214.136 233.558 o
215.767 223.165 o
217.399 206.431 o
219.03 222.437 o
220.661 229.774 o
222.293 259.123 o
223.924 233.521 o
225.556 233.263 o
227.187 207.741 o
228.819 255.274 o
230.45 242.917 o
232.081 242.893 o
233.713 226.017 o
235.344 231.804 o
236.976 237.113 o
238.607 213.498 o
240.239 238.591 o
241.87 233.977 o
243.501 238.191 o
245.133 241.041 o
246.764 243.521 o
248.396 236.373 o
250.027 209.332 o
251.659 218.076 o
253.29 231.331 o
254.921 242.724 o
256.553 231.312 o
258.184 237.956 o
259.816 229.56 o
261.447 245.94 o
263.079 246.381 o
264.71 228.116 o
266.341 260.149 o
267.973 256.611 o
269.604 221.729 o
271.236 261.381 o
272.867 233.087 o
274.499 236.18 o
276.13 231.025 o
277.761 272.976 o
279.393 235.162 o
281.024 230.812 o
282.656 233.76 o
284.287 244.784 o
285.919 205.831 o
287.55 252.063 o
289.181 228.444 o
290.813 238.599 o
292.444 213.527 o
294.076 244.192 o
295.707 250.609 o
297.339 264.017 o
298.97 223.788 o
300.601 234.242 o
302.233 194.666 o
303.864 233.716 o
305.496 260.354 o
307.127 223.977 o
308.759 230.623 o
310.39 247.579 o
312.021 220.581 o
313.653 236.682 o
315.284 253.453 o
316.916 250.025 o
318.547 222.288 o
320.179 241.52 o
321.81 272.23 o
323.441 259.606 o
325.073 232.552 o
326.704 213.644 o
328.336 263.715 o
329.967 203.637 o
331.599 241.477 o
333.23 240.987 o
334.862 234.563 o
336.493 240.395 o
338.124 212.647 o
339.756 222.35 o
341.387 236.976 o
343.019 245.354 o
344.65 222.5 o
346.282 217.012 o
347.913 198.377 o
349.544 218.491 o
351.176 220.901 o
352.807 275.076 o
354.439 227.113 o
356.07 246.597 o
357.702 221.344 o
359.333 288.91 o
360.964 244.55 o
362.596 250.491 o
364.227 195.626 o
365.859 229.97 o
367.49 234.402 o
369.122 231.897 o
370.753 269.162 o
372.384 250.665 o
374.016 240.635 o
375.647 212.627 o
377.279 253.542 o
378.91 253.738 o
380.542 235.99 o
382.173 215.398 o
383.804 241.224 o
385.436 244.082 o
387.067 212.712 o
388.699 212.934 o
390.33 217.004 o
391.962 200.664 o
393.593 232.628 o
395.224 213.485 o
396.856 227.461 o
398.487 273.999 o
grestore
0.800 setlinewidth
0 setlinejoin
2 setlinecap
[] 0 setdash
0.000 setgray
gsave
57.6 183.168 m
57.6 304.128 l
stroke
grestore
gsave
414.72 183.168 m
414.72 304.128 l
stroke
grestore
gsave
57.6 183.168 m
414.72 183.168 l
stroke
grestore
gsave
57.6 304.128 m
414.72 304.128 l
stroke
grestore
1.000 setlinewidth
0 setlinecap
0.800 setgray
gsave
64.6 252.112375 m
102.521875 252.112375 l
103.855208 252.112375 104.521875 252.779042 104.521875 254.112375 c
104.521875 297.128 l
104.521875 298.461333 103.855208 299.128 102.521875 299.128 c
64.6 299.128 l
63.266667 299.128 62.6 298.461333 62.6 297.128 c
62.6 254.112375 l
62.6 252.779042 63.266667 252.112375 64.6 252.112375 c
cl
gsave
1.000 setgray
fill
grestore
stroke
grestore
1.500 setlinewidth
1 setlinejoin
2 setlinecap
[] 0 setdash
0.122 0.467 0.706 setrgbcolor
gsave
66.6 291.03425 m
86.6 291.03425 l
stroke
grestore
1.000 setlinewidth
0 setlinecap
gsave
/o {
gsave
newpath
translate
1.0 setlinewidth
1 setlinejoin
0 setlinecap
0 -1.5 m
0.397805 -1.5 0.77937 -1.341951 1.06066 -1.06066 c
1.341951 -0.77937 1.5 -0.397805 1.5 0 c
1.5 0.397805 1.341951 0.77937 1.06066 1.06066 c
0.77937 1.341951 0.397805 1.5 0 1.5 c
-0.397805 1.5 -0.77937 1.341951 -1.06066 1.06066 c
-1.341951 0.77937 -1.5 0.397805 -1.5 0 c
-1.5 -0.397805 -1.341951 -0.77937 -1.06066 -1.06066 c
-0.77937 -1.341951 -0.397805 -1.5 0 -1.5 c
cl

gsave
0.122 0.467 0.706 setrgbcolor
fill
grestore
stroke
grestore
} bind def
76.6 291.034 o
grestore
0.000 setgray
gsave
94.600000 287.534250 translate
0.000000 rotate
0.000000 0.000000 m /x glyphshow
grestore
1.500 setlinewidth
2 setlinecap
1.000 0.498 0.055 setrgbcolor
gsave
66.6 276.362375 m
86.6 276.362375 l
stroke
grestore
1.000 setlinewidth
0 setlinecap
gsave
/o {
gsave
newpath
translate
1.0 setlinewidth
1 setlinejoin
0 setlinecap
0 -1.5 m
0.397805 -1.5 0.77937 -1.341951 1.06066 -1.06066 c
1.341951 -0.77937 1.5 -0.397805 1.5 0 c
1.5 0.397805 1.341951 0.77937 1.06066 1.06066 c
0.77937 1.341951 0.397805 1.5 0 1.5 c
-0.397805 1.5 -0.77937 1.341951 -1.06066 1.06066 c
-1.341951 0.77937 -1.5 0.397805 -1.5 0 c
-1.5 -0.397805 -1.341951 -0.77937 -1.06066 -1.06066 c
-0.77937 -1.341951 -0.397805 -1.5 0 -1.5 c
cl

gsave
1.000 0.498 0.055 setrgbcolor
fill
grestore
stroke
grestore
} bind def
76.6 276.362 o
grestore
0.000 setgray
gsave
94.600000 272.862375 translate
0.000000 rotate
0.000000 0.000000 m /y glyphshow
grestore
1.500 setlinewidth
2 setlinecap
0.173 0.627 0.173 setrgbcolor
gsave
66.6 261.6905 m
86.6 261.6905 l
stroke
grestore
1.000 setlinewidth
0 setlinecap
gsave
/o {
gsave
newpath
translate
1.0 setlinewidth
1 setlinejoin
0 setlinecap
0 -1.5 m
0.397805 -1.5 0.77937 -1.341951 1.06066 -1.06066 c
1.341951 -0.77937 1.5 -0.397805 1.5 0 c
1.5 0.397805 1.341951 0.77937 1.06066 1.06066 c
0.77937 1.341951 0.397805 1.5 0 1.5 c
-0.397805 1.5 -0.77937 1.341951 -1.06066 1.06066 c
-1.341951 0.77937 -1.5 0.397805 -1.5 0 c
-1.5 -0.397805 -1.341951 -0.77937 -1.06066 -1.06066 c
-0.77937 -1.341951 -0.397805 -1.5 0 -1.5 c
cl

gsave
0.173 0.627 0.173 setrgbcolor
fill
grestore
stroke
grestore
} bind def
76.6 261.69 o
grestore
0.000 setgray
gsave
94.600000 258.190500 translate
0.000000 rotate
0.000000 0.000000 m /z glyphshow
grestore
gsave
57.6 38.016 m
414.72 38.016 l
414.72 158.976 l
57.6 158.976 l
cl
1.000 setgray
fill
grestore
0.800 setlinewidth
2 setlinecap
0.690 setgray
gsave
357.1 121 57.6 38.02 clipbox
73.832727 38.016 m
73.832727 158.976 l
stroke
grestore
0 setlinecap
0.000 setgray
gsave
/o {
gsave
newpath
translate
0.8 setlinewidth
1 setlinejoin
0 setlinecap
0 0 m
0 -3.5 l

gsave
0.000 setgray
fill
grestore
stroke
grestore
} bind def
73.8327 38.016 o
grestore
gsave
70.653040 23.422250 translate
0.000000 rotate
0.000000 0.000000 m /zero glyphshow
grestore
2 setlinecap
0.690 setgray
gsave
357.1 121 57.6 38.02 clipbox
114.618474 38.016 m
114.618474 158.976 l
stroke
grestore
0 setlinecap
0.000 setgray
gsave
/o {
gsave
newpath
translate
0.8 setlinewidth
1 setlinejoin
0 setlinecap
0 0 m
0 -3.5 l

gsave
0.000 setgray
fill
grestore
stroke
grestore
} bind def
114.618 38.016 o
grestore
gsave
108.259099 23.422250 translate
0.000000 rotate
0.000000 0.000000 m /two glyphshow
6.362305 0.000000 m /five glyphshow
grestore
2 setlinecap
0.690 setgray
gsave
357.1 121 57.6 38.02 clipbox
155.404221 38.016 m
155.404221 158.976 l
stroke
grestore
0 setlinecap
0.000 setgray
gsave
/o {
gsave
newpath
translate
0.8 setlinewidth
1 setlinejoin
0 setlinecap
0 0 m
0 -3.5 l

gsave
0.000 setgray
fill
grestore
stroke
grestore
} bind def
155.404 38.016 o
grestore
gsave
149.044846 23.422250 translate
0.000000 rotate
0.000000 0.000000 m /five glyphshow
6.362305 0.000000 m /zero glyphshow
grestore
2 setlinecap
0.690 setgray
gsave
357.1 121 57.6 38.02 clipbox
196.189968 38.016 m
196.189968 158.976 l
stroke
grestore
0 setlinecap
0.000 setgray
gsave
/o {
gsave
newpath
translate
0.8 setlinewidth
1 setlinejoin
0 setlinecap
0 0 m
0 -3.5 l

gsave
0.000 setgray
fill
grestore
stroke
grestore
} bind def
196.19 38.016 o
grestore
gsave
189.830593 23.422250 translate
0.000000 rotate
0.000000 0.000000 m /seven glyphshow
6.362305 0.000000 m /five glyphshow
grestore
2 setlinecap
0.690 setgray
gsave
357.1 121 57.6 38.02 clipbox
236.975715 38.016 m
236.975715 158.976 l
stroke
grestore
0 setlinecap
0.000 setgray
gsave
/o {
gsave
newpath
translate
0.8 setlinewidth
1 setlinejoin
0 setlinecap
0 0 m
0 -3.5 l

gsave
0.000 setgray
fill
grestore
stroke
grestore
} bind def
236.976 38.016 o
grestore
gsave
227.436652 23.422250 translate
0.000000 rotate
0.000000 0.000000 m /one glyphshow
6.362305 0.000000 m /zero glyphshow
12.724609 0.000000 m /zero glyphshow
grestore
2 setlinecap
0.690 setgray
gsave
357.1 121 57.6 38.02 clipbox
277.761462 38.016 m
277.761462 158.976 l
stroke
grestore
0 setlinecap
0.000 setgray
gsave
/o {
gsave
newpath
translate
0.8 setlinewidth
1 setlinejoin
0 setlinecap
0 0 m
0 -3.5 l

gsave
0.000 setgray
fill
grestore
stroke
grestore
} bind def
277.761 38.016 o
grestore
gsave
268.222399 23.422250 translate
0.000000 rotate
0.000000 0.000000 m /one glyphshow
6.362305 0.000000 m /two glyphshow
12.724609 0.000000 m /five glyphshow
grestore
2 setlinecap
0.690 setgray
gsave
357.1 121 57.6 38.02 clipbox
318.547209 38.016 m
318.547209 158.976 l
stroke
grestore
0 setlinecap
0.000 setgray
gsave
/o {
gsave
newpath
translate
0.8 setlinewidth
1 setlinejoin
0 setlinecap
0 0 m
0 -3.5 l

gsave
0.000 setgray
fill
grestore
stroke
grestore
} bind def
318.547 38.016 o
grestore
gsave
309.008146 23.422250 translate
0.000000 rotate
0.000000 0.000000 m /one glyphshow
6.362305 0.000000 m /five glyphshow
12.724609 0.000000 m /zero glyphshow
grestore
2 setlinecap
0.690 setgray
gsave
357.1 121 57.6 38.02 clipbox
359.332956 38.016 m
359.332956 158.976 l
stroke
grestore
0 setlinecap
0.000 setgray
gsave
/o {
gsave
newpath
translate
0.8 setlinewidth
1 setlinejoin
0 setlinecap
0 0 m
0 -3.5 l

gsave
0.000 setgray
fill
grestore
stroke
grestore
} bind def
359.333 38.016 o
grestore
gsave
349.793893 23.422250 translate
0.000000 rotate
0.000000 0.000000 m /one glyphshow
6.362305 0.000000 m /seven glyphshow
12.724609 0.000000 m /five glyphshow
grestore
2 setlinecap
0.690 setgray
gsave
357.1 121 57.6 38.02 clipbox
400.118703 38.016 m
400.118703 158.976 l
stroke
grestore
0 setlinecap
0.000 setgray
gsave
/o {
gsave
newpath
translate
0.8 setlinewidth
1 setlinejoin
0 setlinecap
0 0 m
0 -3.5 l

gsave
0.000 setgray
fill
grestore
stroke
grestore
} bind def
400.119 38.016 o
grestore
gsave
390.579640 23.422250 translate
0.000000 rotate
0.000000 0.000000 m /two glyphshow
6.362305 0.000000 m /zero glyphshow
12.724609 0.000000 m /zero glyphshow
grestore
gsave
217.410000 9.750375 translate
0.000000 rotate
0.000000 0.000000 m /S glyphshow
6.347656 0.000000 m /a glyphshow
12.475586 0.000000 m /m glyphshow
22.216797 0.000000 m /p glyphshow
28.564453 0.000000 m /l glyphshow
31.342773 0.000000 m /e glyphshow
grestore
2 setlinecap
0.690 setgray
gsave
357.1 121 57.6 38.02 clipbox
57.6 70.832267 m
414.72 70.832267 l
stroke
grestore
0 setlinecap
0.000 setgray
gsave
/o {
gsave
newpath
translate
0.8 setlinewidth
1 setlinejoin
0 setlinecap
0 0 m
-3.5 0 l

gsave
0.000 setgray
fill
grestore
stroke
grestore
} bind def
57.6 70.8323 o
grestore
gsave
23.146875 67.035392 translate
0.000000 rotate
0.000000 0.000000 m /minus glyphshow
8.378906 0.000000 m /one glyphshow
14.741211 0.000000 m /zero glyphshow
21.103516 0.000000 m /zero glyphshow
grestore
2 setlinecap
0.690 setgray
gsave
357.1 121 57.6 38.02 clipbox
57.6 107.413278 m
414.72 107.413278 l
stroke
grestore
0 setlinecap
0.000 setgray
gsave
/o {
gsave
newpath
translate
0.8 setlinewidth
1 setlinejoin
0 setlinecap
0 0 m
-3.5 0 l

gsave
0.000 setgray
fill
grestore
stroke
grestore
} bind def
57.6 107.413 o
grestore
gsave
44.240625 103.616403 translate
0.000000 rotate
0.000000 0.000000 m /zero glyphshow
grestore
2 setlinecap
0.690 setgray
gsave
357.1 121 57.6 38.02 clipbox
57.6 143.994289 m
414.72 143.994289 l
stroke
grestore
0 setlinecap
0.000 setgray
gsave
/o {
gsave
newpath
translate
0.8 setlinewidth
1 setlinejoin
0 setlinecap
0 0 m
-3.5 0 l

gsave
0.000 setgray
fill
grestore
stroke
grestore
} bind def
57.6 143.994 o
grestore
gsave
31.521875 140.197414 translate
0.000000 rotate
0.000000 0.000000 m /one glyphshow
6.362305 0.000000 m /zero glyphshow
12.724609 0.000000 m /zero glyphshow
grestore
gsave
17.068750 38.746000 translate
90.000000 rotate
0.000000 0.000000 m /E glyphshow
6.318359 0.000000 m /u glyphshow
12.656250 0.000000 m /l glyphshow
15.434570 0.000000 m /e glyphshow
21.586914 0.000000 m /r glyphshow
25.698242 0.000000 m /space glyphshow
28.876953 0.000000 m /a glyphshow
35.004883 0.000000 m /n glyphshow
41.342773 0.000000 m /g glyphshow
47.690430 0.000000 m /l glyphshow
50.468750 0.000000 m /e glyphshow
56.621094 0.000000 m /s glyphshow
61.831055 0.000000 m /space glyphshow
65.009766 0.000000 m /e glyphshow
71.162109 0.000000 m /r glyphshow
75.273438 0.000000 m /r glyphshow
79.384766 0.000000 m /o glyphshow
85.502930 0.000000 m /r glyphshow
89.614258 0.000000 m /space glyphshow
92.792969 0.000000 m /bracketleft glyphshow
96.694336 0.000000 m /d glyphshow
103.041992 0.000000 m /e glyphshow
109.194336 0.000000 m /g glyphshow
115.541992 0.000000 m /bracketright glyphshow
grestore
1.500 setlinewidth
2 setlinecap
0.122 0.467 0.706 setrgbcolor
gsave
357.1 121 57.6 38.02 clipbox
73.832727 107.222821 m
75.464157 105.658942 l
77.095587 109.578716 l
78.727017 106.207305 l
81.989877 111.403162 l
83.621307 108.040532 l
85.252736 107.915228 l
86.884166 108.993232 l
88.515596 105.777373 l
90.147026 104.761246 l
91.778456 108.002003 l
93.409886 110.720386 l
95.041316 106.146404 l
96.672746 105.683524 l
98.304175 106.081468 l
99.935605 107.423479 l
101.567035 106.384526 l
103.198465 109.04374 l
104.829895 107.480447 l
106.461325 107.871262 l
108.092755 109.195162 l
109.724185 106.877633 l
111.355614 105.573645 l
112.987044 108.775757 l
114.618474 106.707645 l
116.249904 107.770931 l
117.881334 105.777743 l
119.512764 107.996757 l
121.144194 105.765171 l
122.775624 107.17829 l
124.407053 107.010852 l
126.038483 109.07678 l
127.669913 105.677072 l
129.301343 108.770446 l
130.932773 106.889731 l
132.564203 107.096159 l
134.195633 107.535607 l
135.827063 106.337058 l
137.458492 107.980562 l
139.089922 104.051433 l
140.721352 106.350145 l
142.352782 107.071195 l
143.984212 107.139639 l
145.615642 104.268983 l
147.247072 104.974861 l
148.878502 106.128377 l
150.509931 103.631126 l
152.141361 108.429224 l
153.772791 107.872008 l
155.404221 105.799411 l
157.035651 104.104747 l
158.667081 110.167903 l
160.298511 105.709166 l
161.929941 108.717311 l
163.56137 105.343291 l
165.1928 107.550944 l
166.82423 109.086689 l
168.45566 105.876596 l
170.08709 112.32593 l
171.71852 105.621633 l
173.34995 111.461847 l
174.98138 107.614759 l
176.61281 108.856309 l
178.244239 109.843891 l
179.875669 108.982728 l
181.507099 111.917854 l
183.138529 109.285013 l
184.769959 99.566296 l
186.401389 109.380247 l
188.032819 105.887568 l
189.664249 112.917069 l
191.295678 114.402443 l
192.927108 104.555052 l
194.558538 104.425666 l
196.189968 108.607565 l
197.821398 108.690857 l
199.452828 112.896219 l
201.084258 104.869512 l
202.715688 101.757124 l
204.347117 103.838088 l
205.978547 100.649455 l
207.609977 111.928696 l
209.241407 113.579392 l
210.872837 91.739268 l
212.504267 107.510361 l
214.135697 97.175034 l
215.767127 107.646207 l
217.398556 110.654507 l
219.029986 110.156664 l
220.661416 107.800315 l
222.292846 95.335559 l
223.924276 108.809334 l
225.555706 105.250234 l
227.187136 108.836953 l
228.818566 96.894395 l
230.449995 96.278293 l
232.081425 96.916486 l
233.712855 106.773382 l
235.344285 111.899173 l
236.975715 88.978961 l
238.607145 111.837024 l
240.238575 101.099551 l
241.870005 114.101944 l
243.501434 100.352374 l
245.132864 106.617791 l
246.764294 97.376051 l
248.395724 103.236163 l
250.027154 105.279936 l
251.658584 112.956683 l
253.290014 106.632336 l
254.921444 104.891631 l
256.552873 110.255296 l
258.184303 105.40135 l
259.815733 108.750902 l
261.447163 109.682585 l
263.078593 105.812507 l
264.710023 103.524817 l
266.341453 104.688432 l
267.972883 88.357864 l
269.604312 95.725656 l
271.235742 153.477818 l
272.867172 96.796943 l
274.498602 107.042179 l
276.130032 109.733962 l
277.761462 70.603168 l
279.392892 120.711225 l
281.024322 120.457004 l
282.655751 110.309506 l
284.287181 48.265359 l
285.918611 96.949162 l
287.550041 111.830136 l
289.181471 107.252968 l
290.812901 106.941716 l
292.444331 100.785642 l
294.075761 86.037289 l
295.70719 106.349197 l
297.33862 148.878651 l
298.97005 96.292455 l
300.60148 109.579559 l
302.23291 113.38974 l
303.86434 107.669053 l
305.49577 102.546517 l
307.1272 104.223811 l
308.75863 120.851711 l
310.390059 68.093507 l
312.021489 110.933958 l
313.652919 116.52911 l
315.284349 105.687549 l
316.915779 91.373814 l
318.547209 101.022261 l
320.178639 111.846754 l
321.810069 117.206467 l
323.441498 106.247172 l
325.072928 114.353514 l
326.704358 102.632266 l
328.335788 111.634416 l
329.967218 127.334226 l
331.598648 102.439042 l
333.230078 81.886083 l
334.861508 89.538058 l
336.492937 116.837321 l
338.124367 110.53584 l
339.755797 113.2607 l
341.387227 136.354053 l
343.018657 107.295188 l
344.650087 111.795977 l
346.281517 109.158603 l
347.912947 111.304733 l
349.544376 108.26183 l
351.175806 118.016279 l
352.807236 115.500358 l
354.438666 70.068796 l
356.070096 120.179402 l
357.701526 101.2679 l
359.332956 59.768373 l
360.964386 45.136353 l
362.595815 100.264472 l
364.227245 105.128631 l
365.858675 123.38165 l
367.490105 88.484082 l
369.121535 92.707139 l
370.752965 98.34812 l
372.384395 100.277755 l
374.015825 116.635737 l
375.647254 99.153345 l
377.278684 114.488938 l
378.910114 96.840158 l
380.541544 107.914633 l
382.172974 112.42661 l
383.804404 95.103882 l
385.435834 113.882962 l
387.067264 103.735102 l
388.698693 112.209412 l
390.330123 94.220434 l
391.961553 111.88339 l
393.592983 101.513325 l
395.224413 104.654291 l
396.855843 109.403137 l
398.487273 108.941889 l
398.487273 108.941889 l
stroke
grestore
1.000 setlinewidth
0 setlinecap
gsave
357.1 121 57.6 38.02 clipbox
/o {
gsave
newpath
translate
1.0 setlinewidth
1 setlinejoin
0 setlinecap
0 -1.5 m
0.397805 -1.5 0.77937 -1.341951 1.06066 -1.06066 c
1.341951 -0.77937 1.5 -0.397805 1.5 0 c
1.5 0.397805 1.341951 0.77937 1.06066 1.06066 c
0.77937 1.341951 0.397805 1.5 0 1.5 c
-0.397805 1.5 -0.77937 1.341951 -1.06066 1.06066 c
-1.341951 0.77937 -1.5 0.397805 -1.5 0 c
-1.5 -0.397805 -1.341951 -0.77937 -1.06066 -1.06066 c
-0.77937 -1.341951 -0.397805 -1.5 0 -1.5 c
cl

gsave
0.122 0.467 0.706 setrgbcolor
fill
grestore
stroke
grestore
} bind def
73.8327 107.223 o
75.4642 105.659 o
77.0956 109.579 o
78.727 106.207 o
80.3584 108.749 o
81.9899 111.403 o
83.6213 108.041 o
85.2527 107.915 o
86.8842 108.993 o
88.5156 105.777 o
90.147 104.761 o
91.7785 108.002 o
93.4099 110.72 o
95.0413 106.146 o
96.6727 105.684 o
98.3042 106.081 o
99.9356 107.423 o
101.567 106.385 o
103.198 109.044 o
104.83 107.48 o
106.461 107.871 o
108.093 109.195 o
109.724 106.878 o
111.356 105.574 o
112.987 108.776 o
114.618 106.708 o
116.25 107.771 o
117.881 105.778 o
119.513 107.997 o
121.144 105.765 o
122.776 107.178 o
124.407 107.011 o
126.038 109.077 o
127.67 105.677 o
129.301 108.77 o
130.933 106.89 o
132.564 107.096 o
134.196 107.536 o
135.827 106.337 o
137.458 107.981 o
139.09 104.051 o
140.721 106.35 o
142.353 107.071 o
143.984 107.14 o
145.616 104.269 o
147.247 104.975 o
148.879 106.128 o
150.51 103.631 o
152.141 108.429 o
153.773 107.872 o
155.404 105.799 o
157.036 104.105 o
158.667 110.168 o
160.299 105.709 o
161.93 108.717 o
163.561 105.343 o
165.193 107.551 o
166.824 109.087 o
168.456 105.877 o
170.087 112.326 o
171.719 105.622 o
173.35 111.462 o
174.981 107.615 o
176.613 108.856 o
178.244 109.844 o
179.876 108.983 o
181.507 111.918 o
183.139 109.285 o
184.77 99.5663 o
186.401 109.38 o
188.033 105.888 o
189.664 112.917 o
191.296 114.402 o
192.927 104.555 o
194.559 104.426 o
196.19 108.608 o
197.821 108.691 o
199.453 112.896 o
201.084 104.87 o
202.716 101.757 o
204.347 103.838 o
205.979 100.649 o
207.61 111.929 o
209.241 113.579 o
210.873 91.7393 o
212.504 107.51 o
214.136 97.175 o
215.767 107.646 o
217.399 110.655 o
219.03 110.157 o
220.661 107.8 o
222.293 95.3356 o
223.924 108.809 o
225.556 105.25 o
227.187 108.837 o
228.819 96.8944 o
230.45 96.2783 o
232.081 96.9165 o
233.713 106.773 o
235.344 111.899 o
236.976 88.979 o
238.607 111.837 o
240.239 101.1 o
241.87 114.102 o
243.501 100.352 o
245.133 106.618 o
246.764 97.3761 o
248.396 103.236 o
250.027 105.28 o
251.659 112.957 o
253.29 106.632 o
254.921 104.892 o
256.553 110.255 o
258.184 105.401 o
259.816 108.751 o
261.447 109.683 o
263.079 105.813 o
264.71 103.525 o
266.341 104.688 o
267.973 88.3579 o
269.604 95.7257 o
271.236 153.478 o
272.867 96.7969 o
274.499 107.042 o
276.13 109.734 o
277.761 70.6032 o
279.393 120.711 o
281.024 120.457 o
282.656 110.31 o
284.287 48.2654 o
285.919 96.9492 o
287.55 111.83 o
289.181 107.253 o
290.813 106.942 o
292.444 100.786 o
294.076 86.0373 o
295.707 106.349 o
297.339 148.879 o
298.97 96.2925 o
300.601 109.58 o
302.233 113.39 o
303.864 107.669 o
305.496 102.547 o
307.127 104.224 o
308.759 120.852 o
310.39 68.0935 o
312.021 110.934 o
313.653 116.529 o
315.284 105.688 o
316.916 91.3738 o
318.547 101.022 o
320.179 111.847 o
321.81 117.206 o
323.441 106.247 o
325.073 114.354 o
326.704 102.632 o
328.336 111.634 o
329.967 127.334 o
331.599 102.439 o
333.23 81.8861 o
334.862 89.5381 o
336.493 116.837 o
338.124 110.536 o
339.756 113.261 o
341.387 136.354 o
343.019 107.295 o
344.65 111.796 o
346.282 109.159 o
347.913 111.305 o
349.544 108.262 o
351.176 118.016 o
352.807 115.5 o
354.439 70.0688 o
356.07 120.179 o
357.702 101.268 o
359.333 59.7684 o
360.964 45.1364 o
362.596 100.264 o
364.227 105.129 o
365.859 123.382 o
367.49 88.4841 o
369.122 92.7071 o
370.753 98.3481 o
372.384 100.278 o
374.016 116.636 o
375.647 99.1533 o
377.279 114.489 o
378.91 96.8402 o
380.542 107.915 o
382.173 112.427 o
383.804 95.1039 o
385.436 113.883 o
387.067 103.735 o
388.699 112.209 o
390.33 94.2204 o
391.962 111.883 o
393.593 101.513 o
395.224 104.654 o
396.856 109.403 o
398.487 108.942 o
grestore
1.500 setlinewidth
2 setlinecap
1.000 0.498 0.055 setrgbcolor
gsave
357.1 121 57.6 38.02 clipbox
73.832727 108.992985 m
75.464157 109.628068 l
77.095587 106.496101 l
78.727017 108.122778 l
80.358447 107.646441 l
81.989877 108.541551 l
83.621307 107.318185 l
85.252736 107.292122 l
86.884166 110.5419 l
88.515596 106.68536 l
90.147026 107.042719 l
91.778456 108.720652 l
93.409886 107.70138 l
95.041316 105.954894 l
96.672746 105.87229 l
98.304175 106.198704 l
99.935605 107.619288 l
101.567035 107.633759 l
103.198465 107.125977 l
104.829895 105.950152 l
106.461325 108.176555 l
108.092755 107.524514 l
109.724185 105.51571 l
111.355614 105.176313 l
112.987044 106.277819 l
114.618474 107.596151 l
116.249904 106.26877 l
117.881334 105.957115 l
119.512764 109.55289 l
121.144194 109.026206 l
122.775624 105.059307 l
124.407053 105.123402 l
126.038483 108.010456 l
127.669913 105.450611 l
129.301343 111.155794 l
130.932773 107.079927 l
132.564203 109.112336 l
134.195633 108.96222 l
135.827063 106.435428 l
137.458492 108.978612 l
139.089922 106.382756 l
140.721352 104.838984 l
142.352782 110.115099 l
143.984212 110.778637 l
145.615642 101.932298 l
147.247072 103.363931 l
148.878502 105.657609 l
150.509931 104.457577 l
152.141361 105.046154 l
153.772791 104.657853 l
155.404221 105.600563 l
157.035651 109.670953 l
158.667081 110.776234 l
160.298511 106.182089 l
161.929941 108.090224 l
163.56137 111.05791 l
165.1928 111.535871 l
166.82423 109.648991 l
168.45566 103.808145 l
170.08709 105.568123 l
171.71852 107.756581 l
173.34995 106.518588 l
174.98138 108.325873 l
176.61281 109.819373 l
178.244239 104.67057 l
179.875669 102.110987 l
181.507099 110.017221 l
183.138529 102.312818 l
184.769959 102.476622 l
186.401389 104.979125 l
188.032819 102.541077 l
189.664249 103.828649 l
191.295678 111.516465 l
192.927108 117.445312 l
194.558538 110.792149 l
196.189968 111.074592 l
197.821398 103.161471 l
199.452828 106.941388 l
201.084258 116.481268 l
202.715688 105.859956 l
204.347117 107.598652 l
205.978547 107.212097 l
207.609977 97.181511 l
209.241407 102.389616 l
210.872837 117.015488 l
212.504267 105.767721 l
214.135697 109.112227 l
215.767127 113.115152 l
217.398556 116.100625 l
219.029986 103.134109 l
220.661416 114.011243 l
222.292846 110.398069 l
223.924276 105.095754 l
225.555706 104.666712 l
227.187136 106.934602 l
228.818566 112.649253 l
230.449995 104.293976 l
232.081425 112.249725 l
233.712855 106.173286 l
235.344285 105.041895 l
236.975715 107.407153 l
238.607145 97.549838 l
240.238575 106.725363 l
241.870005 97.885283 l
243.501434 108.851904 l
245.132864 110.673663 l
246.764294 106.38107 l
248.395724 110.364591 l
250.027154 125.080709 l
253.290014 99.070332 l
254.921444 93.594529 l
256.552873 112.985546 l
258.184303 101.459326 l
259.815733 100.941199 l
261.447163 116.858947 l
263.078593 100.607926 l
266.341453 110.927735 l
267.972883 96.920421 l
269.604312 109.875544 l
271.235742 99.032857 l
272.867172 100.307909 l
274.498602 112.520938 l
276.130032 100.903478 l
277.761462 96.617862 l
279.392892 114.574021 l
281.024322 101.916989 l
282.655751 104.868502 l
284.287181 80.452172 l
285.918611 111.174255 l
287.550041 108.299601 l
289.181471 106.719555 l
290.812901 108.457217 l
292.444331 105.779661 l
294.075761 99.45113 l
295.70719 111.8249 l
297.33862 103.266888 l
298.97005 122.699266 l
300.60148 102.472416 l
302.23291 121.143116 l
303.86434 113.763164 l
305.49577 102.79214 l
307.1272 116.628532 l
308.75863 107.383503 l
310.390059 90.442374 l
312.021489 119.399889 l
313.652919 98.602414 l
315.284349 103.138891 l
316.915779 104.396265 l
318.547209 109.974672 l
320.178639 93.93515 l
321.810069 109.968371 l
323.441498 98.246983 l
325.072928 101.673706 l
326.704358 109.986544 l
328.335788 113.429129 l
329.967218 112.833149 l
331.598648 102.602476 l
333.230078 110.674099 l
334.861508 91.243862 l
336.492937 112.672734 l
338.124367 106.115371 l
339.755797 121.175993 l
341.387227 100.195327 l
343.018657 101.345707 l
344.650087 116.876399 l
346.281517 116.606046 l
347.912947 110.892118 l
349.544376 102.770547 l
351.175806 115.029804 l
352.807236 107.034627 l
354.438666 106.459687 l
356.070096 93.16863 l
357.701526 113.357348 l
359.332956 81.552406 l
360.964386 91.48426 l
362.595815 109.364219 l
364.227245 113.947346 l
365.858675 108.891414 l
367.490105 125.653553 l
369.121535 115.964462 l
370.752965 79.234338 l
372.384395 102.003556 l
374.015825 115.858206 l
375.647254 113.989102 l
377.278684 106.438392 l
378.910114 92.750749 l
380.541544 97.008798 l
382.172974 109.947378 l
383.804404 106.438709 l
385.435834 105.099723 l
387.067264 132.404759 l
388.698693 118.554149 l
390.330123 118.158391 l
391.961553 124.264192 l
393.592983 100.79488 l
395.224413 114.72757 l
396.855843 102.766223 l
398.487273 80.054583 l
398.487273 80.054583 l
stroke
grestore
1.000 setlinewidth
0 setlinecap
gsave
357.1 121 57.6 38.02 clipbox
/o {
gsave
newpath
translate
1.0 setlinewidth
1 setlinejoin
0 setlinecap
0 -1.5 m
0.397805 -1.5 0.77937 -1.341951 1.06066 -1.06066 c
1.341951 -0.77937 1.5 -0.397805 1.5 0 c
1.5 0.397805 1.341951 0.77937 1.06066 1.06066 c
0.77937 1.341951 0.397805 1.5 0 1.5 c
-0.397805 1.5 -0.77937 1.341951 -1.06066 1.06066 c
-1.341951 0.77937 -1.5 0.397805 -1.5 0 c
-1.5 -0.397805 -1.341951 -0.77937 -1.06066 -1.06066 c
-0.77937 -1.341951 -0.397805 -1.5 0 -1.5 c
cl

gsave
1.000 0.498 0.055 setrgbcolor
fill
grestore
stroke
grestore
} bind def
73.8327 108.993 o
75.4642 109.628 o
77.0956 106.496 o
78.727 108.123 o
80.3584 107.646 o
81.9899 108.542 o
83.6213 107.318 o
85.2527 107.292 o
86.8842 110.542 o
88.5156 106.685 o
90.147 107.043 o
91.7785 108.721 o
93.4099 107.701 o
95.0413 105.955 o
96.6727 105.872 o
98.3042 106.199 o
99.9356 107.619 o
101.567 107.634 o
103.198 107.126 o
104.83 105.95 o
106.461 108.177 o
108.093 107.525 o
109.724 105.516 o
111.356 105.176 o
112.987 106.278 o
114.618 107.596 o
116.25 106.269 o
117.881 105.957 o
119.513 109.553 o
121.144 109.026 o
122.776 105.059 o
124.407 105.123 o
126.038 108.01 o
127.67 105.451 o
129.301 111.156 o
130.933 107.08 o
132.564 109.112 o
134.196 108.962 o
135.827 106.435 o
137.458 108.979 o
139.09 106.383 o
140.721 104.839 o
142.353 110.115 o
143.984 110.779 o
145.616 101.932 o
147.247 103.364 o
148.879 105.658 o
150.51 104.458 o
152.141 105.046 o
153.773 104.658 o
155.404 105.601 o
157.036 109.671 o
158.667 110.776 o
160.299 106.182 o
161.93 108.09 o
163.561 111.058 o
165.193 111.536 o
166.824 109.649 o
168.456 103.808 o
170.087 105.568 o
171.719 107.757 o
173.35 106.519 o
174.981 108.326 o
176.613 109.819 o
178.244 104.671 o
179.876 102.111 o
181.507 110.017 o
183.139 102.313 o
184.77 102.477 o
186.401 104.979 o
188.033 102.541 o
189.664 103.829 o
191.296 111.516 o
192.927 117.445 o
194.559 110.792 o
196.19 111.075 o
197.821 103.161 o
199.453 106.941 o
201.084 116.481 o
202.716 105.86 o
204.347 107.599 o
205.979 107.212 o
207.61 97.1815 o
209.241 102.39 o
210.873 117.015 o
212.504 105.768 o
214.136 109.112 o
215.767 113.115 o
217.399 116.101 o
219.03 103.134 o
220.661 114.011 o
222.293 110.398 o
223.924 105.096 o
225.556 104.667 o
227.187 106.935 o
228.819 112.649 o
230.45 104.294 o
232.081 112.25 o
233.713 106.173 o
235.344 105.042 o
236.976 107.407 o
238.607 97.5498 o
240.239 106.725 o
241.87 97.8853 o
243.501 108.852 o
245.133 110.674 o
246.764 106.381 o
248.396 110.365 o
250.027 125.081 o
251.659 112.104 o
253.29 99.0703 o
254.921 93.5945 o
256.553 112.986 o
258.184 101.459 o
259.816 100.941 o
261.447 116.859 o
263.079 100.608 o
264.71 105.884 o
266.341 110.928 o
267.973 96.9204 o
269.604 109.876 o
271.236 99.0329 o
272.867 100.308 o
274.499 112.521 o
276.13 100.903 o
277.761 96.6179 o
279.393 114.574 o
281.024 101.917 o
282.656 104.869 o
284.287 80.4522 o
285.919 111.174 o
287.55 108.3 o
289.181 106.72 o
290.813 108.457 o
292.444 105.78 o
294.076 99.4511 o
295.707 111.825 o
297.339 103.267 o
298.97 122.699 o
300.601 102.472 o
302.233 121.143 o
303.864 113.763 o
305.496 102.792 o
307.127 116.629 o
308.759 107.384 o
310.39 90.4424 o
312.021 119.4 o
313.653 98.6024 o
315.284 103.139 o
316.916 104.396 o
318.547 109.975 o
320.179 93.9352 o
321.81 109.968 o
323.441 98.247 o
325.073 101.674 o
326.704 109.987 o
328.336 113.429 o
329.967 112.833 o
331.599 102.602 o
333.23 110.674 o
334.862 91.2439 o
336.493 112.673 o
338.124 106.115 o
339.756 121.176 o
341.387 100.195 o
343.019 101.346 o
344.65 116.876 o
346.282 116.606 o
347.913 110.892 o
349.544 102.771 o
351.176 115.03 o
352.807 107.035 o
354.439 106.46 o
356.07 93.1686 o
357.702 113.357 o
359.333 81.5524 o
360.964 91.4843 o
362.596 109.364 o
364.227 113.947 o
365.859 108.891 o
367.49 125.654 o
369.122 115.964 o
370.753 79.2343 o
372.384 102.004 o
374.016 115.858 o
375.647 113.989 o
377.279 106.438 o
378.91 92.7507 o
380.542 97.0088 o
382.173 109.947 o
383.804 106.439 o
385.436 105.1 o
387.067 132.405 o
388.699 118.554 o
390.33 118.158 o
391.962 124.264 o
393.593 100.795 o
395.224 114.728 o
396.856 102.766 o
398.487 80.0546 o
grestore
1.500 setlinewidth
2 setlinecap
0.173 0.627 0.173 setrgbcolor
gsave
357.1 121 57.6 38.02 clipbox
73.832727 105.53659 m
75.464157 105.763046 l
77.095587 107.90066 l
78.727017 105.407227 l
80.358447 107.246032 l
81.989877 106.383511 l
83.621307 106.747926 l
85.252736 106.939221 l
86.884166 104.817772 l
88.515596 109.063545 l
90.147026 108.373813 l
91.778456 105.114657 l
93.409886 105.886632 l
95.041316 107.87703 l
96.672746 106.132404 l
98.304175 105.502561 l
99.935605 106.434371 l
101.567035 105.969699 l
103.198465 107.687696 l
104.829895 110.772047 l
106.461325 106.403911 l
108.092755 108.566153 l
109.724185 106.875849 l
111.355614 106.951437 l
114.618474 105.684094 l
116.249904 108.758935 l
117.881334 108.57268 l
119.512764 109.718127 l
121.144194 106.072189 l
122.775624 109.186965 l
124.407053 105.877753 l
127.669913 107.912567 l
129.301343 107.097885 l
130.932773 102.559617 l
132.564203 106.732377 l
134.195633 104.668761 l
135.827063 105.995238 l
137.458492 110.986716 l
139.089922 102.111024 l
140.721352 105.514889 l
142.352782 112.106351 l
143.984212 108.016592 l
145.615642 105.954418 l
147.247072 106.860457 l
148.878502 106.812598 l
152.141361 108.746719 l
153.772791 102.900558 l
155.404221 109.162877 l
157.035651 108.255384 l
158.667081 104.674972 l
160.298511 106.383121 l
161.929941 103.454801 l
163.56137 109.233217 l
165.1928 102.979935 l
166.82423 107.412683 l
168.45566 103.263149 l
170.08709 102.435228 l
171.71852 109.893151 l
173.34995 104.404 l
174.98138 110.979012 l
176.61281 110.399106 l
178.244239 102.015415 l
179.875669 105.34957 l
181.507099 102.225691 l
183.138529 111.1347 l
184.769959 118.288825 l
186.401389 105.653165 l
188.032819 109.477385 l
189.664249 105.441106 l
191.295678 97.006571 l
192.927108 113.931578 l
194.558538 111.852042 l
196.189968 105.788 l
197.821398 106.257855 l
199.452828 101.197969 l
201.084258 103.65399 l
202.715688 109.642183 l
204.347117 111.626167 l
205.978547 97.516484 l
207.609977 116.579752 l
209.241407 106.797028 l
210.872837 113.822913 l
212.504267 101.272309 l
214.135697 108.728206 l
215.767127 108.87621 l
217.398556 113.752485 l
219.029986 111.107537 l
220.661416 100.361899 l
222.292846 118.640159 l
223.924276 99.771141 l
225.555706 113.849365 l
227.187136 110.62895 l
228.818566 109.564183 l
230.449995 110.824867 l
232.081425 121.144339 l
233.712855 102.212481 l
235.344285 122.315179 l
236.975715 110.961428 l
238.607145 116.907875 l
240.238575 106.85294 l
241.870005 113.542747 l
243.501434 117.508884 l
245.132864 94.512196 l
246.764294 105.295403 l
248.395724 104.601287 l
250.027154 113.599694 l
251.658584 99.231971 l
253.290014 123.145804 l
254.921444 133.28287 l
256.552873 116.728859 l
258.184303 117.960224 l
259.815733 105.868697 l
261.447163 107.465555 l
263.078593 92.43406 l
264.710023 102.283218 l
266.341453 115.265384 l
267.972883 116.299465 l
269.604312 106.995505 l
271.235742 61.790691 l
272.867172 91.958395 l
274.498602 113.814109 l
276.130032 113.678288 l
277.761462 111.937149 l
279.392892 103.299347 l
281.024322 83.067947 l
282.655751 114.953388 l
284.287181 75.415262 l
285.918611 111.86835 l
287.550041 92.876733 l
290.812901 124.707405 l
292.444331 105.757278 l
294.075761 117.323646 l
295.70719 104.190985 l
297.33862 49.011364 l
298.97005 101.519415 l
300.60148 99.324252 l
303.86434 109.286634 l
305.49577 110.869539 l
307.1272 112.756897 l
308.75863 130.814183 l
310.390059 100.973383 l
312.021489 123.490927 l
315.284349 98.558701 l
316.915779 103.329952 l
318.547209 101.100403 l
320.178639 117.50936 l
321.810069 101.491082 l
323.441498 95.244842 l
325.072928 114.347132 l
326.704358 89.460106 l
329.967218 129.873214 l
331.598648 98.094729 l
333.230078 106.510832 l
334.861508 112.785865 l
336.492937 116.838892 l
338.124367 111.865536 l
339.755797 110.906009 l
341.387227 43.514182 l
343.018657 124.502154 l
344.650087 101.935832 l
346.281517 106.921641 l
347.912947 110.889569 l
349.544376 111.946666 l
351.175806 117.083541 l
352.807236 116.072603 l
354.438666 90.852428 l
356.070096 129.007634 l
357.701526 95.503754 l
359.332956 87.456784 l
360.964386 65.575406 l
362.595815 93.314996 l
365.858675 115.05016 l
367.490105 100.808128 l
369.121535 112.421071 l
370.752965 101.359522 l
372.384395 98.166471 l
374.015825 136.61973 l
375.647254 99.630821 l
377.278684 117.368203 l
378.910114 80.021826 l
380.541544 100.769326 l
382.172974 107.541263 l
383.804404 101.944974 l
385.435834 82.306071 l
387.067264 117.50132 l
388.698693 108.592635 l
390.330123 94.864774 l
391.961553 45.957271 l
393.592983 106.117857 l
395.224413 101.72813 l
396.855843 89.336968 l
398.487273 124.262456 l
398.487273 124.262456 l
stroke
grestore
1.000 setlinewidth
0 setlinecap
gsave
357.1 121 57.6 38.02 clipbox
/o {
gsave
newpath
translate
1.0 setlinewidth
1 setlinejoin
0 setlinecap
0 -1.5 m
0.397805 -1.5 0.77937 -1.341951 1.06066 -1.06066 c
1.341951 -0.77937 1.5 -0.397805 1.5 0 c
1.5 0.397805 1.341951 0.77937 1.06066 1.06066 c
0.77937 1.341951 0.397805 1.5 0 1.5 c
-0.397805 1.5 -0.77937 1.341951 -1.06066 1.06066 c
-1.341951 0.77937 -1.5 0.397805 -1.5 0 c
-1.5 -0.397805 -1.341951 -0.77937 -1.06066 -1.06066 c
-0.77937 -1.341951 -0.397805 -1.5 0 -1.5 c
cl

gsave
0.173 0.627 0.173 setrgbcolor
fill
grestore
stroke
grestore
} bind def
73.8327 105.537 o
75.4642 105.763 o
77.0956 107.901 o
78.727 105.407 o
80.3584 107.246 o
81.9899 106.384 o
83.6213 106.748 o
85.2527 106.939 o
86.8842 104.818 o
88.5156 109.064 o
90.147 108.374 o
91.7785 105.115 o
93.4099 105.887 o
95.0413 107.877 o
96.6727 106.132 o
98.3042 105.503 o
99.9356 106.434 o
101.567 105.97 o
103.198 107.688 o
104.83 110.772 o
106.461 106.404 o
108.093 108.566 o
109.724 106.876 o
111.356 106.951 o
112.987 106.291 o
114.618 105.684 o
116.25 108.759 o
117.881 108.573 o
119.513 109.718 o
121.144 106.072 o
122.776 109.187 o
124.407 105.878 o
126.038 106.844 o
127.67 107.913 o
129.301 107.098 o
130.933 102.56 o
132.564 106.732 o
134.196 104.669 o
135.827 105.995 o
137.458 110.987 o
139.09 102.111 o
140.721 105.515 o
142.353 112.106 o
143.984 108.017 o
145.616 105.954 o
147.247 106.86 o
148.879 106.813 o
150.51 107.744 o
152.141 108.747 o
153.773 102.901 o
155.404 109.163 o
157.036 108.255 o
158.667 104.675 o
160.299 106.383 o
161.93 103.455 o
163.561 109.233 o
165.193 102.98 o
166.824 107.413 o
168.456 103.263 o
170.087 102.435 o
171.719 109.893 o
173.35 104.404 o
174.981 110.979 o
176.613 110.399 o
178.244 102.015 o
179.876 105.35 o
181.507 102.226 o
183.139 111.135 o
184.77 118.289 o
186.401 105.653 o
188.033 109.477 o
189.664 105.441 o
191.296 97.0066 o
192.927 113.932 o
194.559 111.852 o
196.19 105.788 o
197.821 106.258 o
199.453 101.198 o
201.084 103.654 o
202.716 109.642 o
204.347 111.626 o
205.979 97.5165 o
207.61 116.58 o
209.241 106.797 o
210.873 113.823 o
212.504 101.272 o
214.136 108.728 o
215.767 108.876 o
217.399 113.752 o
219.03 111.108 o
220.661 100.362 o
222.293 118.64 o
223.924 99.7711 o
225.556 113.849 o
227.187 110.629 o
228.819 109.564 o
230.45 110.825 o
232.081 121.144 o
233.713 102.212 o
235.344 122.315 o
236.976 110.961 o
238.607 116.908 o
240.239 106.853 o
241.87 113.543 o
243.501 117.509 o
245.133 94.5122 o
246.764 105.295 o
248.396 104.601 o
250.027 113.6 o
251.659 99.232 o
253.29 123.146 o
254.921 133.283 o
256.553 116.729 o
258.184 117.96 o
259.816 105.869 o
261.447 107.466 o
263.079 92.4341 o
264.71 102.283 o
266.341 115.265 o
267.973 116.299 o
269.604 106.996 o
271.236 61.7907 o
272.867 91.9584 o
274.499 113.814 o
276.13 113.678 o
277.761 111.937 o
279.393 103.299 o
281.024 83.0679 o
282.656 114.953 o
284.287 75.4153 o
285.919 111.868 o
287.55 92.8767 o
289.181 108.54 o
290.813 124.707 o
292.444 105.757 o
294.076 117.324 o
295.707 104.191 o
297.339 49.0114 o
298.97 101.519 o
300.601 99.3243 o
302.233 104.211 o
303.864 109.287 o
305.496 110.87 o
307.127 112.757 o
308.759 130.814 o
310.39 100.973 o
312.021 123.491 o
313.653 111.426 o
315.284 98.5587 o
316.916 103.33 o
318.547 101.1 o
320.179 117.509 o
321.81 101.491 o
323.441 95.2448 o
325.073 114.347 o
326.704 89.4601 o
328.336 109.747 o
329.967 129.873 o
331.599 98.0947 o
333.23 106.511 o
334.862 112.786 o
336.493 116.839 o
338.124 111.866 o
339.756 110.906 o
341.387 43.5142 o
343.019 124.502 o
344.65 101.936 o
346.282 106.922 o
347.913 110.89 o
349.544 111.947 o
351.176 117.084 o
352.807 116.073 o
354.439 90.8524 o
356.07 129.008 o
357.702 95.5038 o
359.333 87.4568 o
360.964 65.5754 o
362.596 93.315 o
364.227 103.959 o
365.859 115.05 o
367.49 100.808 o
369.122 112.421 o
370.753 101.36 o
372.384 98.1665 o
374.016 136.62 o
375.647 99.6308 o
377.279 117.368 o
378.91 80.0218 o
380.542 100.769 o
382.173 107.541 o
383.804 101.945 o
385.436 82.3061 o
387.067 117.501 o
388.699 108.593 o
390.33 94.8648 o
391.962 45.9573 o
393.593 106.118 o
395.224 101.728 o
396.856 89.337 o
398.487 124.262 o
grestore
0.800 setlinewidth
0 setlinejoin
2 setlinecap
[] 0 setdash
0.000 setgray
gsave
57.6 38.016 m
57.6 158.976 l
stroke
grestore
gsave
414.72 38.016 m
414.72 158.976 l
stroke
grestore
gsave
57.6 38.016 m
414.72 38.016 l
stroke
grestore
gsave
57.6 158.976 m
414.72 158.976 l
stroke
grestore
1.000 setlinewidth
0 setlinecap
0.800 setgray
gsave
64.6 43.016 m
121.490625 43.016 l
122.823958 43.016 123.490625 43.682667 123.490625 45.016 c
123.490625 88.031625 l
123.490625 89.364958 122.823958 90.031625 121.490625 90.031625 c
64.6 90.031625 l
63.266667 90.031625 62.6 89.364958 62.6 88.031625 c
62.6 45.016 l
62.6 43.682667 63.266667 43.016 64.6 43.016 c
cl
gsave
1.000 setgray
fill
grestore
stroke
grestore
1.500 setlinewidth
1 setlinejoin
2 setlinecap
[] 0 setdash
0.122 0.467 0.706 setrgbcolor
gsave
66.6 81.937875 m
86.6 81.937875 l
stroke
grestore
1.000 setlinewidth
0 setlinecap
gsave
/o {
gsave
newpath
translate
1.0 setlinewidth
1 setlinejoin
0 setlinecap
0 -1.5 m
0.397805 -1.5 0.77937 -1.341951 1.06066 -1.06066 c
1.341951 -0.77937 1.5 -0.397805 1.5 0 c
1.5 0.397805 1.341951 0.77937 1.06066 1.06066 c
0.77937 1.341951 0.397805 1.5 0 1.5 c
-0.397805 1.5 -0.77937 1.341951 -1.06066 1.06066 c
-1.341951 0.77937 -1.5 0.397805 -1.5 0 c
-1.5 -0.397805 -1.341951 -0.77937 -1.06066 -1.06066 c
-0.77937 -1.341951 -0.397805 -1.5 0 -1.5 c
cl

gsave
0.122 0.467 0.706 setrgbcolor
fill
grestore
stroke
grestore
} bind def
76.6 81.9379 o
grestore
0.000 setgray
gsave
94.600000 78.437875 translate
0.000000 rotate
0.000000 0.000000 m /r glyphshow
4.111328 0.000000 m /o glyphshow
10.229492 0.000000 m /l glyphshow
13.007812 0.000000 m /l glyphshow
grestore
1.500 setlinewidth
2 setlinecap
1.000 0.498 0.055 setrgbcolor
gsave
66.6 67.266 m
86.6 67.266 l
stroke
grestore
1.000 setlinewidth
0 setlinecap
gsave
/o {
gsave
newpath
translate
1.0 setlinewidth
1 setlinejoin
0 setlinecap
0 -1.5 m
0.397805 -1.5 0.77937 -1.341951 1.06066 -1.06066 c
1.341951 -0.77937 1.5 -0.397805 1.5 0 c
1.5 0.397805 1.341951 0.77937 1.06066 1.06066 c
0.77937 1.341951 0.397805 1.5 0 1.5 c
-0.397805 1.5 -0.77937 1.341951 -1.06066 1.06066 c
-1.341951 0.77937 -1.5 0.397805 -1.5 0 c
-1.5 -0.397805 -1.341951 -0.77937 -1.06066 -1.06066 c
-0.77937 -1.341951 -0.397805 -1.5 0 -1.5 c
cl

gsave
1.000 0.498 0.055 setrgbcolor
fill
grestore
stroke
grestore
} bind def
76.6 67.266 o
grestore
0.000 setgray
gsave
94.600000 63.766000 translate
0.000000 rotate
0.000000 0.000000 m /p glyphshow
6.347656 0.000000 m /i glyphshow
9.125977 0.000000 m /t glyphshow
13.046875 0.000000 m /c glyphshow
18.544922 0.000000 m /h glyphshow
grestore
1.500 setlinewidth
2 setlinecap
0.173 0.627 0.173 setrgbcolor
gsave
66.6 52.594125 m
86.6 52.594125 l
stroke
grestore
1.000 setlinewidth
0 setlinecap
gsave
/o {
gsave
newpath
translate
1.0 setlinewidth
1 setlinejoin
0 setlinecap
0 -1.5 m
0.397805 -1.5 0.77937 -1.341951 1.06066 -1.06066 c
1.341951 -0.77937 1.5 -0.397805 1.5 0 c
1.5 0.397805 1.341951 0.77937 1.06066 1.06066 c
0.77937 1.341951 0.397805 1.5 0 1.5 c
-0.397805 1.5 -0.77937 1.341951 -1.06066 1.06066 c
-1.341951 0.77937 -1.5 0.397805 -1.5 0 c
-1.5 -0.397805 -1.341951 -0.77937 -1.06066 -1.06066 c
-0.77937 -1.341951 -0.397805 -1.5 0 -1.5 c
cl

gsave
0.173 0.627 0.173 setrgbcolor
fill
grestore
stroke
grestore
} bind def
76.6 52.5941 o
grestore
0.000 setgray
gsave
94.600000 49.094125 translate
0.000000 rotate
0.000000 0.000000 m /y glyphshow
5.917969 0.000000 m /a glyphshow
12.045898 0.000000 m /w glyphshow
grestore

end
showpage
