%!PS-Adobe-3.0 EPSF-3.0
%%Title: figures/repeater_500.eps
%%Creator: matplotlib version 2.0.0, http://matplotlib.org/
%%CreationDate: Tue Feb 28 10:42:40 2017
%%Orientation: portrait
%%BoundingBox: 75 223 536 568
%%EndComments
%%BeginProlog
/mpldict 8 dict def
mpldict begin
/m { moveto } bind def
/l { lineto } bind def
/r { rlineto } bind def
/c { curveto } bind def
/cl { closepath } bind def
/box {
m
1 index 0 r
0 exch r
neg 0 r
cl
} bind def
/clipbox {
box
clip
newpath
} bind def
%!PS-Adobe-3.0 Resource-Font
%%Title: DejaVu Sans
%%Copyright: Copyright (c) 2003 by Bitstream, Inc. All Rights Reserved. Copyright (c) 2006 by Tavmjong Bah. All Rights Reserved. DejaVu changes are in public domain 
%%Creator: Converted from TrueType to type 3 by PPR
25 dict begin
/_d{bind def}bind def
/_m{moveto}_d
/_l{lineto}_d
/_cl{closepath eofill}_d
/_c{curveto}_d
/_sc{7 -1 roll{setcachedevice}{pop pop pop pop pop pop}ifelse}_d
/_e{exec}_d
/FontName /DejaVuSans def
/PaintType 0 def
/FontMatrix[.001 0 0 .001 0 0]def
/FontBBox[-1021 -463 1793 1232]def
/FontType 3 def
/Encoding [ /space /zero /one /two /three /four /five /E /P /S /bracketleft /bracketright /a /c /d /e /g /h /i /l /m /n /o /p /r /s /t /u /w /x /y /z /minus ] def
/FontInfo 10 dict dup begin
/FamilyName (DejaVu Sans) def
/FullName (DejaVu Sans) def
/Notice (Copyright (c) 2003 by Bitstream, Inc. All Rights Reserved. Copyright (c) 2006 by Tavmjong Bah. All Rights Reserved. DejaVu changes are in public domain ) def
/Weight (Book) def
/Version (Version 2.35) def
/ItalicAngle 0.0 def
/isFixedPitch false def
/UnderlinePosition -130 def
/UnderlineThickness 90 def
end readonly def
/CharStrings 33 dict dup begin
/space{318 0 0 0 0 0 _sc
}_d
/zero{636 0 66 -13 570 742 _sc
318 664 _m
267 664 229 639 203 589 _c
177 539 165 464 165 364 _c
165 264 177 189 203 139 _c
229 89 267 64 318 64 _c
369 64 407 89 433 139 _c
458 189 471 264 471 364 _c
471 464 458 539 433 589 _c
407 639 369 664 318 664 _c
318 742 _m
399 742 461 709 505 645 _c
548 580 570 486 570 364 _c
570 241 548 147 505 83 _c
461 19 399 -13 318 -13 _c
236 -13 173 19 130 83 _c
87 147 66 241 66 364 _c
66 486 87 580 130 645 _c
173 709 236 742 318 742 _c
_cl}_d
/one{636 0 110 0 544 729 _sc
124 83 _m
285 83 _l
285 639 _l
110 604 _l
110 694 _l
284 729 _l
383 729 _l
383 83 _l
544 83 _l
544 0 _l
124 0 _l
124 83 _l
_cl}_d
/two{{636 0 73 0 536 742 _sc
192 83 _m
536 83 _l
536 0 _l
73 0 _l
73 83 _l
110 121 161 173 226 239 _c
290 304 331 346 348 365 _c
380 400 402 430 414 455 _c
426 479 433 504 433 528 _c
433 566 419 598 392 622 _c
365 646 330 659 286 659 _c
255 659 222 653 188 643 _c
154 632 117 616 78 594 _c
78 694 _l
118 710 155 722 189 730 _c
223 738 255 742 284 742 _c
}_e{359 742 419 723 464 685 _c
509 647 532 597 532 534 _c
532 504 526 475 515 449 _c
504 422 484 390 454 354 _c
446 344 420 317 376 272 _c
332 227 271 164 192 83 _c
_cl}_e}_d
/three{{636 0 76 -13 556 742 _sc
406 393 _m
453 383 490 362 516 330 _c
542 298 556 258 556 212 _c
556 140 531 84 482 45 _c
432 6 362 -13 271 -13 _c
240 -13 208 -10 176 -4 _c
144 1 110 10 76 22 _c
76 117 _l
103 101 133 89 166 81 _c
198 73 232 69 268 69 _c
330 69 377 81 409 105 _c
441 129 458 165 458 212 _c
458 254 443 288 413 312 _c
383 336 341 349 287 349 _c
}_e{202 349 _l
202 430 _l
291 430 _l
339 430 376 439 402 459 _c
428 478 441 506 441 543 _c
441 580 427 609 401 629 _c
374 649 336 659 287 659 _c
260 659 231 656 200 650 _c
169 644 135 635 98 623 _c
98 711 _l
135 721 170 729 203 734 _c
235 739 266 742 296 742 _c
370 742 429 725 473 691 _c
517 657 539 611 539 553 _c
539 513 527 479 504 451 _c
481 423 448 403 406 393 _c
_cl}_e}_d
/four{636 0 49 0 580 729 _sc
378 643 _m
129 254 _l
378 254 _l
378 643 _l
352 729 _m
476 729 _l
476 254 _l
580 254 _l
580 172 _l
476 172 _l
476 0 _l
378 0 _l
378 172 _l
49 172 _l
49 267 _l
352 729 _l
_cl}_d
/five{{636 0 77 -13 549 729 _sc
108 729 _m
495 729 _l
495 646 _l
198 646 _l
198 467 _l
212 472 227 476 241 478 _c
255 480 270 482 284 482 _c
365 482 429 459 477 415 _c
525 370 549 310 549 234 _c
549 155 524 94 475 51 _c
426 8 357 -13 269 -13 _c
238 -13 207 -10 175 -6 _c
143 -1 111 6 77 17 _c
77 116 _l
106 100 136 88 168 80 _c
199 72 232 69 267 69 _c
}_e{323 69 368 83 401 113 _c
433 143 450 183 450 234 _c
450 284 433 324 401 354 _c
368 384 323 399 267 399 _c
241 399 214 396 188 390 _c
162 384 135 375 108 363 _c
108 729 _l
_cl}_e}_d
/E{632 0 98 0 568 729 _sc
98 729 _m
559 729 _l
559 646 _l
197 646 _l
197 430 _l
544 430 _l
544 347 _l
197 347 _l
197 83 _l
568 83 _l
568 0 _l
98 0 _l
98 729 _l
_cl}_d
/P{603 0 98 0 569 729 _sc
197 648 _m
197 374 _l
321 374 _l
367 374 402 385 427 409 _c
452 433 465 467 465 511 _c
465 555 452 588 427 612 _c
402 636 367 648 321 648 _c
197 648 _l
98 729 _m
321 729 _l
402 729 464 710 506 673 _c
548 636 569 582 569 511 _c
569 439 548 384 506 348 _c
464 311 402 293 321 293 _c
197 293 _l
197 0 _l
98 0 _l
98 729 _l
_cl}_d
/S{{635 0 66 -13 579 742 _sc
535 705 _m
535 609 _l
497 627 462 640 429 649 _c
395 657 363 662 333 662 _c
279 662 237 651 208 631 _c
179 610 165 580 165 542 _c
165 510 174 485 194 469 _c
213 452 250 439 304 429 _c
364 417 _l
437 403 491 378 526 343 _c
561 307 579 260 579 201 _c
579 130 555 77 508 41 _c
460 5 391 -13 300 -13 _c
265 -13 228 -9 189 -2 _c
}_e{150 5 110 16 69 32 _c
69 134 _l
109 111 148 94 186 83 _c
224 71 262 66 300 66 _c
356 66 399 77 430 99 _c
460 121 476 152 476 194 _c
476 230 465 258 443 278 _c
421 298 385 313 335 323 _c
275 335 _l
201 349 148 372 115 404 _c
82 435 66 478 66 534 _c
66 598 88 649 134 686 _c
179 723 242 742 322 742 _c
356 742 390 739 426 733 _c
461 727 497 717 535 705 _c
}_e{_cl}_e}_d
/bracketleft{390 0 86 -131 293 760 _sc
86 760 _m
293 760 _l
293 690 _l
176 690 _l
176 -61 _l
293 -61 _l
293 -131 _l
86 -131 _l
86 760 _l
_cl}_d
/bracketright{390 0 97 -131 304 760 _sc
304 760 _m
304 -131 _l
97 -131 _l
97 -61 _l
214 -61 _l
214 690 _l
97 690 _l
97 760 _l
304 760 _l
_cl}_d
/a{{613 0 60 -13 522 560 _sc
343 275 _m
270 275 220 266 192 250 _c
164 233 150 205 150 165 _c
150 133 160 107 181 89 _c
202 70 231 61 267 61 _c
317 61 357 78 387 114 _c
417 149 432 196 432 255 _c
432 275 _l
343 275 _l
522 312 _m
522 0 _l
432 0 _l
432 83 _l
411 49 385 25 355 10 _c
325 -5 287 -13 243 -13 _c
187 -13 142 2 109 33 _c
76 64 60 106 60 159 _c
}_e{60 220 80 266 122 298 _c
163 329 224 345 306 345 _c
432 345 _l
432 354 _l
432 395 418 427 391 450 _c
364 472 326 484 277 484 _c
245 484 215 480 185 472 _c
155 464 127 453 100 439 _c
100 522 _l
132 534 164 544 195 550 _c
226 556 256 560 286 560 _c
365 560 424 539 463 498 _c
502 457 522 395 522 312 _c
_cl}_e}_d
/c{{550 0 55 -13 488 560 _sc
488 526 _m
488 442 _l
462 456 437 466 411 473 _c
385 480 360 484 334 484 _c
276 484 230 465 198 428 _c
166 391 150 339 150 273 _c
150 206 166 154 198 117 _c
230 80 276 62 334 62 _c
360 62 385 65 411 72 _c
437 79 462 90 488 104 _c
488 21 _l
462 9 436 0 410 -5 _c
383 -10 354 -13 324 -13 _c
242 -13 176 12 128 64 _c
}_e{79 115 55 185 55 273 _c
55 362 79 432 128 483 _c
177 534 244 560 330 560 _c
358 560 385 557 411 551 _c
437 545 463 537 488 526 _c
_cl}_e}_d
/d{{635 0 55 -13 544 760 _sc
454 464 _m
454 760 _l
544 760 _l
544 0 _l
454 0 _l
454 82 _l
435 49 411 25 382 10 _c
353 -5 319 -13 279 -13 _c
213 -13 159 13 117 65 _c
75 117 55 187 55 273 _c
55 359 75 428 117 481 _c
159 533 213 560 279 560 _c
319 560 353 552 382 536 _c
411 520 435 496 454 464 _c
148 273 _m
148 207 161 155 188 117 _c
215 79 253 61 301 61 _c
}_e{348 61 385 79 413 117 _c
440 155 454 207 454 273 _c
454 339 440 390 413 428 _c
385 466 348 485 301 485 _c
253 485 215 466 188 428 _c
161 390 148 339 148 273 _c
_cl}_e}_d
/e{{615 0 55 -13 562 560 _sc
562 296 _m
562 252 _l
149 252 _l
153 190 171 142 205 110 _c
238 78 284 62 344 62 _c
378 62 412 66 444 74 _c
476 82 509 95 541 113 _c
541 28 _l
509 14 476 3 442 -3 _c
408 -9 373 -13 339 -13 _c
251 -13 182 12 131 62 _c
80 112 55 181 55 268 _c
55 357 79 428 127 481 _c
175 533 241 560 323 560 _c
397 560 455 536 498 489 _c
}_e{540 441 562 377 562 296 _c
472 322 _m
471 371 457 410 431 440 _c
404 469 368 484 324 484 _c
274 484 234 469 204 441 _c
174 413 156 373 152 322 _c
472 322 _l
_cl}_e}_d
/g{{635 0 55 -207 544 560 _sc
454 280 _m
454 344 440 395 414 431 _c
387 467 349 485 301 485 _c
253 485 215 467 188 431 _c
161 395 148 344 148 280 _c
148 215 161 165 188 129 _c
215 93 253 75 301 75 _c
349 75 387 93 414 129 _c
440 165 454 215 454 280 _c
544 68 _m
544 -24 523 -93 482 -139 _c
440 -184 377 -207 292 -207 _c
260 -207 231 -204 203 -200 _c
175 -195 147 -188 121 -178 _c
}_e{121 -91 _l
147 -105 173 -115 199 -122 _c
225 -129 251 -133 278 -133 _c
336 -133 380 -117 410 -87 _c
439 -56 454 -10 454 52 _c
454 96 _l
435 64 411 40 382 24 _c
353 8 319 0 279 0 _c
211 0 157 25 116 76 _c
75 127 55 195 55 280 _c
55 364 75 432 116 483 _c
157 534 211 560 279 560 _c
319 560 353 552 382 536 _c
411 520 435 496 454 464 _c
454 547 _l
544 547 _l
}_e{544 68 _l
_cl}_e}_d
/h{634 0 91 0 549 760 _sc
549 330 _m
549 0 _l
459 0 _l
459 327 _l
459 379 448 417 428 443 _c
408 469 378 482 338 482 _c
289 482 251 466 223 435 _c
195 404 181 362 181 309 _c
181 0 _l
91 0 _l
91 760 _l
181 760 _l
181 462 _l
202 494 227 519 257 535 _c
286 551 320 560 358 560 _c
420 560 468 540 500 501 _c
532 462 549 405 549 330 _c
_cl}_d
/i{278 0 94 0 184 760 _sc
94 547 _m
184 547 _l
184 0 _l
94 0 _l
94 547 _l
94 760 _m
184 760 _l
184 646 _l
94 646 _l
94 760 _l
_cl}_d
/l{278 0 94 0 184 760 _sc
94 760 _m
184 760 _l
184 0 _l
94 0 _l
94 760 _l
_cl}_d
/m{{974 0 91 0 889 560 _sc
520 442 _m
542 482 569 511 600 531 _c
631 550 668 560 711 560 _c
767 560 811 540 842 500 _c
873 460 889 403 889 330 _c
889 0 _l
799 0 _l
799 327 _l
799 379 789 418 771 444 _c
752 469 724 482 686 482 _c
639 482 602 466 575 435 _c
548 404 535 362 535 309 _c
535 0 _l
445 0 _l
445 327 _l
445 379 435 418 417 444 _c
398 469 369 482 331 482 _c
}_e{285 482 248 466 221 435 _c
194 404 181 362 181 309 _c
181 0 _l
91 0 _l
91 547 _l
181 547 _l
181 462 _l
201 495 226 520 255 536 _c
283 552 317 560 357 560 _c
397 560 430 550 458 530 _c
486 510 506 480 520 442 _c
_cl}_e}_d
/n{634 0 91 0 549 560 _sc
549 330 _m
549 0 _l
459 0 _l
459 327 _l
459 379 448 417 428 443 _c
408 469 378 482 338 482 _c
289 482 251 466 223 435 _c
195 404 181 362 181 309 _c
181 0 _l
91 0 _l
91 547 _l
181 547 _l
181 462 _l
202 494 227 519 257 535 _c
286 551 320 560 358 560 _c
420 560 468 540 500 501 _c
532 462 549 405 549 330 _c
_cl}_d
/o{612 0 55 -13 557 560 _sc
306 484 _m
258 484 220 465 192 427 _c
164 389 150 338 150 273 _c
150 207 163 156 191 118 _c
219 80 257 62 306 62 _c
354 62 392 80 420 118 _c
448 156 462 207 462 273 _c
462 337 448 389 420 427 _c
392 465 354 484 306 484 _c
306 560 _m
384 560 445 534 490 484 _c
534 433 557 363 557 273 _c
557 183 534 113 490 63 _c
445 12 384 -13 306 -13 _c
227 -13 165 12 121 63 _c
77 113 55 183 55 273 _c
55 363 77 433 121 484 _c
165 534 227 560 306 560 _c
_cl}_d
/p{{635 0 91 -207 580 560 _sc
181 82 _m
181 -207 _l
91 -207 _l
91 547 _l
181 547 _l
181 464 _l
199 496 223 520 252 536 _c
281 552 316 560 356 560 _c
422 560 476 533 518 481 _c
559 428 580 359 580 273 _c
580 187 559 117 518 65 _c
476 13 422 -13 356 -13 _c
316 -13 281 -5 252 10 _c
223 25 199 49 181 82 _c
487 273 _m
487 339 473 390 446 428 _c
418 466 381 485 334 485 _c
}_e{286 485 249 466 222 428 _c
194 390 181 339 181 273 _c
181 207 194 155 222 117 _c
249 79 286 61 334 61 _c
381 61 418 79 446 117 _c
473 155 487 207 487 273 _c
_cl}_e}_d
/r{411 0 91 0 411 560 _sc
411 463 _m
401 469 390 473 378 476 _c
366 478 353 480 339 480 _c
288 480 249 463 222 430 _c
194 397 181 350 181 288 _c
181 0 _l
91 0 _l
91 547 _l
181 547 _l
181 462 _l
199 495 224 520 254 536 _c
284 552 321 560 365 560 _c
371 560 378 559 386 559 _c
393 558 401 557 411 555 _c
411 463 _l
_cl}_d
/s{{521 0 54 -13 472 560 _sc
443 531 _m
443 446 _l
417 458 391 468 364 475 _c
336 481 308 485 279 485 _c
234 485 200 478 178 464 _c
156 450 145 430 145 403 _c
145 382 153 366 169 354 _c
185 342 217 330 265 320 _c
296 313 _l
360 299 405 279 432 255 _c
458 230 472 195 472 151 _c
472 100 452 60 412 31 _c
372 1 316 -13 246 -13 _c
216 -13 186 -10 154 -5 _c
}_e{122 0 89 8 54 20 _c
54 113 _l
87 95 120 82 152 74 _c
184 65 216 61 248 61 _c
290 61 323 68 346 82 _c
368 96 380 117 380 144 _c
380 168 371 187 355 200 _c
339 213 303 226 247 238 _c
216 245 _l
160 257 119 275 95 299 _c
70 323 58 356 58 399 _c
58 450 76 490 112 518 _c
148 546 200 560 268 560 _c
301 560 332 557 362 552 _c
391 547 418 540 443 531 _c
}_e{_cl}_e}_d
/t{392 0 27 0 368 702 _sc
183 702 _m
183 547 _l
368 547 _l
368 477 _l
183 477 _l
183 180 _l
183 135 189 106 201 94 _c
213 81 238 75 276 75 _c
368 75 _l
368 0 _l
276 0 _l
206 0 158 13 132 39 _c
106 65 93 112 93 180 _c
93 477 _l
27 477 _l
27 547 _l
93 547 _l
93 702 _l
183 702 _l
_cl}_d
/u{634 0 85 -13 543 560 _sc
85 216 _m
85 547 _l
175 547 _l
175 219 _l
175 167 185 129 205 103 _c
225 77 255 64 296 64 _c
344 64 383 79 411 110 _c
439 141 453 183 453 237 _c
453 547 _l
543 547 _l
543 0 _l
453 0 _l
453 84 _l
431 50 405 26 377 10 _c
348 -5 315 -13 277 -13 _c
214 -13 166 6 134 45 _c
101 83 85 140 85 216 _c
311 560 _m
311 560 _l
_cl}_d
/w{818 0 42 0 776 547 _sc
42 547 _m
132 547 _l
244 120 _l
356 547 _l
462 547 _l
574 120 _l
686 547 _l
776 547 _l
633 0 _l
527 0 _l
409 448 _l
291 0 _l
185 0 _l
42 547 _l
_cl}_d
/x{592 0 29 0 559 547 _sc
549 547 _m
351 281 _l
559 0 _l
453 0 _l
294 215 _l
135 0 _l
29 0 _l
241 286 _l
47 547 _l
153 547 _l
298 352 _l
443 547 _l
549 547 _l
_cl}_d
/y{592 0 30 -207 562 547 _sc
322 -50 _m
296 -114 271 -157 247 -177 _c
223 -197 191 -207 151 -207 _c
79 -207 _l
79 -132 _l
132 -132 _l
156 -132 175 -126 189 -114 _c
203 -102 218 -75 235 -31 _c
251 9 _l
30 547 _l
125 547 _l
296 119 _l
467 547 _l
562 547 _l
322 -50 _l
_cl}_d
/z{525 0 43 0 482 547 _sc
55 547 _m
482 547 _l
482 465 _l
144 72 _l
482 72 _l
482 0 _l
43 0 _l
43 82 _l
381 475 _l
55 475 _l
55 547 _l
_cl}_d
/minus{838 0 106 272 732 355 _sc
106 355 _m
732 355 _l
732 272 _l
106 272 _l
106 355 _l
_cl}_d
end readonly def

/BuildGlyph
 {exch begin
 CharStrings exch
 2 copy known not{pop /.notdef}if
 true 3 1 roll get exec
 end}_d

/BuildChar {
 1 index /Encoding get exch get
 1 index /BuildGlyph get exec
}_d

FontName currentdict end definefont pop
end
%%EndProlog
mpldict begin
75.6 223.2 translate
460.8 345.6 0 0 clipbox
gsave
0 0 m
460.8 0 l
460.8 345.6 l
0 345.6 l
cl
1.000 setgray
fill
grestore
gsave
57.6 183.168 m
414.72 183.168 l
414.72 304.128 l
57.6 304.128 l
cl
1.000 setgray
fill
grestore
0.800 setlinewidth
1 setlinejoin
2 setlinecap
[] 0 setdash
0.690 setgray
gsave
357.1 121 57.6 183.2 clipbox
73.832727 183.168 m
73.832727 304.128 l
stroke
grestore
0 setlinecap
0.000 setgray
gsave
/o {
gsave
newpath
translate
0.8 setlinewidth
1 setlinejoin
0 setlinecap
0 0 m
0 -3.5 l

gsave
0.000 setgray
fill
grestore
stroke
grestore
} bind def
73.8327 183.168 o
grestore
/DejaVuSans findfont
10.000 scalefont
setfont
gsave
70.653040 168.574250 translate
0.000000 rotate
0.000000 0.000000 m /zero glyphshow
grestore
2 setlinecap
0.690 setgray
gsave
357.1 121 57.6 183.2 clipbox
138.893758 183.168 m
138.893758 304.128 l
stroke
grestore
0 setlinecap
0.000 setgray
gsave
/o {
gsave
newpath
translate
0.8 setlinewidth
1 setlinejoin
0 setlinecap
0 0 m
0 -3.5 l

gsave
0.000 setgray
fill
grestore
stroke
grestore
} bind def
138.894 183.168 o
grestore
gsave
129.354696 168.574250 translate
0.000000 rotate
0.000000 0.000000 m /one glyphshow
6.362305 0.000000 m /zero glyphshow
12.724609 0.000000 m /zero glyphshow
grestore
2 setlinecap
0.690 setgray
gsave
357.1 121 57.6 183.2 clipbox
203.95479 183.168 m
203.95479 304.128 l
stroke
grestore
0 setlinecap
0.000 setgray
gsave
/o {
gsave
newpath
translate
0.8 setlinewidth
1 setlinejoin
0 setlinecap
0 0 m
0 -3.5 l

gsave
0.000 setgray
fill
grestore
stroke
grestore
} bind def
203.955 183.168 o
grestore
gsave
194.415727 168.574250 translate
0.000000 rotate
0.000000 0.000000 m /two glyphshow
6.362305 0.000000 m /zero glyphshow
12.724609 0.000000 m /zero glyphshow
grestore
2 setlinecap
0.690 setgray
gsave
357.1 121 57.6 183.2 clipbox
269.015821 183.168 m
269.015821 304.128 l
stroke
grestore
0 setlinecap
0.000 setgray
gsave
/o {
gsave
newpath
translate
0.8 setlinewidth
1 setlinejoin
0 setlinecap
0 0 m
0 -3.5 l

gsave
0.000 setgray
fill
grestore
stroke
grestore
} bind def
269.016 183.168 o
grestore
gsave
259.476758 168.574250 translate
0.000000 rotate
0.000000 0.000000 m /three glyphshow
6.362305 0.000000 m /zero glyphshow
12.724609 0.000000 m /zero glyphshow
grestore
2 setlinecap
0.690 setgray
gsave
357.1 121 57.6 183.2 clipbox
334.076852 183.168 m
334.076852 304.128 l
stroke
grestore
0 setlinecap
0.000 setgray
gsave
/o {
gsave
newpath
translate
0.8 setlinewidth
1 setlinejoin
0 setlinecap
0 0 m
0 -3.5 l

gsave
0.000 setgray
fill
grestore
stroke
grestore
} bind def
334.077 183.168 o
grestore
gsave
324.537789 168.574250 translate
0.000000 rotate
0.000000 0.000000 m /four glyphshow
6.362305 0.000000 m /zero glyphshow
12.724609 0.000000 m /zero glyphshow
grestore
2 setlinecap
0.690 setgray
gsave
357.1 121 57.6 183.2 clipbox
399.137883 183.168 m
399.137883 304.128 l
stroke
grestore
0 setlinecap
0.000 setgray
gsave
/o {
gsave
newpath
translate
0.8 setlinewidth
1 setlinejoin
0 setlinecap
0 0 m
0 -3.5 l

gsave
0.000 setgray
fill
grestore
stroke
grestore
} bind def
399.138 183.168 o
grestore
gsave
389.598821 168.574250 translate
0.000000 rotate
0.000000 0.000000 m /five glyphshow
6.362305 0.000000 m /zero glyphshow
12.724609 0.000000 m /zero glyphshow
grestore
gsave
217.410000 154.902375 translate
0.000000 rotate
0.000000 0.000000 m /S glyphshow
6.347656 0.000000 m /a glyphshow
12.475586 0.000000 m /m glyphshow
22.216797 0.000000 m /p glyphshow
28.564453 0.000000 m /l glyphshow
31.342773 0.000000 m /e glyphshow
grestore
2 setlinecap
0.690 setgray
gsave
357.1 121 57.6 183.2 clipbox
57.6 208.341115 m
414.72 208.341115 l
stroke
grestore
0 setlinecap
0.000 setgray
gsave
/o {
gsave
newpath
translate
0.8 setlinewidth
1 setlinejoin
0 setlinecap
0 0 m
-3.5 0 l

gsave
0.000 setgray
fill
grestore
stroke
grestore
} bind def
57.6 208.341 o
grestore
gsave
35.865625 204.544240 translate
0.000000 rotate
0.000000 0.000000 m /minus glyphshow
8.378906 0.000000 m /five glyphshow
grestore
2 setlinecap
0.690 setgray
gsave
357.1 121 57.6 183.2 clipbox
57.6 237.336448 m
414.72 237.336448 l
stroke
grestore
0 setlinecap
0.000 setgray
gsave
/o {
gsave
newpath
translate
0.8 setlinewidth
1 setlinejoin
0 setlinecap
0 0 m
-3.5 0 l

gsave
0.000 setgray
fill
grestore
stroke
grestore
} bind def
57.6 237.336 o
grestore
gsave
44.240625 233.539573 translate
0.000000 rotate
0.000000 0.000000 m /zero glyphshow
grestore
2 setlinecap
0.690 setgray
gsave
357.1 121 57.6 183.2 clipbox
57.6 266.331781 m
414.72 266.331781 l
stroke
grestore
0 setlinecap
0.000 setgray
gsave
/o {
gsave
newpath
translate
0.8 setlinewidth
1 setlinejoin
0 setlinecap
0 0 m
-3.5 0 l

gsave
0.000 setgray
fill
grestore
stroke
grestore
} bind def
57.6 266.332 o
grestore
gsave
44.240625 262.534906 translate
0.000000 rotate
0.000000 0.000000 m /five glyphshow
grestore
2 setlinecap
0.690 setgray
gsave
357.1 121 57.6 183.2 clipbox
57.6 295.327114 m
414.72 295.327114 l
stroke
grestore
0 setlinecap
0.000 setgray
gsave
/o {
gsave
newpath
translate
0.8 setlinewidth
1 setlinejoin
0 setlinecap
0 0 m
-3.5 0 l

gsave
0.000 setgray
fill
grestore
stroke
grestore
} bind def
57.6 295.327 o
grestore
gsave
37.881250 291.530239 translate
0.000000 rotate
0.000000 0.000000 m /one glyphshow
6.362305 0.000000 m /zero glyphshow
grestore
gsave
29.787500 213.608937 translate
90.000000 rotate
0.000000 0.000000 m /P glyphshow
6.030273 0.000000 m /o glyphshow
12.148438 0.000000 m /s glyphshow
17.358398 0.000000 m /i glyphshow
20.136719 0.000000 m /t glyphshow
24.057617 0.000000 m /i glyphshow
26.835938 0.000000 m /o glyphshow
32.954102 0.000000 m /n glyphshow
39.291992 0.000000 m /space glyphshow
42.470703 0.000000 m /bracketleft glyphshow
46.372070 0.000000 m /m glyphshow
56.113281 0.000000 m /bracketright glyphshow
grestore
1.000 setlinewidth
0.122 0.467 0.706 setrgbcolor
gsave
357.1 121 57.6 183.2 clipbox
/o {
gsave
newpath
translate
1.0 setlinewidth
1 setlinejoin
0 setlinecap
0 -1.5 m
0.397805 -1.5 0.77937 -1.341951 1.06066 -1.06066 c
1.341951 -0.77937 1.5 -0.397805 1.5 0 c
1.5 0.397805 1.341951 0.77937 1.06066 1.06066 c
0.77937 1.341951 0.397805 1.5 0 1.5 c
-0.397805 1.5 -0.77937 1.341951 -1.06066 1.06066 c
-1.341951 0.77937 -1.5 0.397805 -1.5 0 c
-1.5 -0.397805 -1.341951 -0.77937 -1.06066 -1.06066 c
-0.77937 -1.341951 -0.397805 -1.5 0 -1.5 c
cl

gsave
0.122 0.467 0.706 setrgbcolor
fill
grestore
stroke
grestore
} bind def
73.8327 240.349 o
74.4833 240.485 o
75.1339 240.459 o
75.7846 240.552 o
76.4352 240.783 o
77.0858 240.873 o
77.7364 240.953 o
78.387 240.925 o
79.0376 241.191 o
79.6882 241.28 o
80.3388 241.417 o
80.9894 241.364 o
81.6401 241.738 o
82.2907 241.638 o
82.9413 241.857 o
83.5919 241.826 o
84.2425 242.009 o
84.8931 242.036 o
85.5437 242.165 o
86.1943 242.284 o
86.8449 242.43 o
87.4955 242.383 o
88.1462 242.632 o
88.7968 242.715 o
89.4474 242.765 o
90.098 242.871 o
90.7486 242.964 o
91.3992 243.159 o
92.0498 243.05 o
92.7004 243.209 o
93.351 243.269 o
94.0016 243.338 o
94.6523 243.425 o
95.3029 243.418 o
95.9535 243.64 o
96.6041 243.713 o
97.2547 243.671 o
97.9053 243.829 o
98.5559 243.764 o
99.2065 243.815 o
99.8571 243.866 o
100.508 244.032 o
101.158 243.992 o
101.809 244.019 o
102.46 244.056 o
103.11 244.162 o
103.761 244.332 o
104.411 244.311 o
105.062 244.263 o
105.713 244.261 o
106.363 244.33 o
107.014 244.382 o
107.664 244.649 o
108.315 244.54 o
108.966 244.341 o
109.616 244.699 o
110.267 244.499 o
110.918 244.439 o
111.568 244.552 o
112.219 244.747 o
112.869 244.435 o
113.52 244.474 o
114.171 244.719 o
114.821 244.523 o
115.472 244.557 o
116.122 244.277 o
116.773 244.494 o
117.424 244.343 o
118.074 244.566 o
118.725 244.631 o
119.375 244.025 o
120.026 244.129 o
120.677 244.399 o
121.327 244.085 o
121.978 244.395 o
122.629 244.342 o
123.279 244.2 o
123.93 244.207 o
124.58 244.129 o
125.231 243.764 o
125.882 243.876 o
126.532 243.66 o
127.183 243.517 o
127.833 243.781 o
128.484 243.499 o
129.135 243.406 o
129.785 243.686 o
130.436 243.393 o
131.086 243.284 o
131.737 243.027 o
132.388 242.81 o
133.038 242.882 o
133.689 242.973 o
134.339 242.729 o
134.99 242.304 o
135.641 242.451 o
136.291 242.057 o
136.942 242.103 o
137.593 242.176 o
138.243 241.898 o
138.894 241.877 o
139.544 241.429 o
140.195 241.686 o
140.846 241.308 o
141.496 241.052 o
142.147 240.99 o
142.797 240.905 o
143.448 240.651 o
144.099 240.601 o
144.749 240.318 o
145.4 240.296 o
146.05 239.813 o
146.701 239.77 o
147.352 239.629 o
148.002 239.754 o
148.653 239.299 o
149.304 239.012 o
149.954 238.761 o
150.605 238.877 o
151.255 238.873 o
151.906 238.248 o
152.557 237.855 o
153.207 238.698 o
153.858 237.865 o
154.508 237.366 o
155.159 237.495 o
155.81 236.694 o
156.46 236.612 o
157.111 236.768 o
157.761 236.354 o
158.412 235.657 o
159.063 235.946 o
159.713 235.279 o
160.364 235.462 o
161.015 235.337 o
161.665 234.866 o
162.316 235.271 o
162.966 233.931 o
163.617 233.966 o
164.268 233.929 o
164.918 233.518 o
165.569 233.306 o
166.219 232.935 o
166.87 233.056 o
167.521 232.369 o
168.171 232.482 o
168.822 231.969 o
169.472 231.836 o
170.123 231.902 o
170.774 231.248 o
171.424 230.833 o
172.075 230.925 o
172.725 230.526 o
173.376 229.765 o
174.027 229.503 o
174.677 229.188 o
175.328 229.156 o
175.979 228.966 o
176.629 228.846 o
177.28 228.218 o
177.93 228.081 o
178.581 228.102 o
179.232 227.912 o
179.882 227.764 o
180.533 227.065 o
181.183 226.836 o
181.834 226.55 o
182.485 225.09 o
183.135 225.979 o
183.786 225.157 o
184.436 225.514 o
185.087 224.521 o
185.738 224.297 o
186.388 223.97 o
187.039 224.217 o
187.69 223.484 o
188.34 223.215 o
188.991 223.125 o
189.641 222.946 o
190.292 222.688 o
190.943 222.118 o
191.593 222.211 o
192.244 222.351 o
192.894 221.035 o
193.545 220.696 o
194.196 220.614 o
194.846 220.118 o
195.497 220.045 o
196.147 219.681 o
196.798 219.705 o
197.449 219.655 o
198.099 218.746 o
198.75 218.478 o
199.401 218.433 o
200.051 217.561 o
200.702 216.973 o
201.352 216.917 o
202.003 217.11 o
202.654 216.49 o
203.304 216.477 o
203.955 216.078 o
204.605 215.79 o
205.256 216.201 o
205.907 214.848 o
206.557 214.899 o
207.208 215.001 o
207.858 214.318 o
208.509 213.996 o
209.16 213.891 o
209.81 214.009 o
210.461 213.295 o
211.112 213.227 o
211.762 212.998 o
212.413 212.252 o
213.063 212.302 o
213.714 212.242 o
214.365 211.865 o
215.015 211.526 o
215.666 210.84 o
216.316 210.583 o
216.967 211.109 o
217.618 210.806 o
218.268 210.109 o
218.919 210.117 o
219.569 210.517 o
220.22 209.976 o
220.871 209.21 o
221.521 209.093 o
222.172 209.36 o
222.822 208.942 o
223.473 207.802 o
224.124 206.89 o
224.774 207.771 o
225.425 208.158 o
226.076 207.453 o
226.726 206.949 o
227.377 208.199 o
228.027 207.396 o
228.678 207.804 o
229.329 206.956 o
229.979 207.069 o
230.63 207.001 o
231.28 205.635 o
231.931 206.771 o
232.582 206.184 o
233.232 206.06 o
233.883 206.077 o
234.533 205.499 o
235.184 206.036 o
235.835 205.448 o
236.485 205.7 o
237.136 205.482 o
237.787 204.808 o
238.437 204.72 o
239.088 205.441 o
239.738 204.698 o
240.389 204.713 o
241.04 204.778 o
241.69 204.782 o
242.341 204.766 o
242.991 203.939 o
243.642 204.094 o
244.293 203.576 o
244.943 204.288 o
245.594 203.571 o
246.244 204.654 o
246.895 203.965 o
247.546 204.74 o
248.196 205.04 o
248.847 204.47 o
249.498 203.897 o
250.148 204.176 o
250.799 204.708 o
251.449 203.844 o
252.1 204.125 o
252.751 204.865 o
253.401 204.177 o
254.052 204.721 o
254.702 204.323 o
255.353 204.438 o
256.004 203.78 o
256.654 204.822 o
257.305 204.4 o
257.955 204.374 o
258.606 206.227 o
259.257 205.4 o
259.907 204.355 o
260.558 203.108 o
261.208 204.663 o
261.859 205.104 o
262.51 205.169 o
263.16 204.661 o
263.811 205.283 o
264.462 205.156 o
265.112 205.91 o
265.763 206.601 o
266.413 206.236 o
267.064 206.344 o
267.715 207.016 o
268.365 206.216 o
269.016 207.366 o
269.666 208.133 o
270.317 207.892 o
270.968 207.1 o
271.618 208.009 o
272.269 207.326 o
272.919 207.999 o
273.57 208.934 o
274.221 209.513 o
274.871 209.273 o
275.522 209.239 o
276.173 208.387 o
276.823 211.266 o
277.474 209.129 o
278.124 209.882 o
278.775 210.007 o
279.426 210.821 o
280.076 210.873 o
280.727 211.392 o
281.377 212.463 o
282.028 211.343 o
282.679 212.52 o
283.329 214.375 o
283.98 212.956 o
284.63 214.557 o
285.281 215.18 o
285.932 214.413 o
286.582 214.039 o
287.233 214.852 o
287.884 215.356 o
288.534 215.283 o
289.185 215.364 o
289.835 217.294 o
290.486 215.479 o
291.137 217.223 o
291.787 217.656 o
292.438 216.887 o
293.088 217.949 o
293.739 216.486 o
294.39 218.189 o
295.04 218.943 o
295.691 220.891 o
296.341 221.211 o
296.992 221.043 o
297.643 222.324 o
298.293 220.834 o
298.944 222.589 o
299.595 223.451 o
300.245 223.09 o
300.896 224.233 o
301.546 223.812 o
302.197 225.069 o
302.848 224.629 o
303.498 224.491 o
304.149 226.563 o
304.799 226.212 o
305.45 226.841 o
306.101 227.005 o
306.751 227.752 o
307.402 229.095 o
308.052 229.67 o
308.703 229.58 o
309.354 230.134 o
310.004 230.992 o
310.655 231.39 o
311.305 231.724 o
311.956 231.907 o
312.607 233.511 o
313.257 233.57 o
313.908 234.248 o
314.559 234.91 o
315.209 236.528 o
315.86 236.237 o
316.51 236.277 o
317.161 237.077 o
317.812 237.003 o
318.462 239.633 o
319.113 238.927 o
319.763 239.843 o
320.414 240.961 o
321.065 240.419 o
321.715 241.005 o
322.366 241.964 o
323.016 242.426 o
323.667 242.547 o
324.318 244.395 o
324.968 245.098 o
325.619 243.843 o
326.27 245.649 o
326.92 246.494 o
327.571 245.648 o
328.221 247.12 o
328.872 247.7 o
329.523 249.671 o
330.173 247.854 o
330.824 249.604 o
331.474 250.458 o
332.125 251.267 o
332.776 252.394 o
333.426 251.984 o
334.077 252.178 o
334.727 253.667 o
335.378 254.495 o
336.029 254.069 o
336.679 255.882 o
337.33 255.543 o
337.981 257.089 o
338.631 258.025 o
339.282 257.402 o
339.932 258.916 o
340.583 259.879 o
341.234 259.117 o
341.884 259.808 o
342.535 260.935 o
343.185 260.999 o
343.836 261.887 o
344.487 262.934 o
345.137 263.012 o
345.788 263.853 o
346.438 265.38 o
347.089 265.952 o
347.74 265.736 o
348.39 266.202 o
349.041 267.207 o
349.691 268.172 o
350.342 268.024 o
350.993 268.698 o
351.643 269.597 o
352.294 270.914 o
352.945 270.701 o
353.595 271.904 o
354.246 272.227 o
354.896 271.576 o
355.547 274.102 o
356.198 274.781 o
356.848 274.88 o
357.499 275.061 o
358.149 273.844 o
358.8 275.54 o
359.451 275.638 o
360.101 277.47 o
360.752 277.571 o
361.402 278.252 o
362.053 279.501 o
362.704 279.594 o
363.354 279.27 o
364.005 280.942 o
364.656 281.178 o
365.306 281.39 o
365.957 281.177 o
366.607 282.935 o
367.258 282.368 o
367.909 282.771 o
368.559 283.719 o
369.21 284.305 o
369.86 284.518 o
370.511 285.31 o
371.162 284.442 o
371.812 285.832 o
372.463 287.073 o
373.113 286.751 o
373.764 287.289 o
374.415 287.118 o
375.065 287.687 o
375.716 288.269 o
376.367 289.003 o
377.017 289.485 o
377.668 289.792 o
378.318 290.569 o
378.969 291.41 o
379.62 290.637 o
380.27 291.269 o
380.921 291.323 o
381.571 291.967 o
382.222 291.643 o
382.873 293.616 o
383.523 292.979 o
384.174 293.05 o
384.824 293.503 o
385.475 293.793 o
386.126 293.951 o
386.776 294.585 o
387.427 294.691 o
388.078 295.162 o
388.728 295.123 o
389.379 295.592 o
390.029 296.038 o
390.68 296.357 o
391.331 296.222 o
391.981 296.119 o
392.632 296.73 o
393.282 296.543 o
393.933 297.15 o
394.584 297.047 o
395.234 297.865 o
395.885 298.257 o
396.535 297.973 o
397.186 298.294 o
397.837 298.049 o
398.487 298.63 o
grestore
1.000 0.498 0.055 setrgbcolor
gsave
357.1 121 57.6 183.2 clipbox
/o {
gsave
newpath
translate
1.0 setlinewidth
1 setlinejoin
0 setlinecap
0 -1.5 m
0.397805 -1.5 0.77937 -1.341951 1.06066 -1.06066 c
1.341951 -0.77937 1.5 -0.397805 1.5 0 c
1.5 0.397805 1.341951 0.77937 1.06066 1.06066 c
0.77937 1.341951 0.397805 1.5 0 1.5 c
-0.397805 1.5 -0.77937 1.341951 -1.06066 1.06066 c
-1.341951 0.77937 -1.5 0.397805 -1.5 0 c
-1.5 -0.397805 -1.341951 -0.77937 -1.06066 -1.06066 c
-0.77937 -1.341951 -0.397805 -1.5 0 -1.5 c
cl

gsave
1.000 0.498 0.055 setrgbcolor
fill
grestore
stroke
grestore
} bind def
73.8327 237.075 o
74.4833 237.563 o
75.1339 237.319 o
75.7846 237.546 o
76.4352 237.335 o
77.0858 237.618 o
77.7364 237.71 o
78.387 237.762 o
79.0376 237.767 o
79.6882 237.838 o
80.3388 237.776 o
80.9894 238.01 o
81.6401 237.912 o
82.2907 237.98 o
82.9413 238.105 o
83.5919 238.412 o
84.2425 238.289 o
84.8931 238.281 o
85.5437 238.426 o
86.1943 238.584 o
86.8449 238.487 o
87.4955 238.721 o
88.1462 238.847 o
88.7968 238.838 o
89.4474 239.161 o
90.098 239.154 o
90.7486 239.184 o
91.3992 239.348 o
92.0498 239.458 o
92.7004 239.664 o
93.351 239.687 o
94.0016 239.789 o
94.6523 239.754 o
95.3029 240.1 o
95.9535 240.179 o
96.6041 240.287 o
97.2547 240.442 o
97.9053 240.391 o
98.5559 240.736 o
99.2065 240.852 o
99.8571 241.178 o
100.508 241.064 o
101.158 241.318 o
101.809 241.404 o
102.46 241.645 o
103.11 241.725 o
103.761 241.874 o
104.411 241.965 o
105.062 242.07 o
105.713 242.444 o
106.363 242.476 o
107.014 242.553 o
107.664 242.696 o
108.315 242.902 o
108.966 243.043 o
109.616 243.185 o
110.267 243.472 o
110.918 243.488 o
111.568 243.824 o
112.219 244.016 o
112.869 244.114 o
113.52 244.324 o
114.171 244.342 o
114.821 244.794 o
115.472 244.814 o
116.122 244.861 o
116.773 245.226 o
117.424 245.418 o
118.074 245.37 o
118.725 245.572 o
119.375 246.078 o
120.026 246.089 o
120.677 246.264 o
121.327 246.439 o
121.978 246.562 o
122.629 246.707 o
123.279 246.787 o
123.93 247.069 o
124.58 247.196 o
125.231 247.61 o
125.882 247.718 o
126.532 247.85 o
127.183 248.116 o
127.833 248.024 o
128.484 248.365 o
129.135 248.622 o
129.785 248.628 o
130.436 248.954 o
131.086 248.92 o
131.737 249.271 o
132.388 249.358 o
133.038 249.646 o
133.689 249.748 o
134.339 250.175 o
134.99 250.123 o
135.641 250.328 o
136.291 250.413 o
136.942 250.848 o
137.593 250.782 o
138.243 251.108 o
138.894 251.116 o
139.544 251.382 o
140.195 251.412 o
140.846 251.577 o
141.496 251.953 o
142.147 251.981 o
142.797 252.182 o
143.448 252.094 o
144.099 252.415 o
144.749 252.544 o
145.4 252.767 o
146.05 252.909 o
146.701 252.923 o
147.352 253.297 o
148.002 253.23 o
148.653 253.194 o
149.304 253.576 o
149.954 253.587 o
150.605 253.979 o
151.255 254.106 o
151.906 254.342 o
152.557 254.426 o
153.207 254.303 o
153.858 254.663 o
154.508 254.638 o
155.159 254.751 o
155.81 255.116 o
156.46 254.873 o
157.111 254.97 o
157.761 255.439 o
158.412 255.474 o
159.063 255.333 o
159.713 255.623 o
160.364 255.825 o
161.015 255.531 o
161.665 255.887 o
162.316 255.897 o
162.966 256.058 o
163.617 256.005 o
164.268 255.924 o
164.918 256.056 o
165.569 256.278 o
166.219 256.285 o
166.87 256.317 o
167.521 256.365 o
168.171 256.747 o
168.822 256.591 o
169.472 256.785 o
170.123 256.445 o
170.774 256.425 o
171.424 256.859 o
172.075 256.602 o
172.725 256.473 o
173.376 256.586 o
174.027 256.918 o
174.677 257.093 o
175.328 256.618 o
175.979 256.902 o
176.629 256.714 o
177.28 256.826 o
177.93 256.563 o
178.581 256.538 o
179.232 256.725 o
179.882 256.989 o
180.533 256.687 o
181.183 256.914 o
181.834 256.647 o
182.485 256.623 o
183.135 256.368 o
183.786 256.748 o
184.436 256.838 o
185.087 256.374 o
185.738 256.227 o
186.388 256.142 o
187.039 255.877 o
187.69 255.963 o
188.34 256.069 o
188.991 255.685 o
189.641 255.759 o
190.292 256.063 o
190.943 255.31 o
191.593 255.474 o
192.244 255.498 o
192.894 255.146 o
193.545 255.343 o
194.196 255.107 o
194.846 255.181 o
195.497 254.783 o
196.147 254.608 o
196.798 254.722 o
197.449 254.081 o
198.099 253.991 o
198.75 253.987 o
199.401 254.433 o
200.051 253.591 o
200.702 252.96 o
201.352 252.984 o
202.003 253.343 o
202.654 253.443 o
203.304 252.895 o
203.955 252.315 o
204.605 252.124 o
205.256 252.135 o
205.907 252.151 o
206.557 251.981 o
207.208 252.138 o
207.858 251.304 o
208.509 251.13 o
209.16 250.678 o
209.81 250.242 o
210.461 250.757 o
211.112 250.109 o
211.762 250.277 o
212.413 249.775 o
213.063 250.263 o
213.714 249.381 o
214.365 248.512 o
215.015 248.753 o
215.666 248.268 o
216.316 248.024 o
216.967 247.791 o
217.618 247.704 o
218.268 246.874 o
218.919 246.401 o
219.569 247.077 o
220.22 246.151 o
220.871 246.224 o
221.521 245.487 o
222.172 245.098 o
222.822 244.567 o
223.473 243.917 o
224.124 243.747 o
224.774 243.454 o
225.425 243.105 o
226.076 243.134 o
226.726 242.628 o
227.377 242.802 o
228.027 242.237 o
228.678 242.192 o
229.329 241.31 o
229.979 241.207 o
230.63 240.63 o
231.28 240.607 o
231.931 240.607 o
232.582 240.41 o
233.232 239.163 o
233.883 238.231 o
234.533 237.457 o
235.184 238.436 o
235.835 237.852 o
236.485 236.179 o
237.136 236.733 o
237.787 236.175 o
238.437 236.015 o
239.088 234.699 o
239.738 235.684 o
240.389 234.803 o
241.04 233.875 o
241.69 234.721 o
242.341 233.888 o
242.991 233.19 o
243.642 231.996 o
244.293 232.384 o
244.943 232.302 o
245.594 231.684 o
246.244 230.299 o
246.895 229.481 o
247.546 229.586 o
248.196 230.615 o
248.847 228.713 o
249.498 228.63 o
250.148 228.893 o
250.799 228.143 o
251.449 226.264 o
252.1 226.965 o
252.751 227.323 o
253.401 226.989 o
254.052 225.432 o
254.702 225.401 o
255.353 225.206 o
256.004 224.263 o
256.654 224.143 o
257.305 224.332 o
257.955 223.147 o
258.606 221.698 o
259.257 222 o
259.907 221.755 o
260.558 222.551 o
261.208 221.14 o
261.859 219.503 o
262.51 219.707 o
263.16 218.504 o
263.811 217.223 o
264.462 217.956 o
265.112 217.072 o
265.763 217.287 o
266.413 216.804 o
267.064 216.978 o
267.715 216.037 o
268.365 215.044 o
269.016 215.372 o
269.666 213.579 o
270.317 213.262 o
270.968 212.331 o
271.618 213.543 o
272.269 211.451 o
272.919 212.551 o
273.57 211.474 o
274.221 211.251 o
274.871 209.462 o
275.522 209.744 o
276.173 210.273 o
276.823 208.674 o
277.474 209.875 o
278.124 209.223 o
278.775 208.314 o
279.426 208.256 o
280.076 206.945 o
280.727 206.295 o
281.377 207.414 o
282.028 206.835 o
282.679 205.235 o
283.329 205.915 o
283.98 206.184 o
284.63 203.519 o
285.281 204.461 o
285.932 204.077 o
286.582 203.912 o
287.233 203.086 o
287.884 201.973 o
288.534 202.682 o
289.185 202.378 o
289.835 201.424 o
290.486 201.094 o
291.137 200.912 o
291.787 199.955 o
292.438 200.466 o
293.088 200.309 o
293.739 199.666 o
294.39 198.708 o
295.04 198.58 o
295.691 198.742 o
296.341 197.923 o
296.992 197.306 o
297.643 198.417 o
298.293 197.055 o
298.944 197.88 o
299.595 195.827 o
300.245 196.226 o
300.896 195.864 o
301.546 195.077 o
302.197 194.736 o
302.848 195.29 o
303.498 194.142 o
304.149 194.308 o
304.799 194.751 o
305.45 193.35 o
306.101 193.41 o
306.751 195.074 o
307.402 193.066 o
308.052 193.401 o
308.703 193.769 o
309.354 192.431 o
310.004 191.782 o
310.655 193.743 o
311.305 192.082 o
311.956 192.561 o
312.607 193.221 o
313.257 191.829 o
313.908 191.071 o
314.559 191.51 o
315.209 191.176 o
315.86 191.065 o
316.51 190.927 o
317.161 189.496 o
317.812 189.9 o
318.462 191.026 o
319.113 190.533 o
319.763 190.351 o
320.414 190.702 o
321.065 191.983 o
321.715 190.778 o
322.366 190.774 o
323.016 189.664 o
323.667 188.666 o
324.318 190.228 o
324.968 191.314 o
325.619 188.789 o
326.27 190.006 o
326.92 190.983 o
327.571 190.699 o
328.221 189.581 o
328.872 189.199 o
329.523 190.959 o
330.173 188.961 o
330.824 190.472 o
331.474 190.199 o
332.125 190.599 o
332.776 191.301 o
333.426 190.106 o
334.077 189.991 o
334.727 190.941 o
335.378 190.376 o
336.029 191.398 o
336.679 191.531 o
337.33 190.902 o
337.981 190.941 o
338.631 192.102 o
339.282 191.336 o
339.932 191.32 o
340.583 191.943 o
341.234 190.66 o
341.884 190.631 o
342.535 192.499 o
343.185 192.346 o
343.836 191.322 o
344.487 192.7 o
345.137 193.317 o
345.788 194.525 o
346.438 192.966 o
347.089 195.622 o
347.74 194.542 o
348.39 195.994 o
349.041 194.356 o
349.691 195.463 o
350.342 194.951 o
350.993 194.962 o
351.643 195.47 o
352.294 197.076 o
352.945 196.234 o
353.595 198.659 o
354.246 197.507 o
354.896 198.399 o
355.547 197.076 o
356.198 198.032 o
356.848 199.771 o
357.499 197.897 o
358.149 200.118 o
358.8 200.15 o
359.451 200.24 o
360.101 199.587 o
360.752 199.626 o
361.402 200.487 o
362.053 203.497 o
362.704 201.924 o
363.354 203.705 o
364.005 204.562 o
364.656 204.218 o
365.306 204.127 o
365.957 204.851 o
366.607 206.059 o
367.258 206.932 o
367.909 206.147 o
368.559 206.464 o
369.21 206.001 o
369.86 210.092 o
370.511 208.474 o
371.162 208.212 o
371.812 209.095 o
372.463 209.343 o
373.113 211.3 o
373.764 212.749 o
374.415 212.949 o
375.065 212.62 o
375.716 213.911 o
376.367 213.658 o
377.017 214.625 o
377.668 215.293 o
378.318 216.676 o
378.969 215.335 o
379.62 216.139 o
380.27 217.875 o
380.921 219.192 o
381.571 218.355 o
382.222 219.085 o
382.873 218.873 o
383.523 220.959 o
384.174 221.051 o
384.824 221.8 o
385.475 223.258 o
386.126 223.943 o
386.776 223.111 o
387.427 225.26 o
388.078 225.646 o
388.728 226.333 o
389.379 226.254 o
390.029 229.705 o
390.68 227.818 o
391.331 229.875 o
391.981 230.169 o
392.632 230.638 o
393.282 231.674 o
393.933 232.908 o
394.584 232.716 o
395.234 232.103 o
395.885 233.574 o
396.535 233.695 o
397.186 234.418 o
397.837 236.991 o
398.487 236.869 o
grestore
0.173 0.627 0.173 setrgbcolor
gsave
357.1 121 57.6 183.2 clipbox
/o {
gsave
newpath
translate
1.0 setlinewidth
1 setlinejoin
0 setlinecap
0 -1.5 m
0.397805 -1.5 0.77937 -1.341951 1.06066 -1.06066 c
1.341951 -0.77937 1.5 -0.397805 1.5 0 c
1.5 0.397805 1.341951 0.77937 1.06066 1.06066 c
0.77937 1.341951 0.397805 1.5 0 1.5 c
-0.397805 1.5 -0.77937 1.341951 -1.06066 1.06066 c
-1.341951 0.77937 -1.5 0.397805 -1.5 0 c
-1.5 -0.397805 -1.341951 -0.77937 -1.06066 -1.06066 c
-0.77937 -1.341951 -0.397805 -1.5 0 -1.5 c
cl

gsave
0.173 0.627 0.173 setrgbcolor
fill
grestore
stroke
grestore
} bind def
73.8327 240.303 o
74.4833 240.361 o
75.1339 240.529 o
75.7846 240.505 o
76.4352 240.659 o
77.0858 240.876 o
77.7364 241.121 o
78.387 241.011 o
79.0376 241.32 o
79.6882 241.447 o
80.3388 241.348 o
80.9894 241.561 o
81.6401 241.507 o
82.2907 241.815 o
82.9413 241.803 o
83.5919 241.974 o
84.2425 242.07 o
84.8931 242.254 o
85.5437 242.253 o
86.1943 242.409 o
86.8449 242.593 o
87.4955 242.595 o
88.1462 242.755 o
88.7968 242.861 o
89.4474 242.999 o
90.098 243.311 o
90.7486 243.163 o
91.3992 243.428 o
92.0498 243.437 o
92.7004 243.671 o
93.351 243.796 o
94.0016 243.817 o
94.6523 243.937 o
95.3029 244.24 o
95.9535 244.098 o
96.6041 244.349 o
97.2547 244.468 o
97.9053 244.626 o
98.5559 244.722 o
99.2065 244.704 o
99.8571 244.916 o
100.508 244.964 o
101.158 245.009 o
101.809 245.182 o
102.46 245.335 o
103.11 245.368 o
103.761 245.566 o
104.411 245.729 o
105.062 245.854 o
105.713 245.943 o
106.363 246.121 o
107.014 246.216 o
107.664 246.232 o
108.315 246.437 o
108.966 246.498 o
109.616 246.728 o
110.267 246.789 o
110.918 246.97 o
111.568 247.078 o
112.219 246.956 o
112.869 247.202 o
113.52 247.253 o
114.171 247.525 o
114.821 247.511 o
115.472 247.63 o
116.122 247.831 o
116.773 247.874 o
117.424 248.083 o
118.074 248.311 o
118.725 248.159 o
119.375 248.371 o
120.026 248.465 o
120.677 248.496 o
121.327 248.72 o
121.978 248.762 o
122.629 248.784 o
123.279 249.072 o
123.93 249.109 o
124.58 249.418 o
125.231 249.301 o
125.882 249.573 o
126.532 249.64 o
127.183 249.649 o
127.833 249.913 o
128.484 250.019 o
129.135 250.175 o
129.785 250.221 o
130.436 250.411 o
131.086 250.798 o
131.737 250.517 o
132.388 250.895 o
133.038 250.811 o
133.689 250.84 o
134.339 250.835 o
134.99 251.162 o
135.641 251.354 o
136.291 251.482 o
136.942 251.451 o
137.593 251.489 o
138.243 251.657 o
138.894 251.889 o
139.544 251.872 o
140.195 252.236 o
140.846 252.222 o
141.496 252.322 o
142.147 252.343 o
142.797 252.539 o
143.448 252.731 o
144.099 252.911 o
144.749 253.011 o
145.4 252.968 o
146.05 253.137 o
146.701 253.237 o
147.352 253.208 o
148.002 253.564 o
148.653 253.683 o
149.304 253.708 o
149.954 253.729 o
150.605 253.761 o
151.255 254.047 o
151.906 254.035 o
152.557 254.218 o
153.207 254.572 o
153.858 254.565 o
154.508 254.789 o
155.159 254.797 o
155.81 254.711 o
156.46 254.995 o
157.111 255.226 o
157.761 255.409 o
158.412 254.93 o
159.063 255.398 o
159.713 255.252 o
160.364 255.806 o
161.015 256.074 o
161.665 255.86 o
162.316 256.281 o
162.966 255.724 o
163.617 256.159 o
164.268 256.414 o
164.918 256.517 o
165.569 256.469 o
166.219 256.638 o
166.87 256.846 o
167.521 256.628 o
168.171 256.919 o
168.822 257.029 o
169.472 257.192 o
170.123 257.613 o
170.774 257.393 o
171.424 257.851 o
172.075 257.928 o
172.725 258.185 o
173.376 257.915 o
174.027 257.766 o
174.677 257.9 o
175.328 258.543 o
175.979 258.206 o
176.629 258.812 o
177.28 258.624 o
177.93 259.015 o
178.581 259.026 o
179.232 259.101 o
179.882 259.398 o
180.533 259.438 o
181.183 259.477 o
181.834 259.666 o
182.485 259.351 o
183.135 259.798 o
183.786 259.627 o
184.436 260.449 o
185.087 260.282 o
185.738 260.192 o
186.388 260.089 o
187.039 260.857 o
187.69 260.554 o
188.34 260.754 o
188.991 260.974 o
189.641 261.172 o
190.292 261.326 o
190.943 261.439 o
191.593 261.575 o
192.244 261.9 o
192.894 261.298 o
193.545 261.265 o
194.196 261.802 o
194.846 261.825 o
195.497 262.091 o
196.147 261.864 o
196.798 262.39 o
197.449 262.711 o
198.099 262.678 o
198.75 262.714 o
199.401 262.923 o
200.051 263.008 o
200.702 262.638 o
201.352 262.867 o
202.003 262.919 o
202.654 262.907 o
203.304 263.51 o
203.955 263.323 o
204.605 264.145 o
205.256 264.364 o
205.907 263.421 o
206.557 264.129 o
207.208 264.462 o
207.858 263.815 o
208.509 263.934 o
209.16 264.152 o
209.81 264.689 o
210.461 264.25 o
211.112 264.926 o
211.762 265.301 o
212.413 264.734 o
213.063 265.282 o
213.714 265.17 o
214.365 265.477 o
215.015 265.562 o
215.666 265.188 o
216.316 265.427 o
216.967 265.724 o
217.618 265.615 o
218.268 265.749 o
218.919 265.888 o
219.569 267.088 o
220.22 266.783 o
220.871 265.96 o
221.521 266.395 o
222.172 267.237 o
222.822 267.182 o
223.473 266.389 o
224.124 266.49 o
224.774 266.654 o
225.425 268.25 o
226.076 266.787 o
226.726 267.657 o
227.377 268.059 o
228.027 268.029 o
228.678 268.239 o
229.329 267.351 o
229.979 268.328 o
230.63 268.57 o
231.28 268.302 o
231.931 269.014 o
232.582 268.999 o
233.232 268.449 o
233.883 268.727 o
234.533 269.019 o
235.184 269.349 o
235.835 268.656 o
236.485 269.209 o
237.136 268.997 o
237.787 269.28 o
238.437 269.413 o
239.088 269.805 o
239.738 269.967 o
240.389 269.57 o
241.04 269.4 o
241.69 270.094 o
242.341 270.3 o
242.991 270.351 o
243.642 269.27 o
244.293 270.843 o
244.943 272.26 o
245.594 270.799 o
246.244 271.059 o
246.895 271.166 o
247.546 271.355 o
248.196 271.742 o
248.847 271.675 o
249.498 271.097 o
250.148 272.426 o
250.799 272.271 o
251.449 271.82 o
252.1 271.382 o
252.751 272.286 o
253.401 272.578 o
254.052 272.353 o
254.702 273.057 o
255.353 274.222 o
256.004 272.116 o
256.654 273.098 o
257.305 272.836 o
257.955 272.643 o
258.606 273.459 o
259.257 273.446 o
259.907 273.584 o
260.558 273.973 o
261.208 273.19 o
261.859 272.302 o
262.51 274.536 o
263.16 273.308 o
263.811 273.22 o
264.462 273.655 o
265.112 274.02 o
265.763 274.253 o
266.413 274.021 o
267.064 274.756 o
267.715 275.713 o
268.365 274.396 o
269.016 275.266 o
269.666 274.441 o
270.317 275.138 o
270.968 274.072 o
271.618 275.041 o
272.269 274.713 o
272.919 275.959 o
273.57 274.96 o
274.221 276.253 o
274.871 275.681 o
275.522 275.524 o
276.173 277.137 o
276.823 276.431 o
277.474 277.38 o
278.124 276.312 o
278.775 277.114 o
279.426 276.346 o
280.076 276.987 o
280.727 275.993 o
281.377 277.564 o
282.028 276.938 o
282.679 277.301 o
283.329 278.162 o
283.98 279.076 o
284.63 277.587 o
285.281 278.29 o
285.932 279.083 o
286.582 277.595 o
287.233 278.077 o
287.884 279.041 o
288.534 277.461 o
289.185 279.235 o
289.835 279.15 o
290.486 277.832 o
291.137 279.015 o
291.787 279.439 o
292.438 278.817 o
293.088 279.858 o
293.739 279.03 o
294.39 280.124 o
295.04 279.683 o
295.691 279.525 o
296.341 279.846 o
296.992 279.369 o
297.643 280.575 o
298.293 280.31 o
298.944 280.533 o
299.595 280.633 o
300.245 281.005 o
300.896 281.095 o
301.546 279.916 o
302.197 280.989 o
302.848 281.14 o
303.498 280.399 o
304.149 281.285 o
304.799 281.866 o
305.45 280.55 o
306.101 281.731 o
306.751 282.638 o
307.402 281.706 o
308.052 281.853 o
308.703 282.266 o
309.354 282.728 o
310.004 281.713 o
310.655 281.29 o
311.305 281.803 o
311.956 282.152 o
312.607 283.136 o
313.257 282.288 o
313.908 282.235 o
314.559 282.641 o
315.209 283.827 o
315.86 283.206 o
316.51 283.545 o
317.161 282.379 o
317.812 282.69 o
318.462 283.37 o
319.113 283.346 o
319.763 284.244 o
320.414 284.735 o
321.065 285.256 o
321.715 285.213 o
322.366 285.654 o
323.016 284.819 o
323.667 282.623 o
324.318 284.87 o
324.968 285.722 o
325.619 284.609 o
326.27 284.879 o
326.92 286.042 o
327.571 286.488 o
328.221 283.942 o
328.872 283.85 o
329.523 286.88 o
330.173 284.888 o
330.824 286.799 o
331.474 286.643 o
332.125 286.006 o
332.776 287.106 o
333.426 286.408 o
334.077 286.108 o
334.727 286.689 o
335.378 287.057 o
336.029 288.035 o
336.679 287.641 o
337.33 287.469 o
337.981 285.847 o
338.631 287.837 o
339.282 288.194 o
339.932 287.68 o
340.583 287.286 o
341.234 287.6 o
341.884 287.6 o
342.535 288.145 o
343.185 289.243 o
343.836 287.831 o
344.487 288.658 o
345.137 289.519 o
345.788 289.461 o
346.438 287.983 o
347.089 289.741 o
347.74 288.956 o
348.39 290.291 o
349.041 289.046 o
349.691 289.973 o
350.342 289.801 o
350.993 289.309 o
351.643 289.297 o
352.294 290.652 o
352.945 289.828 o
353.595 290.487 o
354.246 289.101 o
354.896 291.326 o
355.547 289.388 o
356.198 289.294 o
356.848 290.899 o
357.499 289.226 o
358.149 293.02 o
358.8 291.177 o
359.451 291.599 o
360.101 290.378 o
360.752 289.172 o
361.402 291.052 o
362.053 292.168 o
362.704 290.759 o
363.354 293.085 o
364.005 291.866 o
364.656 291.79 o
365.306 291.519 o
365.957 293.161 o
366.607 292.113 o
367.258 293.517 o
367.909 293.015 o
368.559 292.984 o
369.21 291.905 o
369.86 293.973 o
370.511 292.323 o
371.162 293.601 o
371.812 292.664 o
372.463 292.709 o
373.113 293.422 o
373.764 294.402 o
374.415 295.67 o
375.065 294.574 o
375.716 294.745 o
376.367 294.576 o
377.017 295.223 o
377.668 294.667 o
378.318 294.766 o
378.969 294.007 o
379.62 295.039 o
380.27 295.536 o
380.921 295.162 o
381.571 294.782 o
382.222 295.781 o
382.873 294.116 o
383.523 295.662 o
384.174 295.707 o
384.824 295.516 o
385.475 295.988 o
386.126 296.863 o
386.776 295.979 o
387.427 296.488 o
388.078 296.188 o
388.728 296.573 o
389.379 296.635 o
390.029 296.069 o
390.68 296.88 o
391.331 297.549 o
391.981 297.193 o
392.632 296.293 o
393.282 297.811 o
393.933 297.373 o
394.584 297.979 o
395.234 296.125 o
395.885 297.444 o
396.535 296.647 o
397.186 297.303 o
397.837 298.001 o
398.487 296.79 o
grestore
1.500 setlinewidth
2 setlinecap
0.839 0.153 0.157 setrgbcolor
gsave
357.1 121 57.6 183.2 clipbox
73.832727 240.235982 m
84.893103 242.100351 l
92.700426 243.192807 l
99.206529 243.890083 l
105.062022 244.312369 l
110.917515 244.510742 l
116.122398 244.479829 l
121.32728 244.239976 l
126.532163 243.781456 l
131.737045 243.09827 l
136.941927 242.188307 l
142.14681 241.053466 l
147.351692 239.699705 l
153.207185 237.927673 l
159.062678 235.911648 l
165.568781 233.417831 l
172.725495 230.418161 l
181.183429 226.621543 l
208.509062 214.149174 l
215.015165 211.540246 l
220.870658 209.440076 l
226.07554 207.814225 l
230.629812 206.606251 l
235.184085 205.62156 l
239.738357 204.880393 l
243.642019 204.45291 l
247.54568 204.228217 l
251.449342 204.215412 l
255.353004 204.422256 l
259.256666 204.85508 l
263.160328 205.518709 l
267.06399 206.416391 l
270.967652 207.549739 l
274.871314 208.918685 l
278.774975 210.52144 l
282.678637 212.354474 l
286.582299 214.4125 l
291.136571 217.088408 l
295.690844 220.046733 l
300.245116 223.270141 l
305.449998 227.252311 l
310.654881 231.518791 l
316.510373 236.608572 l
323.667087 243.156411 l
333.426242 252.443302 l
349.040889 267.322311 l
355.546992 273.212435 l
361.402485 278.215478 l
366.607367 282.355512 l
371.16164 285.694264 l
375.065302 288.316083 l
378.968963 290.693159 l
382.872625 292.804658 l
386.776287 294.631039 l
390.029339 295.922123 l
393.28239 296.992984 l
396.535442 297.834817 l
398.487273 298.226648 l
398.487273 298.226648 l
stroke
grestore
0.580 0.404 0.741 setrgbcolor
gsave
357.1 121 57.6 183.2 clipbox
73.832727 237.336448 m
79.68822 237.782607 l
85.543713 238.458074 l
91.399206 239.349652 l
97.905309 240.570552 l
105.062022 242.154073 l
113.519956 244.276099 l
125.881552 247.647552 l
139.544369 251.323932 l
147.351692 253.192994 l
153.857796 254.5261 l
159.713288 255.500249 l
164.918171 256.153583 l
170.123053 256.580455 l
174.677326 256.750355 l
179.231598 256.716288 l
183.78587 256.467021 l
188.340142 255.993496 l
192.894414 255.288981 l
197.448686 254.349211 l
202.002959 253.172487 l
206.557231 251.759766 l
211.111503 250.114715 l
215.665775 248.24374 l
220.870658 245.840692 l
226.07554 243.172564 l
231.280423 240.261829 l
237.135915 236.730783 l
243.642019 232.541256 l
251.449342 227.239459 l
267.06399 216.269086 l
276.172534 210.035408 l
282.678637 205.836057 l
288.53413 202.325379 l
293.739013 199.474795 l
298.293285 197.226311 l
302.847557 195.23767 l
306.751219 193.760755 l
310.654881 192.511052 l
314.558543 191.50353 l
318.462204 190.751853 l
321.715256 190.329769 l
324.968308 190.100149 l
328.221359 190.068476 l
331.474411 190.239402 l
334.727462 190.61672 l
337.980514 191.203323 l
341.233565 192.001182 l
344.486617 193.011315 l
347.739668 194.233772 l
350.99272 195.667616 l
354.245772 197.310911 l
358.149433 199.555127 l
362.053095 202.089664 l
365.956757 204.905441 l
369.860419 207.991314 l
373.764081 211.334114 l
378.318353 215.53846 l
382.872625 220.044487 l
388.077508 225.524107 l
393.933001 232.048089 l
398.487273 237.336448 l
398.487273 237.336448 l
stroke
grestore
0.549 0.337 0.294 setrgbcolor
gsave
357.1 121 57.6 183.2 clipbox
73.832727 240.235982 m
398.487273 298.226648 l
398.487273 298.226648 l
stroke
grestore
0.800 setlinewidth
0 setlinejoin
[] 0 setdash
0.000 setgray
gsave
57.6 183.168 m
57.6 304.128 l
stroke
grestore
gsave
414.72 183.168 m
414.72 304.128 l
stroke
grestore
gsave
57.6 183.168 m
414.72 183.168 l
stroke
grestore
gsave
57.6 304.128 m
414.72 304.128 l
stroke
grestore
1.000 setlinewidth
0 setlinecap
0.800 setgray
gsave
64.6 252.112375 m
102.521875 252.112375 l
103.855208 252.112375 104.521875 252.779042 104.521875 254.112375 c
104.521875 297.128 l
104.521875 298.461333 103.855208 299.128 102.521875 299.128 c
64.6 299.128 l
63.266667 299.128 62.6 298.461333 62.6 297.128 c
62.6 254.112375 l
62.6 252.779042 63.266667 252.112375 64.6 252.112375 c
cl
gsave
1.000 setgray
fill
grestore
stroke
grestore
1 setlinejoin
[] 0 setdash
0.122 0.467 0.706 setrgbcolor
gsave
/o {
gsave
newpath
translate
1.0 setlinewidth
1 setlinejoin
0 setlinecap
0 -1.5 m
0.397805 -1.5 0.77937 -1.341951 1.06066 -1.06066 c
1.341951 -0.77937 1.5 -0.397805 1.5 0 c
1.5 0.397805 1.341951 0.77937 1.06066 1.06066 c
0.77937 1.341951 0.397805 1.5 0 1.5 c
-0.397805 1.5 -0.77937 1.341951 -1.06066 1.06066 c
-1.341951 0.77937 -1.5 0.397805 -1.5 0 c
-1.5 -0.397805 -1.341951 -0.77937 -1.06066 -1.06066 c
-0.77937 -1.341951 -0.397805 -1.5 0 -1.5 c
cl

gsave
0.122 0.467 0.706 setrgbcolor
fill
grestore
stroke
grestore
} bind def
76.6 291.034 o
grestore
0.000 setgray
gsave
94.600000 287.534250 translate
0.000000 rotate
0.000000 0.000000 m /x glyphshow
grestore
1.000 0.498 0.055 setrgbcolor
gsave
/o {
gsave
newpath
translate
1.0 setlinewidth
1 setlinejoin
0 setlinecap
0 -1.5 m
0.397805 -1.5 0.77937 -1.341951 1.06066 -1.06066 c
1.341951 -0.77937 1.5 -0.397805 1.5 0 c
1.5 0.397805 1.341951 0.77937 1.06066 1.06066 c
0.77937 1.341951 0.397805 1.5 0 1.5 c
-0.397805 1.5 -0.77937 1.341951 -1.06066 1.06066 c
-1.341951 0.77937 -1.5 0.397805 -1.5 0 c
-1.5 -0.397805 -1.341951 -0.77937 -1.06066 -1.06066 c
-0.77937 -1.341951 -0.397805 -1.5 0 -1.5 c
cl

gsave
1.000 0.498 0.055 setrgbcolor
fill
grestore
stroke
grestore
} bind def
76.6 276.362 o
grestore
0.000 setgray
gsave
94.600000 272.862375 translate
0.000000 rotate
0.000000 0.000000 m /y glyphshow
grestore
0.173 0.627 0.173 setrgbcolor
gsave
/o {
gsave
newpath
translate
1.0 setlinewidth
1 setlinejoin
0 setlinecap
0 -1.5 m
0.397805 -1.5 0.77937 -1.341951 1.06066 -1.06066 c
1.341951 -0.77937 1.5 -0.397805 1.5 0 c
1.5 0.397805 1.341951 0.77937 1.06066 1.06066 c
0.77937 1.341951 0.397805 1.5 0 1.5 c
-0.397805 1.5 -0.77937 1.341951 -1.06066 1.06066 c
-1.341951 0.77937 -1.5 0.397805 -1.5 0 c
-1.5 -0.397805 -1.341951 -0.77937 -1.06066 -1.06066 c
-0.77937 -1.341951 -0.397805 -1.5 0 -1.5 c
cl

gsave
0.173 0.627 0.173 setrgbcolor
fill
grestore
stroke
grestore
} bind def
76.6 261.69 o
grestore
0.000 setgray
gsave
94.600000 258.190500 translate
0.000000 rotate
0.000000 0.000000 m /z glyphshow
grestore
gsave
57.6 38.016 m
414.72 38.016 l
414.72 158.976 l
57.6 158.976 l
cl
1.000 setgray
fill
grestore
0.800 setlinewidth
2 setlinecap
0.690 setgray
gsave
357.1 121 57.6 38.02 clipbox
73.832727 38.016 m
73.832727 158.976 l
stroke
grestore
0 setlinecap
0.000 setgray
gsave
/o {
gsave
newpath
translate
0.8 setlinewidth
1 setlinejoin
0 setlinecap
0 0 m
0 -3.5 l

gsave
0.000 setgray
fill
grestore
stroke
grestore
} bind def
73.8327 38.016 o
grestore
gsave
70.653040 23.422250 translate
0.000000 rotate
0.000000 0.000000 m /zero glyphshow
grestore
2 setlinecap
0.690 setgray
gsave
357.1 121 57.6 38.02 clipbox
138.893758 38.016 m
138.893758 158.976 l
stroke
grestore
0 setlinecap
0.000 setgray
gsave
/o {
gsave
newpath
translate
0.8 setlinewidth
1 setlinejoin
0 setlinecap
0 0 m
0 -3.5 l

gsave
0.000 setgray
fill
grestore
stroke
grestore
} bind def
138.894 38.016 o
grestore
gsave
129.354696 23.422250 translate
0.000000 rotate
0.000000 0.000000 m /one glyphshow
6.362305 0.000000 m /zero glyphshow
12.724609 0.000000 m /zero glyphshow
grestore
2 setlinecap
0.690 setgray
gsave
357.1 121 57.6 38.02 clipbox
203.95479 38.016 m
203.95479 158.976 l
stroke
grestore
0 setlinecap
0.000 setgray
gsave
/o {
gsave
newpath
translate
0.8 setlinewidth
1 setlinejoin
0 setlinecap
0 0 m
0 -3.5 l

gsave
0.000 setgray
fill
grestore
stroke
grestore
} bind def
203.955 38.016 o
grestore
gsave
194.415727 23.422250 translate
0.000000 rotate
0.000000 0.000000 m /two glyphshow
6.362305 0.000000 m /zero glyphshow
12.724609 0.000000 m /zero glyphshow
grestore
2 setlinecap
0.690 setgray
gsave
357.1 121 57.6 38.02 clipbox
269.015821 38.016 m
269.015821 158.976 l
stroke
grestore
0 setlinecap
0.000 setgray
gsave
/o {
gsave
newpath
translate
0.8 setlinewidth
1 setlinejoin
0 setlinecap
0 0 m
0 -3.5 l

gsave
0.000 setgray
fill
grestore
stroke
grestore
} bind def
269.016 38.016 o
grestore
gsave
259.476758 23.422250 translate
0.000000 rotate
0.000000 0.000000 m /three glyphshow
6.362305 0.000000 m /zero glyphshow
12.724609 0.000000 m /zero glyphshow
grestore
2 setlinecap
0.690 setgray
gsave
357.1 121 57.6 38.02 clipbox
334.076852 38.016 m
334.076852 158.976 l
stroke
grestore
0 setlinecap
0.000 setgray
gsave
/o {
gsave
newpath
translate
0.8 setlinewidth
1 setlinejoin
0 setlinecap
0 0 m
0 -3.5 l

gsave
0.000 setgray
fill
grestore
stroke
grestore
} bind def
334.077 38.016 o
grestore
gsave
324.537789 23.422250 translate
0.000000 rotate
0.000000 0.000000 m /four glyphshow
6.362305 0.000000 m /zero glyphshow
12.724609 0.000000 m /zero glyphshow
grestore
2 setlinecap
0.690 setgray
gsave
357.1 121 57.6 38.02 clipbox
399.137883 38.016 m
399.137883 158.976 l
stroke
grestore
0 setlinecap
0.000 setgray
gsave
/o {
gsave
newpath
translate
0.8 setlinewidth
1 setlinejoin
0 setlinecap
0 0 m
0 -3.5 l

gsave
0.000 setgray
fill
grestore
stroke
grestore
} bind def
399.138 38.016 o
grestore
gsave
389.598821 23.422250 translate
0.000000 rotate
0.000000 0.000000 m /five glyphshow
6.362305 0.000000 m /zero glyphshow
12.724609 0.000000 m /zero glyphshow
grestore
gsave
217.410000 9.750375 translate
0.000000 rotate
0.000000 0.000000 m /S glyphshow
6.347656 0.000000 m /a glyphshow
12.475586 0.000000 m /m glyphshow
22.216797 0.000000 m /p glyphshow
28.564453 0.000000 m /l glyphshow
31.342773 0.000000 m /e glyphshow
grestore
2 setlinecap
0.690 setgray
gsave
357.1 121 57.6 38.02 clipbox
57.6 65.129941 m
414.72 65.129941 l
stroke
grestore
0 setlinecap
0.000 setgray
gsave
/o {
gsave
newpath
translate
0.8 setlinewidth
1 setlinejoin
0 setlinecap
0 0 m
-3.5 0 l

gsave
0.000 setgray
fill
grestore
stroke
grestore
} bind def
57.6 65.1299 o
grestore
gsave
23.146875 61.333066 translate
0.000000 rotate
0.000000 0.000000 m /minus glyphshow
8.378906 0.000000 m /one glyphshow
14.741211 0.000000 m /zero glyphshow
21.103516 0.000000 m /zero glyphshow
grestore
2 setlinecap
0.690 setgray
gsave
357.1 121 57.6 38.02 clipbox
57.6 97.885577 m
414.72 97.885577 l
stroke
grestore
0 setlinecap
0.000 setgray
gsave
/o {
gsave
newpath
translate
0.8 setlinewidth
1 setlinejoin
0 setlinecap
0 0 m
-3.5 0 l

gsave
0.000 setgray
fill
grestore
stroke
grestore
} bind def
57.6 97.8856 o
grestore
gsave
44.240625 94.088702 translate
0.000000 rotate
0.000000 0.000000 m /zero glyphshow
grestore
2 setlinecap
0.690 setgray
gsave
357.1 121 57.6 38.02 clipbox
57.6 130.641213 m
414.72 130.641213 l
stroke
grestore
0 setlinecap
0.000 setgray
gsave
/o {
gsave
newpath
translate
0.8 setlinewidth
1 setlinejoin
0 setlinecap
0 0 m
-3.5 0 l

gsave
0.000 setgray
fill
grestore
stroke
grestore
} bind def
57.6 130.641 o
grestore
gsave
31.521875 126.844338 translate
0.000000 rotate
0.000000 0.000000 m /one glyphshow
6.362305 0.000000 m /zero glyphshow
12.724609 0.000000 m /zero glyphshow
grestore
gsave
17.068750 51.050687 translate
90.000000 rotate
0.000000 0.000000 m /E glyphshow
6.318359 0.000000 m /u glyphshow
12.656250 0.000000 m /l glyphshow
15.434570 0.000000 m /e glyphshow
21.586914 0.000000 m /r glyphshow
25.698242 0.000000 m /space glyphshow
28.876953 0.000000 m /a glyphshow
35.004883 0.000000 m /n glyphshow
41.342773 0.000000 m /g glyphshow
47.690430 0.000000 m /l glyphshow
50.468750 0.000000 m /e glyphshow
56.621094 0.000000 m /s glyphshow
61.831055 0.000000 m /space glyphshow
65.009766 0.000000 m /space glyphshow
68.188477 0.000000 m /bracketleft glyphshow
72.089844 0.000000 m /d glyphshow
78.437500 0.000000 m /e glyphshow
84.589844 0.000000 m /g glyphshow
90.937500 0.000000 m /bracketright glyphshow
grestore
1.000 setlinewidth
0.122 0.467 0.706 setrgbcolor
gsave
357.1 121 57.6 38.02 clipbox
/o {
gsave
newpath
translate
1.0 setlinewidth
1 setlinejoin
0 setlinecap
0 -1.5 m
0.397805 -1.5 0.77937 -1.341951 1.06066 -1.06066 c
1.341951 -0.77937 1.5 -0.397805 1.5 0 c
1.5 0.397805 1.341951 0.77937 1.06066 1.06066 c
0.77937 1.341951 0.397805 1.5 0 1.5 c
-0.397805 1.5 -0.77937 1.341951 -1.06066 1.06066 c
-1.341951 0.77937 -1.5 0.397805 -1.5 0 c
-1.5 -0.397805 -1.341951 -0.77937 -1.06066 -1.06066 c
-0.77937 -1.341951 -0.397805 -1.5 0 -1.5 c
cl

gsave
0.122 0.467 0.706 setrgbcolor
fill
grestore
stroke
grestore
} bind def
73.8327 96.9255 o
74.4833 99.1273 o
75.1339 97.3094 o
75.7846 98.9133 o
76.4352 96.8459 o
77.0858 96.7226 o
77.7364 97.6542 o
78.387 97.84 o
79.0376 96.4182 o
79.6882 96.6727 o
80.3388 96.057 o
80.9894 96.4986 o
81.6401 97.4011 o
82.2907 97.2249 o
82.9413 97.8362 o
83.5919 97.794 o
84.2425 97.2397 o
84.8931 96.7638 o
85.5437 97.0967 o
86.1943 96.5003 o
86.8449 95.6164 o
87.4955 97.5435 o
88.1462 97.3959 o
88.7968 96.6928 o
89.4474 96.4288 o
90.098 94.8172 o
90.7486 96.6568 o
91.3992 96.2028 o
92.0498 95.7341 o
92.7004 96.4574 o
93.351 94.5355 o
94.0016 95.9649 o
94.6523 96.2106 o
95.3029 95.3782 o
95.9535 96.2736 o
96.6041 95.4038 o
97.2547 95.1673 o
97.9053 94.2377 o
98.5559 95.1613 o
99.2065 95.3338 o
99.8571 95.0191 o
100.508 96.1839 o
101.158 96.6195 o
101.809 95.8761 o
102.46 94.9787 o
103.11 96.5121 o
103.761 94.9089 o
104.411 94.4251 o
105.062 95.1038 o
105.713 94.857 o
106.363 94.6434 o
107.014 94.6801 o
107.664 93.6631 o
108.315 93.626 o
108.966 94.9125 o
109.616 93.6174 o
110.267 94.8859 o
110.918 94.0679 o
111.568 92.7817 o
112.219 95.3738 o
112.869 94.8376 o
113.52 93.8899 o
114.171 92.9739 o
114.821 94.0893 o
115.472 94.3033 o
116.122 93.8408 o
116.773 93.0841 o
117.424 92.8983 o
118.074 92.3696 o
118.725 93.9705 o
119.375 93.8587 o
120.026 92.6304 o
120.677 94.4297 o
121.327 93.1359 o
121.978 93.0096 o
122.629 93.3775 o
123.279 93.6722 o
123.93 92.9553 o
124.58 92.5554 o
125.231 93.1444 o
125.882 92.2571 o
126.532 92.9062 o
127.183 94.02 o
127.833 93.619 o
128.484 93.0165 o
129.135 91.4427 o
129.785 92.2829 o
130.436 91.5737 o
131.086 91.0202 o
131.737 92.8921 o
132.388 91.2375 o
133.038 92.0407 o
133.689 91.7239 o
134.339 91.5187 o
134.99 91.0406 o
135.641 91.1042 o
136.291 89.8926 o
136.942 90.7893 o
137.593 92.0623 o
138.243 91.2224 o
138.894 91.5921 o
139.544 91.221 o
140.195 90.1592 o
140.846 92.0569 o
141.496 89.779 o
142.147 91.7005 o
142.797 90.3014 o
143.448 91.4655 o
144.099 89.8547 o
144.749 90.0818 o
145.4 91.0809 o
146.05 90.8041 o
146.701 91.0565 o
147.352 92.1753 o
148.002 91.0895 o
148.653 92.4 o
149.304 91.2423 o
149.954 91.5512 o
150.605 90.6512 o
151.255 89.9784 o
151.906 88.8623 o
152.557 90.2726 o
153.207 90.4036 o
153.858 87.6555 o
154.508 88.8763 o
155.159 89.3923 o
155.81 88.7494 o
156.46 90.7986 o
157.111 88.2125 o
157.761 86.7938 o
158.412 91.5279 o
159.063 88.8343 o
159.713 91.4066 o
160.364 85.8422 o
161.015 89.0021 o
161.665 90.0009 o
162.316 89.0313 o
162.966 90.3703 o
163.617 89.7611 o
164.268 87.7083 o
164.918 89.3516 o
165.569 89.204 o
166.219 88.8573 o
166.87 89.1087 o
167.521 88.9785 o
168.171 88.238 o
168.822 88.8505 o
169.472 88.8243 o
170.123 88.0698 o
170.774 88.7336 o
171.424 86.7278 o
172.075 88.4416 o
172.725 87.4063 o
173.376 88.4128 o
174.027 88.95 o
174.677 88.8967 o
175.328 86.491 o
175.979 88.5401 o
176.629 86.3819 o
177.28 87.2243 o
177.93 84.8214 o
178.581 87.416 o
179.232 86.5541 o
179.882 85.0517 o
180.533 84.9094 o
181.183 86.9157 o
181.834 85.2151 o
182.485 87.3335 o
183.135 89.0038 o
183.786 85.6885 o
184.436 81.5244 o
185.087 84.7456 o
185.738 84.6663 o
186.388 87.4588 o
187.039 86.1213 o
187.69 87.9555 o
188.34 85.1352 o
188.991 92.526 o
189.641 87.3221 o
190.292 83.9701 o
190.943 86.5295 o
191.593 84.7373 o
192.244 84.7864 o
192.894 90.7188 o
193.545 85.4749 o
194.196 84.1899 o
194.846 84.1071 o
195.497 85.0272 o
196.147 87.4733 o
196.798 84.0208 o
197.449 86.2488 o
198.099 83.9566 o
198.75 82.2154 o
199.401 82.2921 o
200.051 84.5034 o
200.702 88.4235 o
201.352 83.9238 o
202.003 88.0764 o
202.654 84.7965 o
203.304 84.5954 o
203.955 88.4011 o
204.605 81.616 o
205.256 82.5601 o
205.907 85.8006 o
206.557 83.1328 o
207.208 76.8014 o
207.858 86.8739 o
208.509 84.911 o
209.16 89.0307 o
209.81 87.7141 o
210.461 86.8642 o
211.112 82.3386 o
211.762 79.8124 o
212.413 85.402 o
213.063 74.9496 o
213.714 85.5667 o
214.365 87.3195 o
215.015 80.8092 o
215.666 87.6953 o
216.316 86.151 o
216.967 81.7734 o
217.618 86.6428 o
218.268 84.0285 o
218.919 80.1512 o
219.569 80.1865 o
220.22 80.0619 o
220.871 80.1854 o
221.521 82.7928 o
222.172 82.6312 o
222.822 85.1705 o
223.473 86.1264 o
224.124 82.3268 o
224.774 84.745 o
225.425 79.1786 o
226.076 84.1124 o
226.726 76.085 o
227.377 79.1607 o
228.027 82.456 o
228.678 83.9075 o
229.329 88.1597 o
229.979 77.9767 o
230.63 84.8628 o
231.28 73.0523 o
231.931 77.7487 o
232.582 76.8213 o
233.232 86.7029 o
233.883 88.2154 o
234.533 84.6855 o
235.184 83.5187 o
235.835 87.042 o
236.485 87.3866 o
237.136 89.3617 o
237.787 80.0845 o
238.437 77.4948 o
239.088 85.6059 o
239.738 80.4191 o
240.389 88.5819 o
241.04 85.1621 o
241.69 81.0419 o
242.341 83.8714 o
242.991 76.1644 o
243.642 90.4706 o
244.293 84.4266 o
244.943 73.5837 o
245.594 79.0907 o
246.244 86.0186 o
246.895 83.786 o
247.546 77.5654 o
248.196 79.913 o
248.847 80.7288 o
249.498 89.901 o
250.148 67.4335 o
250.799 79.5221 o
251.449 79.6457 o
252.1 89.1255 o
252.751 87.5675 o
253.401 73.8043 o
254.052 84.4037 o
254.702 74.0135 o
255.353 75.5503 o
256.004 76.9262 o
256.654 78.907 o
257.305 80.1411 o
257.955 79.4664 o
258.606 88.3527 o
259.257 91.115 o
259.907 81.4839 o
260.558 57.4933 o
261.208 76.6187 o
261.859 89.0933 o
262.51 82.4132 o
263.16 86.8825 o
263.811 81.0648 o
264.462 79.7333 o
265.112 77.4538 o
265.763 85.6954 o
266.413 84.2546 o
267.064 75.9826 o
267.715 75.9051 o
268.365 79.14 o
269.016 85.4765 o
269.666 88.2181 o
270.317 87.4227 o
270.968 82.3684 o
271.618 77.0233 o
272.269 83.542 o
272.919 77.9647 o
273.57 91.1294 o
274.221 86.1614 o
274.871 80.9933 o
275.522 87.3096 o
276.173 77.249 o
276.823 80.9566 o
277.474 67.2847 o
278.124 77.1035 o
278.775 68.2312 o
279.426 80.9378 o
280.076 80.5483 o
280.727 88.2573 o
281.377 88.8656 o
282.028 81.3318 o
282.679 79.5489 o
283.329 87.7364 o
283.98 62.0332 o
284.63 83.319 o
285.281 81.1142 o
285.932 80.4538 o
286.582 81.3285 o
287.233 83.7713 o
287.884 72.7594 o
288.534 96.8697 o
289.185 71.3487 o
289.835 83.3654 o
290.486 85.3909 o
291.137 83.163 o
291.787 78.9347 o
292.438 82.069 o
293.088 81.5611 o
293.739 70.482 o
294.39 73.0281 o
295.04 78.2622 o
295.691 85.5357 o
296.341 86.8734 o
296.992 80.2214 o
297.643 77.8847 o
298.293 74.8951 o
298.944 87.8553 o
299.595 87.4259 o
300.245 73.5507 o
300.896 83.938 o
301.546 83.1144 o
302.197 81.5936 o
302.848 67.4667 o
303.498 83.3737 o
304.149 77.7701 o
304.799 71.9417 o
305.45 78.3761 o
306.101 79.3729 o
306.751 65.0389 o
307.402 79.1884 o
308.052 74.6588 o
308.703 83.326 o
309.354 77.0256 o
310.004 66.8993 o
310.655 87.8505 o
311.305 76.6775 o
311.956 80.7521 o
312.607 87.3263 o
313.257 76.0956 o
313.908 81.9784 o
314.559 85.6479 o
315.209 75.3118 o
315.86 85.7525 o
316.51 76.7602 o
317.161 66.9229 o
317.812 72.5446 o
318.462 85.5325 o
319.113 74.7346 o
319.763 68.753 o
320.414 76.5321 o
321.065 64.4433 o
321.715 75.4899 o
322.366 82.0785 o
323.016 78.6193 o
323.667 77.4186 o
324.318 79.6584 o
324.968 85.036 o
325.619 66.5206 o
326.27 88.0818 o
326.92 78.0472 o
327.571 80.1158 o
328.221 90.5784 o
328.872 95.5364 o
329.523 80.1044 o
330.173 81.4045 o
330.824 80.26 o
331.474 76.1081 o
332.125 80.5479 o
332.776 84.0777 o
333.426 74.5761 o
334.077 83.9668 o
334.727 82.76 o
335.378 72.7177 o
336.029 70.6351 o
336.679 78.9977 o
337.33 78.8981 o
337.981 80.1257 o
338.631 80.729 o
339.282 72.436 o
339.932 71.9718 o
340.583 79.5999 o
341.234 75.2746 o
341.884 76.3136 o
342.535 79.8538 o
343.185 69.8014 o
343.836 90.0136 o
344.487 72.3258 o
345.137 69.3278 o
345.788 76.1972 o
346.438 72.0424 o
347.089 93.6434 o
347.74 83.8585 o
348.39 84.1148 o
349.041 74.4407 o
349.691 74.5874 o
350.342 70.0709 o
350.993 73.5545 o
351.643 75.7955 o
352.294 85.7759 o
352.945 83.272 o
353.595 88.2134 o
354.246 93.4624 o
354.896 76.684 o
355.547 77.9648 o
356.198 75.2189 o
356.848 71.9931 o
357.499 62.7633 o
358.149 79.2003 o
358.8 61.9441 o
359.451 76.6791 o
360.101 67.1675 o
360.752 90.5118 o
361.402 74.3644 o
362.053 84.8526 o
362.704 74.81 o
363.354 69.2729 o
364.005 84.7245 o
364.656 83.4464 o
365.306 89.1469 o
365.957 73.4254 o
366.607 74.2056 o
367.258 88.5378 o
367.909 78.3582 o
368.559 82.9384 o
369.21 86.3415 o
369.86 75.2674 o
370.511 87.9709 o
371.162 74.3276 o
371.812 84.1468 o
372.463 84.809 o
373.113 81.3465 o
373.764 64.4904 o
374.415 80.9381 o
375.065 61.7496 o
375.716 77.3662 o
376.367 60.7862 o
377.017 70.489 o
377.668 70.195 o
378.318 97.1876 o
378.969 64.644 o
379.62 77.0328 o
380.27 74.9372 o
380.921 83.355 o
381.571 87.7748 o
382.222 88.9562 o
382.873 82.8632 o
383.523 72.4524 o
384.174 81.1989 o
384.824 86.2246 o
385.475 86.1012 o
386.126 82.6623 o
386.776 72.7422 o
387.427 73.2138 o
388.078 79.2872 o
388.728 77.7847 o
389.379 72.3151 o
390.029 83.2435 o
390.68 68.4853 o
391.331 66.5396 o
391.981 105.915 o
392.632 77.0299 o
393.282 76.4207 o
393.933 77.5725 o
394.584 71.1549 o
395.234 80.4121 o
395.885 65.7181 o
396.535 84.6073 o
397.186 72.1086 o
397.837 75.6022 o
398.487 85.0528 o
grestore
1.000 0.498 0.055 setrgbcolor
gsave
357.1 121 57.6 38.02 clipbox
/o {
gsave
newpath
translate
1.0 setlinewidth
1 setlinejoin
0 setlinecap
0 -1.5 m
0.397805 -1.5 0.77937 -1.341951 1.06066 -1.06066 c
1.341951 -0.77937 1.5 -0.397805 1.5 0 c
1.5 0.397805 1.341951 0.77937 1.06066 1.06066 c
0.77937 1.341951 0.397805 1.5 0 1.5 c
-0.397805 1.5 -0.77937 1.341951 -1.06066 1.06066 c
-1.341951 0.77937 -1.5 0.397805 -1.5 0 c
-1.5 -0.397805 -1.341951 -0.77937 -1.06066 -1.06066 c
-0.77937 -1.341951 -0.397805 -1.5 0 -1.5 c
cl

gsave
1.000 0.498 0.055 setrgbcolor
fill
grestore
stroke
grestore
} bind def
73.8327 98.0548 o
74.4833 97.2506 o
75.1339 98.8633 o
75.7846 97.9143 o
76.4352 97.4751 o
77.0858 97.1824 o
77.7364 98.3425 o
78.387 98.3501 o
79.0376 98.4281 o
79.6882 97.8434 o
80.3388 96.9383 o
80.9894 97.9236 o
81.6401 97.2136 o
82.2907 98.7804 o
82.9413 97.8577 o
83.5919 97.9167 o
84.2425 98.1898 o
84.8931 98.7452 o
85.5437 98.4655 o
86.1943 97.5783 o
86.8449 97.8205 o
87.4955 99.2666 o
88.1462 98.0048 o
88.7968 98.629 o
89.4474 98.0838 o
90.098 98.3793 o
90.7486 98.6694 o
91.3992 98.4908 o
92.0498 98.0503 o
92.7004 99.5562 o
93.351 98.8965 o
94.0016 97.0879 o
94.6523 98.903 o
95.3029 99.9302 o
95.9535 99.6091 o
96.6041 99.1547 o
97.2547 99.0043 o
97.9053 98.8606 o
98.5559 98.7945 o
99.2065 98.5111 o
99.8571 98.7221 o
100.508 99.4045 o
101.158 99.5867 o
101.809 98.9066 o
102.46 98.538 o
103.11 100.473 o
103.761 98.988 o
104.411 97.9474 o
105.062 99.24 o
105.713 98.8933 o
106.363 98.7427 o
107.014 100.17 o
107.664 98.6771 o
108.315 97.8793 o
108.966 99.5645 o
109.616 98.4578 o
110.267 99.1342 o
110.918 100.411 o
111.568 99.456 o
112.219 99.5342 o
112.869 99.6073 o
113.52 99.7228 o
114.171 99.0896 o
114.821 100.45 o
115.472 99.4372 o
116.122 98.322 o
116.773 98.0256 o
117.424 98.7223 o
118.074 98.4875 o
118.725 99.2753 o
119.375 99.2727 o
120.026 99.0171 o
120.677 100.211 o
121.327 99.3002 o
121.978 97.3071 o
122.629 98.0313 o
123.279 100.2 o
123.93 99.2964 o
124.58 100.406 o
125.231 99.8536 o
125.882 100.101 o
126.532 99.3713 o
127.183 98.8077 o
127.833 100.413 o
128.484 99.8767 o
129.135 99.0073 o
129.785 98.5289 o
130.436 99.7736 o
131.086 99.0042 o
131.737 99.5395 o
132.388 100.041 o
133.038 98.9267 o
133.689 98.8139 o
134.339 98.1348 o
134.99 99.1309 o
135.641 100.364 o
136.291 98.0697 o
136.942 97.9361 o
137.593 98.2008 o
138.243 98.5907 o
138.894 101.386 o
139.544 96.3331 o
140.195 99.7127 o
140.846 101 o
141.496 99.0411 o
142.147 99.5154 o
142.797 99.3793 o
143.448 97.6902 o
144.099 99.3552 o
144.749 97.4821 o
145.4 99.3621 o
146.05 99.3042 o
146.701 98.6155 o
147.352 103.678 o
148.002 100.315 o
148.653 98.6805 o
149.304 98.3266 o
149.954 97.7336 o
150.605 100.235 o
151.255 101.007 o
151.906 96.1905 o
152.557 98.4586 o
153.207 99.651 o
153.858 99.692 o
154.508 98.3622 o
155.159 99.6193 o
155.81 100.653 o
156.46 97.4661 o
157.111 99.4564 o
157.761 99.4254 o
158.412 99.4651 o
159.063 97.431 o
159.713 98.8432 o
160.364 98.4595 o
161.015 100.863 o
161.665 100.165 o
162.316 99.8886 o
162.966 101.079 o
163.617 98.8985 o
164.268 99.1272 o
164.918 102.176 o
165.569 99.8235 o
166.219 99.5654 o
166.87 98.1047 o
167.521 97.9632 o
168.171 97.1895 o
168.822 98.0983 o
169.472 97.5874 o
170.123 94.9456 o
170.774 99.3697 o
171.424 100.272 o
172.075 98.6913 o
172.725 99.5953 o
173.376 97.3692 o
174.027 100.665 o
174.677 96.6811 o
175.328 98.1211 o
175.979 97.63 o
176.629 98.801 o
177.28 98.6062 o
177.93 100.952 o
178.581 97.0664 o
179.232 99.1622 o
179.882 101.689 o
180.533 97.5873 o
181.183 96.678 o
181.834 97.3373 o
182.485 100.562 o
183.135 97.7856 o
183.786 94.9456 o
184.436 97.8127 o
185.087 105.582 o
185.738 96.1054 o
186.388 100.389 o
187.039 94.692 o
187.69 99.7952 o
188.34 98.0191 o
188.991 104.506 o
189.641 100.93 o
190.292 97.6222 o
190.943 96.7734 o
191.593 99.6487 o
192.244 95.8083 o
192.894 102.957 o
193.545 96.5229 o
194.196 102.779 o
194.846 103.023 o
195.497 98.7081 o
196.147 98.9358 o
196.798 95.754 o
197.449 97.1457 o
198.099 102.229 o
198.75 97.8216 o
199.401 93.4046 o
200.051 102.07 o
200.702 94.6019 o
201.352 96.2595 o
202.003 95.9528 o
202.654 96.7776 o
203.304 98.2578 o
203.955 100.918 o
204.605 96.8483 o
205.256 93.6784 o
205.907 101.559 o
206.557 96.1044 o
207.208 97.5215 o
207.858 95.7357 o
208.509 100.63 o
209.16 98.5977 o
209.81 95.0874 o
210.461 91.6618 o
211.112 95.4652 o
211.762 92.3169 o
212.413 95.5078 o
213.063 94.2446 o
213.714 101.118 o
214.365 95.9765 o
215.015 95.1349 o
215.666 91.1994 o
216.316 95.6288 o
216.967 96.1403 o
217.618 91.3354 o
218.268 94.9175 o
218.919 94.5611 o
219.569 91.0474 o
220.22 96.7855 o
220.871 95.2091 o
221.521 99.2324 o
222.172 89.2727 o
222.822 99.1045 o
223.473 93.11 o
224.124 101.576 o
224.774 94.0271 o
225.425 102.631 o
226.076 88.7368 o
226.726 98.7799 o
227.377 92.6963 o
228.027 90.3845 o
228.678 90.3438 o
229.329 91.3246 o
229.979 99.4259 o
230.63 99.4662 o
231.28 101.252 o
231.931 94.9286 o
232.582 97.8887 o
233.232 96.8752 o
233.883 97.5562 o
234.533 105.498 o
235.184 97.0717 o
235.835 93.5898 o
236.485 92.5979 o
237.136 95.249 o
237.787 93.5664 o
238.437 91.7804 o
239.088 98.1489 o
239.738 102.508 o
240.389 98.4164 o
241.04 93.2292 o
241.69 93.3729 o
242.341 94.4225 o
242.991 89.3944 o
243.642 91.001 o
244.293 117.369 o
244.943 95.6425 o
245.594 90.8092 o
246.244 91.5715 o
246.895 99.3309 o
247.546 95.7828 o
248.196 88.0847 o
248.847 93.0783 o
249.498 90.7896 o
250.148 87.0991 o
250.799 98.0586 o
251.449 111.866 o
252.1 95.0775 o
252.751 90.0879 o
253.401 90.8026 o
254.052 95.0373 o
254.702 93.0747 o
255.353 98.337 o
256.004 97.4391 o
256.654 96.8698 o
257.305 84.5154 o
257.955 91.834 o
258.606 94.2831 o
259.257 88.9607 o
259.907 100.169 o
260.558 80.0251 o
261.208 88.5049 o
261.859 92.3593 o
262.51 98.3508 o
263.16 98.4067 o
263.811 105.064 o
264.462 99.4757 o
265.112 88.3796 o
265.763 85.5319 o
266.413 96.9918 o
267.064 89.8423 o
267.715 95.2453 o
268.365 95.4059 o
269.016 91.6811 o
269.666 94.3495 o
270.317 106.239 o
270.968 96.3594 o
271.618 88.8382 o
272.269 107.744 o
272.919 91.6083 o
273.57 99.4037 o
274.221 91.7594 o
274.871 95.8642 o
275.522 89.7211 o
276.173 97.6945 o
276.823 90.6811 o
277.474 98.1855 o
278.124 94.1947 o
278.775 89.4902 o
279.426 90.2765 o
280.076 93.8251 o
280.727 95.654 o
281.377 93.8192 o
282.028 86.5638 o
282.679 99.457 o
283.329 88.8393 o
283.98 88.2997 o
284.63 93.6601 o
285.281 85.3344 o
285.932 85.2534 o
286.582 98.654 o
287.233 97.9801 o
287.884 98.9707 o
288.534 92.5772 o
289.185 91.4855 o
289.835 92.1626 o
290.486 89.8447 o
291.137 91.9403 o
291.787 94.2987 o
292.438 84.3517 o
293.088 82.9956 o
293.739 92.6503 o
294.39 80.8297 o
295.04 92.3565 o
295.691 84.3337 o
296.341 90.7288 o
296.992 85.3048 o
297.643 84.6324 o
298.293 94.9349 o
298.944 86.2804 o
299.595 94.3552 o
300.245 95.6219 o
300.896 103.903 o
301.546 94.4921 o
302.197 87.2004 o
302.848 78.4658 o
303.498 88.0031 o
304.149 91.4933 o
304.799 85.0715 o
305.45 92.6076 o
306.101 98.6449 o
306.751 85.14 o
307.402 94.8521 o
308.052 91.5905 o
308.703 87.5409 o
309.354 76.3706 o
310.004 97.9012 o
310.655 82.0804 o
311.305 86.2745 o
311.956 83.0378 o
312.607 86.1974 o
313.257 90.0529 o
313.908 84.5539 o
314.559 89.6128 o
315.209 90.3894 o
315.86 92.5119 o
316.51 90.0888 o
317.161 110.014 o
317.812 82.1583 o
318.462 88.3903 o
319.113 98.374 o
319.763 90.1886 o
320.414 85.9003 o
321.065 87.1478 o
321.715 85.7622 o
322.366 87.7061 o
323.016 91.2714 o
323.667 106.867 o
324.318 85.9148 o
324.968 81.5581 o
325.619 81.2106 o
326.27 86.9561 o
326.92 78.5219 o
327.571 88.3628 o
328.221 89.4747 o
328.872 98.9089 o
329.523 80.9066 o
330.173 101.921 o
330.824 86.8096 o
331.474 89.4685 o
332.125 80.3264 o
332.776 75.1569 o
333.426 88.4918 o
334.077 94.1784 o
334.727 86.8649 o
335.378 103.056 o
336.029 84.8473 o
336.679 84.9257 o
337.33 84.827 o
337.981 91.1751 o
338.631 90.5454 o
339.282 92.0808 o
339.932 91.8662 o
340.583 79.6514 o
341.234 88.4175 o
341.884 82.3528 o
342.535 79.2334 o
343.185 91.4673 o
343.836 79.5543 o
344.487 92.5745 o
345.137 88.472 o
345.788 76.5797 o
346.438 90.6477 o
347.089 84.4934 o
347.74 76.1524 o
348.39 81.0373 o
349.041 88.0256 o
349.691 85.958 o
350.342 80.6922 o
350.993 86.445 o
351.643 83.2308 o
352.294 84.4356 o
352.945 83.852 o
353.595 82.389 o
354.246 84.5465 o
354.896 75.7421 o
355.547 87.3716 o
356.198 88.2105 o
356.848 80.7035 o
357.499 93.7748 o
358.149 94.5244 o
358.8 86.0105 o
359.451 80.8739 o
360.101 92.1404 o
360.752 94.2672 o
361.402 87.0022 o
362.053 80.7027 o
362.704 75.21 o
363.354 79.5515 o
364.005 85.1862 o
364.656 85.0419 o
365.306 79.8269 o
365.957 81.0996 o
366.607 94.9863 o
367.258 75.579 o
367.909 82.3424 o
368.559 84.406 o
369.21 83.3679 o
369.86 76.3765 o
370.511 75.7449 o
371.162 84.7166 o
371.812 89.1166 o
372.463 86.8987 o
373.113 88.4442 o
373.764 83.7732 o
374.415 83.0999 o
375.065 85.9747 o
375.716 76.6031 o
376.367 87.9076 o
377.017 89.9896 o
377.668 84.1941 o
378.318 79.3216 o
378.969 90.5373 o
379.62 77.6816 o
380.27 86.5844 o
380.921 80.4907 o
381.571 84.6648 o
382.222 83.6534 o
382.873 89.4171 o
383.523 79.1219 o
384.174 80.2865 o
384.824 88.8595 o
385.475 81.9623 o
386.126 77.8155 o
386.776 82.7523 o
387.427 80.1892 o
388.078 78.6089 o
388.728 77.538 o
389.379 80.8869 o
390.029 77.5661 o
390.68 88.7486 o
391.331 83.2947 o
391.981 86.6877 o
392.632 75.0304 o
393.282 75.0219 o
393.933 79.4692 o
394.584 80.0232 o
395.234 85.5751 o
395.885 83.9743 o
396.535 89.5282 o
397.186 89.2382 o
397.837 80.6593 o
398.487 90.395 o
grestore
0.173 0.627 0.173 setrgbcolor
gsave
357.1 121 57.6 38.02 clipbox
/o {
gsave
newpath
translate
1.0 setlinewidth
1 setlinejoin
0 setlinecap
0 -1.5 m
0.397805 -1.5 0.77937 -1.341951 1.06066 -1.06066 c
1.341951 -0.77937 1.5 -0.397805 1.5 0 c
1.5 0.397805 1.341951 0.77937 1.06066 1.06066 c
0.77937 1.341951 0.397805 1.5 0 1.5 c
-0.397805 1.5 -0.77937 1.341951 -1.06066 1.06066 c
-1.341951 0.77937 -1.5 0.397805 -1.5 0 c
-1.5 -0.397805 -1.341951 -0.77937 -1.06066 -1.06066 c
-0.77937 -1.341951 -0.397805 -1.5 0 -1.5 c
cl

gsave
0.173 0.627 0.173 setrgbcolor
fill
grestore
stroke
grestore
} bind def
73.8327 98.8887 o
74.4833 97.8338 o
75.1339 97.5012 o
75.7846 97.9633 o
76.4352 98.838 o
77.0858 98.6284 o
77.7364 98.2465 o
78.387 98.092 o
79.0376 98.7757 o
79.6882 98.9083 o
80.3388 98.8733 o
80.9894 98.1113 o
81.6401 99.6124 o
82.2907 98.9828 o
82.9413 98.5137 o
83.5919 98.93 o
84.2425 98.7492 o
84.8931 99.6865 o
85.5437 100.014 o
86.1943 99.6248 o
86.8449 100.505 o
87.4955 100.21 o
88.1462 99.8919 o
88.7968 99.837 o
89.4474 99.3786 o
90.098 100.244 o
90.7486 100.621 o
91.3992 101.289 o
92.0498 100.451 o
92.7004 100.767 o
93.351 99.6416 o
94.0016 99.8733 o
94.6523 100.999 o
95.3029 100.907 o
95.9535 102.646 o
96.6041 100.866 o
97.2547 101.886 o
97.9053 101.552 o
98.5559 100.857 o
99.2065 100.272 o
99.8571 102.176 o
100.508 101.954 o
101.158 100.886 o
101.809 101.323 o
102.46 101.285 o
103.11 101.369 o
103.761 101.792 o
104.411 102.345 o
105.062 103.056 o
105.713 101.845 o
106.363 102.902 o
107.014 102.458 o
107.664 103.375 o
108.315 102.489 o
108.966 102.481 o
109.616 103.807 o
110.267 104.502 o
110.918 103.074 o
111.568 103.413 o
112.219 105.124 o
112.869 103.24 o
113.52 103.575 o
114.171 104.921 o
114.821 103.736 o
115.472 104.525 o
116.122 103.012 o
116.773 104.388 o
117.424 103.852 o
118.074 104.515 o
118.725 104.553 o
119.375 103.252 o
120.026 103.403 o
120.677 106.929 o
121.327 103.311 o
121.978 105.884 o
122.629 105.423 o
123.279 105.701 o
123.93 105.023 o
124.58 104.513 o
125.231 104.794 o
125.882 104.889 o
126.532 106.95 o
127.183 103.817 o
127.833 105.89 o
128.484 105.998 o
129.135 106.932 o
129.785 105.823 o
130.436 106.015 o
131.086 105.384 o
131.737 106.417 o
132.388 104.347 o
133.038 105.362 o
133.689 106.446 o
134.339 106.71 o
134.99 104.726 o
135.641 108.563 o
136.291 105.646 o
136.942 105.801 o
137.593 106.039 o
138.243 106.648 o
138.894 107.328 o
139.544 104.005 o
140.195 108.98 o
140.846 108.79 o
141.496 107.691 o
142.147 109.202 o
142.797 109.34 o
143.448 106.433 o
144.099 107.624 o
144.749 108.538 o
145.4 109.065 o
146.05 105.218 o
146.701 107.719 o
147.352 107.639 o
148.002 108.484 o
148.653 109.182 o
149.304 109.127 o
149.954 106.905 o
150.605 110.062 o
151.255 109.729 o
151.906 108.844 o
152.557 104.821 o
153.207 110.103 o
153.858 110.841 o
154.508 107.802 o
155.159 111.386 o
155.81 111.036 o
156.46 107.068 o
157.111 113.246 o
157.761 108.298 o
158.412 106.861 o
159.063 111.669 o
159.713 107.515 o
160.364 111.219 o
161.015 110.473 o
161.665 108.476 o
162.316 109.581 o
162.966 110.245 o
163.617 111.252 o
164.268 113.28 o
164.918 111.02 o
165.569 110.244 o
166.219 111.641 o
166.87 111.652 o
167.521 112.135 o
168.171 110.224 o
168.822 112.475 o
169.472 109.193 o
170.123 111.392 o
170.774 115.383 o
171.424 109.117 o
172.075 112.208 o
172.725 112.478 o
173.376 111.374 o
174.027 110.698 o
174.677 107.187 o
175.328 110.609 o
175.979 112.609 o
176.629 114.072 o
177.28 112.268 o
177.93 116.992 o
178.581 115.46 o
179.232 116.456 o
179.882 115.509 o
180.533 117.148 o
181.183 111.629 o
181.834 115.946 o
182.485 106.923 o
183.135 114.834 o
183.786 111.402 o
184.436 116.073 o
185.087 113.823 o
185.738 114.949 o
186.388 114.461 o
187.039 116.982 o
187.69 113.663 o
188.34 113.654 o
188.991 110.988 o
189.641 113.602 o
190.292 115.133 o
190.943 113.348 o
191.593 117.899 o
192.244 119.339 o
192.894 112.469 o
193.545 116.394 o
194.196 117.18 o
194.846 114.387 o
195.497 115.28 o
196.147 116.018 o
196.798 117.214 o
197.449 118.821 o
198.099 116.963 o
198.75 118.118 o
199.401 115.73 o
200.051 113.331 o
200.702 110.485 o
201.352 118.332 o
202.003 115.931 o
202.654 115.408 o
203.304 116.604 o
203.955 115.808 o
204.605 115.41 o
205.256 120.881 o
205.907 115.289 o
206.557 113.243 o
207.208 120.982 o
207.858 116.385 o
208.509 118.836 o
209.16 116.582 o
209.81 118.25 o
210.461 115.538 o
211.112 119.369 o
211.762 117.978 o
212.413 114.595 o
213.063 119.391 o
213.714 117.98 o
214.365 114.658 o
215.015 119.323 o
215.666 109.957 o
216.316 112.685 o
216.967 123.576 o
217.618 120.701 o
218.268 117.596 o
218.919 124.812 o
219.569 118.144 o
220.22 122.275 o
220.871 122.033 o
221.521 119.892 o
222.172 118.2 o
222.822 117.443 o
223.473 113.503 o
224.124 110.509 o
224.774 118.987 o
225.425 118.244 o
226.076 122.579 o
226.726 117.071 o
227.377 125.879 o
228.027 118.795 o
228.678 124.201 o
229.329 122.961 o
229.979 124.097 o
230.63 120.538 o
231.28 117.954 o
231.931 123.254 o
232.582 120.23 o
233.232 119.344 o
233.883 119.655 o
234.533 117.024 o
235.184 121.159 o
235.835 121.508 o
236.485 119.89 o
237.136 120.655 o
237.787 119.993 o
238.437 120.739 o
239.088 123.127 o
239.738 120.575 o
240.389 119.993 o
241.04 125.152 o
241.69 125.126 o
242.341 124.042 o
242.991 118.104 o
243.642 122.276 o
244.293 117.839 o
244.943 113.858 o
245.594 116.201 o
246.244 122.281 o
246.895 116.741 o
247.546 126.615 o
248.196 130.255 o
248.847 122.51 o
249.498 119.865 o
250.148 118.425 o
250.799 126.01 o
251.449 123.287 o
252.1 123.233 o
252.751 129.247 o
253.401 124.849 o
254.052 126.149 o
254.702 121.536 o
255.353 115.637 o
256.004 123.628 o
256.654 126.624 o
257.305 129.365 o
257.955 125.071 o
258.606 129.691 o
259.257 124.848 o
259.907 120.624 o
260.558 101.293 o
261.208 126.381 o
261.859 130.366 o
262.51 119.324 o
263.16 117.461 o
263.811 123.951 o
264.462 124.762 o
265.112 124.436 o
265.763 131.342 o
266.413 128.186 o
267.064 127.386 o
267.715 123.263 o
268.365 123.935 o
269.016 126.555 o
269.666 130.438 o
270.317 124.61 o
270.968 123.986 o
271.618 132.075 o
272.269 123.259 o
272.919 124.867 o
273.57 130.165 o
274.221 127.875 o
274.871 123.816 o
275.522 125.744 o
276.173 113.771 o
276.823 130.245 o
277.474 116.701 o
278.124 129.905 o
278.775 116.855 o
279.426 132 o
280.076 121.463 o
280.727 127.866 o
281.377 132.445 o
282.028 129.279 o
282.679 126.702 o
283.329 135.716 o
283.98 116.223 o
284.63 127.142 o
285.281 133.696 o
285.932 122.171 o
286.582 134.051 o
287.233 129.582 o
287.884 119.261 o
288.534 133.286 o
289.185 122.375 o
289.835 127.697 o
290.486 127.536 o
291.137 129.42 o
291.787 122.137 o
292.438 128.098 o
293.088 126.018 o
293.739 121.016 o
294.39 107.153 o
295.04 123.86 o
295.691 137.192 o
296.341 130.177 o
296.992 129.207 o
297.643 134.8 o
298.293 123.37 o
298.944 136.699 o
299.595 122.032 o
300.245 125.887 o
300.896 128.075 o
301.546 129.683 o
302.197 122.718 o
302.848 117.52 o
303.498 124.471 o
304.149 127.479 o
304.799 121.112 o
305.45 129.223 o
306.101 124.881 o
306.751 123.872 o
307.402 130.187 o
308.052 132.311 o
308.703 134.733 o
309.354 116.753 o
310.004 129.188 o
310.655 153.033 o
311.305 132.232 o
311.956 134.682 o
312.607 141.567 o
313.257 135.194 o
313.908 131.868 o
314.559 135.848 o
315.209 125.016 o
315.86 132.183 o
316.51 127.628 o
317.161 144.278 o
317.812 124.392 o
318.462 140.693 o
319.113 140.038 o
319.763 123.877 o
320.414 127.655 o
321.065 130.349 o
321.715 127.972 o
322.366 128.016 o
323.016 125.336 o
323.667 142.172 o
324.318 132.928 o
324.968 138.235 o
325.619 112.075 o
326.27 136.628 o
326.92 132.702 o
327.571 131.861 o
328.221 144.83 o
328.872 136.721 o
329.523 130.162 o
330.173 135.286 o
330.824 130.03 o
331.474 127.698 o
332.125 137.197 o
332.776 136.606 o
333.426 130.358 o
334.077 136.645 o
334.727 138.969 o
335.378 134.27 o
336.029 126.743 o
336.679 133.476 o
337.33 130.901 o
337.981 145.005 o
338.631 137.042 o
339.282 128.978 o
339.932 129.558 o
340.583 136.467 o
341.234 125.362 o
341.884 121.222 o
342.535 136.302 o
343.185 124.052 o
343.836 133.565 o
344.487 132.697 o
345.137 125.593 o
345.788 133.9 o
346.438 134.186 o
347.089 147.147 o
347.74 140.815 o
348.39 141.189 o
349.041 135.08 o
349.691 130.203 o
350.342 123.447 o
350.993 133.737 o
351.643 133.815 o
352.294 135.412 o
352.945 136.94 o
353.595 147.879 o
354.246 152.309 o
354.896 134.984 o
355.547 134.904 o
356.198 140.804 o
356.848 133.811 o
357.499 147.987 o
358.149 131.467 o
358.8 132.23 o
359.451 135.822 o
360.101 136.314 o
360.752 148.124 o
361.402 131.956 o
362.053 139.564 o
362.704 133.851 o
363.354 121.602 o
364.005 145.074 o
364.656 143.751 o
365.306 146.708 o
365.957 128.845 o
366.607 144.26 o
367.258 144.199 o
367.909 137.355 o
368.559 135.68 o
369.21 142.288 o
369.86 139.045 o
370.511 150.446 o
371.162 138.487 o
371.812 147.843 o
372.463 141.524 o
373.113 147.911 o
373.764 134.123 o
374.415 133.239 o
375.065 129.427 o
375.716 138.46 o
376.367 123.402 o
377.017 128.175 o
377.668 137.241 o
378.318 151.011 o
378.969 133.97 o
379.62 136.21 o
380.27 137.432 o
380.921 150.659 o
381.571 147.524 o
382.222 146.226 o
382.873 142.435 o
383.523 136.236 o
384.174 143.661 o
384.824 146.489 o
385.475 147.44 o
386.126 137.319 o
386.776 136.545 o
387.427 138.846 o
388.078 143.385 o
388.728 142.786 o
389.379 134.393 o
390.029 152.624 o
390.68 134.434 o
391.331 128.824 o
391.981 43.5142 o
392.632 148.8 o
393.282 134.304 o
393.933 142.733 o
394.584 135.074 o
395.234 152.842 o
395.885 131.154 o
396.535 152.716 o
397.186 143.454 o
397.837 142.639 o
398.487 153.478 o
grestore
1.500 setlinewidth
2 setlinecap
0.839 0.153 0.157 setrgbcolor
gsave
357.1 121 57.6 38.02 clipbox
73.832727 97.885577 m
101.15836 95.250909 l
144.749251 90.780279 l
183.13526 86.929411 l
209.159672 84.539952 l
232.581643 82.611622 l
254.702394 81.013885 l
276.172534 79.688685 l
296.341454 78.660926 l
315.859763 77.884965 l
334.076852 77.380058 l
350.99272 77.134739 l
365.956757 77.136652 l
379.619574 77.362517 l
391.330559 77.769743 l
398.487273 78.136988 l
398.487273 78.136988 l
stroke
grestore
0.580 0.404 0.741 setrgbcolor
gsave
357.1 121 57.6 38.02 clipbox
73.832727 97.885577 m
91.399206 98.588129 l
108.315074 99.049756 l
125.230942 99.288752 l
142.14681 99.298843 l
159.062678 99.079759 l
175.978546 98.637268 l
193.545025 97.95331 l
211.762113 97.020861 l
231.280423 95.795615 l
252.099953 94.264698 l
275.521924 92.312264 l
302.196947 89.856276 l
335.378073 86.564589 l
398.487273 80.134341 l
398.487273 80.134341 l
stroke
grestore
0.549 0.337 0.294 setrgbcolor
gsave
357.1 121 57.6 38.02 clipbox
73.832727 97.885577 m
107.664463 102.684585 l
204.6054 116.604036 l
235.184085 120.656761 l
268.36521 124.823074 l
352.944551 135.309666 l
371.16164 137.88347 l
385.475066 140.122154 l
397.836662 142.27745 l
398.487273 142.397948 l
398.487273 142.397948 l
stroke
grestore
0.800 setlinewidth
0 setlinejoin
[] 0 setdash
0.000 setgray
gsave
57.6 38.016 m
57.6 158.976 l
stroke
grestore
gsave
414.72 38.016 m
414.72 158.976 l
stroke
grestore
gsave
57.6 38.016 m
414.72 38.016 l
stroke
grestore
gsave
57.6 158.976 m
414.72 158.976 l
stroke
grestore
1.000 setlinewidth
0 setlinecap
0.800 setgray
gsave
64.6 106.960375 m
121.490625 106.960375 l
122.823958 106.960375 123.490625 107.627042 123.490625 108.960375 c
123.490625 151.976 l
123.490625 153.309333 122.823958 153.976 121.490625 153.976 c
64.6 153.976 l
63.266667 153.976 62.6 153.309333 62.6 151.976 c
62.6 108.960375 l
62.6 107.627042 63.266667 106.960375 64.6 106.960375 c
cl
gsave
1.000 setgray
fill
grestore
stroke
grestore
1 setlinejoin
[] 0 setdash
0.122 0.467 0.706 setrgbcolor
gsave
/o {
gsave
newpath
translate
1.0 setlinewidth
1 setlinejoin
0 setlinecap
0 -1.5 m
0.397805 -1.5 0.77937 -1.341951 1.06066 -1.06066 c
1.341951 -0.77937 1.5 -0.397805 1.5 0 c
1.5 0.397805 1.341951 0.77937 1.06066 1.06066 c
0.77937 1.341951 0.397805 1.5 0 1.5 c
-0.397805 1.5 -0.77937 1.341951 -1.06066 1.06066 c
-1.341951 0.77937 -1.5 0.397805 -1.5 0 c
-1.5 -0.397805 -1.341951 -0.77937 -1.06066 -1.06066 c
-0.77937 -1.341951 -0.397805 -1.5 0 -1.5 c
cl

gsave
0.122 0.467 0.706 setrgbcolor
fill
grestore
stroke
grestore
} bind def
76.6 145.882 o
grestore
0.000 setgray
gsave
94.600000 142.382250 translate
0.000000 rotate
0.000000 0.000000 m /r glyphshow
4.111328 0.000000 m /o glyphshow
10.229492 0.000000 m /l glyphshow
13.007812 0.000000 m /l glyphshow
grestore
1.000 0.498 0.055 setrgbcolor
gsave
/o {
gsave
newpath
translate
1.0 setlinewidth
1 setlinejoin
0 setlinecap
0 -1.5 m
0.397805 -1.5 0.77937 -1.341951 1.06066 -1.06066 c
1.341951 -0.77937 1.5 -0.397805 1.5 0 c
1.5 0.397805 1.341951 0.77937 1.06066 1.06066 c
0.77937 1.341951 0.397805 1.5 0 1.5 c
-0.397805 1.5 -0.77937 1.341951 -1.06066 1.06066 c
-1.341951 0.77937 -1.5 0.397805 -1.5 0 c
-1.5 -0.397805 -1.341951 -0.77937 -1.06066 -1.06066 c
-0.77937 -1.341951 -0.397805 -1.5 0 -1.5 c
cl

gsave
1.000 0.498 0.055 setrgbcolor
fill
grestore
stroke
grestore
} bind def
76.6 131.21 o
grestore
0.000 setgray
gsave
94.600000 127.710375 translate
0.000000 rotate
0.000000 0.000000 m /p glyphshow
6.347656 0.000000 m /i glyphshow
9.125977 0.000000 m /t glyphshow
13.046875 0.000000 m /c glyphshow
18.544922 0.000000 m /h glyphshow
grestore
0.173 0.627 0.173 setrgbcolor
gsave
/o {
gsave
newpath
translate
1.0 setlinewidth
1 setlinejoin
0 setlinecap
0 -1.5 m
0.397805 -1.5 0.77937 -1.341951 1.06066 -1.06066 c
1.341951 -0.77937 1.5 -0.397805 1.5 0 c
1.5 0.397805 1.341951 0.77937 1.06066 1.06066 c
0.77937 1.341951 0.397805 1.5 0 1.5 c
-0.397805 1.5 -0.77937 1.341951 -1.06066 1.06066 c
-1.341951 0.77937 -1.5 0.397805 -1.5 0 c
-1.5 -0.397805 -1.341951 -0.77937 -1.06066 -1.06066 c
-0.77937 -1.341951 -0.397805 -1.5 0 -1.5 c
cl

gsave
0.173 0.627 0.173 setrgbcolor
fill
grestore
stroke
grestore
} bind def
76.6 116.538 o
grestore
0.000 setgray
gsave
94.600000 113.038500 translate
0.000000 rotate
0.000000 0.000000 m /y glyphshow
5.917969 0.000000 m /a glyphshow
12.045898 0.000000 m /w glyphshow
grestore

end
showpage
