%!PS-Adobe-3.0 EPSF-3.0
%%Title: figures/repeater_500_ls.eps
%%Creator: matplotlib version 2.0.0, http://matplotlib.org/
%%CreationDate: Tue Feb 28 10:43:22 2017
%%Orientation: portrait
%%BoundingBox: 75 223 536 568
%%EndComments
%%BeginProlog
/mpldict 8 dict def
mpldict begin
/m { moveto } bind def
/l { lineto } bind def
/r { rlineto } bind def
/c { curveto } bind def
/cl { closepath } bind def
/box {
m
1 index 0 r
0 exch r
neg 0 r
cl
} bind def
/clipbox {
box
clip
newpath
} bind def
%!PS-Adobe-3.0 Resource-Font
%%Title: DejaVu Sans
%%Copyright: Copyright (c) 2003 by Bitstream, Inc. All Rights Reserved. Copyright (c) 2006 by Tavmjong Bah. All Rights Reserved. DejaVu changes are in public domain 
%%Creator: Converted from TrueType to type 3 by PPR
25 dict begin
/_d{bind def}bind def
/_m{moveto}_d
/_l{lineto}_d
/_cl{closepath eofill}_d
/_c{curveto}_d
/_sc{7 -1 roll{setcachedevice}{pop pop pop pop pop pop}ifelse}_d
/_e{exec}_d
/FontName /DejaVuSans def
/PaintType 0 def
/FontMatrix[.001 0 0 .001 0 0]def
/FontBBox[-1021 -463 1793 1232]def
/FontType 3 def
/Encoding [ /space /zero /one /two /three /four /five /E /P /S /bracketleft /bracketright /a /c /d /e /g /h /i /l /m /n /o /p /r /s /t /u /w /x /y /z /minus ] def
/FontInfo 10 dict dup begin
/FamilyName (DejaVu Sans) def
/FullName (DejaVu Sans) def
/Notice (Copyright (c) 2003 by Bitstream, Inc. All Rights Reserved. Copyright (c) 2006 by Tavmjong Bah. All Rights Reserved. DejaVu changes are in public domain ) def
/Weight (Book) def
/Version (Version 2.35) def
/ItalicAngle 0.0 def
/isFixedPitch false def
/UnderlinePosition -130 def
/UnderlineThickness 90 def
end readonly def
/CharStrings 33 dict dup begin
/space{318 0 0 0 0 0 _sc
}_d
/zero{636 0 66 -13 570 742 _sc
318 664 _m
267 664 229 639 203 589 _c
177 539 165 464 165 364 _c
165 264 177 189 203 139 _c
229 89 267 64 318 64 _c
369 64 407 89 433 139 _c
458 189 471 264 471 364 _c
471 464 458 539 433 589 _c
407 639 369 664 318 664 _c
318 742 _m
399 742 461 709 505 645 _c
548 580 570 486 570 364 _c
570 241 548 147 505 83 _c
461 19 399 -13 318 -13 _c
236 -13 173 19 130 83 _c
87 147 66 241 66 364 _c
66 486 87 580 130 645 _c
173 709 236 742 318 742 _c
_cl}_d
/one{636 0 110 0 544 729 _sc
124 83 _m
285 83 _l
285 639 _l
110 604 _l
110 694 _l
284 729 _l
383 729 _l
383 83 _l
544 83 _l
544 0 _l
124 0 _l
124 83 _l
_cl}_d
/two{{636 0 73 0 536 742 _sc
192 83 _m
536 83 _l
536 0 _l
73 0 _l
73 83 _l
110 121 161 173 226 239 _c
290 304 331 346 348 365 _c
380 400 402 430 414 455 _c
426 479 433 504 433 528 _c
433 566 419 598 392 622 _c
365 646 330 659 286 659 _c
255 659 222 653 188 643 _c
154 632 117 616 78 594 _c
78 694 _l
118 710 155 722 189 730 _c
223 738 255 742 284 742 _c
}_e{359 742 419 723 464 685 _c
509 647 532 597 532 534 _c
532 504 526 475 515 449 _c
504 422 484 390 454 354 _c
446 344 420 317 376 272 _c
332 227 271 164 192 83 _c
_cl}_e}_d
/three{{636 0 76 -13 556 742 _sc
406 393 _m
453 383 490 362 516 330 _c
542 298 556 258 556 212 _c
556 140 531 84 482 45 _c
432 6 362 -13 271 -13 _c
240 -13 208 -10 176 -4 _c
144 1 110 10 76 22 _c
76 117 _l
103 101 133 89 166 81 _c
198 73 232 69 268 69 _c
330 69 377 81 409 105 _c
441 129 458 165 458 212 _c
458 254 443 288 413 312 _c
383 336 341 349 287 349 _c
}_e{202 349 _l
202 430 _l
291 430 _l
339 430 376 439 402 459 _c
428 478 441 506 441 543 _c
441 580 427 609 401 629 _c
374 649 336 659 287 659 _c
260 659 231 656 200 650 _c
169 644 135 635 98 623 _c
98 711 _l
135 721 170 729 203 734 _c
235 739 266 742 296 742 _c
370 742 429 725 473 691 _c
517 657 539 611 539 553 _c
539 513 527 479 504 451 _c
481 423 448 403 406 393 _c
_cl}_e}_d
/four{636 0 49 0 580 729 _sc
378 643 _m
129 254 _l
378 254 _l
378 643 _l
352 729 _m
476 729 _l
476 254 _l
580 254 _l
580 172 _l
476 172 _l
476 0 _l
378 0 _l
378 172 _l
49 172 _l
49 267 _l
352 729 _l
_cl}_d
/five{{636 0 77 -13 549 729 _sc
108 729 _m
495 729 _l
495 646 _l
198 646 _l
198 467 _l
212 472 227 476 241 478 _c
255 480 270 482 284 482 _c
365 482 429 459 477 415 _c
525 370 549 310 549 234 _c
549 155 524 94 475 51 _c
426 8 357 -13 269 -13 _c
238 -13 207 -10 175 -6 _c
143 -1 111 6 77 17 _c
77 116 _l
106 100 136 88 168 80 _c
199 72 232 69 267 69 _c
}_e{323 69 368 83 401 113 _c
433 143 450 183 450 234 _c
450 284 433 324 401 354 _c
368 384 323 399 267 399 _c
241 399 214 396 188 390 _c
162 384 135 375 108 363 _c
108 729 _l
_cl}_e}_d
/E{632 0 98 0 568 729 _sc
98 729 _m
559 729 _l
559 646 _l
197 646 _l
197 430 _l
544 430 _l
544 347 _l
197 347 _l
197 83 _l
568 83 _l
568 0 _l
98 0 _l
98 729 _l
_cl}_d
/P{603 0 98 0 569 729 _sc
197 648 _m
197 374 _l
321 374 _l
367 374 402 385 427 409 _c
452 433 465 467 465 511 _c
465 555 452 588 427 612 _c
402 636 367 648 321 648 _c
197 648 _l
98 729 _m
321 729 _l
402 729 464 710 506 673 _c
548 636 569 582 569 511 _c
569 439 548 384 506 348 _c
464 311 402 293 321 293 _c
197 293 _l
197 0 _l
98 0 _l
98 729 _l
_cl}_d
/S{{635 0 66 -13 579 742 _sc
535 705 _m
535 609 _l
497 627 462 640 429 649 _c
395 657 363 662 333 662 _c
279 662 237 651 208 631 _c
179 610 165 580 165 542 _c
165 510 174 485 194 469 _c
213 452 250 439 304 429 _c
364 417 _l
437 403 491 378 526 343 _c
561 307 579 260 579 201 _c
579 130 555 77 508 41 _c
460 5 391 -13 300 -13 _c
265 -13 228 -9 189 -2 _c
}_e{150 5 110 16 69 32 _c
69 134 _l
109 111 148 94 186 83 _c
224 71 262 66 300 66 _c
356 66 399 77 430 99 _c
460 121 476 152 476 194 _c
476 230 465 258 443 278 _c
421 298 385 313 335 323 _c
275 335 _l
201 349 148 372 115 404 _c
82 435 66 478 66 534 _c
66 598 88 649 134 686 _c
179 723 242 742 322 742 _c
356 742 390 739 426 733 _c
461 727 497 717 535 705 _c
}_e{_cl}_e}_d
/bracketleft{390 0 86 -131 293 760 _sc
86 760 _m
293 760 _l
293 690 _l
176 690 _l
176 -61 _l
293 -61 _l
293 -131 _l
86 -131 _l
86 760 _l
_cl}_d
/bracketright{390 0 97 -131 304 760 _sc
304 760 _m
304 -131 _l
97 -131 _l
97 -61 _l
214 -61 _l
214 690 _l
97 690 _l
97 760 _l
304 760 _l
_cl}_d
/a{{613 0 60 -13 522 560 _sc
343 275 _m
270 275 220 266 192 250 _c
164 233 150 205 150 165 _c
150 133 160 107 181 89 _c
202 70 231 61 267 61 _c
317 61 357 78 387 114 _c
417 149 432 196 432 255 _c
432 275 _l
343 275 _l
522 312 _m
522 0 _l
432 0 _l
432 83 _l
411 49 385 25 355 10 _c
325 -5 287 -13 243 -13 _c
187 -13 142 2 109 33 _c
76 64 60 106 60 159 _c
}_e{60 220 80 266 122 298 _c
163 329 224 345 306 345 _c
432 345 _l
432 354 _l
432 395 418 427 391 450 _c
364 472 326 484 277 484 _c
245 484 215 480 185 472 _c
155 464 127 453 100 439 _c
100 522 _l
132 534 164 544 195 550 _c
226 556 256 560 286 560 _c
365 560 424 539 463 498 _c
502 457 522 395 522 312 _c
_cl}_e}_d
/c{{550 0 55 -13 488 560 _sc
488 526 _m
488 442 _l
462 456 437 466 411 473 _c
385 480 360 484 334 484 _c
276 484 230 465 198 428 _c
166 391 150 339 150 273 _c
150 206 166 154 198 117 _c
230 80 276 62 334 62 _c
360 62 385 65 411 72 _c
437 79 462 90 488 104 _c
488 21 _l
462 9 436 0 410 -5 _c
383 -10 354 -13 324 -13 _c
242 -13 176 12 128 64 _c
}_e{79 115 55 185 55 273 _c
55 362 79 432 128 483 _c
177 534 244 560 330 560 _c
358 560 385 557 411 551 _c
437 545 463 537 488 526 _c
_cl}_e}_d
/d{{635 0 55 -13 544 760 _sc
454 464 _m
454 760 _l
544 760 _l
544 0 _l
454 0 _l
454 82 _l
435 49 411 25 382 10 _c
353 -5 319 -13 279 -13 _c
213 -13 159 13 117 65 _c
75 117 55 187 55 273 _c
55 359 75 428 117 481 _c
159 533 213 560 279 560 _c
319 560 353 552 382 536 _c
411 520 435 496 454 464 _c
148 273 _m
148 207 161 155 188 117 _c
215 79 253 61 301 61 _c
}_e{348 61 385 79 413 117 _c
440 155 454 207 454 273 _c
454 339 440 390 413 428 _c
385 466 348 485 301 485 _c
253 485 215 466 188 428 _c
161 390 148 339 148 273 _c
_cl}_e}_d
/e{{615 0 55 -13 562 560 _sc
562 296 _m
562 252 _l
149 252 _l
153 190 171 142 205 110 _c
238 78 284 62 344 62 _c
378 62 412 66 444 74 _c
476 82 509 95 541 113 _c
541 28 _l
509 14 476 3 442 -3 _c
408 -9 373 -13 339 -13 _c
251 -13 182 12 131 62 _c
80 112 55 181 55 268 _c
55 357 79 428 127 481 _c
175 533 241 560 323 560 _c
397 560 455 536 498 489 _c
}_e{540 441 562 377 562 296 _c
472 322 _m
471 371 457 410 431 440 _c
404 469 368 484 324 484 _c
274 484 234 469 204 441 _c
174 413 156 373 152 322 _c
472 322 _l
_cl}_e}_d
/g{{635 0 55 -207 544 560 _sc
454 280 _m
454 344 440 395 414 431 _c
387 467 349 485 301 485 _c
253 485 215 467 188 431 _c
161 395 148 344 148 280 _c
148 215 161 165 188 129 _c
215 93 253 75 301 75 _c
349 75 387 93 414 129 _c
440 165 454 215 454 280 _c
544 68 _m
544 -24 523 -93 482 -139 _c
440 -184 377 -207 292 -207 _c
260 -207 231 -204 203 -200 _c
175 -195 147 -188 121 -178 _c
}_e{121 -91 _l
147 -105 173 -115 199 -122 _c
225 -129 251 -133 278 -133 _c
336 -133 380 -117 410 -87 _c
439 -56 454 -10 454 52 _c
454 96 _l
435 64 411 40 382 24 _c
353 8 319 0 279 0 _c
211 0 157 25 116 76 _c
75 127 55 195 55 280 _c
55 364 75 432 116 483 _c
157 534 211 560 279 560 _c
319 560 353 552 382 536 _c
411 520 435 496 454 464 _c
454 547 _l
544 547 _l
}_e{544 68 _l
_cl}_e}_d
/h{634 0 91 0 549 760 _sc
549 330 _m
549 0 _l
459 0 _l
459 327 _l
459 379 448 417 428 443 _c
408 469 378 482 338 482 _c
289 482 251 466 223 435 _c
195 404 181 362 181 309 _c
181 0 _l
91 0 _l
91 760 _l
181 760 _l
181 462 _l
202 494 227 519 257 535 _c
286 551 320 560 358 560 _c
420 560 468 540 500 501 _c
532 462 549 405 549 330 _c
_cl}_d
/i{278 0 94 0 184 760 _sc
94 547 _m
184 547 _l
184 0 _l
94 0 _l
94 547 _l
94 760 _m
184 760 _l
184 646 _l
94 646 _l
94 760 _l
_cl}_d
/l{278 0 94 0 184 760 _sc
94 760 _m
184 760 _l
184 0 _l
94 0 _l
94 760 _l
_cl}_d
/m{{974 0 91 0 889 560 _sc
520 442 _m
542 482 569 511 600 531 _c
631 550 668 560 711 560 _c
767 560 811 540 842 500 _c
873 460 889 403 889 330 _c
889 0 _l
799 0 _l
799 327 _l
799 379 789 418 771 444 _c
752 469 724 482 686 482 _c
639 482 602 466 575 435 _c
548 404 535 362 535 309 _c
535 0 _l
445 0 _l
445 327 _l
445 379 435 418 417 444 _c
398 469 369 482 331 482 _c
}_e{285 482 248 466 221 435 _c
194 404 181 362 181 309 _c
181 0 _l
91 0 _l
91 547 _l
181 547 _l
181 462 _l
201 495 226 520 255 536 _c
283 552 317 560 357 560 _c
397 560 430 550 458 530 _c
486 510 506 480 520 442 _c
_cl}_e}_d
/n{634 0 91 0 549 560 _sc
549 330 _m
549 0 _l
459 0 _l
459 327 _l
459 379 448 417 428 443 _c
408 469 378 482 338 482 _c
289 482 251 466 223 435 _c
195 404 181 362 181 309 _c
181 0 _l
91 0 _l
91 547 _l
181 547 _l
181 462 _l
202 494 227 519 257 535 _c
286 551 320 560 358 560 _c
420 560 468 540 500 501 _c
532 462 549 405 549 330 _c
_cl}_d
/o{612 0 55 -13 557 560 _sc
306 484 _m
258 484 220 465 192 427 _c
164 389 150 338 150 273 _c
150 207 163 156 191 118 _c
219 80 257 62 306 62 _c
354 62 392 80 420 118 _c
448 156 462 207 462 273 _c
462 337 448 389 420 427 _c
392 465 354 484 306 484 _c
306 560 _m
384 560 445 534 490 484 _c
534 433 557 363 557 273 _c
557 183 534 113 490 63 _c
445 12 384 -13 306 -13 _c
227 -13 165 12 121 63 _c
77 113 55 183 55 273 _c
55 363 77 433 121 484 _c
165 534 227 560 306 560 _c
_cl}_d
/p{{635 0 91 -207 580 560 _sc
181 82 _m
181 -207 _l
91 -207 _l
91 547 _l
181 547 _l
181 464 _l
199 496 223 520 252 536 _c
281 552 316 560 356 560 _c
422 560 476 533 518 481 _c
559 428 580 359 580 273 _c
580 187 559 117 518 65 _c
476 13 422 -13 356 -13 _c
316 -13 281 -5 252 10 _c
223 25 199 49 181 82 _c
487 273 _m
487 339 473 390 446 428 _c
418 466 381 485 334 485 _c
}_e{286 485 249 466 222 428 _c
194 390 181 339 181 273 _c
181 207 194 155 222 117 _c
249 79 286 61 334 61 _c
381 61 418 79 446 117 _c
473 155 487 207 487 273 _c
_cl}_e}_d
/r{411 0 91 0 411 560 _sc
411 463 _m
401 469 390 473 378 476 _c
366 478 353 480 339 480 _c
288 480 249 463 222 430 _c
194 397 181 350 181 288 _c
181 0 _l
91 0 _l
91 547 _l
181 547 _l
181 462 _l
199 495 224 520 254 536 _c
284 552 321 560 365 560 _c
371 560 378 559 386 559 _c
393 558 401 557 411 555 _c
411 463 _l
_cl}_d
/s{{521 0 54 -13 472 560 _sc
443 531 _m
443 446 _l
417 458 391 468 364 475 _c
336 481 308 485 279 485 _c
234 485 200 478 178 464 _c
156 450 145 430 145 403 _c
145 382 153 366 169 354 _c
185 342 217 330 265 320 _c
296 313 _l
360 299 405 279 432 255 _c
458 230 472 195 472 151 _c
472 100 452 60 412 31 _c
372 1 316 -13 246 -13 _c
216 -13 186 -10 154 -5 _c
}_e{122 0 89 8 54 20 _c
54 113 _l
87 95 120 82 152 74 _c
184 65 216 61 248 61 _c
290 61 323 68 346 82 _c
368 96 380 117 380 144 _c
380 168 371 187 355 200 _c
339 213 303 226 247 238 _c
216 245 _l
160 257 119 275 95 299 _c
70 323 58 356 58 399 _c
58 450 76 490 112 518 _c
148 546 200 560 268 560 _c
301 560 332 557 362 552 _c
391 547 418 540 443 531 _c
}_e{_cl}_e}_d
/t{392 0 27 0 368 702 _sc
183 702 _m
183 547 _l
368 547 _l
368 477 _l
183 477 _l
183 180 _l
183 135 189 106 201 94 _c
213 81 238 75 276 75 _c
368 75 _l
368 0 _l
276 0 _l
206 0 158 13 132 39 _c
106 65 93 112 93 180 _c
93 477 _l
27 477 _l
27 547 _l
93 547 _l
93 702 _l
183 702 _l
_cl}_d
/u{634 0 85 -13 543 560 _sc
85 216 _m
85 547 _l
175 547 _l
175 219 _l
175 167 185 129 205 103 _c
225 77 255 64 296 64 _c
344 64 383 79 411 110 _c
439 141 453 183 453 237 _c
453 547 _l
543 547 _l
543 0 _l
453 0 _l
453 84 _l
431 50 405 26 377 10 _c
348 -5 315 -13 277 -13 _c
214 -13 166 6 134 45 _c
101 83 85 140 85 216 _c
311 560 _m
311 560 _l
_cl}_d
/w{818 0 42 0 776 547 _sc
42 547 _m
132 547 _l
244 120 _l
356 547 _l
462 547 _l
574 120 _l
686 547 _l
776 547 _l
633 0 _l
527 0 _l
409 448 _l
291 0 _l
185 0 _l
42 547 _l
_cl}_d
/x{592 0 29 0 559 547 _sc
549 547 _m
351 281 _l
559 0 _l
453 0 _l
294 215 _l
135 0 _l
29 0 _l
241 286 _l
47 547 _l
153 547 _l
298 352 _l
443 547 _l
549 547 _l
_cl}_d
/y{592 0 30 -207 562 547 _sc
322 -50 _m
296 -114 271 -157 247 -177 _c
223 -197 191 -207 151 -207 _c
79 -207 _l
79 -132 _l
132 -132 _l
156 -132 175 -126 189 -114 _c
203 -102 218 -75 235 -31 _c
251 9 _l
30 547 _l
125 547 _l
296 119 _l
467 547 _l
562 547 _l
322 -50 _l
_cl}_d
/z{525 0 43 0 482 547 _sc
55 547 _m
482 547 _l
482 465 _l
144 72 _l
482 72 _l
482 0 _l
43 0 _l
43 82 _l
381 475 _l
55 475 _l
55 547 _l
_cl}_d
/minus{838 0 106 272 732 355 _sc
106 355 _m
732 355 _l
732 272 _l
106 272 _l
106 355 _l
_cl}_d
end readonly def

/BuildGlyph
 {exch begin
 CharStrings exch
 2 copy known not{pop /.notdef}if
 true 3 1 roll get exec
 end}_d

/BuildChar {
 1 index /Encoding get exch get
 1 index /BuildGlyph get exec
}_d

FontName currentdict end definefont pop
end
%%EndProlog
mpldict begin
75.6 223.2 translate
460.8 345.6 0 0 clipbox
gsave
0 0 m
460.8 0 l
460.8 345.6 l
0 345.6 l
cl
1.000 setgray
fill
grestore
gsave
57.6 183.168 m
414.72 183.168 l
414.72 304.128 l
57.6 304.128 l
cl
1.000 setgray
fill
grestore
0.800 setlinewidth
1 setlinejoin
2 setlinecap
[] 0 setdash
0.690 setgray
gsave
357.1 121 57.6 183.2 clipbox
73.832727 183.168 m
73.832727 304.128 l
stroke
grestore
0 setlinecap
0.000 setgray
gsave
/o {
gsave
newpath
translate
0.8 setlinewidth
1 setlinejoin
0 setlinecap
0 0 m
0 -3.5 l

gsave
0.000 setgray
fill
grestore
stroke
grestore
} bind def
73.8327 183.168 o
grestore
/DejaVuSans findfont
10.000 scalefont
setfont
gsave
70.653040 168.574250 translate
0.000000 rotate
0.000000 0.000000 m /zero glyphshow
grestore
2 setlinecap
0.690 setgray
gsave
357.1 121 57.6 183.2 clipbox
138.893758 183.168 m
138.893758 304.128 l
stroke
grestore
0 setlinecap
0.000 setgray
gsave
/o {
gsave
newpath
translate
0.8 setlinewidth
1 setlinejoin
0 setlinecap
0 0 m
0 -3.5 l

gsave
0.000 setgray
fill
grestore
stroke
grestore
} bind def
138.894 183.168 o
grestore
gsave
129.354696 168.574250 translate
0.000000 rotate
0.000000 0.000000 m /one glyphshow
6.362305 0.000000 m /zero glyphshow
12.724609 0.000000 m /zero glyphshow
grestore
2 setlinecap
0.690 setgray
gsave
357.1 121 57.6 183.2 clipbox
203.95479 183.168 m
203.95479 304.128 l
stroke
grestore
0 setlinecap
0.000 setgray
gsave
/o {
gsave
newpath
translate
0.8 setlinewidth
1 setlinejoin
0 setlinecap
0 0 m
0 -3.5 l

gsave
0.000 setgray
fill
grestore
stroke
grestore
} bind def
203.955 183.168 o
grestore
gsave
194.415727 168.574250 translate
0.000000 rotate
0.000000 0.000000 m /two glyphshow
6.362305 0.000000 m /zero glyphshow
12.724609 0.000000 m /zero glyphshow
grestore
2 setlinecap
0.690 setgray
gsave
357.1 121 57.6 183.2 clipbox
269.015821 183.168 m
269.015821 304.128 l
stroke
grestore
0 setlinecap
0.000 setgray
gsave
/o {
gsave
newpath
translate
0.8 setlinewidth
1 setlinejoin
0 setlinecap
0 0 m
0 -3.5 l

gsave
0.000 setgray
fill
grestore
stroke
grestore
} bind def
269.016 183.168 o
grestore
gsave
259.476758 168.574250 translate
0.000000 rotate
0.000000 0.000000 m /three glyphshow
6.362305 0.000000 m /zero glyphshow
12.724609 0.000000 m /zero glyphshow
grestore
2 setlinecap
0.690 setgray
gsave
357.1 121 57.6 183.2 clipbox
334.076852 183.168 m
334.076852 304.128 l
stroke
grestore
0 setlinecap
0.000 setgray
gsave
/o {
gsave
newpath
translate
0.8 setlinewidth
1 setlinejoin
0 setlinecap
0 0 m
0 -3.5 l

gsave
0.000 setgray
fill
grestore
stroke
grestore
} bind def
334.077 183.168 o
grestore
gsave
324.537789 168.574250 translate
0.000000 rotate
0.000000 0.000000 m /four glyphshow
6.362305 0.000000 m /zero glyphshow
12.724609 0.000000 m /zero glyphshow
grestore
2 setlinecap
0.690 setgray
gsave
357.1 121 57.6 183.2 clipbox
399.137883 183.168 m
399.137883 304.128 l
stroke
grestore
0 setlinecap
0.000 setgray
gsave
/o {
gsave
newpath
translate
0.8 setlinewidth
1 setlinejoin
0 setlinecap
0 0 m
0 -3.5 l

gsave
0.000 setgray
fill
grestore
stroke
grestore
} bind def
399.138 183.168 o
grestore
gsave
389.598821 168.574250 translate
0.000000 rotate
0.000000 0.000000 m /five glyphshow
6.362305 0.000000 m /zero glyphshow
12.724609 0.000000 m /zero glyphshow
grestore
gsave
217.410000 154.902375 translate
0.000000 rotate
0.000000 0.000000 m /S glyphshow
6.347656 0.000000 m /a glyphshow
12.475586 0.000000 m /m glyphshow
22.216797 0.000000 m /p glyphshow
28.564453 0.000000 m /l glyphshow
31.342773 0.000000 m /e glyphshow
grestore
2 setlinecap
0.690 setgray
gsave
357.1 121 57.6 183.2 clipbox
57.6 208.434837 m
414.72 208.434837 l
stroke
grestore
0 setlinecap
0.000 setgray
gsave
/o {
gsave
newpath
translate
0.8 setlinewidth
1 setlinejoin
0 setlinecap
0 0 m
-3.5 0 l

gsave
0.000 setgray
fill
grestore
stroke
grestore
} bind def
57.6 208.435 o
grestore
gsave
35.865625 204.637962 translate
0.000000 rotate
0.000000 0.000000 m /minus glyphshow
8.378906 0.000000 m /five glyphshow
grestore
2 setlinecap
0.690 setgray
gsave
357.1 121 57.6 183.2 clipbox
57.6 237.267783 m
414.72 237.267783 l
stroke
grestore
0 setlinecap
0.000 setgray
gsave
/o {
gsave
newpath
translate
0.8 setlinewidth
1 setlinejoin
0 setlinecap
0 0 m
-3.5 0 l

gsave
0.000 setgray
fill
grestore
stroke
grestore
} bind def
57.6 237.268 o
grestore
gsave
44.240625 233.470908 translate
0.000000 rotate
0.000000 0.000000 m /zero glyphshow
grestore
2 setlinecap
0.690 setgray
gsave
357.1 121 57.6 183.2 clipbox
57.6 266.100729 m
414.72 266.100729 l
stroke
grestore
0 setlinecap
0.000 setgray
gsave
/o {
gsave
newpath
translate
0.8 setlinewidth
1 setlinejoin
0 setlinecap
0 0 m
-3.5 0 l

gsave
0.000 setgray
fill
grestore
stroke
grestore
} bind def
57.6 266.101 o
grestore
gsave
44.240625 262.303854 translate
0.000000 rotate
0.000000 0.000000 m /five glyphshow
grestore
2 setlinecap
0.690 setgray
gsave
357.1 121 57.6 183.2 clipbox
57.6 294.933675 m
414.72 294.933675 l
stroke
grestore
0 setlinecap
0.000 setgray
gsave
/o {
gsave
newpath
translate
0.8 setlinewidth
1 setlinejoin
0 setlinecap
0 0 m
-3.5 0 l

gsave
0.000 setgray
fill
grestore
stroke
grestore
} bind def
57.6 294.934 o
grestore
gsave
37.881250 291.136800 translate
0.000000 rotate
0.000000 0.000000 m /one glyphshow
6.362305 0.000000 m /zero glyphshow
grestore
gsave
29.787500 213.608937 translate
90.000000 rotate
0.000000 0.000000 m /P glyphshow
6.030273 0.000000 m /o glyphshow
12.148438 0.000000 m /s glyphshow
17.358398 0.000000 m /i glyphshow
20.136719 0.000000 m /t glyphshow
24.057617 0.000000 m /i glyphshow
26.835938 0.000000 m /o glyphshow
32.954102 0.000000 m /n glyphshow
39.291992 0.000000 m /space glyphshow
42.470703 0.000000 m /bracketleft glyphshow
46.372070 0.000000 m /m glyphshow
56.113281 0.000000 m /bracketright glyphshow
grestore
1.000 setlinewidth
0.122 0.467 0.706 setrgbcolor
gsave
357.1 121 57.6 183.2 clipbox
/o {
gsave
newpath
translate
1.0 setlinewidth
1 setlinejoin
0 setlinecap
0 -1.5 m
0.397805 -1.5 0.77937 -1.341951 1.06066 -1.06066 c
1.341951 -0.77937 1.5 -0.397805 1.5 0 c
1.5 0.397805 1.341951 0.77937 1.06066 1.06066 c
0.77937 1.341951 0.397805 1.5 0 1.5 c
-0.397805 1.5 -0.77937 1.341951 -1.06066 1.06066 c
-1.341951 0.77937 -1.5 0.397805 -1.5 0 c
-1.5 -0.397805 -1.341951 -0.77937 -1.06066 -1.06066 c
-0.77937 -1.341951 -0.397805 -1.5 0 -1.5 c
cl

gsave
0.122 0.467 0.706 setrgbcolor
fill
grestore
stroke
grestore
} bind def
73.8327 240.282 o
74.4833 240.449 o
75.1339 240.39 o
75.7846 240.478 o
76.4352 240.695 o
77.0858 240.816 o
77.7364 240.992 o
78.387 240.845 o
79.0376 241.056 o
79.6882 241.248 o
80.3388 241.277 o
80.9894 241.183 o
81.6401 241.6 o
82.2907 241.603 o
82.9413 241.824 o
83.5919 241.695 o
84.2425 241.905 o
84.8931 241.847 o
85.5437 241.993 o
86.1943 242.153 o
86.8449 242.364 o
87.4955 242.263 o
88.1462 242.626 o
88.7968 242.389 o
89.4474 242.752 o
90.098 242.86 o
90.7486 242.926 o
91.3992 242.945 o
92.0498 243.013 o
92.7004 243.141 o
93.351 243.288 o
94.0016 243.23 o
94.6523 243.353 o
95.3029 243.463 o
95.9535 243.242 o
96.6041 243.655 o
97.2547 243.627 o
97.9053 243.731 o
98.5559 243.667 o
99.2065 243.654 o
99.8571 243.704 o
100.508 244.021 o
101.158 243.824 o
101.809 243.809 o
102.46 243.991 o
103.11 244.15 o
103.761 244.334 o
104.411 244.142 o
105.062 244.235 o
105.713 244.037 o
106.363 244.104 o
107.014 244.044 o
107.664 244.664 o
108.315 244.42 o
108.966 244.233 o
109.616 244.589 o
110.267 244.18 o
110.918 244.496 o
111.568 244.432 o
112.219 244.812 o
112.869 244.213 o
113.52 244.175 o
114.171 244.457 o
114.821 244.16 o
115.472 244.362 o
116.122 244.101 o
116.773 244.532 o
117.424 244.295 o
118.074 244.689 o
118.725 244.531 o
119.375 243.978 o
120.026 244.058 o
120.677 244.224 o
121.327 243.94 o
121.978 244.298 o
122.629 244.399 o
123.279 244.304 o
123.93 244.24 o
124.58 243.933 o
125.231 243.884 o
125.882 243.598 o
126.532 243.703 o
127.183 243.516 o
127.833 243.787 o
128.484 243.533 o
129.135 243.358 o
129.785 243.433 o
130.436 243.408 o
131.086 243.242 o
131.737 242.88 o
132.388 242.66 o
133.038 242.701 o
133.689 243.142 o
134.339 242.59 o
134.99 242.246 o
135.641 242.494 o
136.291 241.979 o
136.942 241.704 o
137.593 241.95 o
138.243 241.965 o
138.894 242.024 o
139.544 241.163 o
140.195 241.862 o
140.846 241.101 o
141.496 240.876 o
142.147 241.126 o
142.797 240.87 o
143.448 240.481 o
144.099 240.604 o
144.749 240.239 o
145.4 240.331 o
146.05 239.594 o
146.701 239.804 o
147.352 239.209 o
148.002 239.643 o
148.653 239.281 o
149.304 238.792 o
149.954 238.557 o
150.605 239.042 o
151.255 239.097 o
151.906 238.104 o
152.557 238.067 o
153.207 238.878 o
153.858 237.927 o
154.508 237.263 o
155.159 237.63 o
155.81 236.773 o
156.46 236.435 o
157.111 236.539 o
157.761 236.234 o
158.412 235.633 o
159.063 236.079 o
159.713 234.759 o
160.364 235.469 o
161.015 235.27 o
161.665 234.556 o
162.316 234.915 o
162.966 233.935 o
163.617 234.097 o
164.268 233.827 o
164.918 233.44 o
165.569 233.08 o
166.219 233.084 o
166.87 232.931 o
167.521 232.42 o
168.171 232.593 o
168.822 231.71 o
169.472 231.924 o
170.123 231.868 o
170.774 230.83 o
171.424 231.147 o
172.075 230.86 o
172.725 230.383 o
173.376 229.866 o
174.027 229.437 o
174.677 229.048 o
175.328 229.157 o
175.979 229.004 o
176.629 228.88 o
177.28 228.258 o
177.93 227.928 o
178.581 228.193 o
179.232 227.546 o
179.882 227.545 o
180.533 227.139 o
181.183 226.611 o
181.834 226.672 o
182.485 225.338 o
183.135 226.269 o
183.786 225.452 o
184.436 225.111 o
185.087 224.527 o
185.738 224.206 o
186.388 224.111 o
187.039 223.821 o
187.69 223.414 o
188.34 223.328 o
188.991 223.469 o
189.641 223.476 o
190.292 222.738 o
190.943 222.201 o
191.593 222.365 o
192.244 222.335 o
192.894 220.727 o
193.545 220.704 o
194.196 220.598 o
194.846 219.959 o
195.497 219.721 o
196.147 219.658 o
196.798 219.656 o
197.449 219.966 o
198.099 218.992 o
198.75 218.334 o
199.401 218.385 o
200.051 217.757 o
200.702 216.911 o
201.352 216.825 o
202.003 217.32 o
202.654 216.499 o
203.304 216.474 o
203.955 216.3 o
204.605 215.698 o
205.256 216.334 o
205.907 214.951 o
206.557 215.335 o
207.208 214.888 o
207.858 214.419 o
208.509 213.312 o
209.16 214.279 o
209.81 213.94 o
210.461 213.675 o
211.112 213.076 o
211.762 213.098 o
212.413 212.922 o
213.063 212.066 o
213.714 212.29 o
214.365 211.809 o
215.015 211.664 o
215.666 210.955 o
216.316 210.592 o
216.967 211.407 o
217.618 210.7 o
218.268 210.401 o
218.919 210.599 o
219.569 210.246 o
220.22 209.962 o
220.871 209.416 o
221.521 209.222 o
222.172 209.655 o
222.822 209.131 o
223.473 207.651 o
224.124 206.866 o
224.774 208.216 o
225.425 208.013 o
226.076 207.299 o
226.726 206.446 o
227.377 208.36 o
228.027 207.599 o
228.678 208.176 o
229.329 207.934 o
229.979 207.318 o
230.63 206.591 o
231.28 205.142 o
231.931 207.19 o
232.582 206.232 o
233.232 206.119 o
233.883 206.404 o
234.533 205.277 o
235.184 206.204 o
235.835 205.683 o
236.485 205.784 o
237.136 205.181 o
237.787 204.808 o
238.437 204.554 o
239.088 205.623 o
239.738 204.639 o
240.389 204.41 o
241.04 204.715 o
241.69 204.963 o
242.341 204.53 o
242.991 203.554 o
243.642 204.405 o
244.293 203.727 o
244.943 203.84 o
245.594 204.103 o
246.244 204.777 o
246.895 204.278 o
247.546 204.824 o
248.196 205.034 o
248.847 204.502 o
249.498 203.583 o
250.148 204.154 o
250.799 205.096 o
251.449 204.144 o
252.1 204.305 o
252.751 204.707 o
253.401 204.418 o
254.052 205.004 o
254.702 204.016 o
255.353 204.338 o
256.004 203.711 o
256.654 205.203 o
257.305 204.419 o
257.955 204.546 o
258.606 206.248 o
259.257 205.4 o
259.907 204.632 o
260.558 202.97 o
261.208 204.423 o
261.859 205.208 o
262.51 205.04 o
263.16 205.096 o
263.811 205.995 o
264.462 205.258 o
265.112 206.056 o
265.763 206.427 o
266.413 206.393 o
267.064 207.01 o
267.715 207.337 o
268.365 205.743 o
269.016 207.655 o
269.666 208.229 o
270.317 207.887 o
270.968 207.169 o
271.618 208.061 o
272.269 207.895 o
272.919 208.529 o
273.57 208.503 o
274.221 209.997 o
274.871 209.691 o
275.522 209.124 o
276.173 208.224 o
276.823 211.146 o
277.474 208.944 o
278.124 209.945 o
278.775 209.742 o
279.426 210.511 o
280.076 210.635 o
280.727 211.599 o
281.377 212.689 o
282.028 211.115 o
282.679 212.653 o
283.329 214.25 o
283.98 213.043 o
284.63 214.649 o
285.281 215.115 o
285.932 214.245 o
286.582 214.075 o
287.233 215.104 o
287.884 215.489 o
288.534 215.168 o
289.185 214.768 o
289.835 217.703 o
290.486 215.531 o
291.137 216.919 o
291.787 217.544 o
292.438 217.188 o
293.088 217.738 o
293.739 216.334 o
294.39 218.684 o
295.04 219.419 o
295.691 220.965 o
296.341 221.079 o
296.992 221.117 o
297.643 222.388 o
298.293 220.916 o
298.944 222.541 o
299.595 223.401 o
300.245 222.272 o
300.896 224.192 o
301.546 223.653 o
302.197 225.261 o
302.848 224.521 o
303.498 224.709 o
304.149 226.255 o
304.799 226.061 o
305.45 227.036 o
306.101 227.112 o
306.751 227.755 o
307.402 229.137 o
308.052 229.684 o
308.703 229.467 o
309.354 229.725 o
310.004 231.263 o
310.655 230.264 o
311.305 231.75 o
311.956 231.722 o
312.607 233.345 o
313.257 233.952 o
313.908 234.452 o
314.559 234.507 o
315.209 236.347 o
315.86 234.672 o
316.51 236.222 o
317.161 236.613 o
317.812 237.108 o
318.462 239.265 o
319.113 238.438 o
319.763 239.98 o
320.414 240.794 o
321.065 240.436 o
321.715 239.95 o
322.366 242.139 o
323.016 242.432 o
323.667 242.14 o
324.318 244.269 o
324.968 245.224 o
325.619 244.506 o
326.27 244.537 o
326.92 246.26 o
327.571 245.454 o
328.221 247.131 o
328.872 247.693 o
329.523 249.994 o
330.173 247.751 o
330.824 249.972 o
331.474 250.378 o
332.125 251.019 o
332.776 251.725 o
333.426 252.126 o
334.077 252.028 o
334.727 253.159 o
335.378 254.024 o
336.029 254.61 o
336.679 255.176 o
337.33 255.614 o
337.981 257.36 o
338.631 257.048 o
339.282 257.883 o
339.932 258.696 o
340.583 260.074 o
341.234 258.821 o
341.884 259.751 o
342.535 260.466 o
343.185 260.801 o
343.836 260.464 o
344.487 263.318 o
345.137 263.676 o
345.788 263.308 o
346.438 264.844 o
347.089 265.581 o
347.74 265.323 o
348.39 265.748 o
349.041 267.615 o
349.691 267.541 o
350.342 268.738 o
350.993 268.388 o
351.643 268.949 o
352.294 270.57 o
352.945 270.988 o
353.595 271.723 o
354.246 271.479 o
354.896 270.931 o
355.547 273.545 o
356.198 274.466 o
356.848 275.342 o
357.499 274.846 o
358.149 273.531 o
358.8 275.637 o
359.451 274.325 o
360.101 276.783 o
360.752 276.947 o
361.402 278.281 o
362.053 278.95 o
362.704 278.393 o
363.354 278.392 o
364.005 280.678 o
364.656 281.227 o
365.306 281.199 o
365.957 280.563 o
366.607 281.833 o
367.258 283.219 o
367.909 281.458 o
368.559 282.77 o
369.21 283.165 o
369.86 284.635 o
370.511 284.813 o
371.162 284.357 o
371.812 285.42 o
372.463 287.146 o
373.113 286.538 o
373.764 287.33 o
374.415 286.904 o
375.065 287.612 o
375.716 286.894 o
376.367 288.693 o
377.017 288.876 o
377.668 288.384 o
378.318 289.793 o
378.969 291.012 o
379.62 289.947 o
380.27 290.682 o
380.921 291.003 o
381.571 292.478 o
382.222 291.511 o
382.873 294.501 o
383.523 291.265 o
384.174 292.851 o
384.824 292.48 o
385.475 293.025 o
386.126 293.346 o
386.776 294.591 o
387.427 292.916 o
388.078 294.319 o
388.728 294.321 o
389.379 295.518 o
390.029 295.521 o
390.68 295.126 o
391.331 295.142 o
391.981 296.195 o
392.632 294.064 o
393.282 295.555 o
393.933 296.075 o
394.584 296.792 o
395.234 296.442 o
395.885 297.735 o
396.535 298.419 o
397.186 298.63 o
397.837 297.584 o
398.487 297.829 o
grestore
1.000 0.498 0.055 setrgbcolor
gsave
357.1 121 57.6 183.2 clipbox
/o {
gsave
newpath
translate
1.0 setlinewidth
1 setlinejoin
0 setlinecap
0 -1.5 m
0.397805 -1.5 0.77937 -1.341951 1.06066 -1.06066 c
1.341951 -0.77937 1.5 -0.397805 1.5 0 c
1.5 0.397805 1.341951 0.77937 1.06066 1.06066 c
0.77937 1.341951 0.397805 1.5 0 1.5 c
-0.397805 1.5 -0.77937 1.341951 -1.06066 1.06066 c
-1.341951 0.77937 -1.5 0.397805 -1.5 0 c
-1.5 -0.397805 -1.341951 -0.77937 -1.06066 -1.06066 c
-0.77937 -1.341951 -0.397805 -1.5 0 -1.5 c
cl

gsave
1.000 0.498 0.055 setrgbcolor
fill
grestore
stroke
grestore
} bind def
73.8327 237.047 o
74.4833 237.485 o
75.1339 237.255 o
75.7846 237.502 o
76.4352 237.298 o
77.0858 237.48 o
77.7364 237.614 o
78.387 237.699 o
79.0376 237.687 o
79.6882 237.834 o
80.3388 237.745 o
80.9894 238.034 o
81.6401 237.879 o
82.2907 237.907 o
82.9413 238.003 o
83.5919 238.431 o
84.2425 238.202 o
84.8931 238.223 o
85.5437 238.352 o
86.1943 238.571 o
86.8449 238.401 o
87.4955 238.679 o
88.1462 238.713 o
88.7968 238.886 o
89.4474 238.967 o
90.098 239.084 o
90.7486 239.048 o
91.3992 239.409 o
92.0498 239.287 o
92.7004 239.616 o
93.351 239.627 o
94.0016 239.756 o
94.6523 239.601 o
95.3029 239.949 o
95.9535 240.163 o
96.6041 240.214 o
97.2547 240.32 o
97.9053 240.239 o
98.5559 240.659 o
99.2065 240.74 o
99.8571 241.103 o
100.508 241.026 o
101.158 241.201 o
101.809 241.33 o
102.46 241.641 o
103.11 241.563 o
103.761 241.858 o
104.411 241.944 o
105.062 242.103 o
105.713 242.342 o
106.363 242.443 o
107.014 242.501 o
107.664 242.651 o
108.315 242.821 o
108.966 242.946 o
109.616 243.012 o
110.267 243.198 o
110.918 243.49 o
111.568 243.876 o
112.219 243.797 o
112.869 244.059 o
113.52 244.325 o
114.171 244.375 o
114.821 244.781 o
115.472 244.767 o
116.122 244.777 o
116.773 245.051 o
117.424 245.499 o
118.074 245.38 o
118.725 245.544 o
119.375 246.078 o
120.026 245.821 o
120.677 246.271 o
121.327 246.244 o
121.978 246.471 o
122.629 246.55 o
123.279 246.632 o
123.93 246.997 o
124.58 247.174 o
125.231 247.21 o
125.882 247.542 o
126.532 247.541 o
127.183 247.787 o
127.833 247.987 o
128.484 248.279 o
129.135 248.438 o
129.785 248.534 o
130.436 248.818 o
131.086 248.874 o
131.737 248.945 o
132.388 249.28 o
133.038 249.416 o
133.689 249.702 o
134.339 250.087 o
134.99 249.741 o
135.641 250.164 o
136.291 250.133 o
136.942 250.767 o
137.593 250.742 o
138.243 250.951 o
138.894 251.094 o
139.544 251.299 o
140.195 251.489 o
140.846 251.415 o
141.496 251.917 o
142.147 251.841 o
142.797 252.249 o
143.448 252.037 o
144.099 252.192 o
144.749 252.382 o
145.4 252.675 o
146.05 252.703 o
146.701 252.62 o
147.352 253.114 o
148.002 253.113 o
148.653 252.911 o
149.304 253.365 o
149.954 253.359 o
150.605 253.773 o
151.255 254.07 o
151.906 254.147 o
152.557 254.319 o
153.207 253.964 o
153.858 254.145 o
154.508 254.137 o
155.159 254.732 o
155.81 255.143 o
156.46 254.763 o
157.111 254.687 o
157.761 255.325 o
158.412 255.258 o
159.063 255.224 o
159.713 255.369 o
160.364 255.588 o
161.015 255.481 o
161.665 255.889 o
162.316 255.773 o
162.966 255.98 o
163.617 256.422 o
164.268 255.872 o
164.918 255.866 o
165.569 256.524 o
166.219 256.141 o
166.87 256.113 o
167.521 256.115 o
168.171 256.821 o
168.822 256.648 o
169.472 256.773 o
170.123 256.524 o
170.774 255.993 o
171.424 256.492 o
172.075 256.634 o
172.725 256.305 o
173.376 256.417 o
174.027 257.075 o
174.677 256.798 o
175.328 256.41 o
175.979 256.711 o
176.629 256.691 o
177.28 256.49 o
177.93 256.54 o
178.581 256.504 o
179.232 256.487 o
179.882 256.547 o
180.533 256.412 o
181.183 257.137 o
181.834 256.322 o
182.485 255.994 o
183.135 255.97 o
183.786 256.32 o
184.436 256.55 o
185.087 255.944 o
185.738 255.907 o
186.388 255.852 o
187.039 255.539 o
187.69 255.525 o
188.34 255.892 o
188.991 255.214 o
189.641 255.672 o
190.292 256.024 o
190.943 255.156 o
191.593 255.097 o
192.244 255.774 o
192.894 255.062 o
193.545 255.682 o
194.196 254.835 o
194.846 255.626 o
195.497 254.767 o
196.147 254.552 o
196.798 254.746 o
197.449 254.186 o
198.099 254.274 o
198.75 253.999 o
199.401 254.075 o
200.051 253.205 o
200.702 252.736 o
201.352 253.401 o
202.003 253.127 o
202.654 253.106 o
203.304 253.135 o
203.955 252.007 o
204.605 252.257 o
205.256 251.678 o
205.907 251.922 o
206.557 251.195 o
207.208 251.874 o
207.858 251.297 o
208.509 251.325 o
209.16 250.701 o
209.81 250.216 o
210.461 250.697 o
211.112 250.258 o
211.762 249.949 o
212.413 249.434 o
213.063 250.563 o
213.714 249.29 o
214.365 248.733 o
215.015 248.788 o
215.666 248.321 o
216.316 247.901 o
216.967 248.064 o
217.618 247.38 o
218.268 246.438 o
218.919 246.574 o
219.569 247.273 o
220.22 246.305 o
220.871 246.259 o
221.521 245.353 o
222.172 244.691 o
222.822 244.216 o
223.473 243.786 o
224.124 243.752 o
224.774 242.952 o
225.425 243.205 o
226.076 243.259 o
226.726 242.924 o
227.377 243.025 o
228.027 242.14 o
228.678 242.071 o
229.329 241.013 o
229.979 241.327 o
230.63 241.002 o
231.28 240.89 o
231.931 240.088 o
232.582 240.246 o
233.232 239.088 o
233.883 238.25 o
234.533 237.56 o
235.184 238.193 o
235.835 237.7 o
236.485 236.13 o
237.136 236.96 o
237.787 236.227 o
238.437 236.026 o
239.088 234.912 o
239.738 235.88 o
240.389 234.536 o
241.04 233.996 o
241.69 234.902 o
242.341 233.945 o
242.991 233.376 o
243.642 232.377 o
244.293 232.339 o
244.943 232.442 o
245.594 231.562 o
246.244 230.22 o
246.895 229.68 o
247.546 229.315 o
248.196 230.437 o
248.847 228.54 o
249.498 228.623 o
250.148 228.938 o
250.799 228.051 o
251.449 226.279 o
252.1 227.024 o
252.751 227.285 o
253.401 227.125 o
254.052 225.388 o
254.702 225.384 o
255.353 225.273 o
256.004 224.253 o
256.654 224.23 o
257.305 224.551 o
257.955 223.12 o
258.606 222.072 o
259.257 221.983 o
259.907 221.936 o
260.558 222.629 o
261.208 221.023 o
261.859 219.289 o
262.51 219.786 o
263.16 218.64 o
263.811 217.479 o
264.462 218.02 o
265.112 217.177 o
265.763 217.342 o
266.413 216.789 o
267.064 217.284 o
267.715 216.157 o
268.365 214.836 o
269.016 215.8 o
269.666 213.654 o
270.317 213.329 o
270.968 212.519 o
271.618 213.506 o
272.269 211.726 o
272.919 212.894 o
273.57 211.226 o
274.221 211.601 o
274.871 209.787 o
275.522 209.681 o
276.173 210.139 o
276.823 208.577 o
277.474 209.442 o
278.124 209.253 o
278.775 207.911 o
279.426 207.959 o
280.076 206.666 o
280.727 206.541 o
281.377 207.945 o
282.028 206.552 o
282.679 205.393 o
283.329 205.717 o
283.98 206.368 o
284.63 203.471 o
285.281 204.458 o
285.932 204.309 o
286.582 204.013 o
287.233 203.409 o
287.884 202.34 o
288.534 202.356 o
289.185 201.204 o
289.835 201.844 o
290.486 201.213 o
291.137 201.192 o
291.787 199.909 o
292.438 201.198 o
293.088 201.183 o
293.739 199.395 o
294.39 198.439 o
295.04 199.319 o
295.691 199.166 o
296.341 197.803 o
296.992 198.244 o
297.643 198.964 o
298.293 197.302 o
298.944 198.568 o
299.595 196.201 o
300.245 196.119 o
300.896 195.813 o
301.546 194.778 o
302.197 195.771 o
302.848 195.517 o
303.498 194.477 o
304.149 194.232 o
304.799 194.373 o
305.45 194.219 o
306.101 193.702 o
306.751 195.127 o
307.402 193.617 o
308.052 194.294 o
308.703 194.76 o
309.354 192.525 o
310.004 192.405 o
310.655 194.554 o
311.305 192.132 o
311.956 192.968 o
312.607 193.697 o
313.257 191.26 o
313.908 190.966 o
314.559 191.948 o
315.209 191.762 o
315.86 192.603 o
316.51 191.023 o
317.161 189.854 o
317.812 190.569 o
318.462 190.836 o
319.113 190.259 o
319.763 190.172 o
320.414 190.898 o
321.065 192.24 o
321.715 191.257 o
322.366 191.143 o
323.016 190.309 o
323.667 188.666 o
324.318 189.842 o
324.968 190.99 o
325.619 189.115 o
326.27 191.062 o
326.92 191.364 o
327.571 191.136 o
328.221 189.875 o
328.872 189.178 o
329.523 190.056 o
330.173 189.381 o
330.824 190.507 o
331.474 190.46 o
332.125 190.178 o
332.776 191.53 o
333.426 190.044 o
334.077 190.179 o
334.727 191.027 o
335.378 192.344 o
336.029 191.192 o
336.679 190.425 o
337.33 190.444 o
337.981 191.079 o
338.631 191.27 o
339.282 191.381 o
339.932 192.311 o
340.583 191.797 o
341.234 190.843 o
341.884 190.689 o
342.535 191.967 o
343.185 192.815 o
343.836 190.25 o
344.487 192.275 o
345.137 193.032 o
345.788 195.343 o
346.438 194.084 o
347.089 195.974 o
347.74 194.423 o
348.39 196.107 o
349.041 193.836 o
349.691 196.439 o
350.342 194.673 o
350.993 195.189 o
351.643 195.156 o
352.294 197.285 o
352.945 196.702 o
353.595 198.754 o
354.246 197.141 o
354.896 198.993 o
355.547 197.335 o
356.198 197.734 o
356.848 200.037 o
357.499 197.866 o
358.149 200.377 o
358.8 199.85 o
359.451 201.397 o
360.101 200.011 o
360.752 199.772 o
361.402 201.138 o
362.053 203.832 o
362.704 202.749 o
363.354 203.681 o
364.005 204.977 o
364.656 204.456 o
365.306 204.181 o
365.957 204.904 o
366.607 206.225 o
367.258 206.492 o
367.909 206.031 o
368.559 205.548 o
369.21 206.146 o
369.86 209.766 o
370.511 207.129 o
371.162 208.299 o
371.812 209.356 o
372.463 209.479 o
373.113 211.329 o
373.764 212.162 o
374.415 212.198 o
375.065 213.149 o
375.716 213.921 o
376.367 213.625 o
377.017 216.392 o
377.668 215.989 o
378.318 217.04 o
378.969 215.281 o
379.62 215.124 o
380.27 218.478 o
380.921 219.366 o
381.571 218.461 o
382.222 218.857 o
382.873 218.901 o
383.523 221.746 o
384.174 221.503 o
384.824 221.981 o
385.475 223.536 o
386.126 224.731 o
386.776 223.442 o
387.427 224.096 o
388.078 226.028 o
388.728 226.691 o
389.379 226.049 o
390.029 229.699 o
390.68 227.338 o
391.331 230.229 o
391.981 230.013 o
392.632 228.827 o
393.282 232.048 o
393.933 232.019 o
394.584 232.905 o
395.234 231.693 o
395.885 233.908 o
396.535 233.761 o
397.186 234.17 o
397.837 237.132 o
398.487 236.418 o
grestore
0.173 0.627 0.173 setrgbcolor
gsave
357.1 121 57.6 183.2 clipbox
/o {
gsave
newpath
translate
1.0 setlinewidth
1 setlinejoin
0 setlinecap
0 -1.5 m
0.397805 -1.5 0.77937 -1.341951 1.06066 -1.06066 c
1.341951 -0.77937 1.5 -0.397805 1.5 0 c
1.5 0.397805 1.341951 0.77937 1.06066 1.06066 c
0.77937 1.341951 0.397805 1.5 0 1.5 c
-0.397805 1.5 -0.77937 1.341951 -1.06066 1.06066 c
-1.341951 0.77937 -1.5 0.397805 -1.5 0 c
-1.5 -0.397805 -1.341951 -0.77937 -1.06066 -1.06066 c
-0.77937 -1.341951 -0.397805 -1.5 0 -1.5 c
cl

gsave
0.173 0.627 0.173 setrgbcolor
fill
grestore
stroke
grestore
} bind def
73.8327 240.205 o
74.4833 240.342 o
75.1339 240.463 o
75.7846 240.412 o
76.4352 240.484 o
77.0858 240.831 o
77.7364 241.145 o
78.387 240.955 o
79.0376 241.292 o
79.6882 241.388 o
80.3388 241.302 o
80.9894 241.357 o
81.6401 241.356 o
82.2907 241.74 o
82.9413 241.824 o
83.5919 241.798 o
84.2425 241.922 o
84.8931 241.955 o
85.5437 242.163 o
86.1943 242.133 o
86.8449 242.519 o
87.4955 242.374 o
88.1462 242.616 o
88.7968 242.572 o
89.4474 242.961 o
90.098 243.266 o
90.7486 243.11 o
91.3992 243.33 o
92.0498 243.341 o
92.7004 243.785 o
93.351 243.611 o
94.0016 243.85 o
94.6523 243.617 o
95.3029 244.226 o
95.9535 243.581 o
96.6041 244.531 o
97.2547 244.407 o
97.9053 244.4 o
98.5559 244.577 o
99.2065 244.507 o
99.8571 244.826 o
100.508 245.058 o
101.158 244.547 o
101.809 244.912 o
102.46 244.939 o
103.11 245.484 o
103.761 245.656 o
104.411 245.744 o
105.062 245.849 o
105.713 245.62 o
106.363 245.988 o
107.014 246.214 o
107.664 246.212 o
108.315 246.422 o
108.966 246.439 o
109.616 246.704 o
110.267 246.329 o
110.918 247.15 o
111.568 247.286 o
112.219 246.977 o
112.869 247.026 o
113.52 247.029 o
114.171 247.232 o
114.821 247.247 o
115.472 247.339 o
116.122 247.498 o
116.773 247.653 o
117.424 248.177 o
118.074 248.579 o
118.725 247.733 o
119.375 248.429 o
120.026 247.928 o
120.677 248.403 o
121.327 248.517 o
121.978 248.548 o
122.629 248.835 o
123.279 248.889 o
123.93 249.023 o
124.58 249.506 o
125.231 248.976 o
125.882 249.118 o
126.532 249.423 o
127.183 249.539 o
127.833 249.778 o
128.484 249.884 o
129.135 250.279 o
129.785 250.083 o
130.436 250.016 o
131.086 251.043 o
131.737 250.311 o
132.388 250.708 o
133.038 250.211 o
133.689 250.987 o
134.339 250.486 o
134.99 250.74 o
135.641 251.183 o
136.291 251.214 o
136.942 251.05 o
137.593 251.458 o
138.243 251.647 o
138.894 252.082 o
139.544 251.444 o
140.195 252.555 o
140.846 251.974 o
141.496 252.494 o
142.147 252.283 o
142.797 252.882 o
143.448 252.342 o
144.099 252.196 o
144.749 252.763 o
145.4 253.256 o
146.05 252.369 o
146.701 252.765 o
147.352 253.013 o
148.002 253.383 o
148.653 253.214 o
149.304 253.411 o
149.954 253.493 o
150.605 253.329 o
151.255 254.132 o
151.906 253.524 o
152.557 254.119 o
153.207 253.662 o
153.858 253.796 o
154.508 254.207 o
155.159 254.793 o
155.81 254.871 o
156.46 254.741 o
157.111 255.034 o
157.761 255.149 o
158.412 254.962 o
159.063 255.234 o
159.713 254.755 o
160.364 255.519 o
161.015 255.24 o
161.665 255.863 o
162.316 255.953 o
162.966 255.505 o
163.617 256.632 o
164.268 256.592 o
164.918 256.441 o
165.569 256.59 o
166.219 256.416 o
166.87 256.331 o
167.521 256.089 o
168.171 257.218 o
168.822 257.233 o
169.472 257.559 o
170.123 258 o
170.774 256.954 o
171.424 257.468 o
172.075 258.228 o
172.725 257.966 o
173.376 257.935 o
174.027 258.193 o
174.677 257.378 o
175.328 258.213 o
175.979 258.18 o
176.629 259.008 o
177.28 258.174 o
177.93 259.154 o
178.581 259.311 o
179.232 258.741 o
179.882 258.447 o
180.533 259.135 o
181.183 259.839 o
181.834 259.349 o
182.485 258.682 o
183.135 259.142 o
183.786 259.08 o
184.436 260.11 o
185.087 259.566 o
185.738 259.572 o
186.388 259.414 o
187.039 260.465 o
187.69 259.887 o
188.34 260.541 o
188.991 260.617 o
189.641 260.598 o
190.292 261.32 o
190.943 261.029 o
191.593 261.334 o
192.244 261.75 o
192.894 261.131 o
193.545 261.542 o
194.196 261.443 o
194.846 262.488 o
195.497 262.225 o
196.147 261.921 o
196.798 262.493 o
197.449 262.649 o
198.099 262.943 o
198.75 262.426 o
199.401 262.467 o
200.051 262.566 o
200.702 262.496 o
201.352 263.32 o
202.003 262.675 o
202.654 262.416 o
203.304 263.598 o
203.955 262.816 o
204.605 264.079 o
205.256 263.44 o
205.907 263.121 o
206.557 262.661 o
207.208 264.16 o
207.858 263.689 o
208.509 264.177 o
209.16 264.113 o
209.81 264.66 o
210.461 263.968 o
211.112 265.182 o
211.762 264.614 o
212.413 263.941 o
213.063 265.561 o
213.714 265.217 o
214.365 266.031 o
215.015 265.534 o
215.666 265.342 o
216.316 265.401 o
216.967 265.584 o
217.618 265.329 o
218.268 265.249 o
218.919 265.543 o
219.569 267.362 o
220.22 266.713 o
220.871 265.808 o
221.521 265.929 o
222.172 266.039 o
222.822 266.636 o
223.473 266.329 o
224.124 266.462 o
224.774 265.739 o
225.425 268.288 o
226.076 266.898 o
226.726 267.949 o
227.377 268.01 o
228.027 267.778 o
228.678 267.976 o
229.329 266.183 o
229.979 268.074 o
230.63 269.035 o
231.28 268.65 o
231.931 268.273 o
232.582 268.809 o
233.232 268.058 o
233.883 267.827 o
234.533 268.998 o
235.184 268.866 o
235.835 268.252 o
236.485 268.534 o
237.136 269.211 o
237.787 269.188 o
238.437 269.377 o
239.088 269.944 o
239.738 270.084 o
240.389 269.404 o
241.04 269.491 o
241.69 269.871 o
242.341 270.184 o
242.991 270.547 o
243.642 268.915 o
244.293 270.479 o
244.943 272.363 o
245.594 270.199 o
246.244 270.901 o
246.895 271.029 o
247.546 270.802 o
248.196 271.469 o
248.847 271.374 o
249.498 271.097 o
250.148 272.258 o
250.799 271.729 o
251.449 271.479 o
252.1 271.488 o
252.751 272.294 o
253.401 272.347 o
254.052 271.304 o
254.702 273.134 o
255.353 274.066 o
256.004 271.971 o
256.654 272.647 o
257.305 272.622 o
257.955 272.303 o
258.606 273.523 o
259.257 273.331 o
259.907 273.366 o
260.558 273.572 o
261.208 273.243 o
261.859 271.772 o
262.51 274.589 o
263.16 272.647 o
263.811 272.533 o
264.462 273.303 o
265.112 273.79 o
265.763 274.489 o
266.413 273.378 o
267.064 273.883 o
267.715 275.181 o
268.365 274.568 o
269.016 274.731 o
269.666 274.059 o
270.317 274.933 o
270.968 273.825 o
271.618 275.006 o
272.269 274.135 o
272.919 275.175 o
273.57 275.397 o
274.221 275.287 o
274.871 275.029 o
275.522 275.352 o
276.173 277.119 o
276.823 276.298 o
277.474 277.748 o
278.124 275.99 o
278.775 277.251 o
279.426 276.628 o
280.076 277.391 o
280.727 275.573 o
281.377 276.584 o
282.028 277.331 o
282.679 276.99 o
283.329 278.419 o
283.98 278.774 o
284.63 277.641 o
285.281 277.885 o
285.932 278.725 o
286.582 277.441 o
287.233 277.607 o
287.884 278.821 o
288.534 277.911 o
289.185 279.793 o
289.835 278.58 o
290.486 277.726 o
291.137 279.131 o
291.787 279.061 o
292.438 277.72 o
293.088 279.293 o
293.739 279.114 o
294.39 280.047 o
295.04 278.46 o
295.691 278.858 o
296.341 279.824 o
296.992 279.01 o
297.643 279.857 o
298.293 279.757 o
298.944 279.501 o
299.595 279.827 o
300.245 280.848 o
300.896 281.084 o
301.546 280.011 o
302.197 280.796 o
302.848 281.182 o
303.498 279.754 o
304.149 281.376 o
304.799 282.165 o
305.45 279.618 o
306.101 281.944 o
306.751 282.331 o
307.402 281.184 o
308.052 280.837 o
308.703 280.934 o
309.354 282.923 o
310.004 281.303 o
310.655 279.666 o
311.305 281.618 o
311.956 281.503 o
312.607 282.384 o
313.257 282.965 o
313.908 282.328 o
314.559 281.826 o
315.209 283.8 o
315.86 283.92 o
316.51 283.128 o
317.161 281.925 o
317.812 281.824 o
318.462 283.159 o
319.113 283.396 o
319.763 284.199 o
320.414 284.178 o
321.065 284.917 o
321.715 285.346 o
322.366 285.131 o
323.016 284.381 o
323.667 282.673 o
324.318 285.591 o
324.968 285.976 o
325.619 283.524 o
326.27 283.452 o
326.92 284.752 o
327.571 285.627 o
328.221 283.326 o
328.872 283.899 o
329.523 286.632 o
330.173 283.961 o
330.824 287.284 o
331.474 285.972 o
332.125 285.739 o
332.776 286.533 o
333.426 286.902 o
334.077 285.923 o
334.727 286.416 o
335.378 285.741 o
336.029 289.024 o
336.679 287.744 o
337.33 288.191 o
337.981 285.999 o
338.631 288.804 o
339.282 288.332 o
339.932 287.177 o
340.583 287.413 o
341.234 287.449 o
341.884 286.383 o
342.535 286.807 o
343.185 287.89 o
343.836 287.904 o
344.487 288.743 o
345.137 290.063 o
345.788 288.882 o
346.438 287.012 o
347.089 288.967 o
347.74 288.988 o
348.39 290.233 o
349.041 289.989 o
349.691 288.841 o
350.342 289.975 o
350.993 289.252 o
351.643 289.734 o
352.294 291.438 o
352.945 289.394 o
353.595 290.213 o
354.246 289.31 o
354.896 290.426 o
355.547 290.144 o
356.198 289.388 o
356.848 291.448 o
357.499 289.916 o
358.149 292.019 o
358.8 290.5 o
359.451 290.235 o
360.101 289.12 o
360.752 288.224 o
361.402 291.894 o
362.053 290.505 o
362.704 289.937 o
363.354 292.817 o
364.005 291.604 o
364.656 291.226 o
365.306 291.531 o
365.957 292.498 o
366.607 290.937 o
367.258 293.475 o
367.909 291.625 o
368.559 292.009 o
369.21 291.035 o
369.86 293.41 o
370.511 293.472 o
371.162 293.795 o
371.812 292.907 o
372.463 293.108 o
373.113 293.701 o
373.764 295.657 o
374.415 295.985 o
375.065 294.488 o
375.716 294.112 o
376.367 294.268 o
377.017 294.448 o
377.668 292.537 o
378.318 293.443 o
378.969 293.346 o
379.62 295.088 o
380.27 295.923 o
380.921 295.703 o
381.571 295.296 o
382.222 295.554 o
382.873 295.087 o
383.523 293.867 o
384.174 295.294 o
384.824 294.716 o
385.475 297.957 o
386.126 298.109 o
386.776 296.985 o
387.427 296.675 o
388.078 295.207 o
388.728 295.622 o
389.379 297.146 o
390.029 295.362 o
390.68 295.167 o
391.331 298.19 o
391.981 296.108 o
392.632 296.315 o
393.282 296.21 o
393.933 297.804 o
394.584 298.352 o
395.234 294.293 o
395.885 296.922 o
396.535 297.821 o
397.186 297.832 o
397.837 297.304 o
398.487 295.606 o
grestore
1.500 setlinewidth
2 setlinecap
0.839 0.153 0.157 setrgbcolor
gsave
357.1 121 57.6 183.2 clipbox
73.832727 240.151078 m
84.893103 242.005006 l
92.700426 243.091344 l
99.206529 243.784715 l
105.062022 244.204636 l
110.917515 244.401898 l
116.122398 244.371158 l
121.32728 244.132648 l
126.532163 243.676696 l
131.737045 242.997336 l
136.941927 242.092469 l
142.14681 240.963984 l
147.351692 239.617804 l
153.207185 237.855696 l
159.062678 235.850963 l
165.568781 233.371112 l
172.725495 230.388242 l
181.183429 226.612886 l
208.509062 214.210368 l
215.015165 211.616051 l
220.870658 209.527643 l
226.07554 207.910897 l
230.629812 206.709689 l
235.184085 205.730513 l
239.738357 204.993496 l
243.642019 204.568408 l
247.54568 204.344973 l
251.449342 204.33224 l
255.353004 204.537925 l
259.256666 204.968325 l
263.160328 205.628237 l
267.06399 206.520892 l
270.967652 207.647893 l
274.871314 209.009172 l
278.774975 210.602951 l
282.678637 212.425719 l
286.582299 214.472219 l
291.136571 217.133141 l
295.690844 220.074898 l
300.245116 223.280254 l
305.449998 227.240122 l
310.654881 231.482707 l
316.510373 236.543983 l
323.667087 243.055152 l
333.426242 252.290032 l
349.040889 267.085711 l
355.546992 272.942848 l
361.402485 277.917872 l
366.607367 282.03472 l
371.16164 285.354774 l
375.715912 288.373344 l
379.619574 290.694499 l
383.523236 292.748231 l
387.426897 294.51534 l
390.679949 295.756136 l
393.933001 296.776124 l
397.186052 297.566718 l
398.487273 297.81697 l
398.487273 297.81697 l
stroke
grestore
0.580 0.404 0.741 setrgbcolor
gsave
357.1 121 57.6 183.2 clipbox
73.832727 237.267783 m
79.68822 237.711443 l
85.543713 238.383127 l
91.399206 239.269712 l
97.905309 240.483775 l
105.062022 242.058427 l
113.519956 244.168569 l
125.881552 247.52114 l
139.544369 251.17693 l
147.351692 253.035525 l
153.857796 254.361165 l
159.713288 255.329858 l
164.918171 255.979533 l
170.123053 256.404015 l
174.677326 256.572964 l
179.231598 256.539087 l
183.78587 256.291216 l
188.340142 255.820343 l
192.894414 255.119774 l
197.448686 254.185267 l
202.002959 253.015133 l
206.557231 251.610324 l
211.111503 249.974486 l
215.665775 248.113989 l
220.870658 245.724399 l
226.07554 243.071214 l
231.280423 240.17678 l
237.135915 236.66551 l
243.642019 232.499446 l
251.449342 227.227342 l
267.06399 216.318408 l
276.172534 210.119641 l
282.678637 205.943809 l
288.53413 202.452792 l
293.739013 199.618172 l
298.293285 197.382281 l
302.847557 195.404777 l
306.751219 193.936134 l
310.654881 192.693429 l
314.558543 191.69155 l
318.462204 190.944083 l
321.715256 190.524362 l
324.968308 190.296029 l
328.221359 190.264533 l
331.474411 190.434502 l
334.727462 190.809707 l
337.980514 191.393025 l
341.233565 192.186415 l
344.486617 193.19089 l
347.739668 194.406501 l
350.99272 195.832315 l
354.245772 197.466407 l
358.149433 199.698054 l
362.053095 202.218397 l
365.956757 205.018404 l
369.860419 208.086995 l
373.764081 211.411074 l
378.318353 215.591874 l
382.872625 220.072665 l
388.077508 225.521597 l
393.933001 232.009041 l
398.487273 237.267783 l
398.487273 237.267783 l
stroke
grestore
0.549 0.337 0.294 setrgbcolor
gsave
357.1 121 57.6 183.2 clipbox
73.832727 240.151078 m
398.487273 297.81697 l
398.487273 297.81697 l
stroke
grestore
0.800 setlinewidth
0 setlinejoin
[] 0 setdash
0.000 setgray
gsave
57.6 183.168 m
57.6 304.128 l
stroke
grestore
gsave
414.72 183.168 m
414.72 304.128 l
stroke
grestore
gsave
57.6 183.168 m
414.72 183.168 l
stroke
grestore
gsave
57.6 304.128 m
414.72 304.128 l
stroke
grestore
1.000 setlinewidth
0 setlinecap
0.800 setgray
gsave
64.6 252.112375 m
102.521875 252.112375 l
103.855208 252.112375 104.521875 252.779042 104.521875 254.112375 c
104.521875 297.128 l
104.521875 298.461333 103.855208 299.128 102.521875 299.128 c
64.6 299.128 l
63.266667 299.128 62.6 298.461333 62.6 297.128 c
62.6 254.112375 l
62.6 252.779042 63.266667 252.112375 64.6 252.112375 c
cl
gsave
1.000 setgray
fill
grestore
stroke
grestore
1 setlinejoin
[] 0 setdash
0.122 0.467 0.706 setrgbcolor
gsave
/o {
gsave
newpath
translate
1.0 setlinewidth
1 setlinejoin
0 setlinecap
0 -1.5 m
0.397805 -1.5 0.77937 -1.341951 1.06066 -1.06066 c
1.341951 -0.77937 1.5 -0.397805 1.5 0 c
1.5 0.397805 1.341951 0.77937 1.06066 1.06066 c
0.77937 1.341951 0.397805 1.5 0 1.5 c
-0.397805 1.5 -0.77937 1.341951 -1.06066 1.06066 c
-1.341951 0.77937 -1.5 0.397805 -1.5 0 c
-1.5 -0.397805 -1.341951 -0.77937 -1.06066 -1.06066 c
-0.77937 -1.341951 -0.397805 -1.5 0 -1.5 c
cl

gsave
0.122 0.467 0.706 setrgbcolor
fill
grestore
stroke
grestore
} bind def
76.6 291.034 o
grestore
0.000 setgray
gsave
94.600000 287.534250 translate
0.000000 rotate
0.000000 0.000000 m /x glyphshow
grestore
1.000 0.498 0.055 setrgbcolor
gsave
/o {
gsave
newpath
translate
1.0 setlinewidth
1 setlinejoin
0 setlinecap
0 -1.5 m
0.397805 -1.5 0.77937 -1.341951 1.06066 -1.06066 c
1.341951 -0.77937 1.5 -0.397805 1.5 0 c
1.5 0.397805 1.341951 0.77937 1.06066 1.06066 c
0.77937 1.341951 0.397805 1.5 0 1.5 c
-0.397805 1.5 -0.77937 1.341951 -1.06066 1.06066 c
-1.341951 0.77937 -1.5 0.397805 -1.5 0 c
-1.5 -0.397805 -1.341951 -0.77937 -1.06066 -1.06066 c
-0.77937 -1.341951 -0.397805 -1.5 0 -1.5 c
cl

gsave
1.000 0.498 0.055 setrgbcolor
fill
grestore
stroke
grestore
} bind def
76.6 276.362 o
grestore
0.000 setgray
gsave
94.600000 272.862375 translate
0.000000 rotate
0.000000 0.000000 m /y glyphshow
grestore
0.173 0.627 0.173 setrgbcolor
gsave
/o {
gsave
newpath
translate
1.0 setlinewidth
1 setlinejoin
0 setlinecap
0 -1.5 m
0.397805 -1.5 0.77937 -1.341951 1.06066 -1.06066 c
1.341951 -0.77937 1.5 -0.397805 1.5 0 c
1.5 0.397805 1.341951 0.77937 1.06066 1.06066 c
0.77937 1.341951 0.397805 1.5 0 1.5 c
-0.397805 1.5 -0.77937 1.341951 -1.06066 1.06066 c
-1.341951 0.77937 -1.5 0.397805 -1.5 0 c
-1.5 -0.397805 -1.341951 -0.77937 -1.06066 -1.06066 c
-0.77937 -1.341951 -0.397805 -1.5 0 -1.5 c
cl

gsave
0.173 0.627 0.173 setrgbcolor
fill
grestore
stroke
grestore
} bind def
76.6 261.69 o
grestore
0.000 setgray
gsave
94.600000 258.190500 translate
0.000000 rotate
0.000000 0.000000 m /z glyphshow
grestore
gsave
57.6 38.016 m
414.72 38.016 l
414.72 158.976 l
57.6 158.976 l
cl
1.000 setgray
fill
grestore
0.800 setlinewidth
2 setlinecap
0.690 setgray
gsave
357.1 121 57.6 38.02 clipbox
73.832727 38.016 m
73.832727 158.976 l
stroke
grestore
0 setlinecap
0.000 setgray
gsave
/o {
gsave
newpath
translate
0.8 setlinewidth
1 setlinejoin
0 setlinecap
0 0 m
0 -3.5 l

gsave
0.000 setgray
fill
grestore
stroke
grestore
} bind def
73.8327 38.016 o
grestore
gsave
70.653040 23.422250 translate
0.000000 rotate
0.000000 0.000000 m /zero glyphshow
grestore
2 setlinecap
0.690 setgray
gsave
357.1 121 57.6 38.02 clipbox
138.893758 38.016 m
138.893758 158.976 l
stroke
grestore
0 setlinecap
0.000 setgray
gsave
/o {
gsave
newpath
translate
0.8 setlinewidth
1 setlinejoin
0 setlinecap
0 0 m
0 -3.5 l

gsave
0.000 setgray
fill
grestore
stroke
grestore
} bind def
138.894 38.016 o
grestore
gsave
129.354696 23.422250 translate
0.000000 rotate
0.000000 0.000000 m /one glyphshow
6.362305 0.000000 m /zero glyphshow
12.724609 0.000000 m /zero glyphshow
grestore
2 setlinecap
0.690 setgray
gsave
357.1 121 57.6 38.02 clipbox
203.95479 38.016 m
203.95479 158.976 l
stroke
grestore
0 setlinecap
0.000 setgray
gsave
/o {
gsave
newpath
translate
0.8 setlinewidth
1 setlinejoin
0 setlinecap
0 0 m
0 -3.5 l

gsave
0.000 setgray
fill
grestore
stroke
grestore
} bind def
203.955 38.016 o
grestore
gsave
194.415727 23.422250 translate
0.000000 rotate
0.000000 0.000000 m /two glyphshow
6.362305 0.000000 m /zero glyphshow
12.724609 0.000000 m /zero glyphshow
grestore
2 setlinecap
0.690 setgray
gsave
357.1 121 57.6 38.02 clipbox
269.015821 38.016 m
269.015821 158.976 l
stroke
grestore
0 setlinecap
0.000 setgray
gsave
/o {
gsave
newpath
translate
0.8 setlinewidth
1 setlinejoin
0 setlinecap
0 0 m
0 -3.5 l

gsave
0.000 setgray
fill
grestore
stroke
grestore
} bind def
269.016 38.016 o
grestore
gsave
259.476758 23.422250 translate
0.000000 rotate
0.000000 0.000000 m /three glyphshow
6.362305 0.000000 m /zero glyphshow
12.724609 0.000000 m /zero glyphshow
grestore
2 setlinecap
0.690 setgray
gsave
357.1 121 57.6 38.02 clipbox
334.076852 38.016 m
334.076852 158.976 l
stroke
grestore
0 setlinecap
0.000 setgray
gsave
/o {
gsave
newpath
translate
0.8 setlinewidth
1 setlinejoin
0 setlinecap
0 0 m
0 -3.5 l

gsave
0.000 setgray
fill
grestore
stroke
grestore
} bind def
334.077 38.016 o
grestore
gsave
324.537789 23.422250 translate
0.000000 rotate
0.000000 0.000000 m /four glyphshow
6.362305 0.000000 m /zero glyphshow
12.724609 0.000000 m /zero glyphshow
grestore
2 setlinecap
0.690 setgray
gsave
357.1 121 57.6 38.02 clipbox
399.137883 38.016 m
399.137883 158.976 l
stroke
grestore
0 setlinecap
0.000 setgray
gsave
/o {
gsave
newpath
translate
0.8 setlinewidth
1 setlinejoin
0 setlinecap
0 0 m
0 -3.5 l

gsave
0.000 setgray
fill
grestore
stroke
grestore
} bind def
399.138 38.016 o
grestore
gsave
389.598821 23.422250 translate
0.000000 rotate
0.000000 0.000000 m /five glyphshow
6.362305 0.000000 m /zero glyphshow
12.724609 0.000000 m /zero glyphshow
grestore
gsave
217.410000 9.750375 translate
0.000000 rotate
0.000000 0.000000 m /S glyphshow
6.347656 0.000000 m /a glyphshow
12.475586 0.000000 m /m glyphshow
22.216797 0.000000 m /p glyphshow
28.564453 0.000000 m /l glyphshow
31.342773 0.000000 m /e glyphshow
grestore
2 setlinecap
0.690 setgray
gsave
357.1 121 57.6 38.02 clipbox
57.6 67.775017 m
414.72 67.775017 l
stroke
grestore
0 setlinecap
0.000 setgray
gsave
/o {
gsave
newpath
translate
0.8 setlinewidth
1 setlinejoin
0 setlinecap
0 0 m
-3.5 0 l

gsave
0.000 setgray
fill
grestore
stroke
grestore
} bind def
57.6 67.775 o
grestore
gsave
23.146875 63.978142 translate
0.000000 rotate
0.000000 0.000000 m /minus glyphshow
8.378906 0.000000 m /one glyphshow
14.741211 0.000000 m /zero glyphshow
21.103516 0.000000 m /zero glyphshow
grestore
2 setlinecap
0.690 setgray
gsave
357.1 121 57.6 38.02 clipbox
57.6 98.707723 m
414.72 98.707723 l
stroke
grestore
0 setlinecap
0.000 setgray
gsave
/o {
gsave
newpath
translate
0.8 setlinewidth
1 setlinejoin
0 setlinecap
0 0 m
-3.5 0 l

gsave
0.000 setgray
fill
grestore
stroke
grestore
} bind def
57.6 98.7077 o
grestore
gsave
44.240625 94.910848 translate
0.000000 rotate
0.000000 0.000000 m /zero glyphshow
grestore
2 setlinecap
0.690 setgray
gsave
357.1 121 57.6 38.02 clipbox
57.6 129.64043 m
414.72 129.64043 l
stroke
grestore
0 setlinecap
0.000 setgray
gsave
/o {
gsave
newpath
translate
0.8 setlinewidth
1 setlinejoin
0 setlinecap
0 0 m
-3.5 0 l

gsave
0.000 setgray
fill
grestore
stroke
grestore
} bind def
57.6 129.64 o
grestore
gsave
31.521875 125.843555 translate
0.000000 rotate
0.000000 0.000000 m /one glyphshow
6.362305 0.000000 m /zero glyphshow
12.724609 0.000000 m /zero glyphshow
grestore
gsave
17.068750 51.050687 translate
90.000000 rotate
0.000000 0.000000 m /E glyphshow
6.318359 0.000000 m /u glyphshow
12.656250 0.000000 m /l glyphshow
15.434570 0.000000 m /e glyphshow
21.586914 0.000000 m /r glyphshow
25.698242 0.000000 m /space glyphshow
28.876953 0.000000 m /a glyphshow
35.004883 0.000000 m /n glyphshow
41.342773 0.000000 m /g glyphshow
47.690430 0.000000 m /l glyphshow
50.468750 0.000000 m /e glyphshow
56.621094 0.000000 m /s glyphshow
61.831055 0.000000 m /space glyphshow
65.009766 0.000000 m /space glyphshow
68.188477 0.000000 m /bracketleft glyphshow
72.089844 0.000000 m /d glyphshow
78.437500 0.000000 m /e glyphshow
84.589844 0.000000 m /g glyphshow
90.937500 0.000000 m /bracketright glyphshow
grestore
1.000 setlinewidth
0.122 0.467 0.706 setrgbcolor
gsave
357.1 121 57.6 38.02 clipbox
/o {
gsave
newpath
translate
1.0 setlinewidth
1 setlinejoin
0 setlinecap
0 -1.5 m
0.397805 -1.5 0.77937 -1.341951 1.06066 -1.06066 c
1.341951 -0.77937 1.5 -0.397805 1.5 0 c
1.5 0.397805 1.341951 0.77937 1.06066 1.06066 c
0.77937 1.341951 0.397805 1.5 0 1.5 c
-0.397805 1.5 -0.77937 1.341951 -1.06066 1.06066 c
-1.341951 0.77937 -1.5 0.397805 -1.5 0 c
-1.5 -0.397805 -1.341951 -0.77937 -1.06066 -1.06066 c
-0.77937 -1.341951 -0.397805 -1.5 0 -1.5 c
cl

gsave
0.122 0.467 0.706 setrgbcolor
fill
grestore
stroke
grestore
} bind def
73.8327 97.7999 o
74.4833 99.9869 o
75.1339 97.8317 o
75.7846 99.5626 o
76.4352 97.8586 o
77.0858 96.7954 o
77.7364 98.2579 o
78.387 98.6645 o
79.0376 97.1926 o
79.6882 98.4793 o
80.3388 97.3186 o
80.9894 98.5666 o
81.6401 98.8888 o
82.2907 98.2652 o
82.9413 98.354 o
83.5919 99.8554 o
84.2425 98.0341 o
84.8931 98.5283 o
85.5437 97.8253 o
86.1943 98.5733 o
86.8449 96.3712 o
87.4955 99.2234 o
88.1462 97.7337 o
88.7968 99.6797 o
89.4474 96.0682 o
90.098 95.6624 o
90.7486 96.8871 o
91.3992 98.6549 o
92.0498 95.4852 o
92.7004 97.0406 o
93.351 96.2826 o
94.0016 96.6846 o
94.6523 97.049 o
95.3029 95.365 o
95.9535 99.8016 o
96.6041 94.8653 o
97.2547 95.5702 o
97.9053 94.7727 o
98.5559 96.57 o
99.2065 96.186 o
99.8571 96.0574 o
100.508 97.1537 o
101.158 98.688 o
101.809 98.0402 o
102.46 98.308 o
103.11 95.0948 o
103.761 95.7113 o
104.411 95.4086 o
105.062 96.9716 o
105.713 96.564 o
106.363 96.1228 o
107.014 95.299 o
107.664 95.1954 o
108.315 94.2804 o
108.966 95.8032 o
109.616 92.9821 o
110.267 95.6964 o
110.918 94.335 o
111.568 93.7044 o
112.219 94.1392 o
112.869 96.7304 o
113.52 96.9335 o
114.171 96.9616 o
114.821 97.0674 o
115.472 97.0561 o
116.122 96.4962 o
116.773 94.0668 o
117.424 95.091 o
118.074 92.2342 o
118.725 98.0273 o
119.375 95.0071 o
120.026 94.9632 o
120.677 96.8078 o
121.327 93.4971 o
121.978 95.0831 o
122.629 92.7888 o
123.279 94.9237 o
123.93 94.4951 o
124.58 93.1302 o
125.231 92.3903 o
125.882 95.3945 o
126.532 92.2517 o
127.183 92.3851 o
127.833 95.9635 o
128.484 94.8759 o
129.135 88.844 o
129.785 93.7465 o
130.436 94.9007 o
131.086 89.6984 o
131.737 91.6638 o
132.388 93.4537 o
133.038 95.5476 o
133.689 91.8475 o
134.339 95.0047 o
134.99 91.6026 o
135.641 92.2704 o
136.291 90.0985 o
136.942 94.6623 o
137.593 93.4765 o
138.243 90.9595 o
138.894 91.619 o
139.544 95.2272 o
140.195 90.003 o
140.846 93.6469 o
141.496 88.5234 o
142.147 92.4841 o
142.797 89.7014 o
143.448 95.5585 o
144.099 95.6159 o
144.749 92.4093 o
145.4 88.4547 o
146.05 96.356 o
146.701 93.2184 o
147.352 93.29 o
148.002 93.0794 o
148.653 94.738 o
149.304 92.9904 o
149.954 92.0783 o
150.605 94.0003 o
151.255 90.7842 o
151.906 93.435 o
152.557 92.3035 o
153.207 96.3414 o
153.858 90.6281 o
154.508 89.7225 o
155.159 91.2059 o
155.81 90.0758 o
156.46 94.1539 o
157.111 87.2549 o
157.761 89.6401 o
158.412 89.1321 o
159.063 91.5273 o
159.713 94.8174 o
160.364 87.6418 o
161.015 97.479 o
161.665 92.0053 o
162.316 92.4255 o
162.966 92.7079 o
163.617 91.9385 o
164.268 85.8189 o
164.918 88.8001 o
165.569 93.1472 o
166.219 90.9955 o
166.87 93.8071 o
167.521 92.4889 o
168.171 88.4899 o
168.822 89.452 o
169.472 85.567 o
170.123 85.3005 o
170.774 89.9652 o
171.424 88.959 o
172.075 85.8819 o
172.725 89.3322 o
173.376 87.4269 o
174.027 87.2019 o
174.677 92.7288 o
175.328 89.1613 o
175.979 87.1417 o
176.629 83.0614 o
177.28 89.5803 o
177.93 84.7545 o
178.581 83.6619 o
179.232 89.3228 o
179.882 91.908 o
180.533 86.5968 o
181.183 86.9278 o
181.834 85.9508 o
182.485 88.713 o
183.135 92.8831 o
183.786 90.0944 o
184.436 81.4993 o
185.087 88.4499 o
185.738 89.9524 o
186.388 92.0707 o
187.039 87.7567 o
187.69 91.6838 o
188.34 87.3795 o
188.991 91.1689 o
189.641 93.8709 o
190.292 83.8282 o
190.943 90.8456 o
191.593 82.5554 o
192.244 91.6024 o
192.894 92.8184 o
193.545 89.3159 o
194.196 86.6712 o
194.846 82.5614 o
195.497 84.5845 o
196.147 87.6279 o
196.798 84.5966 o
197.449 89.3853 o
198.099 84.9351 o
198.75 87.7888 o
199.401 84.8059 o
200.051 86.8467 o
200.702 86.9484 o
201.352 81.9637 o
202.003 88.869 o
202.654 87.533 o
203.304 87.5287 o
203.955 90.7922 o
204.605 85.3695 o
205.256 89.1312 o
205.907 86.8582 o
206.557 90.8599 o
207.208 78.9866 o
207.858 89.1731 o
208.509 85.8153 o
209.16 89.6877 o
209.81 88.6281 o
210.461 89.9555 o
211.112 81.8019 o
211.762 86.8833 o
212.413 91.6357 o
213.063 75.9917 o
213.714 84.4937 o
214.365 81.8607 o
215.015 80.951 o
215.666 87.2699 o
216.316 83.0425 o
216.967 86.4101 o
217.618 86.6438 o
218.268 85.5225 o
218.919 85.6068 o
219.569 79.1827 o
220.22 83.6267 o
220.871 81.8051 o
221.521 87.1345 o
222.172 92.1022 o
222.822 87.6647 o
223.473 85.4449 o
224.124 83.2899 o
224.774 88.2131 o
225.425 80.6744 o
226.076 83.5168 o
226.726 74.708 o
227.377 81.8299 o
228.027 85.062 o
228.678 82.1837 o
229.329 95.6208 o
229.979 81.2849 o
230.63 85.5769 o
231.28 75.5562 o
231.931 79.7499 o
232.582 76.4203 o
233.232 89.1351 o
233.883 95.2285 o
234.533 85.5601 o
235.184 84.7733 o
235.835 89.656 o
236.485 91.6792 o
237.136 90.1053 o
237.787 82.0428 o
238.437 78.8537 o
239.088 87.3302 o
239.738 82.5442 o
240.389 87.2838 o
241.04 87.0904 o
241.69 86.4657 o
242.341 85.7418 o
242.991 76.5057 o
243.642 97.2007 o
244.293 88.2129 o
244.943 73.687 o
245.594 83.2531 o
246.244 84.7799 o
246.895 89.7231 o
247.546 79.2694 o
248.196 80.7369 o
248.847 80.1785 o
249.498 90.2679 o
250.148 67.6012 o
250.799 81.2657 o
251.449 79.2965 o
252.1 87.7736 o
252.751 86.6068 o
253.401 76.1291 o
254.052 87.9945 o
254.702 77.9318 o
255.353 76.7935 o
256.004 80.0135 o
256.654 81.9126 o
257.305 86.6185 o
257.955 79.7117 o
258.606 92.3822 o
259.257 89.9181 o
259.907 85.4825 o
260.558 52.8677 o
261.208 77.0315 o
261.859 89.2438 o
262.51 82.61 o
263.16 90.1669 o
263.811 84.09 o
264.462 80.0886 o
265.112 78.0861 o
265.763 87.2029 o
266.413 84.8535 o
267.064 80.2442 o
267.715 78.3831 o
268.365 79.8591 o
269.016 96.6875 o
269.666 90.9808 o
270.317 90.7688 o
270.968 86.1451 o
271.618 76.5724 o
272.269 73.1633 o
272.919 82.6887 o
273.57 91.5215 o
274.221 86.5101 o
274.871 84.5454 o
275.522 95.519 o
276.173 79.5617 o
276.823 83.6292 o
277.474 73.524 o
278.124 79.0725 o
278.775 72.1592 o
279.426 79.1786 o
280.076 82.464 o
280.727 90.9182 o
281.377 91.8172 o
282.028 83.6392 o
282.679 82.5258 o
283.329 89.0976 o
283.98 63.4701 o
284.63 86.9935 o
285.281 82.238 o
285.932 77.9354 o
286.582 82.6686 o
287.233 88.6736 o
287.884 73.4475 o
288.534 99.4174 o
289.185 77.5672 o
289.835 94.9305 o
290.486 84.8916 o
291.137 77.476 o
291.787 83.0938 o
292.438 87.6713 o
293.088 72.0696 o
293.739 72.6763 o
294.39 83.8853 o
295.04 86.746 o
295.691 88.4803 o
296.341 87.4274 o
296.992 72.6453 o
297.643 79.1417 o
298.293 78.4616 o
298.944 90.8659 o
299.595 91.3205 o
300.245 76.0966 o
300.896 84.7062 o
301.546 87.7883 o
302.197 76.1735 o
302.848 62.0638 o
303.498 88.9771 o
304.149 75.9386 o
304.799 72.8712 o
305.45 82.1431 o
306.101 75.3637 o
306.751 69.132 o
307.402 79.8213 o
308.052 79.8327 o
308.703 90.504 o
309.354 65.7024 o
310.004 73.6012 o
310.655 93.7763 o
311.305 79.5552 o
311.956 81.8606 o
312.607 98.9643 o
313.257 80.0386 o
313.908 84.5625 o
314.559 88.232 o
315.209 70.1161 o
315.86 58.8344 o
316.51 80.0999 o
317.161 70.3592 o
317.812 81.5685 o
318.462 84.6775 o
319.113 76.2723 o
319.763 71.7222 o
320.414 79.728 o
321.065 68.0955 o
321.715 64.8601 o
322.366 85.4364 o
323.016 78.503 o
323.667 83.0694 o
324.318 74.7919 o
324.968 84.6189 o
325.619 87.8914 o
326.27 84.4029 o
326.92 89.4507 o
327.571 84.685 o
328.221 94.6694 o
328.872 95.9475 o
329.523 87.3378 o
330.173 84.235 o
330.824 80.2461 o
331.474 80.9027 o
332.125 81.3164 o
332.776 75.48 o
333.426 72.5687 o
334.077 83.789 o
334.727 81.4859 o
335.378 65.7377 o
336.029 69.1179 o
336.679 82.23 o
337.33 76.5184 o
337.981 80.889 o
338.631 78.804 o
339.282 76.8588 o
339.932 68.907 o
340.583 82.0839 o
341.234 74.8108 o
341.884 86.6005 o
342.535 89.5183 o
343.185 76.8398 o
343.836 73.0502 o
344.487 78.333 o
345.137 73.5726 o
345.788 107.083 o
346.438 68.7915 o
347.089 95.4844 o
347.74 72.2111 o
348.39 76.8733 o
349.041 76.2332 o
349.691 74.1914 o
350.342 81.059 o
350.993 71.074 o
351.643 70.8187 o
352.294 77.286 o
352.945 90.578 o
353.595 91.5476 o
354.246 75.121 o
354.896 85.3425 o
355.547 68.4603 o
356.198 75.9051 o
356.848 73.4006 o
357.499 57.159 o
358.149 82.0028 o
358.8 80.8649 o
359.451 62.7343 o
360.101 72.8801 o
360.752 86.9949 o
361.402 70.2609 o
362.053 93.4945 o
362.704 129.5 o
363.354 65.5883 o
364.005 84.4608 o
364.656 87.6616 o
365.306 87.2288 o
365.957 74.065 o
366.607 77.382 o
367.258 98.0682 o
367.909 77.7799 o
368.559 88.2602 o
369.21 84.873 o
369.86 88.3187 o
370.511 68.4314 o
371.162 72.8917 o
371.812 77.097 o
372.463 84.957 o
373.113 81.0075 o
373.764 65.846 o
374.415 84.3094 o
375.065 59.2773 o
375.716 61.0818 o
376.367 64.6316 o
377.017 51.6695 o
377.668 82.7581 o
378.318 98.765 o
378.969 70.1278 o
379.62 74.7962 o
380.27 63.7516 o
380.921 65.0547 o
381.571 93.5715 o
382.222 92.8664 o
382.873 87.3973 o
383.523 101.915 o
384.174 87.9592 o
384.824 84.6388 o
385.475 51.6001 o
386.126 152.181 o
386.776 63.7572 o
387.427 66.4903 o
388.078 86.271 o
388.728 85.7651 o
389.379 72.4693 o
390.029 89.3419 o
390.68 74.8472 o
391.331 54.0893 o
391.981 91.1961 o
392.632 67.9082 o
393.282 93.5355 o
393.933 68.3317 o
394.584 64.0836 o
395.234 98.7684 o
395.885 64.4021 o
396.535 83.6149 o
397.186 79.4572 o
397.837 80.5609 o
398.487 70.21 o
grestore
1.000 0.498 0.055 setrgbcolor
gsave
357.1 121 57.6 38.02 clipbox
/o {
gsave
newpath
translate
1.0 setlinewidth
1 setlinejoin
0 setlinecap
0 -1.5 m
0.397805 -1.5 0.77937 -1.341951 1.06066 -1.06066 c
1.341951 -0.77937 1.5 -0.397805 1.5 0 c
1.5 0.397805 1.341951 0.77937 1.06066 1.06066 c
0.77937 1.341951 0.397805 1.5 0 1.5 c
-0.397805 1.5 -0.77937 1.341951 -1.06066 1.06066 c
-1.341951 0.77937 -1.5 0.397805 -1.5 0 c
-1.5 -0.397805 -1.341951 -0.77937 -1.06066 -1.06066 c
-0.77937 -1.341951 -0.397805 -1.5 0 -1.5 c
cl

gsave
1.000 0.498 0.055 setrgbcolor
fill
grestore
stroke
grestore
} bind def
73.8327 98.009 o
74.4833 98.2369 o
75.1339 99.2386 o
75.7846 98.175 o
76.4352 97.2516 o
77.0858 98.2156 o
77.7364 98.8513 o
78.387 99.0534 o
79.0376 100.549 o
79.6882 98.164 o
80.3388 98.9805 o
80.9894 98.57 o
81.6401 98.4195 o
82.2907 99.3885 o
82.9413 99.0912 o
83.5919 98.8672 o
84.2425 98.5409 o
84.8931 99.2625 o
85.5437 100.378 o
86.1943 97.3216 o
86.8449 98.7016 o
87.4955 99.3277 o
88.1462 97.1112 o
88.7968 100.598 o
89.4474 98.5125 o
90.098 98.7513 o
90.7486 100.009 o
91.3992 100.702 o
92.0498 98.0971 o
92.7004 101.644 o
93.351 97.529 o
94.0016 98.9582 o
94.6523 97.4335 o
95.3029 99.8389 o
95.9535 100.541 o
96.6041 101.582 o
97.2547 99.1551 o
97.9053 98.4512 o
98.5559 99.2685 o
99.2065 99.582 o
99.8571 100.27 o
100.508 100.123 o
101.158 98.764 o
101.809 99.6102 o
102.46 96.9543 o
103.11 101.352 o
103.761 99.5559 o
104.411 100.401 o
105.062 99.8952 o
105.713 100.017 o
106.363 101.025 o
107.014 104.838 o
107.664 98.6363 o
108.315 99.2813 o
108.966 100.501 o
109.616 99.849 o
110.267 100.466 o
110.918 100.982 o
111.568 102.426 o
112.219 98.6451 o
112.869 101.545 o
113.52 102.251 o
114.171 100.762 o
114.821 103.724 o
115.472 100.44 o
116.122 98.9541 o
116.773 96.665 o
117.424 99.7175 o
118.074 98.7984 o
118.725 98.4592 o
119.375 100.709 o
120.026 96.6121 o
120.677 102.006 o
121.327 100.03 o
121.978 97.5715 o
122.629 97.6043 o
123.279 97.9786 o
123.93 98.1877 o
124.58 103.916 o
125.231 96.5253 o
125.882 101.739 o
126.532 98.1746 o
127.183 98.1619 o
127.833 100.081 o
128.484 99.1286 o
129.135 99.5901 o
129.785 101.299 o
130.436 98.1116 o
131.086 100.56 o
131.737 100.298 o
132.388 100.814 o
133.038 98.435 o
133.689 96.8109 o
134.339 98.2827 o
134.99 98.5441 o
135.641 98.4546 o
136.291 97.3566 o
136.942 101.311 o
137.593 101.492 o
138.243 97.1716 o
138.894 101.193 o
139.544 98.6666 o
140.195 97.7197 o
140.846 102.216 o
141.496 101.883 o
142.147 98.4438 o
142.797 102.027 o
143.448 98.4971 o
144.099 97.5651 o
144.749 98.738 o
145.4 100.146 o
146.05 99.512 o
146.701 96.4125 o
147.352 108.682 o
148.002 101.509 o
148.653 97.6614 o
149.304 100.662 o
149.954 99.2146 o
150.605 97.8155 o
151.255 98.6995 o
151.906 97.8089 o
152.557 96.0162 o
153.207 95.6266 o
153.858 95.8463 o
154.508 98.2116 o
155.159 97.8458 o
155.81 100.989 o
156.46 100.883 o
157.111 101.912 o
157.761 99.2746 o
158.412 98.8535 o
159.063 96.205 o
159.713 104.923 o
160.364 96.7492 o
161.015 100.164 o
161.665 104.842 o
162.316 103.684 o
162.966 100.516 o
163.617 97.9311 o
164.268 99.8661 o
164.918 102.143 o
165.569 102.831 o
166.219 97.4453 o
166.87 99.9244 o
167.521 96.3168 o
168.171 97.2859 o
168.822 103.284 o
169.472 97.8812 o
170.123 96.6651 o
170.774 105.058 o
171.424 96.8386 o
172.075 99.289 o
172.725 102.662 o
173.376 96.7131 o
174.027 101.816 o
174.677 99.9047 o
175.328 98.3601 o
175.979 97.1066 o
176.629 97.6609 o
177.28 98.9879 o
177.93 104.399 o
178.581 95.2475 o
179.232 104.945 o
179.882 104.983 o
180.533 97.0307 o
181.183 99.3942 o
181.834 96.1302 o
182.485 98.122 o
183.135 97.1063 o
183.786 93.9839 o
184.436 107.76 o
185.087 106.924 o
185.738 99.9154 o
186.388 99.9279 o
187.039 101.258 o
187.69 102.562 o
188.34 97.4938 o
188.991 101.811 o
189.641 95.1727 o
190.292 96.7657 o
190.943 96.8892 o
191.593 98.1133 o
192.244 96.8206 o
192.894 106.752 o
193.545 96.551 o
194.196 104.5 o
194.846 102.11 o
195.497 104.876 o
196.147 99.1632 o
196.798 96.954 o
197.449 93.4101 o
198.099 96.8724 o
198.75 101.041 o
199.401 98.2058 o
200.051 102.16 o
200.702 97.8751 o
201.352 92.948 o
202.003 94.8989 o
202.654 100.036 o
203.304 96.93 o
203.955 101.325 o
204.605 97.6139 o
205.256 97.4313 o
205.907 102.146 o
206.557 98.6952 o
207.208 102.781 o
207.858 95.3988 o
208.509 107.836 o
209.16 94.4625 o
209.81 96.3983 o
210.461 88.9748 o
211.112 96.0046 o
211.762 96.3082 o
212.413 92.565 o
213.063 95.7144 o
213.714 100.702 o
214.365 93.7823 o
215.015 92.3647 o
215.666 87.016 o
216.316 96.0483 o
216.967 91.433 o
217.618 96.2312 o
218.268 95.4592 o
218.919 88.7439 o
219.569 92.3938 o
220.22 96.348 o
220.871 93.9324 o
221.521 100.467 o
222.172 95.3973 o
222.822 101.094 o
223.473 97.2709 o
224.124 100.913 o
224.774 98.0257 o
225.425 103.27 o
226.076 90.0567 o
226.726 95.8516 o
227.377 90.1056 o
228.027 89.7077 o
228.678 88.1548 o
229.329 91.3155 o
229.979 97.8315 o
230.63 99.147 o
231.28 101.702 o
231.931 97.3989 o
232.582 98.9594 o
233.232 99.4006 o
233.883 99.4164 o
234.533 109.884 o
235.184 100.296 o
235.835 93.5978 o
236.485 98.2164 o
237.136 96.6831 o
237.787 94.1815 o
238.437 93.5261 o
239.088 92.7851 o
239.738 100.3 o
240.389 106.015 o
241.04 90.0894 o
241.69 90.3594 o
242.341 98.7952 o
242.991 87.1134 o
243.642 91.5525 o
244.293 115.386 o
244.943 97.483 o
245.594 93.0008 o
246.244 92.8549 o
246.895 91.5708 o
247.546 100.927 o
248.196 91.1086 o
248.847 95.1365 o
249.498 93.904 o
250.148 90.0853 o
250.799 100.4 o
251.449 112.603 o
252.1 93.5809 o
252.751 93.2561 o
253.401 88.4346 o
254.052 100.599 o
254.702 92.3562 o
255.353 99.0833 o
256.004 97.1291 o
256.654 95.6117 o
257.305 83.6597 o
257.955 95.061 o
258.606 93.0745 o
259.257 90.1779 o
259.907 96.1319 o
260.558 83.3782 o
261.208 93.0269 o
261.859 95.8454 o
262.51 99.3885 o
263.16 99.8149 o
263.811 103.485 o
264.462 101.702 o
265.112 91.0767 o
265.763 85.4377 o
266.413 100.486 o
267.064 89.2978 o
267.715 96.0697 o
268.365 96.8254 o
269.016 91.5323 o
269.666 94.3831 o
270.317 105.494 o
270.968 95.739 o
271.618 91.9533 o
272.269 110.245 o
272.919 91.3516 o
273.57 100.838 o
274.221 94.9649 o
274.871 96.0089 o
275.522 90.9341 o
276.173 98.154 o
276.823 90.8311 o
277.474 96.7925 o
278.124 95.9508 o
278.775 90.3246 o
279.426 93.0241 o
280.076 94.6995 o
280.727 96.7109 o
281.377 96.7738 o
282.028 87.2035 o
282.679 99.3067 o
283.329 89.4306 o
283.98 90.6695 o
284.63 93.8912 o
285.281 87.5716 o
285.932 87.7283 o
286.582 98.9397 o
287.233 97.4928 o
287.884 100.187 o
288.534 90.9764 o
289.185 94.7152 o
289.835 92.2267 o
290.486 91.6215 o
291.137 95.8585 o
291.787 95.1762 o
292.438 86.3167 o
293.088 86.5166 o
293.739 94.6815 o
294.39 83.003 o
295.04 91.8906 o
295.691 86.3076 o
296.341 91.5686 o
296.992 86.0064 o
297.643 85.5238 o
298.293 95.412 o
298.944 87.9077 o
299.595 95.9063 o
300.245 103.997 o
300.896 104.856 o
301.546 96.1635 o
302.197 85.5137 o
302.848 83.5065 o
303.498 89.8696 o
304.149 94.7657 o
304.799 89.3158 o
305.45 91.6818 o
306.101 98.6278 o
306.751 88.749 o
307.402 94.6825 o
308.052 90.8846 o
308.703 89.9665 o
309.354 79.9469 o
310.004 89.9334 o
310.655 88.3841 o
311.305 87.9061 o
311.956 84.8462 o
312.607 91.1411 o
313.257 89.8521 o
313.908 85.6702 o
314.559 90.9911 o
315.209 88.6013 o
315.86 95.6022 o
316.51 91.6025 o
317.161 112.616 o
317.812 82.0762 o
318.462 90.8342 o
319.113 103.637 o
319.763 91.694 o
320.414 88.4592 o
321.065 87.5132 o
321.715 93.2101 o
322.366 89.2117 o
323.016 90.5316 o
323.667 106.477 o
324.318 89.7635 o
324.968 84.2796 o
325.619 82.7508 o
326.27 86.888 o
326.92 83.8055 o
327.571 90.22 o
328.221 94.8112 o
328.872 96.9929 o
329.523 89.8127 o
330.173 107.33 o
330.824 86.2044 o
331.474 91.3191 o
332.125 86.687 o
332.776 77.9677 o
333.426 89.6048 o
334.077 94.2938 o
334.727 87.6432 o
335.378 92.6514 o
336.029 85.6144 o
336.679 89.8524 o
337.33 88.1966 o
337.981 89.4439 o
338.631 93.9878 o
339.282 91.5965 o
339.932 85.8606 o
340.583 82.3722 o
341.234 89.9315 o
341.884 89.1281 o
342.535 89.0057 o
343.185 91.2989 o
343.836 83.7532 o
344.487 97.2482 o
345.137 89.7705 o
345.788 71.4519 o
346.438 83.6194 o
347.089 87.6546 o
347.74 80.2451 o
348.39 81.4156 o
349.041 91.8691 o
349.691 82.3563 o
350.342 83.5769 o
350.993 87.5748 o
351.643 89.6405 o
352.294 80.9566 o
352.945 88.1881 o
353.595 85.6449 o
354.246 83.3339 o
354.896 75.1795 o
355.547 87.8422 o
356.198 92.299 o
356.848 79.0182 o
357.499 100.148 o
358.149 97.3916 o
358.8 90.3119 o
359.451 73.9178 o
360.101 91.9763 o
360.752 99.2143 o
361.402 81.377 o
362.053 89.8227 o
362.704 75.3927 o
363.354 85.8007 o
364.005 84.143 o
364.656 90.7253 o
365.306 79.8077 o
365.957 83.3143 o
366.607 96.4542 o
367.258 87.4015 o
367.909 85.5774 o
368.559 90.9811 o
369.21 83.1795 o
369.86 85.8689 o
370.511 92.0677 o
371.162 85.3379 o
371.812 85.0904 o
372.463 87.1847 o
373.113 87.8881 o
373.764 94.0162 o
374.415 88.8302 o
375.065 82.7225 o
375.716 81.0149 o
376.367 90.4293 o
377.017 74.1088 o
377.668 77.5704 o
378.318 84.9804 o
378.969 92.4891 o
379.62 86.5277 o
380.27 83.7114 o
380.921 78.966 o
381.571 90.7012 o
382.222 87.4855 o
382.873 94.4252 o
383.523 82.0508 o
384.174 81.9493 o
384.824 85.7119 o
385.475 82.3914 o
386.126 77.5207 o
386.776 83.1987 o
387.427 99.0269 o
388.078 77.217 o
388.728 76.3364 o
389.379 84.7993 o
390.029 80.7639 o
390.68 92.3574 o
391.331 89.1085 o
391.981 89.3205 o
392.632 104.75 o
393.282 77.21 o
393.933 87.3823 o
394.584 80.4182 o
395.234 95.8134 o
395.885 82.8634 o
396.535 87.3898 o
397.186 93.6671 o
397.837 82.0024 o
398.487 83.4849 o
grestore
0.173 0.627 0.173 setrgbcolor
gsave
357.1 121 57.6 38.02 clipbox
/o {
gsave
newpath
translate
1.0 setlinewidth
1 setlinejoin
0 setlinecap
0 -1.5 m
0.397805 -1.5 0.77937 -1.341951 1.06066 -1.06066 c
1.341951 -0.77937 1.5 -0.397805 1.5 0 c
1.5 0.397805 1.341951 0.77937 1.06066 1.06066 c
0.77937 1.341951 0.397805 1.5 0 1.5 c
-0.397805 1.5 -0.77937 1.341951 -1.06066 1.06066 c
-1.341951 0.77937 -1.5 0.397805 -1.5 0 c
-1.5 -0.397805 -1.341951 -0.77937 -1.06066 -1.06066 c
-0.77937 -1.341951 -0.397805 -1.5 0 -1.5 c
cl

gsave
0.173 0.627 0.173 setrgbcolor
fill
grestore
stroke
grestore
} bind def
73.8327 99.6293 o
74.4833 98.6774 o
75.1339 98.3813 o
75.7846 98.8804 o
76.4352 99.5895 o
77.0858 99.8394 o
77.7364 99.4484 o
78.387 99.0174 o
79.0376 99.5152 o
79.6882 99.4205 o
80.3388 99.1327 o
80.9894 98.0569 o
81.6401 99.9264 o
82.2907 99.8259 o
82.9413 99.4029 o
83.5919 99.2582 o
84.2425 99.5328 o
84.8931 100.111 o
85.5437 100.53 o
86.1943 99.9526 o
86.8449 101.613 o
87.4955 100.823 o
88.1462 101.074 o
88.7968 99.0858 o
89.4474 100.842 o
90.098 101.452 o
90.7486 102.046 o
91.3992 100.834 o
92.0498 101.779 o
92.7004 101.296 o
93.351 100.417 o
94.0016 100.415 o
94.6523 102.287 o
95.3029 102.473 o
95.9535 101.504 o
96.6041 102.145 o
97.2547 102.881 o
97.9053 102.51 o
98.5559 101.412 o
99.2065 101.041 o
99.8571 102.425 o
100.508 102.14 o
101.158 101.366 o
101.809 101.234 o
102.46 101.613 o
103.11 103.022 o
103.761 102.462 o
104.411 102.394 o
105.062 103.378 o
105.713 101.843 o
106.363 102.785 o
107.014 102.239 o
107.664 104.009 o
108.315 102.913 o
108.966 102.836 o
109.616 104.607 o
110.267 104.863 o
110.918 103.874 o
111.568 103.147 o
112.219 106.681 o
112.869 103.004 o
113.52 102.697 o
114.171 103.904 o
114.821 102.354 o
115.472 104.12 o
116.122 103.25 o
116.773 105.659 o
117.424 103.835 o
118.074 105.627 o
118.725 104.769 o
119.375 103.365 o
120.026 104.313 o
120.677 106.441 o
121.327 103.936 o
121.978 106.003 o
122.629 106.928 o
123.279 107.346 o
123.93 105.817 o
124.58 104.318 o
125.231 107.13 o
125.882 104.391 o
126.532 108.831 o
127.183 105.71 o
127.833 106.56 o
128.484 107.023 o
129.135 107.992 o
129.785 105.809 o
130.436 106.693 o
131.086 106.604 o
131.737 107.514 o
132.388 104.439 o
133.038 105.661 o
133.689 108.107 o
134.339 106.371 o
134.99 105.892 o
135.641 109.39 o
136.291 106.396 o
136.942 104.28 o
137.593 105.469 o
138.243 107.655 o
138.894 108.067 o
139.544 103.147 o
140.195 109.712 o
140.846 108.956 o
141.496 107.589 o
142.147 110.602 o
142.797 109.652 o
143.448 105.987 o
144.099 108.027 o
144.749 108.516 o
145.4 109.389 o
146.05 103.897 o
146.701 108.524 o
147.352 105.752 o
148.002 108.592 o
148.653 109.943 o
149.304 108.68 o
149.954 106.582 o
150.605 112.013 o
151.255 111.367 o
151.906 108.286 o
152.557 105.787 o
153.207 112.001 o
153.858 111.618 o
154.508 107.85 o
155.159 112.394 o
155.81 111.203 o
156.46 106.109 o
157.111 112.699 o
157.761 108.281 o
158.412 107.957 o
159.063 112.424 o
159.713 104.576 o
160.364 111.346 o
161.015 110.924 o
161.665 106.486 o
162.316 107.772 o
162.966 111.334 o
163.617 112.443 o
164.268 112.519 o
164.918 110.636 o
165.569 108.767 o
166.219 112.992 o
166.87 110.954 o
167.521 113.283 o
168.171 110.625 o
168.822 111.267 o
169.472 110.161 o
170.123 111.665 o
170.774 112.718 o
171.424 110.944 o
172.075 112.016 o
172.725 112.247 o
173.376 111.976 o
174.027 110.749 o
174.677 106.811 o
175.328 111.045 o
175.979 112.752 o
176.629 113.959 o
177.28 112.67 o
177.93 116.164 o
178.581 114.846 o
179.232 114.732 o
179.882 114.403 o
180.533 116.974 o
181.183 110.452 o
181.834 115.898 o
182.485 107.491 o
183.135 116.49 o
183.786 112.604 o
184.436 115.376 o
185.087 114.261 o
185.738 114.91 o
186.388 115.526 o
187.039 114.334 o
187.69 112.652 o
188.34 114.067 o
188.991 113.003 o
189.641 117.195 o
190.292 114.972 o
190.943 114.13 o
191.593 116.742 o
192.244 120.793 o
192.894 110.026 o
193.545 117.657 o
194.196 116.785 o
194.846 113.417 o
195.497 113.429 o
196.147 115.183 o
196.798 116.733 o
197.449 120.805 o
198.099 118.129 o
198.75 118.656 o
199.401 115.585 o
200.051 113.81 o
200.702 109.422 o
201.352 116.897 o
202.003 116.409 o
202.654 115.151 o
203.304 117.338 o
203.955 116.392 o
204.605 115.824 o
205.256 121.757 o
205.907 115.009 o
206.557 114.945 o
207.208 120.965 o
207.858 116.978 o
208.509 115.587 o
209.16 118.175 o
209.81 117.692 o
210.461 117.409 o
211.112 117.967 o
211.762 119.855 o
212.413 118.249 o
213.063 119.126 o
213.714 116.545 o
214.365 112.346 o
215.015 118.409 o
215.666 109.515 o
216.316 110.403 o
216.967 125.926 o
217.618 118.58 o
218.268 117.272 o
218.919 127.81 o
219.569 116.4 o
220.22 123.249 o
220.871 121.602 o
221.521 121.115 o
222.172 121.228 o
222.822 117.394 o
223.473 112.302 o
224.124 110.269 o
224.774 119.702 o
225.425 116.958 o
226.076 120.642 o
226.726 111.998 o
227.377 126.05 o
228.027 119.386 o
228.678 121.962 o
229.329 126.434 o
229.979 125.256 o
230.63 119.255 o
231.28 117.583 o
231.931 122.626 o
232.582 116.05 o
233.232 119.887 o
233.883 122.096 o
234.533 116.681 o
235.184 120.703 o
235.835 121.4 o
236.485 121.82 o
237.136 120.19 o
237.787 120.09 o
238.437 120.254 o
239.088 123.667 o
239.738 119.164 o
240.389 116.411 o
241.04 124.643 o
241.69 127.333 o
242.341 124.898 o
242.991 114.066 o
243.642 127.308 o
244.293 114.869 o
244.943 111.284 o
245.594 119.436 o
246.244 119.163 o
246.895 118.863 o
247.546 127.325 o
248.196 128.58 o
248.847 118.596 o
249.498 118.359 o
250.148 115.954 o
250.799 124.754 o
251.449 125.683 o
252.1 120.026 o
252.751 126.92 o
253.401 122.023 o
254.052 130.26 o
254.702 120.246 o
255.353 113.291 o
256.004 123.151 o
256.654 126.346 o
257.305 132.905 o
257.955 124.04 o
258.606 132.225 o
259.257 122.945 o
259.907 122.301 o
260.558 93.0824 o
261.208 125.128 o
261.859 127.905 o
262.51 116.945 o
263.16 119.651 o
263.811 124.742 o
264.462 128.586 o
265.112 124.032 o
265.763 129.483 o
266.413 129.17 o
267.064 129.103 o
267.715 122.755 o
268.365 122.179 o
269.016 132.903 o
269.666 129.76 o
270.317 122.466 o
270.968 128.288 o
271.618 128.949 o
272.269 135.012 o
272.919 127.412 o
273.57 129.815 o
274.221 128.333 o
274.871 127.366 o
275.522 130.599 o
276.173 113.617 o
276.823 125.088 o
277.474 115.936 o
278.124 131.158 o
278.775 117.151 o
279.426 128.189 o
280.076 120.538 o
280.727 128.676 o
281.377 135.848 o
282.028 127.691 o
282.679 126.314 o
283.329 133.83 o
283.98 115.9 o
284.63 126.879 o
285.281 133.707 o
285.932 117.24 o
286.582 133.918 o
287.233 130.949 o
287.884 118.472 o
288.534 131.515 o
289.185 118.668 o
289.835 134.75 o
290.486 126.749 o
291.137 121.386 o
291.787 119.855 o
292.438 133.309 o
293.088 119.884 o
293.739 119.875 o
294.39 118.122 o
295.04 128.056 o
295.691 136.968 o
296.341 126.287 o
296.992 128.552 o
297.643 136.347 o
298.293 123.655 o
298.944 136.169 o
299.595 120.858 o
300.245 117.631 o
300.896 126.199 o
301.546 123.205 o
302.197 126.76 o
302.848 113.94 o
303.498 127.052 o
304.149 123.009 o
304.799 116.954 o
305.45 134.611 o
306.101 125.102 o
306.751 122.306 o
307.402 131.06 o
308.052 136.047 o
308.703 138.858 o
309.354 104.419 o
310.004 130.954 o
310.655 56.5683 o
311.305 130.953 o
311.956 133.317 o
312.607 145.711 o
313.257 136.143 o
313.908 133.473 o
314.559 131.49 o
315.209 122.522 o
315.86 112.871 o
316.51 127.602 o
317.161 139.147 o
317.812 132.033 o
318.462 131.888 o
319.113 132.492 o
319.763 123.907 o
320.414 126.552 o
321.065 130.345 o
321.715 114.822 o
322.366 132.249 o
323.016 127.051 o
323.667 130.29 o
324.318 124.329 o
324.968 131.347 o
325.619 130.895 o
326.27 130.565 o
326.92 137.848 o
327.571 133.678 o
328.221 145.998 o
328.872 132.913 o
329.523 127.747 o
330.173 146.324 o
330.824 130.101 o
331.474 129.451 o
332.125 129.01 o
332.776 123.41 o
333.426 126.185 o
334.077 134.442 o
334.727 131.371 o
335.378 134.563 o
336.029 123.861 o
336.679 118.427 o
337.33 123.278 o
337.981 150.521 o
338.631 118.154 o
339.282 132.331 o
339.932 130.128 o
340.583 134.888 o
341.234 122.301 o
341.884 126.92 o
342.535 132.296 o
343.185 129.619 o
343.836 99.4636 o
344.487 134.027 o
345.137 126.767 o
345.788 59.8407 o
346.438 135.821 o
347.089 147.427 o
347.74 124.378 o
348.39 130.857 o
349.041 130.042 o
349.691 133.177 o
350.342 130.038 o
350.993 129.204 o
351.643 120.898 o
352.294 124.853 o
352.945 146.421 o
353.595 146.073 o
354.246 127.418 o
354.896 143.853 o
355.547 121.999 o
356.198 133.191 o
356.848 135.218 o
357.499 139.726 o
358.149 134.705 o
358.8 140.871 o
359.451 127.899 o
360.101 139.309 o
360.752 151.122 o
361.402 126.471 o
362.053 145.623 o
362.704 81.0688 o
363.354 112.807 o
364.005 146.47 o
364.656 151.372 o
365.306 141.833 o
365.957 125.654 o
366.607 140.185 o
367.258 143.718 o
367.909 130.625 o
368.559 125.6 o
369.21 135.871 o
369.86 143.628 o
370.511 116.256 o
371.162 133.797 o
371.812 138.954 o
372.463 138.921 o
373.113 140.583 o
373.764 125.28 o
374.415 123.82 o
375.065 126.726 o
375.716 117.312 o
376.367 123.251 o
377.017 120.277 o
377.668 47.4207 o
378.318 153.275 o
378.969 135.218 o
379.62 120.959 o
380.27 125.122 o
380.921 129.355 o
381.571 147.551 o
382.222 142.519 o
382.873 142.713 o
383.523 64.6251 o
384.174 153.113 o
384.824 142.947 o
385.475 106.451 o
386.126 96.0008 o
386.776 124.818 o
387.427 116.984 o
388.078 152.555 o
388.728 152.612 o
389.379 127.808 o
390.029 46.1215 o
390.68 134.143 o
391.331 110.166 o
391.981 44.4959 o
392.632 110.817 o
393.282 153.478 o
393.933 119.713 o
394.584 125.173 o
395.234 148.328 o
395.885 129.235 o
396.535 144.985 o
397.186 141.549 o
397.837 147.212 o
398.487 43.5142 o
grestore
1.500 setlinewidth
2 setlinecap
0.839 0.153 0.157 setrgbcolor
gsave
357.1 121 57.6 38.02 clipbox
73.832727 98.707723 m
101.808971 96.158242 l
148.652913 91.618135 l
185.737701 88.126149 l
212.412724 85.839093 l
235.834695 84.048561 l
258.606056 82.531408 l
280.076196 81.319703 l
300.895726 80.363027 l
320.414035 79.68106 l
338.631124 79.259371 l
355.546992 79.089688 l
370.511029 79.159775 l
383.523236 79.432088 l
395.234221 79.88896 l
398.487273 80.05819 l
398.487273 80.05819 l
stroke
grestore
0.580 0.404 0.741 setrgbcolor
gsave
357.1 121 57.6 38.02 clipbox
73.832727 98.707723 m
92.049816 99.391713 l
109.616294 99.832047 l
127.182773 100.044997 l
144.098641 100.029457 l
161.014509 99.79784 l
178.580987 99.33518 l
196.798076 98.629609 l
215.665775 97.676538 l
235.834695 96.435296 l
257.955445 94.84719 l
282.678637 92.842584 l
311.305491 90.291785 l
349.691499 86.631335 l
398.487273 81.944386 l
398.487273 81.944386 l
stroke
grestore
0.549 0.337 0.294 setrgbcolor
gsave
357.1 121 57.6 38.02 clipbox
73.832727 98.707723 m
108.315074 103.328559 l
204.6054 116.384456 l
235.834695 120.290794 l
270.317041 124.372071 l
351.64333 133.883696 l
370.511029 136.388456 l
385.475066 138.593734 l
397.836662 140.629083 l
398.487273 140.742875 l
398.487273 140.742875 l
stroke
grestore
0.800 setlinewidth
0 setlinejoin
[] 0 setdash
0.000 setgray
gsave
57.6 38.016 m
57.6 158.976 l
stroke
grestore
gsave
414.72 38.016 m
414.72 158.976 l
stroke
grestore
gsave
57.6 38.016 m
414.72 38.016 l
stroke
grestore
gsave
57.6 158.976 m
414.72 158.976 l
stroke
grestore
1.000 setlinewidth
0 setlinecap
0.800 setgray
gsave
64.6 43.016 m
121.490625 43.016 l
122.823958 43.016 123.490625 43.682667 123.490625 45.016 c
123.490625 88.031625 l
123.490625 89.364958 122.823958 90.031625 121.490625 90.031625 c
64.6 90.031625 l
63.266667 90.031625 62.6 89.364958 62.6 88.031625 c
62.6 45.016 l
62.6 43.682667 63.266667 43.016 64.6 43.016 c
cl
gsave
1.000 setgray
fill
grestore
stroke
grestore
1 setlinejoin
[] 0 setdash
0.122 0.467 0.706 setrgbcolor
gsave
/o {
gsave
newpath
translate
1.0 setlinewidth
1 setlinejoin
0 setlinecap
0 -1.5 m
0.397805 -1.5 0.77937 -1.341951 1.06066 -1.06066 c
1.341951 -0.77937 1.5 -0.397805 1.5 0 c
1.5 0.397805 1.341951 0.77937 1.06066 1.06066 c
0.77937 1.341951 0.397805 1.5 0 1.5 c
-0.397805 1.5 -0.77937 1.341951 -1.06066 1.06066 c
-1.341951 0.77937 -1.5 0.397805 -1.5 0 c
-1.5 -0.397805 -1.341951 -0.77937 -1.06066 -1.06066 c
-0.77937 -1.341951 -0.397805 -1.5 0 -1.5 c
cl

gsave
0.122 0.467 0.706 setrgbcolor
fill
grestore
stroke
grestore
} bind def
76.6 81.9379 o
grestore
0.000 setgray
gsave
94.600000 78.437875 translate
0.000000 rotate
0.000000 0.000000 m /r glyphshow
4.111328 0.000000 m /o glyphshow
10.229492 0.000000 m /l glyphshow
13.007812 0.000000 m /l glyphshow
grestore
1.000 0.498 0.055 setrgbcolor
gsave
/o {
gsave
newpath
translate
1.0 setlinewidth
1 setlinejoin
0 setlinecap
0 -1.5 m
0.397805 -1.5 0.77937 -1.341951 1.06066 -1.06066 c
1.341951 -0.77937 1.5 -0.397805 1.5 0 c
1.5 0.397805 1.341951 0.77937 1.06066 1.06066 c
0.77937 1.341951 0.397805 1.5 0 1.5 c
-0.397805 1.5 -0.77937 1.341951 -1.06066 1.06066 c
-1.341951 0.77937 -1.5 0.397805 -1.5 0 c
-1.5 -0.397805 -1.341951 -0.77937 -1.06066 -1.06066 c
-0.77937 -1.341951 -0.397805 -1.5 0 -1.5 c
cl

gsave
1.000 0.498 0.055 setrgbcolor
fill
grestore
stroke
grestore
} bind def
76.6 67.266 o
grestore
0.000 setgray
gsave
94.600000 63.766000 translate
0.000000 rotate
0.000000 0.000000 m /p glyphshow
6.347656 0.000000 m /i glyphshow
9.125977 0.000000 m /t glyphshow
13.046875 0.000000 m /c glyphshow
18.544922 0.000000 m /h glyphshow
grestore
0.173 0.627 0.173 setrgbcolor
gsave
/o {
gsave
newpath
translate
1.0 setlinewidth
1 setlinejoin
0 setlinecap
0 -1.5 m
0.397805 -1.5 0.77937 -1.341951 1.06066 -1.06066 c
1.341951 -0.77937 1.5 -0.397805 1.5 0 c
1.5 0.397805 1.341951 0.77937 1.06066 1.06066 c
0.77937 1.341951 0.397805 1.5 0 1.5 c
-0.397805 1.5 -0.77937 1.341951 -1.06066 1.06066 c
-1.341951 0.77937 -1.5 0.397805 -1.5 0 c
-1.5 -0.397805 -1.341951 -0.77937 -1.06066 -1.06066 c
-0.77937 -1.341951 -0.397805 -1.5 0 -1.5 c
cl

gsave
0.173 0.627 0.173 setrgbcolor
fill
grestore
stroke
grestore
} bind def
76.6 52.5941 o
grestore
0.000 setgray
gsave
94.600000 49.094125 translate
0.000000 rotate
0.000000 0.000000 m /y glyphshow
5.917969 0.000000 m /a glyphshow
12.045898 0.000000 m /w glyphshow
grestore

end
showpage
