%!PS-Adobe-3.0 EPSF-3.0
%%Title: figures/repeater_ls_err.eps
%%Creator: matplotlib version 2.0.0, http://matplotlib.org/
%%CreationDate: Mon Feb 27 22:19:25 2017
%%Orientation: portrait
%%BoundingBox: 75 223 536 568
%%EndComments
%%BeginProlog
/mpldict 8 dict def
mpldict begin
/m { moveto } bind def
/l { lineto } bind def
/r { rlineto } bind def
/c { curveto } bind def
/cl { closepath } bind def
/box {
m
1 index 0 r
0 exch r
neg 0 r
cl
} bind def
/clipbox {
box
clip
newpath
} bind def
%!PS-Adobe-3.0 Resource-Font
%%Title: DejaVu Sans
%%Copyright: Copyright (c) 2003 by Bitstream, Inc. All Rights Reserved. Copyright (c) 2006 by Tavmjong Bah. All Rights Reserved. DejaVu changes are in public domain 
%%Creator: Converted from TrueType to type 3 by PPR
25 dict begin
/_d{bind def}bind def
/_m{moveto}_d
/_l{lineto}_d
/_cl{closepath eofill}_d
/_c{curveto}_d
/_sc{7 -1 roll{setcachedevice}{pop pop pop pop pop pop}ifelse}_d
/_e{exec}_d
/FontName /DejaVuSans def
/PaintType 0 def
/FontMatrix[.001 0 0 .001 0 0]def
/FontBBox[-1021 -463 1793 1232]def
/FontType 3 def
/Encoding [ /space /period /zero /one /two /five /seven /E /P /S /bracketleft /bracketright /a /c /d /e /g /h /i /l /m /n /o /p /r /s /t /u /w /x /y /z /minus ] def
/FontInfo 10 dict dup begin
/FamilyName (DejaVu Sans) def
/FullName (DejaVu Sans) def
/Notice (Copyright (c) 2003 by Bitstream, Inc. All Rights Reserved. Copyright (c) 2006 by Tavmjong Bah. All Rights Reserved. DejaVu changes are in public domain ) def
/Weight (Book) def
/Version (Version 2.35) def
/ItalicAngle 0.0 def
/isFixedPitch false def
/UnderlinePosition -130 def
/UnderlineThickness 90 def
end readonly def
/CharStrings 33 dict dup begin
/space{318 0 0 0 0 0 _sc
}_d
/period{318 0 107 0 210 124 _sc
107 124 _m
210 124 _l
210 0 _l
107 0 _l
107 124 _l
_cl}_d
/zero{636 0 66 -13 570 742 _sc
318 664 _m
267 664 229 639 203 589 _c
177 539 165 464 165 364 _c
165 264 177 189 203 139 _c
229 89 267 64 318 64 _c
369 64 407 89 433 139 _c
458 189 471 264 471 364 _c
471 464 458 539 433 589 _c
407 639 369 664 318 664 _c
318 742 _m
399 742 461 709 505 645 _c
548 580 570 486 570 364 _c
570 241 548 147 505 83 _c
461 19 399 -13 318 -13 _c
236 -13 173 19 130 83 _c
87 147 66 241 66 364 _c
66 486 87 580 130 645 _c
173 709 236 742 318 742 _c
_cl}_d
/one{636 0 110 0 544 729 _sc
124 83 _m
285 83 _l
285 639 _l
110 604 _l
110 694 _l
284 729 _l
383 729 _l
383 83 _l
544 83 _l
544 0 _l
124 0 _l
124 83 _l
_cl}_d
/two{{636 0 73 0 536 742 _sc
192 83 _m
536 83 _l
536 0 _l
73 0 _l
73 83 _l
110 121 161 173 226 239 _c
290 304 331 346 348 365 _c
380 400 402 430 414 455 _c
426 479 433 504 433 528 _c
433 566 419 598 392 622 _c
365 646 330 659 286 659 _c
255 659 222 653 188 643 _c
154 632 117 616 78 594 _c
78 694 _l
118 710 155 722 189 730 _c
223 738 255 742 284 742 _c
}_e{359 742 419 723 464 685 _c
509 647 532 597 532 534 _c
532 504 526 475 515 449 _c
504 422 484 390 454 354 _c
446 344 420 317 376 272 _c
332 227 271 164 192 83 _c
_cl}_e}_d
/five{{636 0 77 -13 549 729 _sc
108 729 _m
495 729 _l
495 646 _l
198 646 _l
198 467 _l
212 472 227 476 241 478 _c
255 480 270 482 284 482 _c
365 482 429 459 477 415 _c
525 370 549 310 549 234 _c
549 155 524 94 475 51 _c
426 8 357 -13 269 -13 _c
238 -13 207 -10 175 -6 _c
143 -1 111 6 77 17 _c
77 116 _l
106 100 136 88 168 80 _c
199 72 232 69 267 69 _c
}_e{323 69 368 83 401 113 _c
433 143 450 183 450 234 _c
450 284 433 324 401 354 _c
368 384 323 399 267 399 _c
241 399 214 396 188 390 _c
162 384 135 375 108 363 _c
108 729 _l
_cl}_e}_d
/seven{636 0 82 0 551 729 _sc
82 729 _m
551 729 _l
551 687 _l
286 0 _l
183 0 _l
432 646 _l
82 646 _l
82 729 _l
_cl}_d
/E{632 0 98 0 568 729 _sc
98 729 _m
559 729 _l
559 646 _l
197 646 _l
197 430 _l
544 430 _l
544 347 _l
197 347 _l
197 83 _l
568 83 _l
568 0 _l
98 0 _l
98 729 _l
_cl}_d
/P{603 0 98 0 569 729 _sc
197 648 _m
197 374 _l
321 374 _l
367 374 402 385 427 409 _c
452 433 465 467 465 511 _c
465 555 452 588 427 612 _c
402 636 367 648 321 648 _c
197 648 _l
98 729 _m
321 729 _l
402 729 464 710 506 673 _c
548 636 569 582 569 511 _c
569 439 548 384 506 348 _c
464 311 402 293 321 293 _c
197 293 _l
197 0 _l
98 0 _l
98 729 _l
_cl}_d
/S{{635 0 66 -13 579 742 _sc
535 705 _m
535 609 _l
497 627 462 640 429 649 _c
395 657 363 662 333 662 _c
279 662 237 651 208 631 _c
179 610 165 580 165 542 _c
165 510 174 485 194 469 _c
213 452 250 439 304 429 _c
364 417 _l
437 403 491 378 526 343 _c
561 307 579 260 579 201 _c
579 130 555 77 508 41 _c
460 5 391 -13 300 -13 _c
265 -13 228 -9 189 -2 _c
}_e{150 5 110 16 69 32 _c
69 134 _l
109 111 148 94 186 83 _c
224 71 262 66 300 66 _c
356 66 399 77 430 99 _c
460 121 476 152 476 194 _c
476 230 465 258 443 278 _c
421 298 385 313 335 323 _c
275 335 _l
201 349 148 372 115 404 _c
82 435 66 478 66 534 _c
66 598 88 649 134 686 _c
179 723 242 742 322 742 _c
356 742 390 739 426 733 _c
461 727 497 717 535 705 _c
}_e{_cl}_e}_d
/bracketleft{390 0 86 -131 293 760 _sc
86 760 _m
293 760 _l
293 690 _l
176 690 _l
176 -61 _l
293 -61 _l
293 -131 _l
86 -131 _l
86 760 _l
_cl}_d
/bracketright{390 0 97 -131 304 760 _sc
304 760 _m
304 -131 _l
97 -131 _l
97 -61 _l
214 -61 _l
214 690 _l
97 690 _l
97 760 _l
304 760 _l
_cl}_d
/a{{613 0 60 -13 522 560 _sc
343 275 _m
270 275 220 266 192 250 _c
164 233 150 205 150 165 _c
150 133 160 107 181 89 _c
202 70 231 61 267 61 _c
317 61 357 78 387 114 _c
417 149 432 196 432 255 _c
432 275 _l
343 275 _l
522 312 _m
522 0 _l
432 0 _l
432 83 _l
411 49 385 25 355 10 _c
325 -5 287 -13 243 -13 _c
187 -13 142 2 109 33 _c
76 64 60 106 60 159 _c
}_e{60 220 80 266 122 298 _c
163 329 224 345 306 345 _c
432 345 _l
432 354 _l
432 395 418 427 391 450 _c
364 472 326 484 277 484 _c
245 484 215 480 185 472 _c
155 464 127 453 100 439 _c
100 522 _l
132 534 164 544 195 550 _c
226 556 256 560 286 560 _c
365 560 424 539 463 498 _c
502 457 522 395 522 312 _c
_cl}_e}_d
/c{{550 0 55 -13 488 560 _sc
488 526 _m
488 442 _l
462 456 437 466 411 473 _c
385 480 360 484 334 484 _c
276 484 230 465 198 428 _c
166 391 150 339 150 273 _c
150 206 166 154 198 117 _c
230 80 276 62 334 62 _c
360 62 385 65 411 72 _c
437 79 462 90 488 104 _c
488 21 _l
462 9 436 0 410 -5 _c
383 -10 354 -13 324 -13 _c
242 -13 176 12 128 64 _c
}_e{79 115 55 185 55 273 _c
55 362 79 432 128 483 _c
177 534 244 560 330 560 _c
358 560 385 557 411 551 _c
437 545 463 537 488 526 _c
_cl}_e}_d
/d{{635 0 55 -13 544 760 _sc
454 464 _m
454 760 _l
544 760 _l
544 0 _l
454 0 _l
454 82 _l
435 49 411 25 382 10 _c
353 -5 319 -13 279 -13 _c
213 -13 159 13 117 65 _c
75 117 55 187 55 273 _c
55 359 75 428 117 481 _c
159 533 213 560 279 560 _c
319 560 353 552 382 536 _c
411 520 435 496 454 464 _c
148 273 _m
148 207 161 155 188 117 _c
215 79 253 61 301 61 _c
}_e{348 61 385 79 413 117 _c
440 155 454 207 454 273 _c
454 339 440 390 413 428 _c
385 466 348 485 301 485 _c
253 485 215 466 188 428 _c
161 390 148 339 148 273 _c
_cl}_e}_d
/e{{615 0 55 -13 562 560 _sc
562 296 _m
562 252 _l
149 252 _l
153 190 171 142 205 110 _c
238 78 284 62 344 62 _c
378 62 412 66 444 74 _c
476 82 509 95 541 113 _c
541 28 _l
509 14 476 3 442 -3 _c
408 -9 373 -13 339 -13 _c
251 -13 182 12 131 62 _c
80 112 55 181 55 268 _c
55 357 79 428 127 481 _c
175 533 241 560 323 560 _c
397 560 455 536 498 489 _c
}_e{540 441 562 377 562 296 _c
472 322 _m
471 371 457 410 431 440 _c
404 469 368 484 324 484 _c
274 484 234 469 204 441 _c
174 413 156 373 152 322 _c
472 322 _l
_cl}_e}_d
/g{{635 0 55 -207 544 560 _sc
454 280 _m
454 344 440 395 414 431 _c
387 467 349 485 301 485 _c
253 485 215 467 188 431 _c
161 395 148 344 148 280 _c
148 215 161 165 188 129 _c
215 93 253 75 301 75 _c
349 75 387 93 414 129 _c
440 165 454 215 454 280 _c
544 68 _m
544 -24 523 -93 482 -139 _c
440 -184 377 -207 292 -207 _c
260 -207 231 -204 203 -200 _c
175 -195 147 -188 121 -178 _c
}_e{121 -91 _l
147 -105 173 -115 199 -122 _c
225 -129 251 -133 278 -133 _c
336 -133 380 -117 410 -87 _c
439 -56 454 -10 454 52 _c
454 96 _l
435 64 411 40 382 24 _c
353 8 319 0 279 0 _c
211 0 157 25 116 76 _c
75 127 55 195 55 280 _c
55 364 75 432 116 483 _c
157 534 211 560 279 560 _c
319 560 353 552 382 536 _c
411 520 435 496 454 464 _c
454 547 _l
544 547 _l
}_e{544 68 _l
_cl}_e}_d
/h{634 0 91 0 549 760 _sc
549 330 _m
549 0 _l
459 0 _l
459 327 _l
459 379 448 417 428 443 _c
408 469 378 482 338 482 _c
289 482 251 466 223 435 _c
195 404 181 362 181 309 _c
181 0 _l
91 0 _l
91 760 _l
181 760 _l
181 462 _l
202 494 227 519 257 535 _c
286 551 320 560 358 560 _c
420 560 468 540 500 501 _c
532 462 549 405 549 330 _c
_cl}_d
/i{278 0 94 0 184 760 _sc
94 547 _m
184 547 _l
184 0 _l
94 0 _l
94 547 _l
94 760 _m
184 760 _l
184 646 _l
94 646 _l
94 760 _l
_cl}_d
/l{278 0 94 0 184 760 _sc
94 760 _m
184 760 _l
184 0 _l
94 0 _l
94 760 _l
_cl}_d
/m{{974 0 91 0 889 560 _sc
520 442 _m
542 482 569 511 600 531 _c
631 550 668 560 711 560 _c
767 560 811 540 842 500 _c
873 460 889 403 889 330 _c
889 0 _l
799 0 _l
799 327 _l
799 379 789 418 771 444 _c
752 469 724 482 686 482 _c
639 482 602 466 575 435 _c
548 404 535 362 535 309 _c
535 0 _l
445 0 _l
445 327 _l
445 379 435 418 417 444 _c
398 469 369 482 331 482 _c
}_e{285 482 248 466 221 435 _c
194 404 181 362 181 309 _c
181 0 _l
91 0 _l
91 547 _l
181 547 _l
181 462 _l
201 495 226 520 255 536 _c
283 552 317 560 357 560 _c
397 560 430 550 458 530 _c
486 510 506 480 520 442 _c
_cl}_e}_d
/n{634 0 91 0 549 560 _sc
549 330 _m
549 0 _l
459 0 _l
459 327 _l
459 379 448 417 428 443 _c
408 469 378 482 338 482 _c
289 482 251 466 223 435 _c
195 404 181 362 181 309 _c
181 0 _l
91 0 _l
91 547 _l
181 547 _l
181 462 _l
202 494 227 519 257 535 _c
286 551 320 560 358 560 _c
420 560 468 540 500 501 _c
532 462 549 405 549 330 _c
_cl}_d
/o{612 0 55 -13 557 560 _sc
306 484 _m
258 484 220 465 192 427 _c
164 389 150 338 150 273 _c
150 207 163 156 191 118 _c
219 80 257 62 306 62 _c
354 62 392 80 420 118 _c
448 156 462 207 462 273 _c
462 337 448 389 420 427 _c
392 465 354 484 306 484 _c
306 560 _m
384 560 445 534 490 484 _c
534 433 557 363 557 273 _c
557 183 534 113 490 63 _c
445 12 384 -13 306 -13 _c
227 -13 165 12 121 63 _c
77 113 55 183 55 273 _c
55 363 77 433 121 484 _c
165 534 227 560 306 560 _c
_cl}_d
/p{{635 0 91 -207 580 560 _sc
181 82 _m
181 -207 _l
91 -207 _l
91 547 _l
181 547 _l
181 464 _l
199 496 223 520 252 536 _c
281 552 316 560 356 560 _c
422 560 476 533 518 481 _c
559 428 580 359 580 273 _c
580 187 559 117 518 65 _c
476 13 422 -13 356 -13 _c
316 -13 281 -5 252 10 _c
223 25 199 49 181 82 _c
487 273 _m
487 339 473 390 446 428 _c
418 466 381 485 334 485 _c
}_e{286 485 249 466 222 428 _c
194 390 181 339 181 273 _c
181 207 194 155 222 117 _c
249 79 286 61 334 61 _c
381 61 418 79 446 117 _c
473 155 487 207 487 273 _c
_cl}_e}_d
/r{411 0 91 0 411 560 _sc
411 463 _m
401 469 390 473 378 476 _c
366 478 353 480 339 480 _c
288 480 249 463 222 430 _c
194 397 181 350 181 288 _c
181 0 _l
91 0 _l
91 547 _l
181 547 _l
181 462 _l
199 495 224 520 254 536 _c
284 552 321 560 365 560 _c
371 560 378 559 386 559 _c
393 558 401 557 411 555 _c
411 463 _l
_cl}_d
/s{{521 0 54 -13 472 560 _sc
443 531 _m
443 446 _l
417 458 391 468 364 475 _c
336 481 308 485 279 485 _c
234 485 200 478 178 464 _c
156 450 145 430 145 403 _c
145 382 153 366 169 354 _c
185 342 217 330 265 320 _c
296 313 _l
360 299 405 279 432 255 _c
458 230 472 195 472 151 _c
472 100 452 60 412 31 _c
372 1 316 -13 246 -13 _c
216 -13 186 -10 154 -5 _c
}_e{122 0 89 8 54 20 _c
54 113 _l
87 95 120 82 152 74 _c
184 65 216 61 248 61 _c
290 61 323 68 346 82 _c
368 96 380 117 380 144 _c
380 168 371 187 355 200 _c
339 213 303 226 247 238 _c
216 245 _l
160 257 119 275 95 299 _c
70 323 58 356 58 399 _c
58 450 76 490 112 518 _c
148 546 200 560 268 560 _c
301 560 332 557 362 552 _c
391 547 418 540 443 531 _c
}_e{_cl}_e}_d
/t{392 0 27 0 368 702 _sc
183 702 _m
183 547 _l
368 547 _l
368 477 _l
183 477 _l
183 180 _l
183 135 189 106 201 94 _c
213 81 238 75 276 75 _c
368 75 _l
368 0 _l
276 0 _l
206 0 158 13 132 39 _c
106 65 93 112 93 180 _c
93 477 _l
27 477 _l
27 547 _l
93 547 _l
93 702 _l
183 702 _l
_cl}_d
/u{634 0 85 -13 543 560 _sc
85 216 _m
85 547 _l
175 547 _l
175 219 _l
175 167 185 129 205 103 _c
225 77 255 64 296 64 _c
344 64 383 79 411 110 _c
439 141 453 183 453 237 _c
453 547 _l
543 547 _l
543 0 _l
453 0 _l
453 84 _l
431 50 405 26 377 10 _c
348 -5 315 -13 277 -13 _c
214 -13 166 6 134 45 _c
101 83 85 140 85 216 _c
311 560 _m
311 560 _l
_cl}_d
/w{818 0 42 0 776 547 _sc
42 547 _m
132 547 _l
244 120 _l
356 547 _l
462 547 _l
574 120 _l
686 547 _l
776 547 _l
633 0 _l
527 0 _l
409 448 _l
291 0 _l
185 0 _l
42 547 _l
_cl}_d
/x{592 0 29 0 559 547 _sc
549 547 _m
351 281 _l
559 0 _l
453 0 _l
294 215 _l
135 0 _l
29 0 _l
241 286 _l
47 547 _l
153 547 _l
298 352 _l
443 547 _l
549 547 _l
_cl}_d
/y{592 0 30 -207 562 547 _sc
322 -50 _m
296 -114 271 -157 247 -177 _c
223 -197 191 -207 151 -207 _c
79 -207 _l
79 -132 _l
132 -132 _l
156 -132 175 -126 189 -114 _c
203 -102 218 -75 235 -31 _c
251 9 _l
30 547 _l
125 547 _l
296 119 _l
467 547 _l
562 547 _l
322 -50 _l
_cl}_d
/z{525 0 43 0 482 547 _sc
55 547 _m
482 547 _l
482 465 _l
144 72 _l
482 72 _l
482 0 _l
43 0 _l
43 82 _l
381 475 _l
55 475 _l
55 547 _l
_cl}_d
/minus{838 0 106 272 732 355 _sc
106 355 _m
732 355 _l
732 272 _l
106 272 _l
106 355 _l
_cl}_d
end readonly def

/BuildGlyph
 {exch begin
 CharStrings exch
 2 copy known not{pop /.notdef}if
 true 3 1 roll get exec
 end}_d

/BuildChar {
 1 index /Encoding get exch get
 1 index /BuildGlyph get exec
}_d

FontName currentdict end definefont pop
end
%%EndProlog
mpldict begin
75.6 223.2 translate
460.8 345.6 0 0 clipbox
gsave
0 0 m
460.8 0 l
460.8 345.6 l
0 345.6 l
cl
1.000 setgray
fill
grestore
gsave
57.6 183.168 m
414.72 183.168 l
414.72 304.128 l
57.6 304.128 l
cl
1.000 setgray
fill
grestore
0.800 setlinewidth
1 setlinejoin
2 setlinecap
[] 0 setdash
0.690 setgray
gsave
357.1 121 57.6 183.2 clipbox
73.832727 183.168 m
73.832727 304.128 l
stroke
grestore
0 setlinecap
0.000 setgray
gsave
/o {
gsave
newpath
translate
0.8 setlinewidth
1 setlinejoin
0 setlinecap
0 0 m
0 -3.5 l

gsave
0.000 setgray
fill
grestore
stroke
grestore
} bind def
73.8327 183.168 o
grestore
/DejaVuSans findfont
10.000 scalefont
setfont
gsave
70.653040 168.574250 translate
0.000000 rotate
0.000000 0.000000 m /zero glyphshow
grestore
2 setlinecap
0.690 setgray
gsave
357.1 121 57.6 183.2 clipbox
114.618474 183.168 m
114.618474 304.128 l
stroke
grestore
0 setlinecap
0.000 setgray
gsave
/o {
gsave
newpath
translate
0.8 setlinewidth
1 setlinejoin
0 setlinecap
0 0 m
0 -3.5 l

gsave
0.000 setgray
fill
grestore
stroke
grestore
} bind def
114.618 183.168 o
grestore
gsave
108.259099 168.574250 translate
0.000000 rotate
0.000000 0.000000 m /two glyphshow
6.362305 0.000000 m /five glyphshow
grestore
2 setlinecap
0.690 setgray
gsave
357.1 121 57.6 183.2 clipbox
155.404221 183.168 m
155.404221 304.128 l
stroke
grestore
0 setlinecap
0.000 setgray
gsave
/o {
gsave
newpath
translate
0.8 setlinewidth
1 setlinejoin
0 setlinecap
0 0 m
0 -3.5 l

gsave
0.000 setgray
fill
grestore
stroke
grestore
} bind def
155.404 183.168 o
grestore
gsave
149.044846 168.574250 translate
0.000000 rotate
0.000000 0.000000 m /five glyphshow
6.362305 0.000000 m /zero glyphshow
grestore
2 setlinecap
0.690 setgray
gsave
357.1 121 57.6 183.2 clipbox
196.189968 183.168 m
196.189968 304.128 l
stroke
grestore
0 setlinecap
0.000 setgray
gsave
/o {
gsave
newpath
translate
0.8 setlinewidth
1 setlinejoin
0 setlinecap
0 0 m
0 -3.5 l

gsave
0.000 setgray
fill
grestore
stroke
grestore
} bind def
196.19 183.168 o
grestore
gsave
189.830593 168.574250 translate
0.000000 rotate
0.000000 0.000000 m /seven glyphshow
6.362305 0.000000 m /five glyphshow
grestore
2 setlinecap
0.690 setgray
gsave
357.1 121 57.6 183.2 clipbox
236.975715 183.168 m
236.975715 304.128 l
stroke
grestore
0 setlinecap
0.000 setgray
gsave
/o {
gsave
newpath
translate
0.8 setlinewidth
1 setlinejoin
0 setlinecap
0 0 m
0 -3.5 l

gsave
0.000 setgray
fill
grestore
stroke
grestore
} bind def
236.976 183.168 o
grestore
gsave
227.436652 168.574250 translate
0.000000 rotate
0.000000 0.000000 m /one glyphshow
6.362305 0.000000 m /zero glyphshow
12.724609 0.000000 m /zero glyphshow
grestore
2 setlinecap
0.690 setgray
gsave
357.1 121 57.6 183.2 clipbox
277.761462 183.168 m
277.761462 304.128 l
stroke
grestore
0 setlinecap
0.000 setgray
gsave
/o {
gsave
newpath
translate
0.8 setlinewidth
1 setlinejoin
0 setlinecap
0 0 m
0 -3.5 l

gsave
0.000 setgray
fill
grestore
stroke
grestore
} bind def
277.761 183.168 o
grestore
gsave
268.222399 168.574250 translate
0.000000 rotate
0.000000 0.000000 m /one glyphshow
6.362305 0.000000 m /two glyphshow
12.724609 0.000000 m /five glyphshow
grestore
2 setlinecap
0.690 setgray
gsave
357.1 121 57.6 183.2 clipbox
318.547209 183.168 m
318.547209 304.128 l
stroke
grestore
0 setlinecap
0.000 setgray
gsave
/o {
gsave
newpath
translate
0.8 setlinewidth
1 setlinejoin
0 setlinecap
0 0 m
0 -3.5 l

gsave
0.000 setgray
fill
grestore
stroke
grestore
} bind def
318.547 183.168 o
grestore
gsave
309.008146 168.574250 translate
0.000000 rotate
0.000000 0.000000 m /one glyphshow
6.362305 0.000000 m /five glyphshow
12.724609 0.000000 m /zero glyphshow
grestore
2 setlinecap
0.690 setgray
gsave
357.1 121 57.6 183.2 clipbox
359.332956 183.168 m
359.332956 304.128 l
stroke
grestore
0 setlinecap
0.000 setgray
gsave
/o {
gsave
newpath
translate
0.8 setlinewidth
1 setlinejoin
0 setlinecap
0 0 m
0 -3.5 l

gsave
0.000 setgray
fill
grestore
stroke
grestore
} bind def
359.333 183.168 o
grestore
gsave
349.793893 168.574250 translate
0.000000 rotate
0.000000 0.000000 m /one glyphshow
6.362305 0.000000 m /seven glyphshow
12.724609 0.000000 m /five glyphshow
grestore
2 setlinecap
0.690 setgray
gsave
357.1 121 57.6 183.2 clipbox
400.118703 183.168 m
400.118703 304.128 l
stroke
grestore
0 setlinecap
0.000 setgray
gsave
/o {
gsave
newpath
translate
0.8 setlinewidth
1 setlinejoin
0 setlinecap
0 0 m
0 -3.5 l

gsave
0.000 setgray
fill
grestore
stroke
grestore
} bind def
400.119 183.168 o
grestore
gsave
390.579640 168.574250 translate
0.000000 rotate
0.000000 0.000000 m /two glyphshow
6.362305 0.000000 m /zero glyphshow
12.724609 0.000000 m /zero glyphshow
grestore
gsave
217.410000 154.902375 translate
0.000000 rotate
0.000000 0.000000 m /S glyphshow
6.347656 0.000000 m /a glyphshow
12.475586 0.000000 m /m glyphshow
22.216797 0.000000 m /p glyphshow
28.564453 0.000000 m /l glyphshow
31.342773 0.000000 m /e glyphshow
grestore
2 setlinecap
0.690 setgray
gsave
357.1 121 57.6 183.2 clipbox
57.6 202.760229 m
414.72 202.760229 l
stroke
grestore
0 setlinecap
0.000 setgray
gsave
/o {
gsave
newpath
translate
0.8 setlinewidth
1 setlinejoin
0 setlinecap
0 0 m
-3.5 0 l

gsave
0.000 setgray
fill
grestore
stroke
grestore
} bind def
57.6 202.76 o
grestore
gsave
26.318750 198.963354 translate
0.000000 rotate
0.000000 0.000000 m /minus glyphshow
8.378906 0.000000 m /zero glyphshow
14.741211 0.000000 m /period glyphshow
17.919922 0.000000 m /five glyphshow
grestore
2 setlinecap
0.690 setgray
gsave
357.1 121 57.6 183.2 clipbox
57.6 241.248791 m
414.72 241.248791 l
stroke
grestore
0 setlinecap
0.000 setgray
gsave
/o {
gsave
newpath
translate
0.8 setlinewidth
1 setlinejoin
0 setlinecap
0 0 m
-3.5 0 l

gsave
0.000 setgray
fill
grestore
stroke
grestore
} bind def
57.6 241.249 o
grestore
gsave
34.693750 237.451916 translate
0.000000 rotate
0.000000 0.000000 m /zero glyphshow
6.362305 0.000000 m /period glyphshow
9.541016 0.000000 m /zero glyphshow
grestore
2 setlinecap
0.690 setgray
gsave
357.1 121 57.6 183.2 clipbox
57.6 279.737353 m
414.72 279.737353 l
stroke
grestore
0 setlinecap
0.000 setgray
gsave
/o {
gsave
newpath
translate
0.8 setlinewidth
1 setlinejoin
0 setlinecap
0 0 m
-3.5 0 l

gsave
0.000 setgray
fill
grestore
stroke
grestore
} bind def
57.6 279.737 o
grestore
gsave
34.693750 275.940478 translate
0.000000 rotate
0.000000 0.000000 m /zero glyphshow
6.362305 0.000000 m /period glyphshow
9.541016 0.000000 m /five glyphshow
grestore
gsave
20.240625 199.632375 translate
90.000000 rotate
0.000000 0.000000 m /P glyphshow
6.030273 0.000000 m /o glyphshow
12.148438 0.000000 m /s glyphshow
17.358398 0.000000 m /i glyphshow
20.136719 0.000000 m /t glyphshow
24.057617 0.000000 m /i glyphshow
26.835938 0.000000 m /o glyphshow
32.954102 0.000000 m /n glyphshow
39.291992 0.000000 m /space glyphshow
42.470703 0.000000 m /E glyphshow
48.789062 0.000000 m /r glyphshow
52.900391 0.000000 m /r glyphshow
57.011719 0.000000 m /o glyphshow
63.129883 0.000000 m /r glyphshow
67.241211 0.000000 m /space glyphshow
70.419922 0.000000 m /bracketleft glyphshow
74.321289 0.000000 m /m glyphshow
84.062500 0.000000 m /bracketright glyphshow
grestore
1.500 setlinewidth
2 setlinecap
0.122 0.467 0.706 setrgbcolor
gsave
357.1 121 57.6 183.2 clipbox
73.832727 241.197609 m
75.464157 238.854871 l
77.095587 243.177326 l
78.727017 239.135252 l
80.358447 243.102885 l
81.989877 241.427934 l
83.621307 238.307083 l
85.252736 245.811413 l
86.884166 240.93572 l
88.515596 242.975465 l
90.147026 243.706733 l
91.778456 242.55568 l
93.409886 239.702036 l
95.041316 241.816646 l
96.672746 237.774399 l
98.304175 238.350982 l
99.935605 239.850898 l
101.567035 241.045428 l
103.198465 240.783211 l
104.829895 240.083032 l
106.461325 244.564183 l
108.092755 240.719736 l
109.724185 243.068068 l
112.987044 243.115869 l
114.618474 245.275328 l
116.249904 242.047621 l
117.881334 240.312785 l
119.512764 245.267871 l
121.144194 236.768425 l
122.775624 240.604296 l
124.407053 240.83013 l
126.038483 243.957291 l
127.669913 246.194365 l
129.301343 237.760977 l
130.932773 234.919898 l
132.564203 235.95517 l
134.195633 247.00768 l
135.827063 242.393797 l
137.458492 241.483288 l
139.089922 238.597375 l
140.721352 242.32432 l
142.352782 231.271552 l
143.984212 239.972748 l
145.615642 242.587178 l
147.247072 235.539787 l
148.878502 238.836089 l
150.509931 251.59158 l
152.141361 234.093637 l
153.772791 235.960686 l
155.404221 246.185807 l
157.035651 234.904602 l
158.667081 227.273741 l
160.298511 252.666901 l
161.929941 233.810951 l
163.56137 248.082573 l
165.1928 253.571961 l
166.82423 248.489057 l
168.45566 240.486458 l
170.08709 223.783045 l
171.71852 233.130358 l
173.34995 240.435034 l
174.98138 246.344463 l
176.61281 244.882825 l
178.244239 232.207626 l
179.875669 243.950971 l
181.507099 232.15165 l
183.138529 233.596538 l
184.769959 242.090598 l
186.401389 236.82577 l
188.032819 246.706251 l
189.664249 242.88495 l
191.295678 257.151616 l
192.927108 229.529817 l
194.558538 247.282837 l
196.189968 242.517344 l
197.821398 234.079757 l
199.452828 238.722397 l
201.084258 239.098801 l
202.715688 243.055135 l
204.347117 249.764524 l
205.978547 251.268557 l
207.609977 250.885929 l
209.241407 241.934794 l
210.872837 242.385405 l
212.504267 224.639058 l
214.135697 253.649509 l
215.767127 250.731527 l
217.398556 235.560794 l
219.029986 239.486362 l
220.661416 263.574716 l
222.292846 245.74905 l
223.924276 220.357673 l
225.555706 221.576327 l
227.187136 246.568697 l
228.818566 232.14173 l
230.449995 245.331833 l
232.081425 233.339421 l
233.712855 255.475566 l
235.344285 240.227607 l
236.975715 246.256215 l
238.607145 243.770665 l
240.238575 243.415158 l
241.870005 241.750929 l
243.501434 197.051214 l
245.132864 261.218367 l
246.764294 239.138682 l
248.395724 242.332673 l
250.027154 252.025239 l
251.658584 264.232845 l
253.290014 248.057988 l
254.921444 247.4018 l
256.552873 267.906883 l
258.184303 270.122364 l
259.815733 231.557149 l
261.447163 255.574137 l
263.078593 236.152718 l
264.710023 242.572157 l
266.341453 268.840209 l
267.972883 242.030226 l
269.604312 245.538376 l
271.235742 244.050877 l
272.867172 243.884103 l
274.498602 224.431384 l
276.130032 237.631699 l
277.761462 269.567525 l
279.392892 236.603648 l
281.024322 250.034552 l
282.655751 223.592056 l
284.287181 215.146899 l
285.918611 217.014684 l
287.550041 250.492886 l
289.181471 217.547668 l
290.812901 240.858924 l
292.444331 254.894249 l
294.075761 279.179783 l
295.70719 251.028269 l
297.33862 220.333667 l
298.97005 249.004612 l
300.60148 249.166344 l
302.23291 243.817552 l
303.86434 220.782422 l
305.49577 234.227233 l
307.1272 256.011346 l
308.75863 255.927313 l
310.390059 259.428343 l
312.021489 240.242086 l
313.652919 273.594072 l
315.284349 269.763724 l
316.915779 268.067437 l
318.547209 240.400455 l
320.178639 262.550887 l
321.810069 254.685921 l
325.072928 232.614876 l
326.704358 266.362439 l
328.335788 289.537942 l
329.967218 227.709478 l
331.598648 234.41044 l
333.230078 274.226121 l
334.861508 280.213872 l
336.492937 254.183232 l
338.124367 240.592998 l
339.755797 260.78262 l
341.387227 277.909922 l
343.018657 265.053973 l
344.650087 294.926414 l
346.281517 267.597122 l
347.912947 248.713185 l
349.544376 253.478665 l
351.175806 246.592021 l
352.807236 250.753645 l
354.438666 225.956304 l
356.070096 260.962825 l
357.701526 283.327716 l
359.332956 249.688063 l
360.964386 271.349207 l
362.595815 282.711237 l
364.227245 249.192612 l
365.858675 254.422119 l
367.490105 232.085985 l
369.121535 248.158261 l
370.752965 257.669486 l
372.384395 260.821826 l
374.015825 292.076669 l
375.647254 260.723453 l
377.278684 233.736677 l
378.910114 267.228887 l
380.541544 256.481226 l
382.172974 234.565206 l
383.804404 261.934235 l
385.435834 253.496454 l
387.067264 246.130582 l
388.698693 228.923025 l
390.330123 242.642101 l
391.961553 246.097653 l
393.592983 245.068841 l
395.224413 235.166369 l
396.855843 278.505416 l
398.487273 243.870485 l
398.487273 243.870485 l
stroke
grestore
1.000 setlinewidth
0 setlinecap
gsave
357.1 121 57.6 183.2 clipbox
/o {
gsave
newpath
translate
1.0 setlinewidth
1 setlinejoin
0 setlinecap
0 -1.5 m
0.397805 -1.5 0.77937 -1.341951 1.06066 -1.06066 c
1.341951 -0.77937 1.5 -0.397805 1.5 0 c
1.5 0.397805 1.341951 0.77937 1.06066 1.06066 c
0.77937 1.341951 0.397805 1.5 0 1.5 c
-0.397805 1.5 -0.77937 1.341951 -1.06066 1.06066 c
-1.341951 0.77937 -1.5 0.397805 -1.5 0 c
-1.5 -0.397805 -1.341951 -0.77937 -1.06066 -1.06066 c
-0.77937 -1.341951 -0.397805 -1.5 0 -1.5 c
cl

gsave
0.122 0.467 0.706 setrgbcolor
fill
grestore
stroke
grestore
} bind def
73.8327 241.198 o
75.4642 238.855 o
77.0956 243.177 o
78.727 239.135 o
80.3584 243.103 o
81.9899 241.428 o
83.6213 238.307 o
85.2527 245.811 o
86.8842 240.936 o
88.5156 242.975 o
90.147 243.707 o
91.7785 242.556 o
93.4099 239.702 o
95.0413 241.817 o
96.6727 237.774 o
98.3042 238.351 o
99.9356 239.851 o
101.567 241.045 o
103.198 240.783 o
104.83 240.083 o
106.461 244.564 o
108.093 240.72 o
109.724 243.068 o
111.356 243.134 o
112.987 243.116 o
114.618 245.275 o
116.25 242.048 o
117.881 240.313 o
119.513 245.268 o
121.144 236.768 o
122.776 240.604 o
124.407 240.83 o
126.038 243.957 o
127.67 246.194 o
129.301 237.761 o
130.933 234.92 o
132.564 235.955 o
134.196 247.008 o
135.827 242.394 o
137.458 241.483 o
139.09 238.597 o
140.721 242.324 o
142.353 231.272 o
143.984 239.973 o
145.616 242.587 o
147.247 235.54 o
148.879 238.836 o
150.51 251.592 o
152.141 234.094 o
153.773 235.961 o
155.404 246.186 o
157.036 234.905 o
158.667 227.274 o
160.299 252.667 o
161.93 233.811 o
163.561 248.083 o
165.193 253.572 o
166.824 248.489 o
168.456 240.486 o
170.087 223.783 o
171.719 233.13 o
173.35 240.435 o
174.981 246.344 o
176.613 244.883 o
178.244 232.208 o
179.876 243.951 o
181.507 232.152 o
183.139 233.597 o
184.77 242.091 o
186.401 236.826 o
188.033 246.706 o
189.664 242.885 o
191.296 257.152 o
192.927 229.53 o
194.559 247.283 o
196.19 242.517 o
197.821 234.08 o
199.453 238.722 o
201.084 239.099 o
202.716 243.055 o
204.347 249.765 o
205.979 251.269 o
207.61 250.886 o
209.241 241.935 o
210.873 242.385 o
212.504 224.639 o
214.136 253.65 o
215.767 250.732 o
217.399 235.561 o
219.03 239.486 o
220.661 263.575 o
222.293 245.749 o
223.924 220.358 o
225.556 221.576 o
227.187 246.569 o
228.819 232.142 o
230.45 245.332 o
232.081 233.339 o
233.713 255.476 o
235.344 240.228 o
236.976 246.256 o
238.607 243.771 o
240.239 243.415 o
241.87 241.751 o
243.501 197.051 o
245.133 261.218 o
246.764 239.139 o
248.396 242.333 o
250.027 252.025 o
251.659 264.233 o
253.29 248.058 o
254.921 247.402 o
256.553 267.907 o
258.184 270.122 o
259.816 231.557 o
261.447 255.574 o
263.079 236.153 o
264.71 242.572 o
266.341 268.84 o
267.973 242.03 o
269.604 245.538 o
271.236 244.051 o
272.867 243.884 o
274.499 224.431 o
276.13 237.632 o
277.761 269.568 o
279.393 236.604 o
281.024 250.035 o
282.656 223.592 o
284.287 215.147 o
285.919 217.015 o
287.55 250.493 o
289.181 217.548 o
290.813 240.859 o
292.444 254.894 o
294.076 279.18 o
295.707 251.028 o
297.339 220.334 o
298.97 249.005 o
300.601 249.166 o
302.233 243.818 o
303.864 220.782 o
305.496 234.227 o
307.127 256.011 o
308.759 255.927 o
310.39 259.428 o
312.021 240.242 o
313.653 273.594 o
315.284 269.764 o
316.916 268.067 o
318.547 240.4 o
320.179 262.551 o
321.81 254.686 o
323.441 243.95 o
325.073 232.615 o
326.704 266.362 o
328.336 289.538 o
329.967 227.709 o
331.599 234.41 o
333.23 274.226 o
334.862 280.214 o
336.493 254.183 o
338.124 240.593 o
339.756 260.783 o
341.387 277.91 o
343.019 265.054 o
344.65 294.926 o
346.282 267.597 o
347.913 248.713 o
349.544 253.479 o
351.176 246.592 o
352.807 250.754 o
354.439 225.956 o
356.07 260.963 o
357.702 283.328 o
359.333 249.688 o
360.964 271.349 o
362.596 282.711 o
364.227 249.193 o
365.859 254.422 o
367.49 232.086 o
369.122 248.158 o
370.753 257.669 o
372.384 260.822 o
374.016 292.077 o
375.647 260.723 o
377.279 233.737 o
378.91 267.229 o
380.542 256.481 o
382.173 234.565 o
383.804 261.934 o
385.436 253.496 o
387.067 246.131 o
388.699 228.923 o
390.33 242.642 o
391.962 246.098 o
393.593 245.069 o
395.224 235.166 o
396.856 278.505 o
398.487 243.87 o
grestore
1.500 setlinewidth
2 setlinecap
1.000 0.498 0.055 setrgbcolor
gsave
357.1 121 57.6 183.2 clipbox
73.832727 245.035305 m
75.464157 239.687445 l
77.095587 242.240093 l
78.727017 240.282701 l
80.358447 243.986111 l
81.989877 238.501825 l
83.621307 244.00357 l
85.252736 237.538142 l
86.884166 245.98633 l
88.515596 239.794849 l
90.147026 237.998707 l
91.778456 236.406251 l
93.409886 241.701625 l
95.041316 240.702526 l
96.672746 245.757445 l
98.304175 247.176299 l
99.935605 243.046532 l
101.567035 242.346375 l
103.198465 244.806007 l
104.829895 241.073851 l
106.461325 238.515064 l
108.092755 244.449018 l
109.724185 238.911666 l
111.355614 240.411412 l
112.987044 242.475157 l
114.618474 232.940127 l
116.249904 238.241603 l
117.881334 241.281513 l
119.512764 236.040767 l
121.144194 238.937577 l
122.775624 244.193215 l
124.407053 238.868728 l
126.038483 237.524811 l
127.669913 238.641584 l
129.301343 243.87569 l
130.932773 239.511516 l
132.564203 240.475638 l
134.195633 236.371904 l
135.827063 242.598531 l
137.458492 233.973445 l
139.089922 239.313615 l
140.721352 231.30358 l
142.352782 242.072669 l
143.984212 237.844808 l
145.615642 243.628463 l
147.247072 242.657359 l
148.878502 239.551906 l
150.509931 233.641358 l
152.141361 236.436374 l
153.772791 233.193277 l
155.404221 238.385719 l
157.035651 240.9615 l
158.667081 242.630085 l
160.298511 244.078358 l
161.929941 247.774581 l
163.56137 244.149871 l
165.1928 239.217641 l
166.82423 236.404665 l
168.45566 242.595385 l
170.08709 211.872119 l
171.71852 230.053786 l
173.34995 238.535204 l
174.98138 234.666778 l
176.61281 236.571405 l
178.244239 242.804541 l
179.875669 238.303772 l
181.507099 229.675728 l
183.138529 241.297592 l
184.769959 226.830666 l
186.401389 239.856106 l
188.032819 247.436934 l
189.664249 237.502017 l
191.295678 244.067727 l
192.927108 232.452759 l
194.558538 241.580219 l
196.189968 244.001548 l
197.821398 233.906009 l
199.452828 230.087882 l
201.084258 234.497426 l
202.715688 231.580964 l
204.347117 234.76818 l
205.978547 226.958325 l
207.609977 243.75108 l
209.241407 239.396308 l
210.872837 236.755844 l
212.504267 236.353804 l
214.135697 231.971442 l
215.767127 234.141598 l
217.398556 199.737335 l
219.029986 231.535927 l
220.661416 232.861418 l
222.292846 248.929445 l
223.924276 236.840037 l
225.555706 248.256893 l
227.187136 256.575182 l
228.818566 227.977457 l
230.449995 238.097943 l
232.081425 250.004703 l
233.712855 230.338316 l
235.344285 213.927816 l
236.975715 250.855813 l
238.607145 223.262581 l
240.238575 248.655777 l
241.870005 242.923717 l
243.501434 230.279402 l
245.132864 241.215184 l
246.764294 221.684011 l
248.395724 236.77973 l
250.027154 233.455698 l
251.658584 254.796744 l
253.290014 234.342631 l
254.921444 232.70031 l
256.552873 229.239346 l
258.184303 252.295955 l
259.815733 220.979158 l
261.447163 245.156851 l
263.078593 262.674846 l
264.710023 225.369181 l
266.341453 229.83395 l
267.972883 231.676665 l
269.604312 239.445029 l
271.235742 236.571249 l
272.867172 209.923811 l
274.498602 235.648512 l
276.130032 245.241963 l
277.761462 247.20262 l
279.392892 243.28468 l
281.024322 234.402637 l
282.655751 227.183327 l
284.287181 250.745049 l
285.918611 210.286302 l
287.550041 234.711339 l
289.181471 277.780023 l
290.812901 225.041482 l
292.444331 238.542162 l
294.075761 202.595081 l
295.70719 212.053206 l
297.33862 271.086804 l
298.97005 207.784635 l
300.60148 238.710191 l
302.23291 261.020798 l
303.86434 203.165674 l
305.49577 252.190739 l
307.1272 261.068766 l
308.75863 254.973346 l
310.390059 244.973886 l
312.021489 238.301258 l
313.652919 218.77834 l
315.284349 247.910604 l
316.915779 246.670695 l
318.547209 233.457658 l
320.178639 208.999365 l
321.810069 263.911572 l
323.441498 249.605312 l
325.072928 229.279973 l
326.704358 247.403383 l
328.335788 252.285871 l
329.967218 228.276622 l
331.598648 236.94828 l
333.230078 250.4256 l
334.861508 210.761654 l
336.492937 239.222751 l
338.124367 247.8499 l
339.755797 188.666182 l
341.387227 238.870653 l
343.018657 270.009035 l
344.650087 231.071963 l
346.281517 240.733959 l
349.544376 230.173634 l
351.175806 238.234611 l
352.807236 258.937938 l
354.438666 242.094541 l
356.070096 233.714149 l
357.701526 251.793847 l
359.332956 272.101006 l
360.964386 225.529898 l
362.595815 263.581355 l
364.227245 241.321059 l
365.858675 251.546001 l
367.490105 252.943979 l
369.121535 215.59756 l
370.752965 240.751859 l
372.384395 213.696526 l
374.015825 268.126798 l
375.647254 241.177799 l
377.278684 254.496148 l
378.910114 242.334109 l
380.541544 256.095559 l
382.172974 242.088443 l
383.804404 241.115922 l
385.435834 276.125221 l
387.067264 227.720446 l
388.698693 251.782458 l
390.330123 249.99424 l
391.961553 259.39301 l
393.592983 220.254572 l
395.224413 249.589251 l
396.855843 221.350995 l
398.487273 261.378702 l
398.487273 261.378702 l
stroke
grestore
1.000 setlinewidth
0 setlinecap
gsave
357.1 121 57.6 183.2 clipbox
/o {
gsave
newpath
translate
1.0 setlinewidth
1 setlinejoin
0 setlinecap
0 -1.5 m
0.397805 -1.5 0.77937 -1.341951 1.06066 -1.06066 c
1.341951 -0.77937 1.5 -0.397805 1.5 0 c
1.5 0.397805 1.341951 0.77937 1.06066 1.06066 c
0.77937 1.341951 0.397805 1.5 0 1.5 c
-0.397805 1.5 -0.77937 1.341951 -1.06066 1.06066 c
-1.341951 0.77937 -1.5 0.397805 -1.5 0 c
-1.5 -0.397805 -1.341951 -0.77937 -1.06066 -1.06066 c
-0.77937 -1.341951 -0.397805 -1.5 0 -1.5 c
cl

gsave
1.000 0.498 0.055 setrgbcolor
fill
grestore
stroke
grestore
} bind def
73.8327 245.035 o
75.4642 239.687 o
77.0956 242.24 o
78.727 240.283 o
80.3584 243.986 o
81.9899 238.502 o
83.6213 244.004 o
85.2527 237.538 o
86.8842 245.986 o
88.5156 239.795 o
90.147 237.999 o
91.7785 236.406 o
93.4099 241.702 o
95.0413 240.703 o
96.6727 245.757 o
98.3042 247.176 o
99.9356 243.047 o
101.567 242.346 o
103.198 244.806 o
104.83 241.074 o
106.461 238.515 o
108.093 244.449 o
109.724 238.912 o
111.356 240.411 o
112.987 242.475 o
114.618 232.94 o
116.25 238.242 o
117.881 241.282 o
119.513 236.041 o
121.144 238.938 o
122.776 244.193 o
124.407 238.869 o
126.038 237.525 o
127.67 238.642 o
129.301 243.876 o
130.933 239.512 o
132.564 240.476 o
134.196 236.372 o
135.827 242.599 o
137.458 233.973 o
139.09 239.314 o
140.721 231.304 o
142.353 242.073 o
143.984 237.845 o
145.616 243.628 o
147.247 242.657 o
148.879 239.552 o
150.51 233.641 o
152.141 236.436 o
153.773 233.193 o
155.404 238.386 o
157.036 240.962 o
158.667 242.63 o
160.299 244.078 o
161.93 247.775 o
163.561 244.15 o
165.193 239.218 o
166.824 236.405 o
168.456 242.595 o
170.087 211.872 o
171.719 230.054 o
173.35 238.535 o
174.981 234.667 o
176.613 236.571 o
178.244 242.805 o
179.876 238.304 o
181.507 229.676 o
183.139 241.298 o
184.77 226.831 o
186.401 239.856 o
188.033 247.437 o
189.664 237.502 o
191.296 244.068 o
192.927 232.453 o
194.559 241.58 o
196.19 244.002 o
197.821 233.906 o
199.453 230.088 o
201.084 234.497 o
202.716 231.581 o
204.347 234.768 o
205.979 226.958 o
207.61 243.751 o
209.241 239.396 o
210.873 236.756 o
212.504 236.354 o
214.136 231.971 o
215.767 234.142 o
217.399 199.737 o
219.03 231.536 o
220.661 232.861 o
222.293 248.929 o
223.924 236.84 o
225.556 248.257 o
227.187 256.575 o
228.819 227.977 o
230.45 238.098 o
232.081 250.005 o
233.713 230.338 o
235.344 213.928 o
236.976 250.856 o
238.607 223.263 o
240.239 248.656 o
241.87 242.924 o
243.501 230.279 o
245.133 241.215 o
246.764 221.684 o
248.396 236.78 o
250.027 233.456 o
251.659 254.797 o
253.29 234.343 o
254.921 232.7 o
256.553 229.239 o
258.184 252.296 o
259.816 220.979 o
261.447 245.157 o
263.079 262.675 o
264.71 225.369 o
266.341 229.834 o
267.973 231.677 o
269.604 239.445 o
271.236 236.571 o
272.867 209.924 o
274.499 235.649 o
276.13 245.242 o
277.761 247.203 o
279.393 243.285 o
281.024 234.403 o
282.656 227.183 o
284.287 250.745 o
285.919 210.286 o
287.55 234.711 o
289.181 277.78 o
290.813 225.041 o
292.444 238.542 o
294.076 202.595 o
295.707 212.053 o
297.339 271.087 o
298.97 207.785 o
300.601 238.71 o
302.233 261.021 o
303.864 203.166 o
305.496 252.191 o
307.127 261.069 o
308.759 254.973 o
310.39 244.974 o
312.021 238.301 o
313.653 218.778 o
315.284 247.911 o
316.916 246.671 o
318.547 233.458 o
320.179 208.999 o
321.81 263.912 o
323.441 249.605 o
325.073 229.28 o
326.704 247.403 o
328.336 252.286 o
329.967 228.277 o
331.599 236.948 o
333.23 250.426 o
334.862 210.762 o
336.493 239.223 o
338.124 247.85 o
339.756 188.666 o
341.387 238.871 o
343.019 270.009 o
344.65 231.072 o
346.282 240.734 o
347.913 235.453 o
349.544 230.174 o
351.176 238.235 o
352.807 258.938 o
354.439 242.095 o
356.07 233.714 o
357.702 251.794 o
359.333 272.101 o
360.964 225.53 o
362.596 263.581 o
364.227 241.321 o
365.859 251.546 o
367.49 252.944 o
369.122 215.598 o
370.753 240.752 o
372.384 213.697 o
374.016 268.127 o
375.647 241.178 o
377.279 254.496 o
378.91 242.334 o
380.542 256.096 o
382.173 242.088 o
383.804 241.116 o
385.436 276.125 o
387.067 227.72 o
388.699 251.782 o
390.33 249.994 o
391.962 259.393 o
393.593 220.255 o
395.224 249.589 o
396.856 221.351 o
398.487 261.379 o
grestore
1.500 setlinewidth
2 setlinecap
0.173 0.627 0.173 setrgbcolor
gsave
357.1 121 57.6 183.2 clipbox
73.832727 238.678704 m
75.464157 242.637532 l
77.095587 245.670294 l
78.727017 237.38753 l
80.358447 241.139996 l
81.989877 241.702204 l
83.621307 236.749643 l
85.252736 238.876178 l
86.884166 244.318945 l
88.515596 244.239234 l
90.147026 244.765509 l
91.778456 238.850776 l
93.409886 241.474165 l
95.041316 233.997641 l
96.672746 238.54835 l
98.304175 246.564396 l
99.935605 244.039455 l
101.567035 242.197474 l
103.198465 240.145799 l
104.829895 234.213744 l
106.461325 247.739476 l
108.092755 241.593378 l
109.724185 240.546734 l
111.355614 248.104402 l
112.987044 240.660497 l
114.618474 244.027351 l
116.249904 246.494105 l
117.881334 235.320862 l
119.512764 236.026229 l
121.144194 235.149998 l
122.775624 237.083353 l
124.407053 237.593116 l
126.038483 242.989769 l
127.669913 253.523311 l
129.301343 243.24794 l
130.932773 231.671072 l
132.564203 251.214554 l
134.195633 233.739161 l
135.827063 237.842039 l
137.458492 233.391157 l
139.089922 228.417678 l
140.721352 226.341107 l
142.352782 238.254459 l
143.984212 253.49973 l
145.615642 253.238904 l
147.247072 233.322303 l
148.878502 231.309936 l
150.509931 243.009743 l
152.141361 243.059661 l
153.772791 239.65167 l
155.404221 236.799622 l
157.035651 241.285089 l
158.667081 236.72867 l
160.298511 261.564182 l
161.929941 246.648076 l
163.56137 249.335157 l
165.1928 253.625581 l
166.82423 246.597464 l
168.45566 239.010141 l
170.08709 210.890841 l
171.71852 220.318848 l
173.34995 265.229228 l
174.98138 246.872264 l
176.61281 241.654986 l
178.244239 230.680862 l
179.875669 248.391375 l
181.507099 226.930563 l
183.138529 238.311541 l
184.769959 215.236263 l
186.401389 240.17708 l
188.032819 239.903381 l
189.664249 231.447157 l
191.295678 248.572435 l
192.927108 233.203213 l
194.558538 243.496952 l
196.189968 258.049045 l
197.821398 245.313864 l
199.452828 254.560971 l
201.084258 220.152857 l
202.715688 237.374836 l
204.347117 243.660276 l
205.978547 254.078199 l
207.609977 240.011708 l
209.241407 235.491299 l
210.872837 242.168727 l
212.504267 234.423122 l
214.135697 232.798348 l
215.767127 220.080509 l
217.398556 216.001129 l
219.029986 260.786797 l
220.661416 249.84348 l
222.292846 258.881679 l
223.924276 231.730374 l
225.555706 240.891959 l
227.187136 236.98959 l
228.818566 209.293283 l
230.449995 244.41219 l
232.081425 264.340407 l
233.712855 236.860486 l
235.344285 232.406236 l
236.975715 245.73381 l
238.607145 255.73679 l
240.238575 252.569947 l
241.870005 244.265766 l
243.501434 206.719614 l
245.132864 257.77012 l
246.764294 229.647039 l
248.395724 222.699849 l
250.027154 227.415441 l
251.658584 247.386298 l
253.290014 259.692941 l
254.921444 270.224167 l
256.552873 231.352245 l
258.184303 253.029711 l
259.815733 238.934012 l
261.447163 249.971215 l
263.078593 226.666706 l
264.710023 224.839251 l
266.341453 220.802837 l
267.972883 245.999326 l
269.604312 247.557327 l
271.235742 262.4517 l
272.867172 245.049992 l
274.498602 252.788511 l
276.130032 243.284717 l
277.761462 235.799794 l
279.392892 250.098756 l
281.024322 270.151314 l
282.655751 220.985302 l
284.287181 238.130379 l
285.918611 234.918083 l
287.550041 211.605434 l
289.181471 267.639841 l
290.812901 241.117586 l
292.444331 237.128541 l
294.075761 258.102545 l
295.70719 228.823732 l
297.33862 271.609152 l
298.97005 229.98049 l
300.60148 256.495117 l
302.23291 246.230657 l
303.86434 244.538991 l
305.49577 266.2272 l
307.1272 267.069512 l
308.75863 279.650218 l
310.390059 236.94838 l
312.021489 262.223329 l
313.652919 249.900942 l
315.284349 257.17188 l
316.915779 282.763261 l
318.547209 239.980263 l
320.178639 246.299465 l
321.810069 284.625963 l
323.441498 241.754163 l
325.072928 212.044192 l
326.704358 233.360121 l
328.335788 287.930537 l
329.967218 230.966646 l
331.598648 221.07605 l
333.230078 254.497124 l
334.861508 229.173298 l
336.492937 263.841824 l
338.124367 272.742284 l
339.755797 243.74465 l
341.387227 286.248626 l
343.018657 241.978078 l
344.650087 233.911101 l
346.281517 251.295411 l
347.912947 245.1101 l
349.544376 229.786918 l
351.175806 232.943803 l
352.807236 260.199257 l
354.438666 208.120688 l
356.070096 265.565991 l
357.701526 253.232275 l
359.332956 264.693853 l
362.595815 273.558471 l
364.227245 270.269728 l
365.858675 234.676933 l
367.490105 248.786729 l
369.121535 232.705126 l
370.752965 270.238235 l
372.384395 259.831082 l
374.015825 265.522267 l
375.647254 226.09694 l
377.278684 228.744997 l
380.541544 270.017782 l
382.172974 237.309958 l
383.804404 218.633231 l
385.435834 262.835927 l
387.067264 233.279701 l
388.698693 216.328049 l
390.330123 232.886753 l
391.961553 238.003386 l
393.592983 298.629818 l
395.224413 242.494515 l
396.855843 214.945331 l
398.487273 257.692113 l
398.487273 257.692113 l
stroke
grestore
1.000 setlinewidth
0 setlinecap
gsave
357.1 121 57.6 183.2 clipbox
/o {
gsave
newpath
translate
1.0 setlinewidth
1 setlinejoin
0 setlinecap
0 -1.5 m
0.397805 -1.5 0.77937 -1.341951 1.06066 -1.06066 c
1.341951 -0.77937 1.5 -0.397805 1.5 0 c
1.5 0.397805 1.341951 0.77937 1.06066 1.06066 c
0.77937 1.341951 0.397805 1.5 0 1.5 c
-0.397805 1.5 -0.77937 1.341951 -1.06066 1.06066 c
-1.341951 0.77937 -1.5 0.397805 -1.5 0 c
-1.5 -0.397805 -1.341951 -0.77937 -1.06066 -1.06066 c
-0.77937 -1.341951 -0.397805 -1.5 0 -1.5 c
cl

gsave
0.173 0.627 0.173 setrgbcolor
fill
grestore
stroke
grestore
} bind def
73.8327 238.679 o
75.4642 242.638 o
77.0956 245.67 o
78.727 237.388 o
80.3584 241.14 o
81.9899 241.702 o
83.6213 236.75 o
85.2527 238.876 o
86.8842 244.319 o
88.5156 244.239 o
90.147 244.766 o
91.7785 238.851 o
93.4099 241.474 o
95.0413 233.998 o
96.6727 238.548 o
98.3042 246.564 o
99.9356 244.039 o
101.567 242.197 o
103.198 240.146 o
104.83 234.214 o
106.461 247.739 o
108.093 241.593 o
109.724 240.547 o
111.356 248.104 o
112.987 240.66 o
114.618 244.027 o
116.25 246.494 o
117.881 235.321 o
119.513 236.026 o
121.144 235.15 o
122.776 237.083 o
124.407 237.593 o
126.038 242.99 o
127.67 253.523 o
129.301 243.248 o
130.933 231.671 o
132.564 251.215 o
134.196 233.739 o
135.827 237.842 o
137.458 233.391 o
139.09 228.418 o
140.721 226.341 o
142.353 238.254 o
143.984 253.5 o
145.616 253.239 o
147.247 233.322 o
148.879 231.31 o
150.51 243.01 o
152.141 243.06 o
153.773 239.652 o
155.404 236.8 o
157.036 241.285 o
158.667 236.729 o
160.299 261.564 o
161.93 246.648 o
163.561 249.335 o
165.193 253.626 o
166.824 246.597 o
168.456 239.01 o
170.087 210.891 o
171.719 220.319 o
173.35 265.229 o
174.981 246.872 o
176.613 241.655 o
178.244 230.681 o
179.876 248.391 o
181.507 226.931 o
183.139 238.312 o
184.77 215.236 o
186.401 240.177 o
188.033 239.903 o
189.664 231.447 o
191.296 248.572 o
192.927 233.203 o
194.559 243.497 o
196.19 258.049 o
197.821 245.314 o
199.453 254.561 o
201.084 220.153 o
202.716 237.375 o
204.347 243.66 o
205.979 254.078 o
207.61 240.012 o
209.241 235.491 o
210.873 242.169 o
212.504 234.423 o
214.136 232.798 o
215.767 220.081 o
217.399 216.001 o
219.03 260.787 o
220.661 249.843 o
222.293 258.882 o
223.924 231.73 o
225.556 240.892 o
227.187 236.99 o
228.819 209.293 o
230.45 244.412 o
232.081 264.34 o
233.713 236.86 o
235.344 232.406 o
236.976 245.734 o
238.607 255.737 o
240.239 252.57 o
241.87 244.266 o
243.501 206.72 o
245.133 257.77 o
246.764 229.647 o
248.396 222.7 o
250.027 227.415 o
251.659 247.386 o
253.29 259.693 o
254.921 270.224 o
256.553 231.352 o
258.184 253.03 o
259.816 238.934 o
261.447 249.971 o
263.079 226.667 o
264.71 224.839 o
266.341 220.803 o
267.973 245.999 o
269.604 247.557 o
271.236 262.452 o
272.867 245.05 o
274.499 252.789 o
276.13 243.285 o
277.761 235.8 o
279.393 250.099 o
281.024 270.151 o
282.656 220.985 o
284.287 238.13 o
285.919 234.918 o
287.55 211.605 o
289.181 267.64 o
290.813 241.118 o
292.444 237.129 o
294.076 258.103 o
295.707 228.824 o
297.339 271.609 o
298.97 229.98 o
300.601 256.495 o
302.233 246.231 o
303.864 244.539 o
305.496 266.227 o
307.127 267.07 o
308.759 279.65 o
310.39 236.948 o
312.021 262.223 o
313.653 249.901 o
315.284 257.172 o
316.916 282.763 o
318.547 239.98 o
320.179 246.299 o
321.81 284.626 o
323.441 241.754 o
325.073 212.044 o
326.704 233.36 o
328.336 287.931 o
329.967 230.967 o
331.599 221.076 o
333.23 254.497 o
334.862 229.173 o
336.493 263.842 o
338.124 272.742 o
339.756 243.745 o
341.387 286.249 o
343.019 241.978 o
344.65 233.911 o
346.282 251.295 o
347.913 245.11 o
349.544 229.787 o
351.176 232.944 o
352.807 260.199 o
354.439 208.121 o
356.07 265.566 o
357.702 253.232 o
359.333 264.694 o
360.964 269.034 o
362.596 273.558 o
364.227 270.27 o
365.859 234.677 o
367.49 248.787 o
369.122 232.705 o
370.753 270.238 o
372.384 259.831 o
374.016 265.522 o
375.647 226.097 o
377.279 228.745 o
378.91 248.929 o
380.542 270.018 o
382.173 237.31 o
383.804 218.633 o
385.436 262.836 o
387.067 233.28 o
388.699 216.328 o
390.33 232.887 o
391.962 238.003 o
393.593 298.63 o
395.224 242.495 o
396.856 214.945 o
398.487 257.692 o
grestore
0.800 setlinewidth
0 setlinejoin
2 setlinecap
[] 0 setdash
0.000 setgray
gsave
57.6 183.168 m
57.6 304.128 l
stroke
grestore
gsave
414.72 183.168 m
414.72 304.128 l
stroke
grestore
gsave
57.6 183.168 m
414.72 183.168 l
stroke
grestore
gsave
57.6 304.128 m
414.72 304.128 l
stroke
grestore
1.000 setlinewidth
0 setlinecap
0.800 setgray
gsave
64.6 252.112375 m
102.521875 252.112375 l
103.855208 252.112375 104.521875 252.779042 104.521875 254.112375 c
104.521875 297.128 l
104.521875 298.461333 103.855208 299.128 102.521875 299.128 c
64.6 299.128 l
63.266667 299.128 62.6 298.461333 62.6 297.128 c
62.6 254.112375 l
62.6 252.779042 63.266667 252.112375 64.6 252.112375 c
cl
gsave
1.000 setgray
fill
grestore
stroke
grestore
1.500 setlinewidth
1 setlinejoin
2 setlinecap
[] 0 setdash
0.122 0.467 0.706 setrgbcolor
gsave
66.6 291.03425 m
86.6 291.03425 l
stroke
grestore
1.000 setlinewidth
0 setlinecap
gsave
/o {
gsave
newpath
translate
1.0 setlinewidth
1 setlinejoin
0 setlinecap
0 -1.5 m
0.397805 -1.5 0.77937 -1.341951 1.06066 -1.06066 c
1.341951 -0.77937 1.5 -0.397805 1.5 0 c
1.5 0.397805 1.341951 0.77937 1.06066 1.06066 c
0.77937 1.341951 0.397805 1.5 0 1.5 c
-0.397805 1.5 -0.77937 1.341951 -1.06066 1.06066 c
-1.341951 0.77937 -1.5 0.397805 -1.5 0 c
-1.5 -0.397805 -1.341951 -0.77937 -1.06066 -1.06066 c
-0.77937 -1.341951 -0.397805 -1.5 0 -1.5 c
cl

gsave
0.122 0.467 0.706 setrgbcolor
fill
grestore
stroke
grestore
} bind def
76.6 291.034 o
grestore
0.000 setgray
gsave
94.600000 287.534250 translate
0.000000 rotate
0.000000 0.000000 m /x glyphshow
grestore
1.500 setlinewidth
2 setlinecap
1.000 0.498 0.055 setrgbcolor
gsave
66.6 276.362375 m
86.6 276.362375 l
stroke
grestore
1.000 setlinewidth
0 setlinecap
gsave
/o {
gsave
newpath
translate
1.0 setlinewidth
1 setlinejoin
0 setlinecap
0 -1.5 m
0.397805 -1.5 0.77937 -1.341951 1.06066 -1.06066 c
1.341951 -0.77937 1.5 -0.397805 1.5 0 c
1.5 0.397805 1.341951 0.77937 1.06066 1.06066 c
0.77937 1.341951 0.397805 1.5 0 1.5 c
-0.397805 1.5 -0.77937 1.341951 -1.06066 1.06066 c
-1.341951 0.77937 -1.5 0.397805 -1.5 0 c
-1.5 -0.397805 -1.341951 -0.77937 -1.06066 -1.06066 c
-0.77937 -1.341951 -0.397805 -1.5 0 -1.5 c
cl

gsave
1.000 0.498 0.055 setrgbcolor
fill
grestore
stroke
grestore
} bind def
76.6 276.362 o
grestore
0.000 setgray
gsave
94.600000 272.862375 translate
0.000000 rotate
0.000000 0.000000 m /y glyphshow
grestore
1.500 setlinewidth
2 setlinecap
0.173 0.627 0.173 setrgbcolor
gsave
66.6 261.6905 m
86.6 261.6905 l
stroke
grestore
1.000 setlinewidth
0 setlinecap
gsave
/o {
gsave
newpath
translate
1.0 setlinewidth
1 setlinejoin
0 setlinecap
0 -1.5 m
0.397805 -1.5 0.77937 -1.341951 1.06066 -1.06066 c
1.341951 -0.77937 1.5 -0.397805 1.5 0 c
1.5 0.397805 1.341951 0.77937 1.06066 1.06066 c
0.77937 1.341951 0.397805 1.5 0 1.5 c
-0.397805 1.5 -0.77937 1.341951 -1.06066 1.06066 c
-1.341951 0.77937 -1.5 0.397805 -1.5 0 c
-1.5 -0.397805 -1.341951 -0.77937 -1.06066 -1.06066 c
-0.77937 -1.341951 -0.397805 -1.5 0 -1.5 c
cl

gsave
0.173 0.627 0.173 setrgbcolor
fill
grestore
stroke
grestore
} bind def
76.6 261.69 o
grestore
0.000 setgray
gsave
94.600000 258.190500 translate
0.000000 rotate
0.000000 0.000000 m /z glyphshow
grestore
gsave
57.6 38.016 m
414.72 38.016 l
414.72 158.976 l
57.6 158.976 l
cl
1.000 setgray
fill
grestore
0.800 setlinewidth
2 setlinecap
0.690 setgray
gsave
357.1 121 57.6 38.02 clipbox
73.832727 38.016 m
73.832727 158.976 l
stroke
grestore
0 setlinecap
0.000 setgray
gsave
/o {
gsave
newpath
translate
0.8 setlinewidth
1 setlinejoin
0 setlinecap
0 0 m
0 -3.5 l

gsave
0.000 setgray
fill
grestore
stroke
grestore
} bind def
73.8327 38.016 o
grestore
gsave
70.653040 23.422250 translate
0.000000 rotate
0.000000 0.000000 m /zero glyphshow
grestore
2 setlinecap
0.690 setgray
gsave
357.1 121 57.6 38.02 clipbox
114.618474 38.016 m
114.618474 158.976 l
stroke
grestore
0 setlinecap
0.000 setgray
gsave
/o {
gsave
newpath
translate
0.8 setlinewidth
1 setlinejoin
0 setlinecap
0 0 m
0 -3.5 l

gsave
0.000 setgray
fill
grestore
stroke
grestore
} bind def
114.618 38.016 o
grestore
gsave
108.259099 23.422250 translate
0.000000 rotate
0.000000 0.000000 m /two glyphshow
6.362305 0.000000 m /five glyphshow
grestore
2 setlinecap
0.690 setgray
gsave
357.1 121 57.6 38.02 clipbox
155.404221 38.016 m
155.404221 158.976 l
stroke
grestore
0 setlinecap
0.000 setgray
gsave
/o {
gsave
newpath
translate
0.8 setlinewidth
1 setlinejoin
0 setlinecap
0 0 m
0 -3.5 l

gsave
0.000 setgray
fill
grestore
stroke
grestore
} bind def
155.404 38.016 o
grestore
gsave
149.044846 23.422250 translate
0.000000 rotate
0.000000 0.000000 m /five glyphshow
6.362305 0.000000 m /zero glyphshow
grestore
2 setlinecap
0.690 setgray
gsave
357.1 121 57.6 38.02 clipbox
196.189968 38.016 m
196.189968 158.976 l
stroke
grestore
0 setlinecap
0.000 setgray
gsave
/o {
gsave
newpath
translate
0.8 setlinewidth
1 setlinejoin
0 setlinecap
0 0 m
0 -3.5 l

gsave
0.000 setgray
fill
grestore
stroke
grestore
} bind def
196.19 38.016 o
grestore
gsave
189.830593 23.422250 translate
0.000000 rotate
0.000000 0.000000 m /seven glyphshow
6.362305 0.000000 m /five glyphshow
grestore
2 setlinecap
0.690 setgray
gsave
357.1 121 57.6 38.02 clipbox
236.975715 38.016 m
236.975715 158.976 l
stroke
grestore
0 setlinecap
0.000 setgray
gsave
/o {
gsave
newpath
translate
0.8 setlinewidth
1 setlinejoin
0 setlinecap
0 0 m
0 -3.5 l

gsave
0.000 setgray
fill
grestore
stroke
grestore
} bind def
236.976 38.016 o
grestore
gsave
227.436652 23.422250 translate
0.000000 rotate
0.000000 0.000000 m /one glyphshow
6.362305 0.000000 m /zero glyphshow
12.724609 0.000000 m /zero glyphshow
grestore
2 setlinecap
0.690 setgray
gsave
357.1 121 57.6 38.02 clipbox
277.761462 38.016 m
277.761462 158.976 l
stroke
grestore
0 setlinecap
0.000 setgray
gsave
/o {
gsave
newpath
translate
0.8 setlinewidth
1 setlinejoin
0 setlinecap
0 0 m
0 -3.5 l

gsave
0.000 setgray
fill
grestore
stroke
grestore
} bind def
277.761 38.016 o
grestore
gsave
268.222399 23.422250 translate
0.000000 rotate
0.000000 0.000000 m /one glyphshow
6.362305 0.000000 m /two glyphshow
12.724609 0.000000 m /five glyphshow
grestore
2 setlinecap
0.690 setgray
gsave
357.1 121 57.6 38.02 clipbox
318.547209 38.016 m
318.547209 158.976 l
stroke
grestore
0 setlinecap
0.000 setgray
gsave
/o {
gsave
newpath
translate
0.8 setlinewidth
1 setlinejoin
0 setlinecap
0 0 m
0 -3.5 l

gsave
0.000 setgray
fill
grestore
stroke
grestore
} bind def
318.547 38.016 o
grestore
gsave
309.008146 23.422250 translate
0.000000 rotate
0.000000 0.000000 m /one glyphshow
6.362305 0.000000 m /five glyphshow
12.724609 0.000000 m /zero glyphshow
grestore
2 setlinecap
0.690 setgray
gsave
357.1 121 57.6 38.02 clipbox
359.332956 38.016 m
359.332956 158.976 l
stroke
grestore
0 setlinecap
0.000 setgray
gsave
/o {
gsave
newpath
translate
0.8 setlinewidth
1 setlinejoin
0 setlinecap
0 0 m
0 -3.5 l

gsave
0.000 setgray
fill
grestore
stroke
grestore
} bind def
359.333 38.016 o
grestore
gsave
349.793893 23.422250 translate
0.000000 rotate
0.000000 0.000000 m /one glyphshow
6.362305 0.000000 m /seven glyphshow
12.724609 0.000000 m /five glyphshow
grestore
2 setlinecap
0.690 setgray
gsave
357.1 121 57.6 38.02 clipbox
400.118703 38.016 m
400.118703 158.976 l
stroke
grestore
0 setlinecap
0.000 setgray
gsave
/o {
gsave
newpath
translate
0.8 setlinewidth
1 setlinejoin
0 setlinecap
0 0 m
0 -3.5 l

gsave
0.000 setgray
fill
grestore
stroke
grestore
} bind def
400.119 38.016 o
grestore
gsave
390.579640 23.422250 translate
0.000000 rotate
0.000000 0.000000 m /two glyphshow
6.362305 0.000000 m /zero glyphshow
12.724609 0.000000 m /zero glyphshow
grestore
gsave
217.410000 9.750375 translate
0.000000 rotate
0.000000 0.000000 m /S glyphshow
6.347656 0.000000 m /a glyphshow
12.475586 0.000000 m /m glyphshow
22.216797 0.000000 m /p glyphshow
28.564453 0.000000 m /l glyphshow
31.342773 0.000000 m /e glyphshow
grestore
2 setlinecap
0.690 setgray
gsave
357.1 121 57.6 38.02 clipbox
57.6 66.748642 m
414.72 66.748642 l
stroke
grestore
0 setlinecap
0.000 setgray
gsave
/o {
gsave
newpath
translate
0.8 setlinewidth
1 setlinejoin
0 setlinecap
0 0 m
-3.5 0 l

gsave
0.000 setgray
fill
grestore
stroke
grestore
} bind def
57.6 66.7486 o
grestore
gsave
23.146875 62.951767 translate
0.000000 rotate
0.000000 0.000000 m /minus glyphshow
8.378906 0.000000 m /one glyphshow
14.741211 0.000000 m /zero glyphshow
21.103516 0.000000 m /zero glyphshow
grestore
2 setlinecap
0.690 setgray
gsave
357.1 121 57.6 38.02 clipbox
57.6 99.840102 m
414.72 99.840102 l
stroke
grestore
0 setlinecap
0.000 setgray
gsave
/o {
gsave
newpath
translate
0.8 setlinewidth
1 setlinejoin
0 setlinecap
0 0 m
-3.5 0 l

gsave
0.000 setgray
fill
grestore
stroke
grestore
} bind def
57.6 99.8401 o
grestore
gsave
44.240625 96.043227 translate
0.000000 rotate
0.000000 0.000000 m /zero glyphshow
grestore
2 setlinecap
0.690 setgray
gsave
357.1 121 57.6 38.02 clipbox
57.6 132.931562 m
414.72 132.931562 l
stroke
grestore
0 setlinecap
0.000 setgray
gsave
/o {
gsave
newpath
translate
0.8 setlinewidth
1 setlinejoin
0 setlinecap
0 0 m
-3.5 0 l

gsave
0.000 setgray
fill
grestore
stroke
grestore
} bind def
57.6 132.932 o
grestore
gsave
31.521875 129.134687 translate
0.000000 rotate
0.000000 0.000000 m /one glyphshow
6.362305 0.000000 m /zero glyphshow
12.724609 0.000000 m /zero glyphshow
grestore
gsave
17.068750 38.746000 translate
90.000000 rotate
0.000000 0.000000 m /E glyphshow
6.318359 0.000000 m /u glyphshow
12.656250 0.000000 m /l glyphshow
15.434570 0.000000 m /e glyphshow
21.586914 0.000000 m /r glyphshow
25.698242 0.000000 m /space glyphshow
28.876953 0.000000 m /a glyphshow
35.004883 0.000000 m /n glyphshow
41.342773 0.000000 m /g glyphshow
47.690430 0.000000 m /l glyphshow
50.468750 0.000000 m /e glyphshow
56.621094 0.000000 m /s glyphshow
61.831055 0.000000 m /space glyphshow
65.009766 0.000000 m /e glyphshow
71.162109 0.000000 m /r glyphshow
75.273438 0.000000 m /r glyphshow
79.384766 0.000000 m /o glyphshow
85.502930 0.000000 m /r glyphshow
89.614258 0.000000 m /space glyphshow
92.792969 0.000000 m /bracketleft glyphshow
96.694336 0.000000 m /d glyphshow
103.041992 0.000000 m /e glyphshow
109.194336 0.000000 m /g glyphshow
115.541992 0.000000 m /bracketright glyphshow
grestore
1.500 setlinewidth
2 setlinecap
0.122 0.467 0.706 setrgbcolor
gsave
357.1 121 57.6 38.02 clipbox
73.832727 102.434645 m
75.464157 97.535035 l
77.095587 98.80531 l
78.727017 101.152235 l
80.358447 100.927288 l
81.989877 98.306994 l
83.621307 103.141953 l
85.252736 100.340922 l
86.884166 100.171333 l
88.515596 96.752242 l
90.147026 97.210727 l
95.041316 102.33021 l
96.672746 101.698575 l
98.304175 101.257183 l
99.935605 97.646261 l
101.567035 101.32371 l
103.198465 100.74492 l
104.829895 102.57533 l
106.461325 98.959963 l
108.092755 101.208605 l
109.724185 97.596272 l
111.355614 93.575942 l
112.987044 100.11322 l
114.618474 94.316979 l
116.249904 96.397978 l
117.881334 101.794825 l
119.512764 98.81595 l
121.144194 101.689994 l
122.775624 99.326636 l
124.407053 97.468219 l
126.038483 99.785036 l
127.669913 91.94315 l
129.301343 101.121259 l
130.932773 105.320063 l
132.564203 92.764303 l
134.195633 103.298407 l
135.827063 100.867847 l
137.458492 100.728217 l
139.089922 103.939272 l
140.721352 102.043639 l
142.352782 95.148369 l
145.615642 94.098325 l
147.247072 98.806621 l
148.878502 100.253118 l
150.509931 99.343642 l
152.141361 100.662651 l
153.772791 100.361926 l
155.404221 106.944667 l
157.035651 101.168081 l
158.667081 99.081011 l
160.298511 90.702644 l
161.929941 98.685933 l
163.56137 93.475529 l
165.1928 91.216455 l
166.82423 89.988785 l
168.45566 96.890955 l
170.08709 112.527447 l
171.71852 100.852539 l
173.34995 87.031005 l
174.98138 103.824158 l
176.61281 98.795407 l
178.244239 104.140454 l
179.875669 88.047209 l
181.507099 106.710922 l
183.138529 100.550156 l
184.769959 112.607597 l
188.032819 103.888914 l
189.664249 106.15717 l
191.295678 103.370231 l
192.927108 104.195581 l
194.558538 96.486064 l
196.189968 93.233556 l
197.821398 94.340852 l
199.452828 96.579472 l
201.084258 102.036327 l
202.715688 103.205139 l
204.347117 105.793862 l
205.978547 90.602926 l
209.241407 115.304974 l
210.872837 107.179388 l
212.504267 110.740133 l
214.135697 94.47602 l
215.767127 98.070273 l
217.398556 113.005511 l
219.029986 90.694009 l
220.661416 97.720555 l
222.292846 89.803943 l
223.924276 91.468339 l
225.555706 95.669112 l
227.187136 101.067904 l
228.818566 107.090115 l
230.449995 94.273144 l
232.081425 90.312145 l
235.344285 103.171852 l
236.975715 98.177965 l
238.607145 98.81937 l
240.238575 92.87967 l
241.870005 81.374098 l
243.501434 101.597167 l
245.132864 91.35477 l
246.764294 107.769814 l
248.395724 99.612571 l
250.027154 98.923251 l
251.658584 101.03437 l
253.290014 85.043315 l
254.921444 79.442638 l
256.552873 111.364945 l
258.184303 123.012445 l
259.815733 89.275346 l
261.447163 93.162877 l
263.078593 91.453697 l
264.710023 111.312738 l
266.341453 99.439127 l
267.972883 104.980998 l
269.604312 103.526476 l
271.235742 95.464999 l
272.867172 123.620894 l
274.498602 98.649685 l
276.130032 107.211129 l
277.761462 97.296937 l
279.392892 99.747381 l
281.024322 99.049731 l
282.655751 91.362465 l
284.287181 85.572519 l
285.918611 140.809511 l
287.550041 110.612833 l
289.181471 96.163106 l
290.812901 145.0073 l
292.444331 109.80245 l
294.075761 107.625136 l
295.70719 113.594488 l
297.33862 92.485979 l
298.97005 115.61236 l
300.60148 103.48273 l
302.23291 105.731265 l
303.86434 93.151524 l
305.49577 109.131458 l
307.1272 112.828978 l
308.75863 97.180792 l
310.390059 103.174641 l
312.021489 100.336583 l
313.652919 102.989228 l
315.284349 92.808738 l
316.915779 74.241102 l
318.547209 116.207009 l
320.178639 102.508434 l
321.810069 95.096735 l
323.441498 88.570845 l
325.072928 104.320328 l
326.704358 89.765661 l
328.335788 117.403645 l
329.967218 95.764598 l
331.598648 83.220124 l
333.230078 91.020587 l
334.861508 124.798362 l
336.492937 118.62664 l
338.124367 109.547825 l
339.755797 102.132719 l
341.387227 109.921948 l
343.018657 93.086564 l
344.650087 83.254116 l
346.281517 114.980966 l
347.912947 101.143316 l
349.544376 100.695342 l
351.175806 113.231229 l
352.807236 101.636019 l
354.438666 100.241394 l
356.070096 145.364278 l
357.701526 101.170566 l
359.332956 89.501217 l
360.964386 103.413975 l
362.595815 91.048335 l
364.227245 108.483712 l
365.858675 74.371447 l
367.490105 100.424403 l
369.121535 97.10381 l
370.752965 141.025715 l
372.384395 123.168772 l
374.015825 89.751365 l
375.647254 91.287491 l
377.278684 99.649863 l
378.910114 66.508327 l
380.541544 130.268902 l
382.172974 89.796625 l
383.804404 103.146321 l
385.435834 113.56186 l
387.067264 84.869329 l
388.698693 92.858919 l
390.330123 99.754457 l
391.961553 102.650827 l
393.592983 103.906628 l
395.224413 80.792579 l
396.855843 72.128593 l
398.487273 106.581664 l
398.487273 106.581664 l
stroke
grestore
1.000 setlinewidth
0 setlinecap
gsave
357.1 121 57.6 38.02 clipbox
/o {
gsave
newpath
translate
1.0 setlinewidth
1 setlinejoin
0 setlinecap
0 -1.5 m
0.397805 -1.5 0.77937 -1.341951 1.06066 -1.06066 c
1.341951 -0.77937 1.5 -0.397805 1.5 0 c
1.5 0.397805 1.341951 0.77937 1.06066 1.06066 c
0.77937 1.341951 0.397805 1.5 0 1.5 c
-0.397805 1.5 -0.77937 1.341951 -1.06066 1.06066 c
-1.341951 0.77937 -1.5 0.397805 -1.5 0 c
-1.5 -0.397805 -1.341951 -0.77937 -1.06066 -1.06066 c
-0.77937 -1.341951 -0.397805 -1.5 0 -1.5 c
cl

gsave
0.122 0.467 0.706 setrgbcolor
fill
grestore
stroke
grestore
} bind def
73.8327 102.435 o
75.4642 97.535 o
77.0956 98.8053 o
78.727 101.152 o
80.3584 100.927 o
81.9899 98.307 o
83.6213 103.142 o
85.2527 100.341 o
86.8842 100.171 o
88.5156 96.7522 o
90.147 97.2107 o
91.7785 98.9309 o
93.4099 100.606 o
95.0413 102.33 o
96.6727 101.699 o
98.3042 101.257 o
99.9356 97.6463 o
101.567 101.324 o
103.198 100.745 o
104.83 102.575 o
106.461 98.96 o
108.093 101.209 o
109.724 97.5963 o
111.356 93.5759 o
112.987 100.113 o
114.618 94.317 o
116.25 96.398 o
117.881 101.795 o
119.513 98.816 o
121.144 101.69 o
122.776 99.3266 o
124.407 97.4682 o
126.038 99.785 o
127.67 91.9432 o
129.301 101.121 o
130.933 105.32 o
132.564 92.7643 o
134.196 103.298 o
135.827 100.868 o
137.458 100.728 o
139.09 103.939 o
140.721 102.044 o
142.353 95.1484 o
143.984 94.5911 o
145.616 94.0983 o
147.247 98.8066 o
148.879 100.253 o
150.51 99.3436 o
152.141 100.663 o
153.773 100.362 o
155.404 106.945 o
157.036 101.168 o
158.667 99.081 o
160.299 90.7026 o
161.93 98.6859 o
163.561 93.4755 o
165.193 91.2165 o
166.824 89.9888 o
168.456 96.891 o
170.087 112.527 o
171.719 100.853 o
173.35 87.031 o
174.981 103.824 o
176.613 98.7954 o
178.244 104.14 o
179.876 88.0472 o
181.507 106.711 o
183.139 100.55 o
184.77 112.608 o
186.401 108.241 o
188.033 103.889 o
189.664 106.157 o
191.296 103.37 o
192.927 104.196 o
194.559 96.4861 o
196.19 93.2336 o
197.821 94.3409 o
199.453 96.5795 o
201.084 102.036 o
202.716 103.205 o
204.347 105.794 o
205.979 90.6029 o
207.61 103.39 o
209.241 115.305 o
210.873 107.179 o
212.504 110.74 o
214.136 94.476 o
215.767 98.0703 o
217.399 113.006 o
219.03 90.694 o
220.661 97.7206 o
222.293 89.8039 o
223.924 91.4683 o
225.556 95.6691 o
227.187 101.068 o
228.819 107.09 o
230.45 94.2731 o
232.081 90.3121 o
233.713 96.7248 o
235.344 103.172 o
236.976 98.178 o
238.607 98.8194 o
240.239 92.8797 o
241.87 81.3741 o
243.501 101.597 o
245.133 91.3548 o
246.764 107.77 o
248.396 99.6126 o
250.027 98.9233 o
251.659 101.034 o
253.29 85.0433 o
254.921 79.4426 o
256.553 111.365 o
258.184 123.012 o
259.816 89.2753 o
261.447 93.1629 o
263.079 91.4537 o
264.71 111.313 o
266.341 99.4391 o
267.973 104.981 o
269.604 103.526 o
271.236 95.465 o
272.867 123.621 o
274.499 98.6497 o
276.13 107.211 o
277.761 97.2969 o
279.393 99.7474 o
281.024 99.0497 o
282.656 91.3625 o
284.287 85.5725 o
285.919 140.81 o
287.55 110.613 o
289.181 96.1631 o
290.813 145.007 o
292.444 109.802 o
294.076 107.625 o
295.707 113.594 o
297.339 92.486 o
298.97 115.612 o
300.601 103.483 o
302.233 105.731 o
303.864 93.1515 o
305.496 109.131 o
307.127 112.829 o
308.759 97.1808 o
310.39 103.175 o
312.021 100.337 o
313.653 102.989 o
315.284 92.8087 o
316.916 74.2411 o
318.547 116.207 o
320.179 102.508 o
321.81 95.0967 o
323.441 88.5708 o
325.073 104.32 o
326.704 89.7657 o
328.336 117.404 o
329.967 95.7646 o
331.599 83.2201 o
333.23 91.0206 o
334.862 124.798 o
336.493 118.627 o
338.124 109.548 o
339.756 102.133 o
341.387 109.922 o
343.019 93.0866 o
344.65 83.2541 o
346.282 114.981 o
347.913 101.143 o
349.544 100.695 o
351.176 113.231 o
352.807 101.636 o
354.439 100.241 o
356.07 145.364 o
357.702 101.171 o
359.333 89.5012 o
360.964 103.414 o
362.596 91.0483 o
364.227 108.484 o
365.859 74.3714 o
367.49 100.424 o
369.122 97.1038 o
370.753 141.026 o
372.384 123.169 o
374.016 89.7514 o
375.647 91.2875 o
377.279 99.6499 o
378.91 66.5083 o
380.542 130.269 o
382.173 89.7966 o
383.804 103.146 o
385.436 113.562 o
387.067 84.8693 o
388.699 92.8589 o
390.33 99.7545 o
391.962 102.651 o
393.593 103.907 o
395.224 80.7926 o
396.856 72.1286 o
398.487 106.582 o
grestore
1.500 setlinewidth
2 setlinecap
1.000 0.498 0.055 setrgbcolor
gsave
357.1 121 57.6 38.02 clipbox
73.832727 100.733385 m
75.464157 100.883341 l
77.095587 98.317473 l
78.727017 100.063936 l
80.358447 97.010451 l
81.989877 98.774766 l
85.252736 100.230089 l
86.884166 100.19063 l
88.515596 99.549927 l
90.147026 100.92335 l
91.778456 99.846311 l
93.409886 100.522032 l
95.041316 94.231923 l
96.672746 101.761591 l
98.304175 100.758125 l
99.935605 102.165925 l
101.567035 99.168052 l
103.198465 98.974735 l
104.829895 99.05343 l
106.461325 100.90004 l
108.092755 99.526777 l
109.724185 100.025289 l
111.355614 98.001355 l
112.987044 100.122001 l
114.618474 97.830953 l
116.249904 100.215265 l
117.881334 95.074492 l
119.512764 93.838077 l
121.144194 101.399566 l
122.775624 99.804262 l
124.407053 94.035936 l
126.038483 101.926825 l
127.669913 100.135164 l
129.301343 103.730457 l
130.932773 95.885513 l
132.564203 106.861942 l
134.195633 98.022953 l
135.827063 101.215734 l
137.458492 101.192138 l
140.721352 94.686747 l
143.984212 105.595915 l
145.615642 97.385833 l
147.247072 102.527198 l
148.878502 92.150274 l
150.509931 97.859667 l
152.141361 107.121853 l
153.772791 94.443559 l
155.404221 94.996124 l
157.035651 105.13196 l
158.667081 106.662633 l
160.298511 99.939268 l
161.929941 95.979382 l
163.56137 98.328658 l
165.1928 100.333238 l
166.82423 88.003228 l
168.45566 99.826689 l
170.08709 98.989607 l
171.71852 95.870911 l
173.34995 100.223138 l
174.98138 97.261536 l
176.61281 101.682242 l
178.244239 103.327839 l
179.875669 100.308099 l
181.507099 105.023759 l
183.138529 99.857816 l
184.769959 107.185916 l
186.401389 105.708834 l
188.032819 102.583967 l
189.664249 96.122955 l
191.295678 108.363719 l
192.927108 94.783982 l
194.558538 93.567152 l
196.189968 106.784256 l
197.821398 102.259379 l
199.452828 101.869231 l
201.084258 107.741042 l
202.715688 110.601968 l
204.347117 96.695801 l
205.978547 94.547412 l
207.609977 98.256653 l
209.241407 101.211693 l
210.872837 97.404745 l
212.504267 101.704585 l
214.135697 85.923714 l
215.767127 98.079508 l
217.398556 97.431769 l
219.029986 88.39859 l
220.661416 97.913725 l
222.292846 101.558712 l
223.924276 104.797742 l
225.555706 93.725482 l
227.187136 99.4011 l
228.818566 96.418598 l
230.449995 98.46168 l
232.081425 97.271923 l
233.712855 98.187938 l
235.344285 102.865624 l
236.975715 104.951167 l
238.607145 99.257468 l
240.238575 99.48352 l
241.870005 80.261175 l
243.501434 107.283233 l
245.132864 91.616715 l
246.764294 106.297771 l
248.395724 100.502206 l
250.027154 107.271173 l
251.658584 103.553073 l
253.290014 93.596405 l
254.921444 92.049376 l
256.552873 104.796428 l
258.184303 88.774554 l
259.815733 89.50133 l
261.447163 80.052897 l
263.078593 107.594665 l
264.710023 111.643231 l
266.341453 108.430951 l
267.972883 94.128528 l
269.604312 103.060201 l
271.235742 97.864309 l
272.867172 95.632696 l
274.498602 97.030727 l
276.130032 96.250362 l
277.761462 108.62006 l
279.392892 105.370209 l
281.024322 91.581889 l
282.655751 97.347713 l
284.287181 99.966704 l
285.918611 87.687943 l
287.550041 114.540436 l
289.181471 88.873306 l
290.812901 106.690359 l
292.444331 120.780542 l
294.075761 85.040915 l
295.70719 94.668302 l
297.33862 94.996906 l
298.97005 101.034464 l
300.60148 95.462653 l
302.23291 98.44307 l
303.86434 107.051717 l
305.49577 91.482425 l
307.1272 94.718813 l
308.75863 92.006933 l
310.390059 107.464444 l
312.021489 83.746281 l
313.652919 102.886529 l
315.284349 104.632823 l
316.915779 86.303607 l
318.547209 90.07613 l
320.178639 94.777937 l
321.810069 86.8626 l
323.441498 110.362084 l
325.072928 107.526936 l
326.704358 120.52134 l
328.335788 85.730723 l
329.967218 98.256476 l
331.598648 108.16516 l
333.230078 123.408078 l
334.861508 122.264232 l
336.492937 74.653045 l
338.124367 74.465564 l
339.755797 91.150578 l
341.387227 103.709741 l
343.018657 104.546217 l
344.650087 114.556962 l
346.281517 114.957425 l
347.912947 103.690303 l
349.544376 97.406227 l
351.175806 108.865279 l
352.807236 104.09416 l
354.438666 104.801362 l
356.070096 92.64094 l
357.701526 100.595621 l
359.332956 98.096728 l
360.964386 89.885835 l
362.595815 90.578188 l
364.227245 88.303363 l
365.858675 96.039395 l
367.490105 78.775738 l
369.121535 97.847049 l
370.752965 73.233166 l
372.384395 110.195109 l
374.015825 106.274647 l
375.647254 104.06285 l
377.278684 79.78395 l
378.910114 101.740057 l
380.541544 112.379517 l
382.172974 99.174447 l
383.804404 98.979392 l
385.435834 102.87481 l
387.067264 89.115479 l
388.698693 90.885268 l
390.330123 101.323712 l
391.961553 99.613648 l
393.592983 82.27834 l
395.224413 93.785511 l
396.855843 92.343321 l
398.487273 105.985417 l
398.487273 105.985417 l
stroke
grestore
1.000 setlinewidth
0 setlinecap
gsave
357.1 121 57.6 38.02 clipbox
/o {
gsave
newpath
translate
1.0 setlinewidth
1 setlinejoin
0 setlinecap
0 -1.5 m
0.397805 -1.5 0.77937 -1.341951 1.06066 -1.06066 c
1.341951 -0.77937 1.5 -0.397805 1.5 0 c
1.5 0.397805 1.341951 0.77937 1.06066 1.06066 c
0.77937 1.341951 0.397805 1.5 0 1.5 c
-0.397805 1.5 -0.77937 1.341951 -1.06066 1.06066 c
-1.341951 0.77937 -1.5 0.397805 -1.5 0 c
-1.5 -0.397805 -1.341951 -0.77937 -1.06066 -1.06066 c
-0.77937 -1.341951 -0.397805 -1.5 0 -1.5 c
cl

gsave
1.000 0.498 0.055 setrgbcolor
fill
grestore
stroke
grestore
} bind def
73.8327 100.733 o
75.4642 100.883 o
77.0956 98.3175 o
78.727 100.064 o
80.3584 97.0105 o
81.9899 98.7748 o
83.6213 99.5252 o
85.2527 100.23 o
86.8842 100.191 o
88.5156 99.5499 o
90.147 100.923 o
91.7785 99.8463 o
93.4099 100.522 o
95.0413 94.2319 o
96.6727 101.762 o
98.3042 100.758 o
99.9356 102.166 o
101.567 99.1681 o
103.198 98.9747 o
104.83 99.0534 o
106.461 100.9 o
108.093 99.5268 o
109.724 100.025 o
111.356 98.0014 o
112.987 100.122 o
114.618 97.831 o
116.25 100.215 o
117.881 95.0745 o
119.513 93.8381 o
121.144 101.4 o
122.776 99.8043 o
124.407 94.0359 o
126.038 101.927 o
127.67 100.135 o
129.301 103.73 o
130.933 95.8855 o
132.564 106.862 o
134.196 98.023 o
135.827 101.216 o
137.458 101.192 o
139.09 97.8818 o
140.721 94.6867 o
142.353 100.233 o
143.984 105.596 o
145.616 97.3858 o
147.247 102.527 o
148.879 92.1503 o
150.51 97.8597 o
152.141 107.122 o
153.773 94.4436 o
155.404 94.9961 o
157.036 105.132 o
158.667 106.663 o
160.299 99.9393 o
161.93 95.9794 o
163.561 98.3287 o
165.193 100.333 o
166.824 88.0032 o
168.456 99.8267 o
170.087 98.9896 o
171.719 95.8709 o
173.35 100.223 o
174.981 97.2615 o
176.613 101.682 o
178.244 103.328 o
179.876 100.308 o
181.507 105.024 o
183.139 99.8578 o
184.77 107.186 o
186.401 105.709 o
188.033 102.584 o
189.664 96.123 o
191.296 108.364 o
192.927 94.784 o
194.559 93.5672 o
196.19 106.784 o
197.821 102.259 o
199.453 101.869 o
201.084 107.741 o
202.716 110.602 o
204.347 96.6958 o
205.979 94.5474 o
207.61 98.2567 o
209.241 101.212 o
210.873 97.4047 o
212.504 101.705 o
214.136 85.9237 o
215.767 98.0795 o
217.399 97.4318 o
219.03 88.3986 o
220.661 97.9137 o
222.293 101.559 o
223.924 104.798 o
225.556 93.7255 o
227.187 99.4011 o
228.819 96.4186 o
230.45 98.4617 o
232.081 97.2719 o
233.713 98.1879 o
235.344 102.866 o
236.976 104.951 o
238.607 99.2575 o
240.239 99.4835 o
241.87 80.2612 o
243.501 107.283 o
245.133 91.6167 o
246.764 106.298 o
248.396 100.502 o
250.027 107.271 o
251.659 103.553 o
253.29 93.5964 o
254.921 92.0494 o
256.553 104.796 o
258.184 88.7746 o
259.816 89.5013 o
261.447 80.0529 o
263.079 107.595 o
264.71 111.643 o
266.341 108.431 o
267.973 94.1285 o
269.604 103.06 o
271.236 97.8643 o
272.867 95.6327 o
274.499 97.0307 o
276.13 96.2504 o
277.761 108.62 o
279.393 105.37 o
281.024 91.5819 o
282.656 97.3477 o
284.287 99.9667 o
285.919 87.6879 o
287.55 114.54 o
289.181 88.8733 o
290.813 106.69 o
292.444 120.781 o
294.076 85.0409 o
295.707 94.6683 o
297.339 94.9969 o
298.97 101.034 o
300.601 95.4627 o
302.233 98.4431 o
303.864 107.052 o
305.496 91.4824 o
307.127 94.7188 o
308.759 92.0069 o
310.39 107.464 o
312.021 83.7463 o
313.653 102.887 o
315.284 104.633 o
316.916 86.3036 o
318.547 90.0761 o
320.179 94.7779 o
321.81 86.8626 o
323.441 110.362 o
325.073 107.527 o
326.704 120.521 o
328.336 85.7307 o
329.967 98.2565 o
331.599 108.165 o
333.23 123.408 o
334.862 122.264 o
336.493 74.653 o
338.124 74.4656 o
339.756 91.1506 o
341.387 103.71 o
343.019 104.546 o
344.65 114.557 o
346.282 114.957 o
347.913 103.69 o
349.544 97.4062 o
351.176 108.865 o
352.807 104.094 o
354.439 104.801 o
356.07 92.6409 o
357.702 100.596 o
359.333 98.0967 o
360.964 89.8858 o
362.596 90.5782 o
364.227 88.3034 o
365.859 96.0394 o
367.49 78.7757 o
369.122 97.847 o
370.753 73.2332 o
372.384 110.195 o
374.016 106.275 o
375.647 104.063 o
377.279 79.7839 o
378.91 101.74 o
380.542 112.38 o
382.173 99.1744 o
383.804 98.9794 o
385.436 102.875 o
387.067 89.1155 o
388.699 90.8853 o
390.33 101.324 o
391.962 99.6136 o
393.593 82.2783 o
395.224 93.7855 o
396.856 92.3433 o
398.487 105.985 o
grestore
1.500 setlinewidth
2 setlinecap
0.173 0.627 0.173 setrgbcolor
gsave
357.1 121 57.6 38.02 clipbox
73.832727 98.898837 m
75.464157 100.034166 l
77.095587 98.617718 l
78.727017 99.290811 l
80.358447 98.980128 l
81.989877 101.895033 l
83.621307 97.264993 l
85.252736 100.158787 l
86.884166 98.88878 l
88.515596 104.445543 l
90.147026 99.944524 l
91.778456 101.591847 l
93.409886 98.907165 l
95.041316 101.880625 l
96.672746 96.673315 l
98.304175 97.721725 l
99.935605 99.725676 l
101.567035 98.690084 l
103.198465 98.028798 l
104.829895 100.464751 l
106.461325 99.131905 l
108.092755 98.185372 l
109.724185 102.472609 l
111.355614 102.919031 l
112.987044 100.174315 l
114.618474 102.091971 l
116.249904 101.984665 l
117.881334 98.405423 l
119.512764 103.369458 l
121.144194 98.270509 l
122.775624 101.457357 l
124.407053 99.860323 l
126.038483 98.78222 l
127.669913 102.5932 l
129.301343 96.799603 l
130.932773 99.744904 l
132.564203 99.250497 l
134.195633 103.998674 l
135.827063 101.446737 l
137.458492 99.703052 l
139.089922 101.15333 l
140.721352 105.476853 l
142.352782 96.073727 l
143.984212 98.4673 l
145.615642 100.622298 l
147.247072 98.476104 l
148.878502 104.066446 l
150.509931 102.332905 l
152.141361 93.957152 l
153.772791 99.169099 l
155.404221 107.796207 l
157.035651 95.989603 l
158.667081 96.492166 l
160.298511 101.05361 l
161.929941 99.858007 l
163.56137 103.979424 l
165.1928 105.533393 l
166.82423 99.233411 l
168.45566 98.389904 l
170.08709 74.071889 l
171.71852 99.510263 l
173.34995 92.042216 l
174.98138 102.675625 l
176.61281 98.825993 l
178.244239 95.45242 l
179.875669 99.288154 l
181.507099 95.160718 l
183.138529 94.674444 l
184.769959 89.617914 l
186.401389 100.359881 l
188.032819 100.937933 l
189.664249 102.764241 l
191.295678 100.568588 l
192.927108 94.943054 l
194.558538 109.09416 l
196.189968 98.327028 l
197.821398 89.99836 l
199.452828 103.29893 l
201.084258 97.419068 l
202.715688 87.088441 l
204.347117 106.502948 l
205.978547 109.963902 l
207.609977 108.257216 l
209.241407 104.548594 l
210.872837 107.175424 l
212.504267 98.761859 l
214.135697 118.310154 l
215.767127 99.871944 l
217.398556 85.738627 l
219.029986 95.965449 l
220.661416 112.450929 l
222.292846 96.094719 l
223.924276 95.513516 l
225.555706 103.600666 l
227.187136 107.366819 l
228.818566 118.108462 l
230.449995 108.041361 l
232.081425 93.845086 l
233.712855 112.795698 l
235.344285 90.335913 l
236.975715 86.607522 l
238.607145 92.313049 l
240.238575 103.179204 l
241.870005 104.26926 l
243.501434 89.752302 l
245.132864 104.799058 l
246.764294 89.726439 l
248.395724 112.31912 l
250.027154 99.781494 l
251.658584 110.967697 l
253.290014 111.572864 l
254.921444 99.235017 l
256.552873 107.244606 l
258.184303 139.903656 l
259.815733 80.970648 l
261.447163 120.87203 l
264.710023 80.45387 l
266.341453 108.680757 l
267.972883 97.994453 l
269.604312 95.708027 l
271.235742 94.067269 l
272.867172 100.444446 l
274.498602 97.843772 l
276.130032 110.489389 l
277.761462 113.208421 l
279.392892 104.141055 l
281.024322 94.194031 l
282.655751 100.419264 l
284.287181 105.145306 l
285.918611 110.63471 l
287.550041 101.030266 l
289.181471 103.811542 l
290.812901 75.664588 l
292.444331 86.944767 l
294.075761 52.970469 l
295.70719 101.706747 l
297.33862 93.959824 l
298.97005 92.097461 l
300.60148 94.773082 l
302.23291 104.433082 l
303.86434 71.67306 l
305.49577 106.246871 l
307.1272 127.856828 l
308.75863 112.917895 l
310.390059 111.784995 l
312.021489 112.798919 l
313.652919 92.868817 l
315.284349 84.622809 l
316.915779 103.76922 l
318.547209 126.732949 l
320.178639 88.390486 l
321.810069 92.665081 l
323.441498 111.928022 l
325.072928 96.724057 l
326.704358 96.862715 l
328.335788 43.514182 l
329.967218 102.839469 l
331.598648 95.090648 l
333.230078 108.508272 l
334.861508 76.330059 l
336.492937 114.310739 l
338.124367 104.260271 l
339.755797 81.125445 l
341.387227 83.626665 l
343.018657 112.733839 l
344.650087 134.307226 l
346.281517 89.14551 l
347.912947 103.985511 l
351.175806 93.745682 l
352.807236 104.485189 l
354.438666 98.583885 l
356.070096 63.208289 l
357.701526 99.602737 l
359.332956 115.735218 l
360.964386 97.4871 l
362.595815 143.355227 l
364.227245 91.362092 l
365.858675 98.956309 l
367.490105 111.552964 l
369.121535 100.139454 l
370.752965 153.477818 l
372.384395 85.669626 l
374.015825 152.33391 l
375.647254 105.131846 l
377.278684 122.754984 l
378.910114 50.770779 l
380.541544 101.31787 l
382.172974 85.540281 l
383.804404 102.905413 l
385.435834 110.970656 l
387.067264 86.55558 l
388.698693 93.304596 l
390.330123 110.629435 l
391.961553 91.257209 l
393.592983 94.569375 l
395.224413 97.105663 l
396.855843 57.2799 l
398.487273 102.811037 l
398.487273 102.811037 l
stroke
grestore
1.000 setlinewidth
0 setlinecap
gsave
357.1 121 57.6 38.02 clipbox
/o {
gsave
newpath
translate
1.0 setlinewidth
1 setlinejoin
0 setlinecap
0 -1.5 m
0.397805 -1.5 0.77937 -1.341951 1.06066 -1.06066 c
1.341951 -0.77937 1.5 -0.397805 1.5 0 c
1.5 0.397805 1.341951 0.77937 1.06066 1.06066 c
0.77937 1.341951 0.397805 1.5 0 1.5 c
-0.397805 1.5 -0.77937 1.341951 -1.06066 1.06066 c
-1.341951 0.77937 -1.5 0.397805 -1.5 0 c
-1.5 -0.397805 -1.341951 -0.77937 -1.06066 -1.06066 c
-0.77937 -1.341951 -0.397805 -1.5 0 -1.5 c
cl

gsave
0.173 0.627 0.173 setrgbcolor
fill
grestore
stroke
grestore
} bind def
73.8327 98.8988 o
75.4642 100.034 o
77.0956 98.6177 o
78.727 99.2908 o
80.3584 98.9801 o
81.9899 101.895 o
83.6213 97.265 o
85.2527 100.159 o
86.8842 98.8888 o
88.5156 104.446 o
90.147 99.9445 o
91.7785 101.592 o
93.4099 98.9072 o
95.0413 101.881 o
96.6727 96.6733 o
98.3042 97.7217 o
99.9356 99.7257 o
101.567 98.6901 o
103.198 98.0288 o
104.83 100.465 o
106.461 99.1319 o
108.093 98.1854 o
109.724 102.473 o
111.356 102.919 o
112.987 100.174 o
114.618 102.092 o
116.25 101.985 o
117.881 98.4054 o
119.513 103.369 o
121.144 98.2705 o
122.776 101.457 o
124.407 99.8603 o
126.038 98.7822 o
127.67 102.593 o
129.301 96.7996 o
130.933 99.7449 o
132.564 99.2505 o
134.196 103.999 o
135.827 101.447 o
137.458 99.7031 o
139.09 101.153 o
140.721 105.477 o
142.353 96.0737 o
143.984 98.4673 o
145.616 100.622 o
147.247 98.4761 o
148.879 104.066 o
150.51 102.333 o
152.141 93.9572 o
153.773 99.1691 o
155.404 107.796 o
157.036 95.9896 o
158.667 96.4922 o
160.299 101.054 o
161.93 99.858 o
163.561 103.979 o
165.193 105.533 o
166.824 99.2334 o
168.456 98.3899 o
170.087 74.0719 o
171.719 99.5103 o
173.35 92.0422 o
174.981 102.676 o
176.613 98.826 o
178.244 95.4524 o
179.876 99.2882 o
181.507 95.1607 o
183.139 94.6744 o
184.77 89.6179 o
186.401 100.36 o
188.033 100.938 o
189.664 102.764 o
191.296 100.569 o
192.927 94.9431 o
194.559 109.094 o
196.19 98.327 o
197.821 89.9984 o
199.453 103.299 o
201.084 97.4191 o
202.716 87.0884 o
204.347 106.503 o
205.979 109.964 o
207.61 108.257 o
209.241 104.549 o
210.873 107.175 o
212.504 98.7619 o
214.136 118.31 o
215.767 99.8719 o
217.399 85.7386 o
219.03 95.9654 o
220.661 112.451 o
222.293 96.0947 o
223.924 95.5135 o
225.556 103.601 o
227.187 107.367 o
228.819 118.108 o
230.45 108.041 o
232.081 93.8451 o
233.713 112.796 o
235.344 90.3359 o
236.976 86.6075 o
238.607 92.313 o
240.239 103.179 o
241.87 104.269 o
243.501 89.7523 o
245.133 104.799 o
246.764 89.7264 o
248.396 112.319 o
250.027 99.7815 o
251.659 110.968 o
253.29 111.573 o
254.921 99.235 o
256.553 107.245 o
258.184 139.904 o
259.816 80.9706 o
261.447 120.872 o
263.079 99.9772 o
264.71 80.4539 o
266.341 108.681 o
267.973 97.9945 o
269.604 95.708 o
271.236 94.0673 o
272.867 100.444 o
274.499 97.8438 o
276.13 110.489 o
277.761 113.208 o
279.393 104.141 o
281.024 94.194 o
282.656 100.419 o
284.287 105.145 o
285.919 110.635 o
287.55 101.03 o
289.181 103.812 o
290.813 75.6646 o
292.444 86.9448 o
294.076 52.9705 o
295.707 101.707 o
297.339 93.9598 o
298.97 92.0975 o
300.601 94.7731 o
302.233 104.433 o
303.864 71.6731 o
305.496 106.247 o
307.127 127.857 o
308.759 112.918 o
310.39 111.785 o
312.021 112.799 o
313.653 92.8688 o
315.284 84.6228 o
316.916 103.769 o
318.547 126.733 o
320.179 88.3905 o
321.81 92.6651 o
323.441 111.928 o
325.073 96.7241 o
326.704 96.8627 o
328.336 43.5142 o
329.967 102.839 o
331.599 95.0906 o
333.23 108.508 o
334.862 76.3301 o
336.493 114.311 o
338.124 104.26 o
339.756 81.1254 o
341.387 83.6267 o
343.019 112.734 o
344.65 134.307 o
346.282 89.1455 o
347.913 103.986 o
349.544 99.0061 o
351.176 93.7457 o
352.807 104.485 o
354.439 98.5839 o
356.07 63.2083 o
357.702 99.6027 o
359.333 115.735 o
360.964 97.4871 o
362.596 143.355 o
364.227 91.3621 o
365.859 98.9563 o
367.49 111.553 o
369.122 100.139 o
370.753 153.478 o
372.384 85.6696 o
374.016 152.334 o
375.647 105.132 o
377.279 122.755 o
378.91 50.7708 o
380.542 101.318 o
382.173 85.5403 o
383.804 102.905 o
385.436 110.971 o
387.067 86.5556 o
388.699 93.3046 o
390.33 110.629 o
391.962 91.2572 o
393.593 94.5694 o
395.224 97.1057 o
396.856 57.2799 o
398.487 102.811 o
grestore
0.800 setlinewidth
0 setlinejoin
2 setlinecap
[] 0 setdash
0.000 setgray
gsave
57.6 38.016 m
57.6 158.976 l
stroke
grestore
gsave
414.72 38.016 m
414.72 158.976 l
stroke
grestore
gsave
57.6 38.016 m
414.72 38.016 l
stroke
grestore
gsave
57.6 158.976 m
414.72 158.976 l
stroke
grestore
1.000 setlinewidth
0 setlinecap
0.800 setgray
gsave
64.6 106.960375 m
121.490625 106.960375 l
122.823958 106.960375 123.490625 107.627042 123.490625 108.960375 c
123.490625 151.976 l
123.490625 153.309333 122.823958 153.976 121.490625 153.976 c
64.6 153.976 l
63.266667 153.976 62.6 153.309333 62.6 151.976 c
62.6 108.960375 l
62.6 107.627042 63.266667 106.960375 64.6 106.960375 c
cl
gsave
1.000 setgray
fill
grestore
stroke
grestore
1.500 setlinewidth
1 setlinejoin
2 setlinecap
[] 0 setdash
0.122 0.467 0.706 setrgbcolor
gsave
66.6 145.88225 m
86.6 145.88225 l
stroke
grestore
1.000 setlinewidth
0 setlinecap
gsave
/o {
gsave
newpath
translate
1.0 setlinewidth
1 setlinejoin
0 setlinecap
0 -1.5 m
0.397805 -1.5 0.77937 -1.341951 1.06066 -1.06066 c
1.341951 -0.77937 1.5 -0.397805 1.5 0 c
1.5 0.397805 1.341951 0.77937 1.06066 1.06066 c
0.77937 1.341951 0.397805 1.5 0 1.5 c
-0.397805 1.5 -0.77937 1.341951 -1.06066 1.06066 c
-1.341951 0.77937 -1.5 0.397805 -1.5 0 c
-1.5 -0.397805 -1.341951 -0.77937 -1.06066 -1.06066 c
-0.77937 -1.341951 -0.397805 -1.5 0 -1.5 c
cl

gsave
0.122 0.467 0.706 setrgbcolor
fill
grestore
stroke
grestore
} bind def
76.6 145.882 o
grestore
0.000 setgray
gsave
94.600000 142.382250 translate
0.000000 rotate
0.000000 0.000000 m /r glyphshow
4.111328 0.000000 m /o glyphshow
10.229492 0.000000 m /l glyphshow
13.007812 0.000000 m /l glyphshow
grestore
1.500 setlinewidth
2 setlinecap
1.000 0.498 0.055 setrgbcolor
gsave
66.6 131.210375 m
86.6 131.210375 l
stroke
grestore
1.000 setlinewidth
0 setlinecap
gsave
/o {
gsave
newpath
translate
1.0 setlinewidth
1 setlinejoin
0 setlinecap
0 -1.5 m
0.397805 -1.5 0.77937 -1.341951 1.06066 -1.06066 c
1.341951 -0.77937 1.5 -0.397805 1.5 0 c
1.5 0.397805 1.341951 0.77937 1.06066 1.06066 c
0.77937 1.341951 0.397805 1.5 0 1.5 c
-0.397805 1.5 -0.77937 1.341951 -1.06066 1.06066 c
-1.341951 0.77937 -1.5 0.397805 -1.5 0 c
-1.5 -0.397805 -1.341951 -0.77937 -1.06066 -1.06066 c
-0.77937 -1.341951 -0.397805 -1.5 0 -1.5 c
cl

gsave
1.000 0.498 0.055 setrgbcolor
fill
grestore
stroke
grestore
} bind def
76.6 131.21 o
grestore
0.000 setgray
gsave
94.600000 127.710375 translate
0.000000 rotate
0.000000 0.000000 m /p glyphshow
6.347656 0.000000 m /i glyphshow
9.125977 0.000000 m /t glyphshow
13.046875 0.000000 m /c glyphshow
18.544922 0.000000 m /h glyphshow
grestore
1.500 setlinewidth
2 setlinecap
0.173 0.627 0.173 setrgbcolor
gsave
66.6 116.5385 m
86.6 116.5385 l
stroke
grestore
1.000 setlinewidth
0 setlinecap
gsave
/o {
gsave
newpath
translate
1.0 setlinewidth
1 setlinejoin
0 setlinecap
0 -1.5 m
0.397805 -1.5 0.77937 -1.341951 1.06066 -1.06066 c
1.341951 -0.77937 1.5 -0.397805 1.5 0 c
1.5 0.397805 1.341951 0.77937 1.06066 1.06066 c
0.77937 1.341951 0.397805 1.5 0 1.5 c
-0.397805 1.5 -0.77937 1.341951 -1.06066 1.06066 c
-1.341951 0.77937 -1.5 0.397805 -1.5 0 c
-1.5 -0.397805 -1.341951 -0.77937 -1.06066 -1.06066 c
-0.77937 -1.341951 -0.397805 -1.5 0 -1.5 c
cl

gsave
0.173 0.627 0.173 setrgbcolor
fill
grestore
stroke
grestore
} bind def
76.6 116.538 o
grestore
0.000 setgray
gsave
94.600000 113.038500 translate
0.000000 rotate
0.000000 0.000000 m /y glyphshow
5.917969 0.000000 m /a glyphshow
12.045898 0.000000 m /w glyphshow
grestore

end
showpage
