%!PS-Adobe-3.0 EPSF-3.0
%%Title: figures/repeater_500_ls_err.eps
%%Creator: matplotlib version 2.0.0, http://matplotlib.org/
%%CreationDate: Tue Feb 28 10:43:22 2017
%%Orientation: portrait
%%BoundingBox: 75 223 536 568
%%EndComments
%%BeginProlog
/mpldict 8 dict def
mpldict begin
/m { moveto } bind def
/l { lineto } bind def
/r { rlineto } bind def
/c { curveto } bind def
/cl { closepath } bind def
/box {
m
1 index 0 r
0 exch r
neg 0 r
cl
} bind def
/clipbox {
box
clip
newpath
} bind def
%!PS-Adobe-3.0 Resource-Font
%%Title: DejaVu Sans
%%Copyright: Copyright (c) 2003 by Bitstream, Inc. All Rights Reserved. Copyright (c) 2006 by Tavmjong Bah. All Rights Reserved. DejaVu changes are in public domain 
%%Creator: Converted from TrueType to type 3 by PPR
25 dict begin
/_d{bind def}bind def
/_m{moveto}_d
/_l{lineto}_d
/_cl{closepath eofill}_d
/_c{curveto}_d
/_sc{7 -1 roll{setcachedevice}{pop pop pop pop pop pop}ifelse}_d
/_e{exec}_d
/FontName /DejaVuSans def
/PaintType 0 def
/FontMatrix[.001 0 0 .001 0 0]def
/FontBBox[-1021 -463 1793 1232]def
/FontType 3 def
/Encoding [ /space /period /zero /one /two /three /four /five /E /P /S /bracketleft /bracketright /a /c /d /e /g /h /i /l /m /n /o /p /r /s /t /u /w /x /y /z /minus ] def
/FontInfo 10 dict dup begin
/FamilyName (DejaVu Sans) def
/FullName (DejaVu Sans) def
/Notice (Copyright (c) 2003 by Bitstream, Inc. All Rights Reserved. Copyright (c) 2006 by Tavmjong Bah. All Rights Reserved. DejaVu changes are in public domain ) def
/Weight (Book) def
/Version (Version 2.35) def
/ItalicAngle 0.0 def
/isFixedPitch false def
/UnderlinePosition -130 def
/UnderlineThickness 90 def
end readonly def
/CharStrings 34 dict dup begin
/space{318 0 0 0 0 0 _sc
}_d
/period{318 0 107 0 210 124 _sc
107 124 _m
210 124 _l
210 0 _l
107 0 _l
107 124 _l
_cl}_d
/zero{636 0 66 -13 570 742 _sc
318 664 _m
267 664 229 639 203 589 _c
177 539 165 464 165 364 _c
165 264 177 189 203 139 _c
229 89 267 64 318 64 _c
369 64 407 89 433 139 _c
458 189 471 264 471 364 _c
471 464 458 539 433 589 _c
407 639 369 664 318 664 _c
318 742 _m
399 742 461 709 505 645 _c
548 580 570 486 570 364 _c
570 241 548 147 505 83 _c
461 19 399 -13 318 -13 _c
236 -13 173 19 130 83 _c
87 147 66 241 66 364 _c
66 486 87 580 130 645 _c
173 709 236 742 318 742 _c
_cl}_d
/one{636 0 110 0 544 729 _sc
124 83 _m
285 83 _l
285 639 _l
110 604 _l
110 694 _l
284 729 _l
383 729 _l
383 83 _l
544 83 _l
544 0 _l
124 0 _l
124 83 _l
_cl}_d
/two{{636 0 73 0 536 742 _sc
192 83 _m
536 83 _l
536 0 _l
73 0 _l
73 83 _l
110 121 161 173 226 239 _c
290 304 331 346 348 365 _c
380 400 402 430 414 455 _c
426 479 433 504 433 528 _c
433 566 419 598 392 622 _c
365 646 330 659 286 659 _c
255 659 222 653 188 643 _c
154 632 117 616 78 594 _c
78 694 _l
118 710 155 722 189 730 _c
223 738 255 742 284 742 _c
}_e{359 742 419 723 464 685 _c
509 647 532 597 532 534 _c
532 504 526 475 515 449 _c
504 422 484 390 454 354 _c
446 344 420 317 376 272 _c
332 227 271 164 192 83 _c
_cl}_e}_d
/three{{636 0 76 -13 556 742 _sc
406 393 _m
453 383 490 362 516 330 _c
542 298 556 258 556 212 _c
556 140 531 84 482 45 _c
432 6 362 -13 271 -13 _c
240 -13 208 -10 176 -4 _c
144 1 110 10 76 22 _c
76 117 _l
103 101 133 89 166 81 _c
198 73 232 69 268 69 _c
330 69 377 81 409 105 _c
441 129 458 165 458 212 _c
458 254 443 288 413 312 _c
383 336 341 349 287 349 _c
}_e{202 349 _l
202 430 _l
291 430 _l
339 430 376 439 402 459 _c
428 478 441 506 441 543 _c
441 580 427 609 401 629 _c
374 649 336 659 287 659 _c
260 659 231 656 200 650 _c
169 644 135 635 98 623 _c
98 711 _l
135 721 170 729 203 734 _c
235 739 266 742 296 742 _c
370 742 429 725 473 691 _c
517 657 539 611 539 553 _c
539 513 527 479 504 451 _c
481 423 448 403 406 393 _c
_cl}_e}_d
/four{636 0 49 0 580 729 _sc
378 643 _m
129 254 _l
378 254 _l
378 643 _l
352 729 _m
476 729 _l
476 254 _l
580 254 _l
580 172 _l
476 172 _l
476 0 _l
378 0 _l
378 172 _l
49 172 _l
49 267 _l
352 729 _l
_cl}_d
/five{{636 0 77 -13 549 729 _sc
108 729 _m
495 729 _l
495 646 _l
198 646 _l
198 467 _l
212 472 227 476 241 478 _c
255 480 270 482 284 482 _c
365 482 429 459 477 415 _c
525 370 549 310 549 234 _c
549 155 524 94 475 51 _c
426 8 357 -13 269 -13 _c
238 -13 207 -10 175 -6 _c
143 -1 111 6 77 17 _c
77 116 _l
106 100 136 88 168 80 _c
199 72 232 69 267 69 _c
}_e{323 69 368 83 401 113 _c
433 143 450 183 450 234 _c
450 284 433 324 401 354 _c
368 384 323 399 267 399 _c
241 399 214 396 188 390 _c
162 384 135 375 108 363 _c
108 729 _l
_cl}_e}_d
/E{632 0 98 0 568 729 _sc
98 729 _m
559 729 _l
559 646 _l
197 646 _l
197 430 _l
544 430 _l
544 347 _l
197 347 _l
197 83 _l
568 83 _l
568 0 _l
98 0 _l
98 729 _l
_cl}_d
/P{603 0 98 0 569 729 _sc
197 648 _m
197 374 _l
321 374 _l
367 374 402 385 427 409 _c
452 433 465 467 465 511 _c
465 555 452 588 427 612 _c
402 636 367 648 321 648 _c
197 648 _l
98 729 _m
321 729 _l
402 729 464 710 506 673 _c
548 636 569 582 569 511 _c
569 439 548 384 506 348 _c
464 311 402 293 321 293 _c
197 293 _l
197 0 _l
98 0 _l
98 729 _l
_cl}_d
/S{{635 0 66 -13 579 742 _sc
535 705 _m
535 609 _l
497 627 462 640 429 649 _c
395 657 363 662 333 662 _c
279 662 237 651 208 631 _c
179 610 165 580 165 542 _c
165 510 174 485 194 469 _c
213 452 250 439 304 429 _c
364 417 _l
437 403 491 378 526 343 _c
561 307 579 260 579 201 _c
579 130 555 77 508 41 _c
460 5 391 -13 300 -13 _c
265 -13 228 -9 189 -2 _c
}_e{150 5 110 16 69 32 _c
69 134 _l
109 111 148 94 186 83 _c
224 71 262 66 300 66 _c
356 66 399 77 430 99 _c
460 121 476 152 476 194 _c
476 230 465 258 443 278 _c
421 298 385 313 335 323 _c
275 335 _l
201 349 148 372 115 404 _c
82 435 66 478 66 534 _c
66 598 88 649 134 686 _c
179 723 242 742 322 742 _c
356 742 390 739 426 733 _c
461 727 497 717 535 705 _c
}_e{_cl}_e}_d
/bracketleft{390 0 86 -131 293 760 _sc
86 760 _m
293 760 _l
293 690 _l
176 690 _l
176 -61 _l
293 -61 _l
293 -131 _l
86 -131 _l
86 760 _l
_cl}_d
/bracketright{390 0 97 -131 304 760 _sc
304 760 _m
304 -131 _l
97 -131 _l
97 -61 _l
214 -61 _l
214 690 _l
97 690 _l
97 760 _l
304 760 _l
_cl}_d
/a{{613 0 60 -13 522 560 _sc
343 275 _m
270 275 220 266 192 250 _c
164 233 150 205 150 165 _c
150 133 160 107 181 89 _c
202 70 231 61 267 61 _c
317 61 357 78 387 114 _c
417 149 432 196 432 255 _c
432 275 _l
343 275 _l
522 312 _m
522 0 _l
432 0 _l
432 83 _l
411 49 385 25 355 10 _c
325 -5 287 -13 243 -13 _c
187 -13 142 2 109 33 _c
76 64 60 106 60 159 _c
}_e{60 220 80 266 122 298 _c
163 329 224 345 306 345 _c
432 345 _l
432 354 _l
432 395 418 427 391 450 _c
364 472 326 484 277 484 _c
245 484 215 480 185 472 _c
155 464 127 453 100 439 _c
100 522 _l
132 534 164 544 195 550 _c
226 556 256 560 286 560 _c
365 560 424 539 463 498 _c
502 457 522 395 522 312 _c
_cl}_e}_d
/c{{550 0 55 -13 488 560 _sc
488 526 _m
488 442 _l
462 456 437 466 411 473 _c
385 480 360 484 334 484 _c
276 484 230 465 198 428 _c
166 391 150 339 150 273 _c
150 206 166 154 198 117 _c
230 80 276 62 334 62 _c
360 62 385 65 411 72 _c
437 79 462 90 488 104 _c
488 21 _l
462 9 436 0 410 -5 _c
383 -10 354 -13 324 -13 _c
242 -13 176 12 128 64 _c
}_e{79 115 55 185 55 273 _c
55 362 79 432 128 483 _c
177 534 244 560 330 560 _c
358 560 385 557 411 551 _c
437 545 463 537 488 526 _c
_cl}_e}_d
/d{{635 0 55 -13 544 760 _sc
454 464 _m
454 760 _l
544 760 _l
544 0 _l
454 0 _l
454 82 _l
435 49 411 25 382 10 _c
353 -5 319 -13 279 -13 _c
213 -13 159 13 117 65 _c
75 117 55 187 55 273 _c
55 359 75 428 117 481 _c
159 533 213 560 279 560 _c
319 560 353 552 382 536 _c
411 520 435 496 454 464 _c
148 273 _m
148 207 161 155 188 117 _c
215 79 253 61 301 61 _c
}_e{348 61 385 79 413 117 _c
440 155 454 207 454 273 _c
454 339 440 390 413 428 _c
385 466 348 485 301 485 _c
253 485 215 466 188 428 _c
161 390 148 339 148 273 _c
_cl}_e}_d
/e{{615 0 55 -13 562 560 _sc
562 296 _m
562 252 _l
149 252 _l
153 190 171 142 205 110 _c
238 78 284 62 344 62 _c
378 62 412 66 444 74 _c
476 82 509 95 541 113 _c
541 28 _l
509 14 476 3 442 -3 _c
408 -9 373 -13 339 -13 _c
251 -13 182 12 131 62 _c
80 112 55 181 55 268 _c
55 357 79 428 127 481 _c
175 533 241 560 323 560 _c
397 560 455 536 498 489 _c
}_e{540 441 562 377 562 296 _c
472 322 _m
471 371 457 410 431 440 _c
404 469 368 484 324 484 _c
274 484 234 469 204 441 _c
174 413 156 373 152 322 _c
472 322 _l
_cl}_e}_d
/g{{635 0 55 -207 544 560 _sc
454 280 _m
454 344 440 395 414 431 _c
387 467 349 485 301 485 _c
253 485 215 467 188 431 _c
161 395 148 344 148 280 _c
148 215 161 165 188 129 _c
215 93 253 75 301 75 _c
349 75 387 93 414 129 _c
440 165 454 215 454 280 _c
544 68 _m
544 -24 523 -93 482 -139 _c
440 -184 377 -207 292 -207 _c
260 -207 231 -204 203 -200 _c
175 -195 147 -188 121 -178 _c
}_e{121 -91 _l
147 -105 173 -115 199 -122 _c
225 -129 251 -133 278 -133 _c
336 -133 380 -117 410 -87 _c
439 -56 454 -10 454 52 _c
454 96 _l
435 64 411 40 382 24 _c
353 8 319 0 279 0 _c
211 0 157 25 116 76 _c
75 127 55 195 55 280 _c
55 364 75 432 116 483 _c
157 534 211 560 279 560 _c
319 560 353 552 382 536 _c
411 520 435 496 454 464 _c
454 547 _l
544 547 _l
}_e{544 68 _l
_cl}_e}_d
/h{634 0 91 0 549 760 _sc
549 330 _m
549 0 _l
459 0 _l
459 327 _l
459 379 448 417 428 443 _c
408 469 378 482 338 482 _c
289 482 251 466 223 435 _c
195 404 181 362 181 309 _c
181 0 _l
91 0 _l
91 760 _l
181 760 _l
181 462 _l
202 494 227 519 257 535 _c
286 551 320 560 358 560 _c
420 560 468 540 500 501 _c
532 462 549 405 549 330 _c
_cl}_d
/i{278 0 94 0 184 760 _sc
94 547 _m
184 547 _l
184 0 _l
94 0 _l
94 547 _l
94 760 _m
184 760 _l
184 646 _l
94 646 _l
94 760 _l
_cl}_d
/l{278 0 94 0 184 760 _sc
94 760 _m
184 760 _l
184 0 _l
94 0 _l
94 760 _l
_cl}_d
/m{{974 0 91 0 889 560 _sc
520 442 _m
542 482 569 511 600 531 _c
631 550 668 560 711 560 _c
767 560 811 540 842 500 _c
873 460 889 403 889 330 _c
889 0 _l
799 0 _l
799 327 _l
799 379 789 418 771 444 _c
752 469 724 482 686 482 _c
639 482 602 466 575 435 _c
548 404 535 362 535 309 _c
535 0 _l
445 0 _l
445 327 _l
445 379 435 418 417 444 _c
398 469 369 482 331 482 _c
}_e{285 482 248 466 221 435 _c
194 404 181 362 181 309 _c
181 0 _l
91 0 _l
91 547 _l
181 547 _l
181 462 _l
201 495 226 520 255 536 _c
283 552 317 560 357 560 _c
397 560 430 550 458 530 _c
486 510 506 480 520 442 _c
_cl}_e}_d
/n{634 0 91 0 549 560 _sc
549 330 _m
549 0 _l
459 0 _l
459 327 _l
459 379 448 417 428 443 _c
408 469 378 482 338 482 _c
289 482 251 466 223 435 _c
195 404 181 362 181 309 _c
181 0 _l
91 0 _l
91 547 _l
181 547 _l
181 462 _l
202 494 227 519 257 535 _c
286 551 320 560 358 560 _c
420 560 468 540 500 501 _c
532 462 549 405 549 330 _c
_cl}_d
/o{612 0 55 -13 557 560 _sc
306 484 _m
258 484 220 465 192 427 _c
164 389 150 338 150 273 _c
150 207 163 156 191 118 _c
219 80 257 62 306 62 _c
354 62 392 80 420 118 _c
448 156 462 207 462 273 _c
462 337 448 389 420 427 _c
392 465 354 484 306 484 _c
306 560 _m
384 560 445 534 490 484 _c
534 433 557 363 557 273 _c
557 183 534 113 490 63 _c
445 12 384 -13 306 -13 _c
227 -13 165 12 121 63 _c
77 113 55 183 55 273 _c
55 363 77 433 121 484 _c
165 534 227 560 306 560 _c
_cl}_d
/p{{635 0 91 -207 580 560 _sc
181 82 _m
181 -207 _l
91 -207 _l
91 547 _l
181 547 _l
181 464 _l
199 496 223 520 252 536 _c
281 552 316 560 356 560 _c
422 560 476 533 518 481 _c
559 428 580 359 580 273 _c
580 187 559 117 518 65 _c
476 13 422 -13 356 -13 _c
316 -13 281 -5 252 10 _c
223 25 199 49 181 82 _c
487 273 _m
487 339 473 390 446 428 _c
418 466 381 485 334 485 _c
}_e{286 485 249 466 222 428 _c
194 390 181 339 181 273 _c
181 207 194 155 222 117 _c
249 79 286 61 334 61 _c
381 61 418 79 446 117 _c
473 155 487 207 487 273 _c
_cl}_e}_d
/r{411 0 91 0 411 560 _sc
411 463 _m
401 469 390 473 378 476 _c
366 478 353 480 339 480 _c
288 480 249 463 222 430 _c
194 397 181 350 181 288 _c
181 0 _l
91 0 _l
91 547 _l
181 547 _l
181 462 _l
199 495 224 520 254 536 _c
284 552 321 560 365 560 _c
371 560 378 559 386 559 _c
393 558 401 557 411 555 _c
411 463 _l
_cl}_d
/s{{521 0 54 -13 472 560 _sc
443 531 _m
443 446 _l
417 458 391 468 364 475 _c
336 481 308 485 279 485 _c
234 485 200 478 178 464 _c
156 450 145 430 145 403 _c
145 382 153 366 169 354 _c
185 342 217 330 265 320 _c
296 313 _l
360 299 405 279 432 255 _c
458 230 472 195 472 151 _c
472 100 452 60 412 31 _c
372 1 316 -13 246 -13 _c
216 -13 186 -10 154 -5 _c
}_e{122 0 89 8 54 20 _c
54 113 _l
87 95 120 82 152 74 _c
184 65 216 61 248 61 _c
290 61 323 68 346 82 _c
368 96 380 117 380 144 _c
380 168 371 187 355 200 _c
339 213 303 226 247 238 _c
216 245 _l
160 257 119 275 95 299 _c
70 323 58 356 58 399 _c
58 450 76 490 112 518 _c
148 546 200 560 268 560 _c
301 560 332 557 362 552 _c
391 547 418 540 443 531 _c
}_e{_cl}_e}_d
/t{392 0 27 0 368 702 _sc
183 702 _m
183 547 _l
368 547 _l
368 477 _l
183 477 _l
183 180 _l
183 135 189 106 201 94 _c
213 81 238 75 276 75 _c
368 75 _l
368 0 _l
276 0 _l
206 0 158 13 132 39 _c
106 65 93 112 93 180 _c
93 477 _l
27 477 _l
27 547 _l
93 547 _l
93 702 _l
183 702 _l
_cl}_d
/u{634 0 85 -13 543 560 _sc
85 216 _m
85 547 _l
175 547 _l
175 219 _l
175 167 185 129 205 103 _c
225 77 255 64 296 64 _c
344 64 383 79 411 110 _c
439 141 453 183 453 237 _c
453 547 _l
543 547 _l
543 0 _l
453 0 _l
453 84 _l
431 50 405 26 377 10 _c
348 -5 315 -13 277 -13 _c
214 -13 166 6 134 45 _c
101 83 85 140 85 216 _c
311 560 _m
311 560 _l
_cl}_d
/w{818 0 42 0 776 547 _sc
42 547 _m
132 547 _l
244 120 _l
356 547 _l
462 547 _l
574 120 _l
686 547 _l
776 547 _l
633 0 _l
527 0 _l
409 448 _l
291 0 _l
185 0 _l
42 547 _l
_cl}_d
/x{592 0 29 0 559 547 _sc
549 547 _m
351 281 _l
559 0 _l
453 0 _l
294 215 _l
135 0 _l
29 0 _l
241 286 _l
47 547 _l
153 547 _l
298 352 _l
443 547 _l
549 547 _l
_cl}_d
/y{592 0 30 -207 562 547 _sc
322 -50 _m
296 -114 271 -157 247 -177 _c
223 -197 191 -207 151 -207 _c
79 -207 _l
79 -132 _l
132 -132 _l
156 -132 175 -126 189 -114 _c
203 -102 218 -75 235 -31 _c
251 9 _l
30 547 _l
125 547 _l
296 119 _l
467 547 _l
562 547 _l
322 -50 _l
_cl}_d
/z{525 0 43 0 482 547 _sc
55 547 _m
482 547 _l
482 465 _l
144 72 _l
482 72 _l
482 0 _l
43 0 _l
43 82 _l
381 475 _l
55 475 _l
55 547 _l
_cl}_d
/minus{838 0 106 272 732 355 _sc
106 355 _m
732 355 _l
732 272 _l
106 272 _l
106 355 _l
_cl}_d
end readonly def

/BuildGlyph
 {exch begin
 CharStrings exch
 2 copy known not{pop /.notdef}if
 true 3 1 roll get exec
 end}_d

/BuildChar {
 1 index /Encoding get exch get
 1 index /BuildGlyph get exec
}_d

FontName currentdict end definefont pop
end
%%EndProlog
mpldict begin
75.6 223.2 translate
460.8 345.6 0 0 clipbox
gsave
0 0 m
460.8 0 l
460.8 345.6 l
0 345.6 l
cl
1.000 setgray
fill
grestore
gsave
57.6 183.168 m
414.72 183.168 l
414.72 304.128 l
57.6 304.128 l
cl
1.000 setgray
fill
grestore
0.800 setlinewidth
1 setlinejoin
2 setlinecap
[] 0 setdash
0.690 setgray
gsave
357.1 121 57.6 183.2 clipbox
73.832727 183.168 m
73.832727 304.128 l
stroke
grestore
0 setlinecap
0.000 setgray
gsave
/o {
gsave
newpath
translate
0.8 setlinewidth
1 setlinejoin
0 setlinecap
0 0 m
0 -3.5 l

gsave
0.000 setgray
fill
grestore
stroke
grestore
} bind def
73.8327 183.168 o
grestore
/DejaVuSans findfont
10.000 scalefont
setfont
gsave
70.653040 168.574250 translate
0.000000 rotate
0.000000 0.000000 m /zero glyphshow
grestore
2 setlinecap
0.690 setgray
gsave
357.1 121 57.6 183.2 clipbox
138.893758 183.168 m
138.893758 304.128 l
stroke
grestore
0 setlinecap
0.000 setgray
gsave
/o {
gsave
newpath
translate
0.8 setlinewidth
1 setlinejoin
0 setlinecap
0 0 m
0 -3.5 l

gsave
0.000 setgray
fill
grestore
stroke
grestore
} bind def
138.894 183.168 o
grestore
gsave
129.354696 168.574250 translate
0.000000 rotate
0.000000 0.000000 m /one glyphshow
6.362305 0.000000 m /zero glyphshow
12.724609 0.000000 m /zero glyphshow
grestore
2 setlinecap
0.690 setgray
gsave
357.1 121 57.6 183.2 clipbox
203.95479 183.168 m
203.95479 304.128 l
stroke
grestore
0 setlinecap
0.000 setgray
gsave
/o {
gsave
newpath
translate
0.8 setlinewidth
1 setlinejoin
0 setlinecap
0 0 m
0 -3.5 l

gsave
0.000 setgray
fill
grestore
stroke
grestore
} bind def
203.955 183.168 o
grestore
gsave
194.415727 168.574250 translate
0.000000 rotate
0.000000 0.000000 m /two glyphshow
6.362305 0.000000 m /zero glyphshow
12.724609 0.000000 m /zero glyphshow
grestore
2 setlinecap
0.690 setgray
gsave
357.1 121 57.6 183.2 clipbox
269.015821 183.168 m
269.015821 304.128 l
stroke
grestore
0 setlinecap
0.000 setgray
gsave
/o {
gsave
newpath
translate
0.8 setlinewidth
1 setlinejoin
0 setlinecap
0 0 m
0 -3.5 l

gsave
0.000 setgray
fill
grestore
stroke
grestore
} bind def
269.016 183.168 o
grestore
gsave
259.476758 168.574250 translate
0.000000 rotate
0.000000 0.000000 m /three glyphshow
6.362305 0.000000 m /zero glyphshow
12.724609 0.000000 m /zero glyphshow
grestore
2 setlinecap
0.690 setgray
gsave
357.1 121 57.6 183.2 clipbox
334.076852 183.168 m
334.076852 304.128 l
stroke
grestore
0 setlinecap
0.000 setgray
gsave
/o {
gsave
newpath
translate
0.8 setlinewidth
1 setlinejoin
0 setlinecap
0 0 m
0 -3.5 l

gsave
0.000 setgray
fill
grestore
stroke
grestore
} bind def
334.077 183.168 o
grestore
gsave
324.537789 168.574250 translate
0.000000 rotate
0.000000 0.000000 m /four glyphshow
6.362305 0.000000 m /zero glyphshow
12.724609 0.000000 m /zero glyphshow
grestore
2 setlinecap
0.690 setgray
gsave
357.1 121 57.6 183.2 clipbox
399.137883 183.168 m
399.137883 304.128 l
stroke
grestore
0 setlinecap
0.000 setgray
gsave
/o {
gsave
newpath
translate
0.8 setlinewidth
1 setlinejoin
0 setlinecap
0 0 m
0 -3.5 l

gsave
0.000 setgray
fill
grestore
stroke
grestore
} bind def
399.138 183.168 o
grestore
gsave
389.598821 168.574250 translate
0.000000 rotate
0.000000 0.000000 m /five glyphshow
6.362305 0.000000 m /zero glyphshow
12.724609 0.000000 m /zero glyphshow
grestore
gsave
217.410000 154.902375 translate
0.000000 rotate
0.000000 0.000000 m /S glyphshow
6.347656 0.000000 m /a glyphshow
12.475586 0.000000 m /m glyphshow
22.216797 0.000000 m /p glyphshow
28.564453 0.000000 m /l glyphshow
31.342773 0.000000 m /e glyphshow
grestore
2 setlinecap
0.690 setgray
gsave
357.1 121 57.6 183.2 clipbox
57.6 192.325797 m
414.72 192.325797 l
stroke
grestore
0 setlinecap
0.000 setgray
gsave
/o {
gsave
newpath
translate
0.8 setlinewidth
1 setlinejoin
0 setlinecap
0 0 m
-3.5 0 l

gsave
0.000 setgray
fill
grestore
stroke
grestore
} bind def
57.6 192.326 o
grestore
gsave
26.318750 188.528922 translate
0.000000 rotate
0.000000 0.000000 m /minus glyphshow
8.378906 0.000000 m /zero glyphshow
14.741211 0.000000 m /period glyphshow
17.919922 0.000000 m /four glyphshow
grestore
2 setlinecap
0.690 setgray
gsave
357.1 121 57.6 183.2 clipbox
57.6 215.664812 m
414.72 215.664812 l
stroke
grestore
0 setlinecap
0.000 setgray
gsave
/o {
gsave
newpath
translate
0.8 setlinewidth
1 setlinejoin
0 setlinecap
0 0 m
-3.5 0 l

gsave
0.000 setgray
fill
grestore
stroke
grestore
} bind def
57.6 215.665 o
grestore
gsave
26.318750 211.867937 translate
0.000000 rotate
0.000000 0.000000 m /minus glyphshow
8.378906 0.000000 m /zero glyphshow
14.741211 0.000000 m /period glyphshow
17.919922 0.000000 m /two glyphshow
grestore
2 setlinecap
0.690 setgray
gsave
357.1 121 57.6 183.2 clipbox
57.6 239.003827 m
414.72 239.003827 l
stroke
grestore
0 setlinecap
0.000 setgray
gsave
/o {
gsave
newpath
translate
0.8 setlinewidth
1 setlinejoin
0 setlinecap
0 0 m
-3.5 0 l

gsave
0.000 setgray
fill
grestore
stroke
grestore
} bind def
57.6 239.004 o
grestore
gsave
34.693750 235.206952 translate
0.000000 rotate
0.000000 0.000000 m /zero glyphshow
6.362305 0.000000 m /period glyphshow
9.541016 0.000000 m /zero glyphshow
grestore
2 setlinecap
0.690 setgray
gsave
357.1 121 57.6 183.2 clipbox
57.6 262.342842 m
414.72 262.342842 l
stroke
grestore
0 setlinecap
0.000 setgray
gsave
/o {
gsave
newpath
translate
0.8 setlinewidth
1 setlinejoin
0 setlinecap
0 0 m
-3.5 0 l

gsave
0.000 setgray
fill
grestore
stroke
grestore
} bind def
57.6 262.343 o
grestore
gsave
34.693750 258.545967 translate
0.000000 rotate
0.000000 0.000000 m /zero glyphshow
6.362305 0.000000 m /period glyphshow
9.541016 0.000000 m /two glyphshow
grestore
2 setlinecap
0.690 setgray
gsave
357.1 121 57.6 183.2 clipbox
57.6 285.681857 m
414.72 285.681857 l
stroke
grestore
0 setlinecap
0.000 setgray
gsave
/o {
gsave
newpath
translate
0.8 setlinewidth
1 setlinejoin
0 setlinecap
0 0 m
-3.5 0 l

gsave
0.000 setgray
fill
grestore
stroke
grestore
} bind def
57.6 285.682 o
grestore
gsave
34.693750 281.884982 translate
0.000000 rotate
0.000000 0.000000 m /zero glyphshow
6.362305 0.000000 m /period glyphshow
9.541016 0.000000 m /four glyphshow
grestore
gsave
20.240625 199.632375 translate
90.000000 rotate
0.000000 0.000000 m /P glyphshow
6.030273 0.000000 m /o glyphshow
12.148438 0.000000 m /s glyphshow
17.358398 0.000000 m /i glyphshow
20.136719 0.000000 m /t glyphshow
24.057617 0.000000 m /i glyphshow
26.835938 0.000000 m /o glyphshow
32.954102 0.000000 m /n glyphshow
39.291992 0.000000 m /space glyphshow
42.470703 0.000000 m /E glyphshow
48.789062 0.000000 m /r glyphshow
52.900391 0.000000 m /r glyphshow
57.011719 0.000000 m /o glyphshow
63.129883 0.000000 m /r glyphshow
67.241211 0.000000 m /space glyphshow
70.419922 0.000000 m /bracketleft glyphshow
74.321289 0.000000 m /m glyphshow
84.062500 0.000000 m /bracketright glyphshow
grestore
1.000 setlinewidth
0.122 0.467 0.706 setrgbcolor
gsave
357.1 121 57.6 183.2 clipbox
/o {
gsave
newpath
translate
1.0 setlinewidth
1 setlinejoin
0 setlinecap
0 -1.5 m
0.397805 -1.5 0.77937 -1.341951 1.06066 -1.06066 c
1.341951 -0.77937 1.5 -0.397805 1.5 0 c
1.5 0.397805 1.341951 0.77937 1.06066 1.06066 c
0.77937 1.341951 0.397805 1.5 0 1.5 c
-0.397805 1.5 -0.77937 1.341951 -1.06066 1.06066 c
-1.341951 0.77937 -1.5 0.397805 -1.5 0 c
-1.5 -0.397805 -1.341951 -0.77937 -1.06066 -1.06066 c
-0.77937 -1.341951 -0.397805 -1.5 0 -1.5 c
cl

gsave
0.122 0.467 0.706 setrgbcolor
fill
grestore
stroke
grestore
} bind def
73.8327 236.359 o
74.4833 235.317 o
75.1339 238.823 o
75.7846 239.363 o
76.4352 237.269 o
77.0858 237.104 o
77.7364 235.819 o
78.387 241.032 o
79.0376 239.008 o
79.6882 237.352 o
80.3388 238.966 o
80.9894 243.04 o
81.6401 236.756 o
82.2907 238.846 o
82.9413 236.482 o
83.5919 241.17 o
84.2425 238.992 o
84.8931 242.193 o
85.5437 241.26 o
86.1943 239.997 o
86.8449 237.669 o
87.4955 241.637 o
88.1462 236.18 o
88.7968 242.827 o
89.4474 237.303 o
90.098 236.911 o
90.7486 237.317 o
91.3992 238.657 o
92.0498 238.948 o
92.7004 237.993 o
93.351 236.627 o
94.0016 239.354 o
94.6523 238.376 o
95.3029 237.63 o
95.9535 243.522 o
96.6041 236.561 o
97.2547 238.455 o
97.9053 237.65 o
98.5559 240.191 o
99.2065 241.654 o
99.8571 241.789 o
100.508 236.468 o
101.158 241.505 o
101.809 242.808 o
102.46 240.082 o
103.11 237.744 o
103.761 234.859 o
104.411 239.53 o
105.062 238.391 o
105.713 243.081 o
106.363 242.344 o
107.014 244.111 o
107.664 232.059 o
108.315 237.455 o
108.966 241.616 o
109.616 234.743 o
110.267 243.289 o
110.918 237.103 o
111.568 238.531 o
112.219 230.936 o
112.869 243.077 o
113.52 243.801 o
114.171 237.986 o
114.821 243.812 o
115.472 239.482 o
116.122 244.462 o
116.773 235.38 o
117.424 239.751 o
118.074 231.266 o
118.725 233.9 o
119.375 244.45 o
120.026 242.129 o
120.677 238 o
121.327 242.907 o
121.978 234.74 o
122.629 231.733 o
123.279 232.596 o
123.93 232.778 o
124.58 237.806 o
125.231 237.542 o
125.882 241.999 o
126.532 238.466 o
127.183 240.792 o
127.833 233.752 o
128.484 237.28 o
129.135 239.157 o
129.785 235.871 o
130.436 234.56 o
131.086 236.017 o
131.737 241.383 o
132.388 243.785 o
133.038 240.854 o
133.689 229.748 o
134.339 238.67 o
134.99 243.295 o
135.641 235.873 o
136.291 243.845 o
136.942 246.865 o
137.593 239.283 o
138.243 236.285 o
138.894 232.349 o
139.544 246.952 o
140.195 229.92 o
140.846 242.353 o
141.496 243.877 o
142.147 235.727 o
142.797 237.74 o
143.448 242.369 o
144.099 236.584 o
144.749 240.586 o
145.4 235.284 o
146.05 246.708 o
146.701 238.881 o
147.352 247.27 o
148.002 234.782 o
148.653 238.341 o
149.304 244.404 o
149.954 245.263 o
150.605 231.478 o
151.255 226.344 o
151.906 242.348 o
152.557 238.946 o
153.207 218.31 o
153.858 233.284 o
154.508 242.381 o
155.159 230.562 o
155.81 243.456 o
156.46 245.787 o
157.111 239.121 o
157.761 240.666 o
158.412 248.14 o
159.063 234.399 o
159.713 256.303 o
160.364 237.101 o
161.015 236.227 o
161.665 245.732 o
162.316 233.479 o
162.966 248.254 o
163.617 239.889 o
164.268 240.213 o
164.918 242.853 o
165.569 244.892 o
166.219 239.523 o
166.87 237.311 o
167.521 242.265 o
168.171 233.355 o
168.822 245.767 o
169.472 235.96 o
170.123 231.546 o
170.774 246.989 o
171.424 234.971 o
172.075 235.126 o
172.725 239.106 o
173.376 243.864 o
174.027 246.805 o
174.677 248.896 o
175.328 240.884 o
175.979 238.161 o
176.629 234.814 o
177.28 241.51 o
177.93 242.28 o
178.581 230.968 o
179.232 238.105 o
179.882 232.147 o
180.533 234.378 o
181.183 239.038 o
181.834 231.765 o
182.485 252.72 o
183.135 227.824 o
183.786 238.273 o
184.436 239.091 o
185.087 244.794 o
185.738 245.191 o
186.388 240.997 o
187.039 240.741 o
187.69 242.835 o
188.34 238.441 o
188.991 229.467 o
189.641 223.188 o
190.292 231.987 o
190.943 236.726 o
191.593 227.261 o
192.244 221.762 o
192.894 248.17 o
193.545 242.539 o
194.196 238.578 o
194.846 245.409 o
195.497 244.146 o
196.147 239.364 o
196.798 233.36 o
197.449 221.052 o
198.099 234.74 o
198.75 242.061 o
199.401 235.074 o
200.051 241.817 o
200.702 253.026 o
201.352 248.855 o
202.003 232.966 o
202.654 243.736 o
203.304 238.424 o
203.955 236.172 o
204.605 242.597 o
205.256 224.018 o
205.907 246.339 o
206.557 232.92 o
207.208 236.362 o
207.858 240.307 o
208.509 257.174 o
209.16 232.133 o
209.81 233.574 o
210.461 233.556 o
211.112 240.35 o
211.762 234.617 o
212.413 232.948 o
213.063 245.105 o
213.714 235.447 o
214.365 240.11 o
215.015 238.027 o
215.666 247.428 o
216.316 249.893 o
216.967 228.567 o
217.618 238.099 o
218.268 239.459 o
218.919 230.82 o
219.569 233.399 o
220.22 234.645 o
220.871 241.271 o
221.521 240.827 o
222.172 227.797 o
222.822 234.181 o
223.473 260.012 o
224.124 271.828 o
224.774 240.542 o
225.425 240.744 o
226.076 251.39 o
226.726 264.912 o
227.377 222.532 o
228.027 234.379 o
228.678 219.231 o
229.329 220.742 o
229.979 229.909 o
230.63 241.4 o
231.28 267.622 o
231.931 223.136 o
232.582 239.613 o
233.232 239.049 o
233.883 230.563 o
234.533 250.726 o
235.184 229.413 o
235.835 237.521 o
236.485 233.145 o
237.136 243.1 o
237.787 248.526 o
238.437 251.643 o
239.088 228.079 o
239.738 246.18 o
240.389 249.097 o
241.04 241.335 o
241.69 234.82 o
242.341 242.206 o
242.991 260.69 o
243.642 242.306 o
244.293 254.979 o
244.943 251.78 o
245.594 245.632 o
246.244 231.299 o
246.895 240.828 o
247.546 229.311 o
248.196 224.72 o
248.847 235.262 o
249.498 253.758 o
250.148 242.222 o
250.799 223.284 o
251.449 242.817 o
252.1 239.941 o
252.751 232.314 o
253.401 238.796 o
254.052 227.686 o
254.702 248.569 o
255.353 243.053 o
256.004 256.874 o
256.654 227.935 o
257.305 245.183 o
257.955 244.141 o
258.606 211.337 o
259.257 230.265 o
259.907 247.705 o
260.558 283.371 o
261.208 256.14 o
261.859 242.528 o
262.51 248.363 o
263.16 249.775 o
263.811 234.257 o
264.462 251.984 o
265.112 238.779 o
265.763 234.355 o
266.413 238.255 o
267.064 229.101 o
267.715 225.968 o
268.365 261.82 o
269.016 226.867 o
269.666 219.119 o
270.317 230.036 o
270.968 248.693 o
271.618 234.913 o
272.269 242.668 o
272.919 234.351 o
273.57 239.539 o
274.221 214.093 o
274.871 225.215 o
275.522 241.739 o
276.173 265.125 o
276.823 211.301 o
277.474 261.296 o
278.124 246.611 o
278.775 256.435 o
279.426 246.694 o
280.076 250.135 o
280.727 236.714 o
281.377 220.874 o
282.028 259.055 o
282.679 234.405 o
283.329 208.687 o
283.98 239.817 o
284.63 214.159 o
285.281 211.688 o
285.932 236.386 o
286.582 247.038 o
287.233 233.558 o
287.884 233.217 o
288.534 247.294 o
289.185 263.069 o
289.835 211.5 o
290.486 263.37 o
291.137 243.334 o
291.787 238.862 o
292.438 254.334 o
293.088 251.591 o
293.739 288.522 o
294.39 249.577 o
295.04 243.428 o
295.691 220.992 o
296.341 227.64 o
296.992 235.922 o
297.643 219.369 o
298.293 258.429 o
298.944 234.919 o
299.595 226.987 o
300.245 259.415 o
300.896 230.227 o
301.546 250.91 o
302.197 228.251 o
302.848 253.195 o
303.498 259.458 o
304.149 238.348 o
304.799 252.523 o
305.45 243.132 o
306.101 252.037 o
306.751 249.535 o
307.402 232.179 o
308.052 231.814 o
308.703 246.979 o
309.354 252.621 o
310.004 232.439 o
310.655 263.668 o
311.305 244.696 o
311.956 256.436 o
312.607 234.827 o
313.257 233.869 o
313.908 235.13 o
314.559 245.46 o
315.209 219.752 o
315.86 265.231 o
316.51 245.514 o
317.161 249.324 o
317.812 251.079 o
318.462 219.253 o
319.113 247.861 o
319.763 228.601 o
320.414 224.104 o
321.065 243.393 o
321.715 265.315 o
322.366 233.154 o
323.016 239.395 o
323.667 257.515 o
324.318 226.706 o
324.968 219.666 o
325.619 246.525 o
326.27 258.262 o
326.92 235.803 o
327.571 264.538 o
328.221 243.053 o
328.872 244.148 o
329.523 210.088 o
330.173 268.002 o
330.824 235.606 o
331.474 239.942 o
332.125 239.546 o
332.776 237.841 o
333.426 242.331 o
334.077 256.914 o
334.727 246.628 o
335.378 241.73 o
336.029 242.497 o
336.679 243.659 o
337.33 247.392 o
337.981 224.659 o
338.631 243.579 o
339.282 239.254 o
339.932 235.379 o
340.583 220.052 o
341.234 257.959 o
341.884 251.651 o
342.535 249.682 o
343.185 255.371 o
343.836 274.649 o
344.487 229.322 o
345.137 234.464 o
345.788 254.25 o
346.438 235.493 o
347.089 232.86 o
347.74 250.326 o
348.39 253.918 o
349.041 228.287 o
349.691 241.905 o
350.342 229.737 o
350.993 248.817 o
351.643 249.403 o
352.294 228.508 o
352.945 231.873 o
353.595 228.777 o
354.246 245.42 o
354.896 268.154 o
355.547 226.816 o
356.198 219.676 o
356.848 213.375 o
357.499 234.771 o
358.149 272.664 o
358.8 241.228 o
359.451 278.899 o
360.101 240.178 o
360.752 247.797 o
361.402 231.653 o
362.053 228.881 o
362.704 250.818 o
363.354 261.41 o
364.005 225.606 o
364.656 224.865 o
365.306 235.71 o
365.957 258.729 o
366.607 243.077 o
367.258 224.981 o
367.909 270.461 o
368.559 253.624 o
369.21 255.223 o
369.86 234.956 o
370.511 240.725 o
371.162 259.197 o
371.812 246.802 o
372.463 220.867 o
373.113 242.021 o
373.764 234.73 o
374.415 251.95 o
375.065 246.093 o
375.716 268.931 o
376.367 240.712 o
377.017 245.065 o
377.668 262.917 o
378.318 242.177 o
378.969 225.106 o
379.62 254.14 o
380.27 246.566 o
380.921 247.231 o
381.571 224.389 o
382.222 250.805 o
382.873 197.009 o
383.523 269.017 o
384.174 243.305 o
384.824 257.005 o
385.475 252.041 o
386.126 251.417 o
386.776 231.929 o
387.427 271.37 o
388.078 248.357 o
388.728 253.502 o
389.379 234.315 o
390.029 239.089 o
390.68 251.761 o
391.331 255.927 o
391.981 238.923 o
392.632 286.186 o
393.282 259.954 o
393.933 253.189 o
394.584 242.265 o
395.234 252.721 o
395.885 229.77 o
396.535 218.936 o
397.186 217.491 o
397.837 241.283 o
398.487 238.77 o
grestore
1.000 0.498 0.055 setrgbcolor
gsave
357.1 121 57.6 183.2 clipbox
/o {
gsave
newpath
translate
1.0 setlinewidth
1 setlinejoin
0 setlinecap
0 -1.5 m
0.397805 -1.5 0.77937 -1.341951 1.06066 -1.06066 c
1.341951 -0.77937 1.5 -0.397805 1.5 0 c
1.5 0.397805 1.341951 0.77937 1.06066 1.06066 c
0.77937 1.341951 0.397805 1.5 0 1.5 c
-0.397805 1.5 -0.77937 1.341951 -1.06066 1.06066 c
-1.341951 0.77937 -1.5 0.397805 -1.5 0 c
-1.5 -0.397805 -1.341951 -0.77937 -1.06066 -1.06066 c
-0.77937 -1.341951 -0.397805 -1.5 0 -1.5 c
cl

gsave
1.000 0.498 0.055 setrgbcolor
fill
grestore
stroke
grestore
} bind def
73.8327 243.478 o
74.4833 235.365 o
75.1339 240.855 o
75.7846 236.74 o
76.4352 241.797 o
77.0858 239.117 o
77.7364 237.456 o
78.387 236.848 o
79.0376 238.273 o
79.6882 236.523 o
80.3388 239.603 o
80.9894 235.1 o
81.6401 239.642 o
82.2907 240.54 o
82.9413 240.109 o
83.5919 233.001 o
84.2425 239.265 o
84.8931 240.52 o
85.5437 239.639 o
86.1943 236.988 o
86.8449 242.261 o
87.4955 238.535 o
88.1462 239.778 o
88.7968 238.277 o
89.4474 238.691 o
90.098 238.422 o
90.7486 241.287 o
91.3992 236.182 o
92.0498 240.908 o
92.7004 236.546 o
93.351 238.653 o
94.0016 238.431 o
94.6523 244.011 o
95.3029 239.453 o
95.9535 237.639 o
96.6041 239.197 o
97.2547 239.66 o
97.9053 243.955 o
98.5559 238.169 o
99.2065 239.255 o
99.8571 234.695 o
100.508 239.091 o
101.158 238.4 o
101.809 238.689 o
102.46 235.344 o
103.11 239.886 o
103.761 236.944 o
104.411 238.237 o
105.062 238.1 o
105.713 236.369 o
106.363 237.475 o
107.014 239.479 o
107.664 239.645 o
108.315 239.451 o
108.966 240.176 o
109.616 242.137 o
110.267 241.697 o
110.918 239.133 o
111.568 234.692 o
112.219 239.672 o
112.869 237.79 o
113.52 235.84 o
114.171 238.291 o
114.821 233.534 o
115.472 237.312 o
116.122 240.619 o
116.773 238.608 o
117.424 233.073 o
118.074 239.042 o
118.725 239.29 o
119.375 232.059 o
120.026 240.849 o
120.677 235.34 o
121.327 239.487 o
121.978 238.496 o
122.629 240.533 o
123.279 242.482 o
123.93 238.735 o
124.58 238.773 o
125.231 241.667 o
125.882 238.58 o
126.532 242.23 o
127.183 240.879 o
127.833 240.453 o
128.484 238.159 o
129.135 238.537 o
129.785 240.199 o
130.436 238.047 o
131.086 240.503 o
131.737 242.639 o
132.388 239.408 o
133.038 240.214 o
133.689 237.941 o
134.339 233.678 o
134.99 244.166 o
135.641 239.083 o
136.291 243.172 o
136.942 233.778 o
137.593 237.7 o
138.243 236.86 o
138.894 237.34 o
139.544 236.542 o
140.195 236.009 o
140.846 240.79 o
141.496 233.872 o
142.147 238.646 o
142.797 233.573 o
143.448 241.035 o
144.099 241.006 o
144.749 240.259 o
145.4 237.371 o
146.05 239.829 o
146.701 244.47 o
147.352 237.424 o
148.002 240.317 o
148.653 247.257 o
149.304 240.888 o
149.954 243.758 o
150.605 238.09 o
151.255 234.75 o
151.906 235.801 o
152.557 234.879 o
153.207 244.572 o
153.858 243.382 o
154.508 245.939 o
155.159 236.253 o
155.81 230.231 o
156.46 240.178 o
157.111 243.887 o
157.761 233.095 o
158.412 236.524 o
159.063 239.205 o
159.713 238.22 o
160.364 235.661 o
161.015 239.624 o
161.665 233.13 o
162.316 237.144 o
162.966 234.567 o
163.617 227.165 o
164.268 239.781 o
164.918 241.31 o
165.569 229.328 o
166.219 238.339 o
166.87 240.087 o
167.521 241.16 o
168.171 227.901 o
168.822 232.382 o
169.472 230.726 o
170.123 236.582 o
170.774 248.06 o
171.424 238.601 o
172.075 236.298 o
172.725 243.446 o
173.376 241.592 o
174.027 228.601 o
174.677 234.453 o
175.328 242.458 o
175.979 236.439 o
176.629 236.835 o
177.28 240.807 o
177.93 239.619 o
178.581 240.073 o
179.232 240.065 o
179.882 238.397 o
180.533 240.597 o
181.183 225.291 o
181.834 241.079 o
182.485 246.906 o
183.135 246.498 o
183.786 238.422 o
184.436 232.69 o
185.087 243.782 o
185.738 243.25 o
186.388 243.019 o
187.039 247.892 o
187.69 246.632 o
188.34 237.546 o
188.991 249.544 o
189.641 238.428 o
190.292 229.39 o
190.943 244.932 o
191.593 244.003 o
192.244 228.071 o
192.894 240.163 o
193.545 225.209 o
194.196 239.851 o
194.846 221.244 o
195.497 235.925 o
196.147 237.477 o
196.798 230.64 o
197.449 238.984 o
198.099 234.116 o
198.75 236.499 o
199.401 231.665 o
200.051 245.896 o
200.702 251.907 o
201.352 234.87 o
202.003 236.736 o
202.654 233.396 o
203.304 228.929 o
203.955 247.809 o
204.605 238.673 o
205.256 246.232 o
205.907 237.052 o
206.557 247.415 o
207.208 229.223 o
207.858 236.35 o
208.509 231.15 o
209.16 239.045 o
209.81 244.036 o
210.461 229.397 o
211.112 233.259 o
211.762 234.415 o
212.413 239.632 o
213.063 211.511 o
213.714 231.888 o
214.365 237.69 o
215.015 231.012 o
215.666 234.815 o
216.316 237.584 o
216.967 228.457 o
217.618 236.363 o
218.268 249.426 o
218.919 240.593 o
219.569 220.27 o
220.22 233.6 o
220.871 228.185 o
221.521 240.083 o
222.172 246.974 o
222.822 249.994 o
223.473 252.022 o
224.124 245.967 o
224.774 255.316 o
225.425 243.277 o
226.076 235.213 o
226.726 234.916 o
227.377 225.736 o
228.027 236.429 o
228.678 230.535 o
229.329 244.58 o
229.979 230.8 o
230.63 229.875 o
231.28 224.562 o
231.931 233.159 o
232.582 222.268 o
233.232 237.92 o
233.883 247.041 o
234.533 253.11 o
235.184 232.34 o
235.835 234.296 o
236.485 257.978 o
237.136 233.037 o
237.787 239.689 o
238.437 235.492 o
239.088 249.735 o
239.738 221.787 o
240.389 240.577 o
241.04 243.029 o
241.69 216.184 o
242.341 227.01 o
242.991 229.912 o
243.642 241.481 o
244.293 233.559 o
244.943 222.753 o
245.594 231.777 o
246.244 250.131 o
246.895 252.214 o
247.546 250.707 o
248.196 219.087 o
248.847 248.53 o
249.498 237.874 o
250.148 222.479 o
250.799 231.405 o
251.449 258.19 o
252.1 234.038 o
252.751 219.649 o
253.401 213.758 o
254.052 239.764 o
254.702 230.664 o
255.353 223.736 o
256.004 235.171 o
256.654 226.437 o
257.305 210.726 o
257.955 230.463 o
258.606 242.429 o
259.257 234.991 o
259.907 226.696 o
260.558 203.423 o
261.208 226.687 o
261.859 252.539 o
262.51 233.231 o
263.16 247.194 o
263.811 261.477 o
264.462 241.304 o
265.112 249.15 o
265.763 236.633 o
266.413 238.643 o
267.064 219.462 o
267.715 233.132 o
268.365 250.736 o
269.016 222.13 o
269.666 256.48 o
270.317 254.01 o
270.968 261.379 o
271.618 232.428 o
272.269 259.48 o
272.919 226.921 o
273.57 251.779 o
274.221 235.34 o
274.871 263.242 o
275.522 256.609 o
276.173 238.621 o
276.823 261.529 o
277.474 235.388 o
278.124 230.636 o
278.775 249.244 o
279.426 239.792 o
280.076 257.522 o
280.727 251.681 o
281.377 214.965 o
282.028 234.89 o
282.679 250.143 o
283.329 235.456 o
283.98 214.235 o
284.63 264.863 o
285.281 236.96 o
285.932 232.104 o
286.582 230.32 o
287.233 234.829 o
287.884 248.831 o
288.534 240.966 o
289.185 256.794 o
289.835 236.474 o
290.486 241.929 o
291.137 235.131 o
291.787 253.967 o
292.438 220.849 o
293.088 214.196 o
293.739 243.53 o
294.39 256.102 o
295.04 231.628 o
295.691 228.164 o
296.341 249.27 o
296.992 233.991 o
297.643 213.153 o
298.293 240.628 o
298.944 208.962 o
299.595 250.918 o
300.245 246.739 o
300.896 247.211 o
301.546 262.559 o
302.197 236.959 o
302.848 236.723 o
303.498 252.529 o
304.149 252.333 o
304.799 244.482 o
305.45 242.691 o
306.101 248.385 o
306.751 214.906 o
307.402 240.952 o
308.052 222.846 o
308.703 209.172 o
309.354 250.265 o
310.004 248.697 o
310.655 201.349 o
311.305 246.641 o
311.956 226.128 o
312.607 207.938 o
313.257 253.938 o
313.908 256.706 o
314.559 233.817 o
315.209 234.684 o
315.86 214.936 o
316.51 244.305 o
317.161 265.526 o
317.812 248.747 o
318.462 241.182 o
319.113 250.855 o
319.763 250.782 o
320.414 234.378 o
321.065 205.68 o
321.715 224.181 o
322.366 225.248 o
323.016 241.037 o
323.667 273.362 o
324.318 248.799 o
324.968 224.953 o
325.619 262.449 o
326.27 222.77 o
326.92 216.519 o
327.571 221.176 o
328.221 246.889 o
328.872 261.346 o
329.523 244.096 o
330.173 258.456 o
330.824 236.522 o
331.474 238.495 o
332.125 245.372 o
332.776 219.377 o
333.426 250.96 o
334.077 249.908 o
334.727 234.603 o
335.378 209.979 o
336.029 235.49 o
336.679 253.354 o
337.33 255.518 o
337.981 245.358 o
338.631 244.372 o
339.282 245.157 o
339.932 229.549 o
340.583 243.336 o
341.234 266.184 o
341.884 273.029 o
342.535 251.062 o
343.185 237.961 o
343.836 294.115 o
344.487 257.529 o
345.137 246.801 o
345.788 204.779 o
346.438 235.187 o
347.089 202.02 o
347.74 238.665 o
348.39 210.031 o
349.041 261.588 o
349.691 214.675 o
350.342 256.358 o
350.993 252.018 o
351.643 258.972 o
352.294 222.329 o
352.945 240.749 o
353.595 206 o
354.246 245.587 o
354.896 215.228 o
355.547 256.049 o
356.198 255.423 o
356.848 216.426 o
357.499 268.135 o
358.149 225.26 o
358.8 244.032 o
359.451 220.974 o
360.101 257.462 o
360.752 270.865 o
361.402 251.963 o
362.053 206.355 o
362.704 237.325 o
363.354 227.669 o
364.005 210.81 o
364.656 230.882 o
365.306 246.113 o
365.957 241.328 o
366.607 224.565 o
367.258 229.294 o
367.909 248.903 o
368.559 269.09 o
369.21 267.561 o
369.86 205.026 o
370.511 269.245 o
371.162 256.583 o
371.812 246.326 o
372.463 255.118 o
373.113 229.103 o
373.764 223.801 o
374.415 234.781 o
375.065 227.351 o
375.716 223.693 o
376.367 241.776 o
377.017 198.001 o
377.668 218.491 o
378.318 209.692 o
378.969 257.89 o
379.62 273.792 o
380.27 218.755 o
380.921 213.729 o
381.571 245.128 o
382.222 250.311 o
382.873 262.713 o
383.523 218.556 o
384.174 236.998 o
384.824 240.957 o
385.475 223.23 o
386.126 212.88 o
386.776 252.912 o
387.427 253.722 o
388.078 228.75 o
388.728 229.573 o
389.379 256.892 o
390.029 197.446 o
390.68 259.733 o
391.331 215.825 o
391.981 234.869 o
392.632 273.636 o
393.282 223.29 o
393.933 238.796 o
394.584 235.859 o
395.234 275.464 o
395.885 245.786 o
396.535 263.962 o
397.186 270.961 o
397.837 226.354 o
398.487 256.198 o
grestore
0.173 0.627 0.173 setrgbcolor
gsave
357.1 121 57.6 183.2 clipbox
/o {
gsave
newpath
translate
1.0 setlinewidth
1 setlinejoin
0 setlinecap
0 -1.5 m
0.397805 -1.5 0.77937 -1.341951 1.06066 -1.06066 c
1.341951 -0.77937 1.5 -0.397805 1.5 0 c
1.5 0.397805 1.341951 0.77937 1.06066 1.06066 c
0.77937 1.341951 0.397805 1.5 0 1.5 c
-0.397805 1.5 -0.77937 1.341951 -1.06066 1.06066 c
-1.341951 0.77937 -1.5 0.397805 -1.5 0 c
-1.5 -0.397805 -1.341951 -0.77937 -1.06066 -1.06066 c
-0.77937 -1.341951 -0.397805 -1.5 0 -1.5 c
cl

gsave
0.173 0.627 0.173 setrgbcolor
fill
grestore
stroke
grestore
} bind def
73.8327 237.907 o
74.4833 237.476 o
75.1339 237.376 o
75.7846 240.748 o
76.4352 241.629 o
77.0858 236.931 o
77.7364 232.929 o
78.387 239.114 o
79.0376 234.619 o
79.6882 235.029 o
80.3388 239.101 o
80.9894 240.326 o
81.6401 242.693 o
82.2907 237.248 o
82.9413 237.889 o
83.5919 240.755 o
84.2425 240.58 o
84.8931 242.246 o
85.5437 240.38 o
86.1943 243.331 o
86.8449 237.855 o
87.4955 243.133 o
88.1462 240.562 o
88.7968 243.808 o
89.4474 238.266 o
90.098 234.423 o
90.7486 239.937 o
91.3992 237.807 o
92.0498 239.922 o
92.7004 233.284 o
93.351 239.137 o
94.0016 236.643 o
94.6523 243.702 o
95.3029 233.714 o
95.9535 249.113 o
96.6041 232.219 o
97.2547 237.07 o
97.9053 239.554 o
98.5559 238.31 o
99.2065 242.059 o
99.8571 237.95 o
100.508 235.594 o
101.158 248.269 o
101.809 243.209 o
102.46 245.009 o
103.11 236.327 o
103.761 235.174 o
104.411 235.737 o
105.062 235.954 o
105.713 242.924 o
106.363 237.821 o
107.014 235.584 o
107.664 237.959 o
108.315 236.057 o
108.966 238.034 o
109.616 235.017 o
110.267 244.949 o
110.918 230.67 o
111.568 230.256 o
112.219 238.846 o
112.869 240.203 o
113.52 242.471 o
114.171 240.693 o
114.821 242.734 o
115.472 243.215 o
116.122 242.346 o
116.773 241.535 o
117.424 233.264 o
118.074 227.469 o
118.725 246.927 o
119.375 235.196 o
120.026 247.658 o
120.677 240.386 o
121.327 240.418 o
121.978 242.143 o
122.629 238.663 o
123.279 239.905 o
123.93 239.547 o
124.58 232.105 o
125.231 245.158 o
125.882 244.625 o
126.532 240.806 o
127.183 240.786 o
127.833 238.289 o
128.484 238.483 o
129.135 232.826 o
129.785 239.137 o
130.436 242.822 o
131.086 224.375 o
131.737 241.544 o
132.388 235.835 o
133.038 248.247 o
133.689 234.867 o
134.339 247.345 o
134.99 244.538 o
135.641 237.925 o
136.291 239.631 o
136.942 245.295 o
137.593 239.366 o
138.243 237.884 o
138.894 231.424 o
139.544 246.67 o
140.195 226.529 o
140.846 240.631 o
141.496 232.441 o
142.147 239.054 o
142.797 229.257 o
143.448 242.526 o
144.099 247.82 o
144.749 238.697 o
145.4 231.057 o
146.05 251.34 o
146.701 245.667 o
147.352 242.976 o
148.002 237.826 o
148.653 243.587 o
149.304 241.955 o
149.954 242.634 o
150.605 248.289 o
151.255 234.368 o
151.906 249.015 o
152.557 239.304 o
153.207 250.9 o
153.858 250.525 o
154.508 244.555 o
155.159 235.022 o
155.81 235.785 o
156.46 240.76 o
157.111 237.162 o
157.761 237.167 o
158.412 243.29 o
159.063 240.134 o
159.713 252.174 o
160.364 239.045 o
161.015 247.027 o
161.665 236.753 o
162.316 237.276 o
162.966 248.68 o
163.617 228.216 o
164.268 231.352 o
164.918 236.764 o
165.569 236.072 o
166.219 241.937 o
166.87 246.001 o
167.521 253.243 o
168.171 232.72 o
168.822 234.764 o
169.472 230.508 o
170.123 223.922 o
170.774 247.414 o
171.424 239.353 o
172.075 226.312 o
172.725 233.96 o
173.376 236.927 o
174.027 234.043 o
174.677 252.864 o
175.328 238.306 o
175.979 241.326 o
176.629 226.909 o
177.28 246.112 o
177.93 228.626 o
178.581 227.785 o
179.232 241.656 o
179.882 249.94 o
180.533 238.362 o
181.183 226.447 o
181.834 238.711 o
182.485 254.545 o
183.135 247.572 o
183.786 251.163 o
184.436 232.667 o
185.087 246.017 o
185.738 248.219 o
186.388 253.758 o
187.039 234.83 o
187.69 248.87 o
188.34 237.984 o
188.991 238.774 o
189.641 241.503 o
190.292 229.231 o
190.943 237.458 o
191.593 233.626 o
192.244 227.546 o
192.894 242.408 o
193.545 236.428 o
194.196 240.766 o
194.846 221.96 o
195.497 229.626 o
196.147 238.103 o
196.798 228.874 o
197.449 228.061 o
198.099 224.453 o
198.75 237.244 o
199.401 238.752 o
200.051 239.094 o
200.702 242.836 o
201.352 228.499 o
202.003 243.895 o
202.654 251.477 o
203.304 229.908 o
203.955 248.055 o
204.605 224.843 o
205.256 240.108 o
205.907 248.907 o
206.557 260.55 o
207.208 232.555 o
207.858 244.438 o
208.509 236.9 o
209.16 240.527 o
209.81 231.796 o
210.461 248.133 o
211.112 225.907 o
211.762 239.736 o
212.413 255.703 o
213.063 225.252 o
213.714 234.561 o
214.365 220.42 o
215.015 232.81 o
215.666 239.048 o
216.316 240.176 o
216.967 238.813 o
217.618 246.328 o
218.268 250.275 o
218.919 246.673 o
219.569 212.2 o
220.22 227.671 o
220.871 248.316 o
221.521 248.208 o
222.172 248.331 o
222.822 238.569 o
223.473 247.12 o
224.124 246.769 o
224.774 263.744 o
225.425 214.509 o
226.076 244.967 o
226.726 226.039 o
227.377 227.139 o
228.027 234.185 o
228.678 232.51 o
229.329 271.134 o
229.979 235.197 o
230.63 218.1 o
231.28 228.226 o
231.931 238.182 o
232.582 229.682 o
233.232 247.213 o
233.883 254.241 o
234.533 232.867 o
235.184 237.88 o
235.835 252.643 o
236.485 249.271 o
237.136 237.91 o
237.787 240.716 o
238.437 239.233 o
239.088 230.105 o
239.738 229.603 o
240.389 245.705 o
241.04 246.292 o
241.69 240.923 o
242.341 236.942 o
242.991 231.926 o
243.642 267.287 o
244.293 237.981 o
244.943 202.188 o
245.594 248.316 o
246.244 236.449 o
246.895 236.207 o
247.546 243.13 o
248.196 231.984 o
248.847 236.243 o
249.498 244.185 o
250.148 223.024 o
250.799 236.072 o
251.449 243.467 o
252.1 245.621 o
252.751 231.657 o
253.401 232.916 o
254.052 256.36 o
254.702 221.67 o
255.353 205.158 o
256.004 249.879 o
256.654 238.55 o
257.305 241.384 o
257.955 250.186 o
258.606 227.823 o
259.257 234.058 o
259.907 235.676 o
260.558 233.852 o
261.208 242.86 o
261.859 274.967 o
262.51 220.286 o
263.16 261.92 o
263.811 266.566 o
264.462 253.331 o
265.112 245.818 o
265.763 234.01 o
266.413 258.822 o
267.064 250.946 o
267.715 227.024 o
268.365 241.769 o
269.016 240.795 o
269.666 256.735 o
270.317 241.384 o
270.968 266.151 o
271.618 244.588 o
272.269 264.563 o
272.919 245.852 o
273.57 243.699 o
274.221 248.256 o
274.871 255.82 o
275.522 251.617 o
276.173 218.201 o
276.823 237.158 o
277.474 210.143 o
278.124 248.073 o
278.775 224.891 o
279.426 239.831 o
280.076 226.732 o
280.727 265.856 o
281.377 247.731 o
282.028 234.959 o
282.679 244.199 o
283.329 217.621 o
283.98 212.766 o
284.63 238.037 o
285.281 235.45 o
285.932 220.781 o
286.582 249.103 o
287.233 248.081 o
287.884 225.859 o
288.534 246.61 o
289.185 210.869 o
289.835 237.75 o
290.486 257.378 o
291.137 231.281 o
291.787 235.03 o
292.438 264.506 o
293.088 235.021 o
293.739 240.983 o
294.39 224.434 o
295.04 258.888 o
295.691 253.174 o
296.341 235.958 o
296.992 254.776 o
297.643 239.979 o
298.293 244.331 o
298.944 251.849 o
299.595 247.6 o
300.245 229.26 o
300.896 226.834 o
301.546 250.88 o
302.197 237.329 o
302.848 231.875 o
303.498 263.096 o
304.149 232.616 o
304.799 218.992 o
305.45 272.877 o
306.101 228.135 o
306.751 222.643 o
307.402 248.191 o
308.052 257.556 o
308.703 257.921 o
309.354 220.011 o
310.004 255.137 o
310.655 290.611 o
311.305 253.439 o
311.956 258.118 o
312.607 242.611 o
313.257 233.199 o
313.908 248.438 o
314.559 260.92 o
315.209 223.321 o
315.86 223.228 o
316.51 241.603 o
317.161 268.272 o
317.812 272.667 o
318.462 247.991 o
319.113 245.53 o
319.763 231.615 o
320.414 234.386 o
321.065 221.753 o
321.715 215.419 o
322.366 222.104 o
323.016 239.634 o
323.667 276.523 o
324.318 219.809 o
324.968 214.366 o
325.619 266.326 o
326.27 270.123 o
326.92 246.156 o
327.571 230.777 o
328.221 279.684 o
328.872 270.428 o
329.523 217.459 o
330.173 273.839 o
330.824 208.936 o
331.474 237.83 o
332.125 244.877 o
332.776 231.148 o
333.426 226.035 o
334.077 248.185 o
334.727 240.538 o
335.378 256.54 o
336.029 192.447 o
336.679 220.671 o
337.33 213.974 o
337.981 260.674 o
338.631 206.255 o
339.282 218.135 o
339.932 243.837 o
340.583 241.418 o
341.234 243.014 o
341.884 266.929 o
342.535 260.686 o
343.185 241.101 o
343.836 243.174 o
344.487 228.529 o
345.137 204.159 o
345.788 230.381 o
346.438 270.577 o
347.089 233.339 o
347.74 235.262 o
348.39 212.401 o
349.041 219.673 o
349.691 245.25 o
350.342 224.645 o
350.993 241.61 o
351.643 234.192 o
352.294 202.052 o
352.945 245.751 o
353.595 231.523 o
354.246 252.136 o
354.896 231.892 o
355.547 239.936 o
356.198 257.574 o
356.848 218.216 o
357.499 251.568 o
358.149 211.338 o
358.8 244.428 o
359.451 252.113 o
360.101 277.022 o
360.752 297.498 o
361.402 225.572 o
362.053 256.016 o
362.704 269.849 o
363.354 213.896 o
364.005 240.789 o
364.656 250.782 o
365.306 246.939 o
365.957 229.72 o
366.607 263.631 o
367.258 214.609 o
367.909 254.394 o
368.559 248.956 o
369.21 271.02 o
369.86 225.291 o
370.511 226.366 o
371.162 222.173 o
371.812 242.49 o
372.463 240.76 o
373.113 231.088 o
373.764 193.856 o
374.415 189.542 o
375.065 222.184 o
375.716 232.138 o
376.367 231.309 o
377.017 230.009 o
377.668 271.015 o
378.318 255.03 o
378.969 259.314 o
379.62 226.408 o
380.27 211.841 o
380.921 218.641 o
381.571 229.224 o
382.222 226.337 o
382.873 238.124 o
383.523 265.158 o
384.174 238.601 o
384.824 252.636 o
385.475 189.394 o
386.126 188.666 o
386.776 213.75 o
387.427 222.349 o
388.078 254.4 o
388.728 248.341 o
389.379 219.833 o
390.029 258.28 o
390.68 264.565 o
391.331 205.73 o
391.981 250.194 o
392.632 248.347 o
393.282 252.823 o
393.933 222.893 o
394.584 214.15 o
395.234 298.63 o
395.885 247.764 o
396.535 231.904 o
397.186 234.013 o
397.837 247.046 o
398.487 283.752 o
grestore
0.800 setlinewidth
0 setlinejoin
2 setlinecap
[] 0 setdash
0.000 setgray
gsave
57.6 183.168 m
57.6 304.128 l
stroke
grestore
gsave
414.72 183.168 m
414.72 304.128 l
stroke
grestore
gsave
57.6 183.168 m
414.72 183.168 l
stroke
grestore
gsave
57.6 304.128 m
414.72 304.128 l
stroke
grestore
1.000 setlinewidth
0 setlinecap
0.800 setgray
gsave
64.6 252.112375 m
102.521875 252.112375 l
103.855208 252.112375 104.521875 252.779042 104.521875 254.112375 c
104.521875 297.128 l
104.521875 298.461333 103.855208 299.128 102.521875 299.128 c
64.6 299.128 l
63.266667 299.128 62.6 298.461333 62.6 297.128 c
62.6 254.112375 l
62.6 252.779042 63.266667 252.112375 64.6 252.112375 c
cl
gsave
1.000 setgray
fill
grestore
stroke
grestore
1 setlinejoin
[] 0 setdash
0.122 0.467 0.706 setrgbcolor
gsave
/o {
gsave
newpath
translate
1.0 setlinewidth
1 setlinejoin
0 setlinecap
0 -1.5 m
0.397805 -1.5 0.77937 -1.341951 1.06066 -1.06066 c
1.341951 -0.77937 1.5 -0.397805 1.5 0 c
1.5 0.397805 1.341951 0.77937 1.06066 1.06066 c
0.77937 1.341951 0.397805 1.5 0 1.5 c
-0.397805 1.5 -0.77937 1.341951 -1.06066 1.06066 c
-1.341951 0.77937 -1.5 0.397805 -1.5 0 c
-1.5 -0.397805 -1.341951 -0.77937 -1.06066 -1.06066 c
-0.77937 -1.341951 -0.397805 -1.5 0 -1.5 c
cl

gsave
0.122 0.467 0.706 setrgbcolor
fill
grestore
stroke
grestore
} bind def
76.6 291.034 o
grestore
0.000 setgray
gsave
94.600000 287.534250 translate
0.000000 rotate
0.000000 0.000000 m /x glyphshow
grestore
1.000 0.498 0.055 setrgbcolor
gsave
/o {
gsave
newpath
translate
1.0 setlinewidth
1 setlinejoin
0 setlinecap
0 -1.5 m
0.397805 -1.5 0.77937 -1.341951 1.06066 -1.06066 c
1.341951 -0.77937 1.5 -0.397805 1.5 0 c
1.5 0.397805 1.341951 0.77937 1.06066 1.06066 c
0.77937 1.341951 0.397805 1.5 0 1.5 c
-0.397805 1.5 -0.77937 1.341951 -1.06066 1.06066 c
-1.341951 0.77937 -1.5 0.397805 -1.5 0 c
-1.5 -0.397805 -1.341951 -0.77937 -1.06066 -1.06066 c
-0.77937 -1.341951 -0.397805 -1.5 0 -1.5 c
cl

gsave
1.000 0.498 0.055 setrgbcolor
fill
grestore
stroke
grestore
} bind def
76.6 276.362 o
grestore
0.000 setgray
gsave
94.600000 272.862375 translate
0.000000 rotate
0.000000 0.000000 m /y glyphshow
grestore
0.173 0.627 0.173 setrgbcolor
gsave
/o {
gsave
newpath
translate
1.0 setlinewidth
1 setlinejoin
0 setlinecap
0 -1.5 m
0.397805 -1.5 0.77937 -1.341951 1.06066 -1.06066 c
1.341951 -0.77937 1.5 -0.397805 1.5 0 c
1.5 0.397805 1.341951 0.77937 1.06066 1.06066 c
0.77937 1.341951 0.397805 1.5 0 1.5 c
-0.397805 1.5 -0.77937 1.341951 -1.06066 1.06066 c
-1.341951 0.77937 -1.5 0.397805 -1.5 0 c
-1.5 -0.397805 -1.341951 -0.77937 -1.06066 -1.06066 c
-0.77937 -1.341951 -0.397805 -1.5 0 -1.5 c
cl

gsave
0.173 0.627 0.173 setrgbcolor
fill
grestore
stroke
grestore
} bind def
76.6 261.69 o
grestore
0.000 setgray
gsave
94.600000 258.190500 translate
0.000000 rotate
0.000000 0.000000 m /z glyphshow
grestore
gsave
57.6 38.016 m
414.72 38.016 l
414.72 158.976 l
57.6 158.976 l
cl
1.000 setgray
fill
grestore
0.800 setlinewidth
2 setlinecap
0.690 setgray
gsave
357.1 121 57.6 38.02 clipbox
73.832727 38.016 m
73.832727 158.976 l
stroke
grestore
0 setlinecap
0.000 setgray
gsave
/o {
gsave
newpath
translate
0.8 setlinewidth
1 setlinejoin
0 setlinecap
0 0 m
0 -3.5 l

gsave
0.000 setgray
fill
grestore
stroke
grestore
} bind def
73.8327 38.016 o
grestore
gsave
70.653040 23.422250 translate
0.000000 rotate
0.000000 0.000000 m /zero glyphshow
grestore
2 setlinecap
0.690 setgray
gsave
357.1 121 57.6 38.02 clipbox
138.893758 38.016 m
138.893758 158.976 l
stroke
grestore
0 setlinecap
0.000 setgray
gsave
/o {
gsave
newpath
translate
0.8 setlinewidth
1 setlinejoin
0 setlinecap
0 0 m
0 -3.5 l

gsave
0.000 setgray
fill
grestore
stroke
grestore
} bind def
138.894 38.016 o
grestore
gsave
129.354696 23.422250 translate
0.000000 rotate
0.000000 0.000000 m /one glyphshow
6.362305 0.000000 m /zero glyphshow
12.724609 0.000000 m /zero glyphshow
grestore
2 setlinecap
0.690 setgray
gsave
357.1 121 57.6 38.02 clipbox
203.95479 38.016 m
203.95479 158.976 l
stroke
grestore
0 setlinecap
0.000 setgray
gsave
/o {
gsave
newpath
translate
0.8 setlinewidth
1 setlinejoin
0 setlinecap
0 0 m
0 -3.5 l

gsave
0.000 setgray
fill
grestore
stroke
grestore
} bind def
203.955 38.016 o
grestore
gsave
194.415727 23.422250 translate
0.000000 rotate
0.000000 0.000000 m /two glyphshow
6.362305 0.000000 m /zero glyphshow
12.724609 0.000000 m /zero glyphshow
grestore
2 setlinecap
0.690 setgray
gsave
357.1 121 57.6 38.02 clipbox
269.015821 38.016 m
269.015821 158.976 l
stroke
grestore
0 setlinecap
0.000 setgray
gsave
/o {
gsave
newpath
translate
0.8 setlinewidth
1 setlinejoin
0 setlinecap
0 0 m
0 -3.5 l

gsave
0.000 setgray
fill
grestore
stroke
grestore
} bind def
269.016 38.016 o
grestore
gsave
259.476758 23.422250 translate
0.000000 rotate
0.000000 0.000000 m /three glyphshow
6.362305 0.000000 m /zero glyphshow
12.724609 0.000000 m /zero glyphshow
grestore
2 setlinecap
0.690 setgray
gsave
357.1 121 57.6 38.02 clipbox
334.076852 38.016 m
334.076852 158.976 l
stroke
grestore
0 setlinecap
0.000 setgray
gsave
/o {
gsave
newpath
translate
0.8 setlinewidth
1 setlinejoin
0 setlinecap
0 0 m
0 -3.5 l

gsave
0.000 setgray
fill
grestore
stroke
grestore
} bind def
334.077 38.016 o
grestore
gsave
324.537789 23.422250 translate
0.000000 rotate
0.000000 0.000000 m /four glyphshow
6.362305 0.000000 m /zero glyphshow
12.724609 0.000000 m /zero glyphshow
grestore
2 setlinecap
0.690 setgray
gsave
357.1 121 57.6 38.02 clipbox
399.137883 38.016 m
399.137883 158.976 l
stroke
grestore
0 setlinecap
0.000 setgray
gsave
/o {
gsave
newpath
translate
0.8 setlinewidth
1 setlinejoin
0 setlinecap
0 0 m
0 -3.5 l

gsave
0.000 setgray
fill
grestore
stroke
grestore
} bind def
399.138 38.016 o
grestore
gsave
389.598821 23.422250 translate
0.000000 rotate
0.000000 0.000000 m /five glyphshow
6.362305 0.000000 m /zero glyphshow
12.724609 0.000000 m /zero glyphshow
grestore
gsave
217.410000 9.750375 translate
0.000000 rotate
0.000000 0.000000 m /S glyphshow
6.347656 0.000000 m /a glyphshow
12.475586 0.000000 m /m glyphshow
22.216797 0.000000 m /p glyphshow
28.564453 0.000000 m /l glyphshow
31.342773 0.000000 m /e glyphshow
grestore
2 setlinecap
0.690 setgray
gsave
357.1 121 57.6 38.02 clipbox
57.6 48.386139 m
414.72 48.386139 l
stroke
grestore
0 setlinecap
0.000 setgray
gsave
/o {
gsave
newpath
translate
0.8 setlinewidth
1 setlinejoin
0 setlinecap
0 0 m
-3.5 0 l

gsave
0.000 setgray
fill
grestore
stroke
grestore
} bind def
57.6 48.3861 o
grestore
gsave
23.146875 44.589264 translate
0.000000 rotate
0.000000 0.000000 m /minus glyphshow
8.378906 0.000000 m /one glyphshow
14.741211 0.000000 m /zero glyphshow
21.103516 0.000000 m /zero glyphshow
grestore
2 setlinecap
0.690 setgray
gsave
357.1 121 57.6 38.02 clipbox
57.6 72.743423 m
414.72 72.743423 l
stroke
grestore
0 setlinecap
0.000 setgray
gsave
/o {
gsave
newpath
translate
0.8 setlinewidth
1 setlinejoin
0 setlinecap
0 0 m
-3.5 0 l

gsave
0.000 setgray
fill
grestore
stroke
grestore
} bind def
57.6 72.7434 o
grestore
gsave
29.506250 68.946548 translate
0.000000 rotate
0.000000 0.000000 m /minus glyphshow
8.378906 0.000000 m /five glyphshow
14.741211 0.000000 m /zero glyphshow
grestore
2 setlinecap
0.690 setgray
gsave
357.1 121 57.6 38.02 clipbox
57.6 97.100707 m
414.72 97.100707 l
stroke
grestore
0 setlinecap
0.000 setgray
gsave
/o {
gsave
newpath
translate
0.8 setlinewidth
1 setlinejoin
0 setlinecap
0 0 m
-3.5 0 l

gsave
0.000 setgray
fill
grestore
stroke
grestore
} bind def
57.6 97.1007 o
grestore
gsave
44.240625 93.303832 translate
0.000000 rotate
0.000000 0.000000 m /zero glyphshow
grestore
2 setlinecap
0.690 setgray
gsave
357.1 121 57.6 38.02 clipbox
57.6 121.457991 m
414.72 121.457991 l
stroke
grestore
0 setlinecap
0.000 setgray
gsave
/o {
gsave
newpath
translate
0.8 setlinewidth
1 setlinejoin
0 setlinecap
0 0 m
-3.5 0 l

gsave
0.000 setgray
fill
grestore
stroke
grestore
} bind def
57.6 121.458 o
grestore
gsave
37.881250 117.661116 translate
0.000000 rotate
0.000000 0.000000 m /five glyphshow
6.362305 0.000000 m /zero glyphshow
grestore
2 setlinecap
0.690 setgray
gsave
357.1 121 57.6 38.02 clipbox
57.6 145.815276 m
414.72 145.815276 l
stroke
grestore
0 setlinecap
0.000 setgray
gsave
/o {
gsave
newpath
translate
0.8 setlinewidth
1 setlinejoin
0 setlinecap
0 0 m
-3.5 0 l

gsave
0.000 setgray
fill
grestore
stroke
grestore
} bind def
57.6 145.815 o
grestore
gsave
31.521875 142.018401 translate
0.000000 rotate
0.000000 0.000000 m /one glyphshow
6.362305 0.000000 m /zero glyphshow
12.724609 0.000000 m /zero glyphshow
grestore
gsave
17.068750 38.746000 translate
90.000000 rotate
0.000000 0.000000 m /E glyphshow
6.318359 0.000000 m /u glyphshow
12.656250 0.000000 m /l glyphshow
15.434570 0.000000 m /e glyphshow
21.586914 0.000000 m /r glyphshow
25.698242 0.000000 m /space glyphshow
28.876953 0.000000 m /a glyphshow
35.004883 0.000000 m /n glyphshow
41.342773 0.000000 m /g glyphshow
47.690430 0.000000 m /l glyphshow
50.468750 0.000000 m /e glyphshow
56.621094 0.000000 m /s glyphshow
61.831055 0.000000 m /space glyphshow
65.009766 0.000000 m /e glyphshow
71.162109 0.000000 m /r glyphshow
75.273438 0.000000 m /r glyphshow
79.384766 0.000000 m /o glyphshow
85.502930 0.000000 m /r glyphshow
89.614258 0.000000 m /space glyphshow
92.792969 0.000000 m /bracketleft glyphshow
96.694336 0.000000 m /d glyphshow
103.041992 0.000000 m /e glyphshow
109.194336 0.000000 m /g glyphshow
115.541992 0.000000 m /bracketright glyphshow
grestore
1.000 setlinewidth
0.122 0.467 0.706 setrgbcolor
gsave
357.1 121 57.6 38.02 clipbox
/o {
gsave
newpath
translate
1.0 setlinewidth
1 setlinejoin
0 setlinecap
0 -1.5 m
0.397805 -1.5 0.77937 -1.341951 1.06066 -1.06066 c
1.341951 -0.77937 1.5 -0.397805 1.5 0 c
1.5 0.397805 1.341951 0.77937 1.06066 1.06066 c
0.77937 1.341951 0.397805 1.5 0 1.5 c
-0.397805 1.5 -0.77937 1.341951 -1.06066 1.06066 c
-1.341951 0.77937 -1.5 0.397805 -1.5 0 c
-1.5 -0.397805 -1.341951 -0.77937 -1.06066 -1.06066 c
-0.77937 -1.341951 -0.397805 -1.5 0 -1.5 c
cl

gsave
0.122 0.467 0.706 setrgbcolor
fill
grestore
stroke
grestore
} bind def
73.8327 98.5866 o
74.4833 94.9912 o
75.1339 98.3246 o
75.7846 95.4807 o
76.4352 98.1536 o
77.0858 99.693 o
77.7364 97.2665 o
78.387 96.5472 o
79.0376 98.7552 o
79.6882 96.6457 o
80.3388 98.3946 o
80.9894 96.3076 o
81.6401 95.7336 o
82.2907 96.6188 o
82.9413 96.4041 o
83.5919 93.9422 o
84.2425 96.6983 o
84.8931 95.838 o
85.5437 96.8117 o
86.1943 95.5319 o
86.8449 98.9466 o
87.4955 94.3514 o
88.1462 96.6991 o
88.7968 93.7329 o
89.4474 99.0614 o
90.098 99.5979 o
90.7486 97.4486 o
91.3992 94.7359 o
92.0498 99.6402 o
92.7004 97.0516 o
93.351 98.0789 o
94.0016 97.4423 o
94.6523 96.8604 o
95.3029 99.2149 o
95.9535 92.2495 o
96.6041 99.8442 o
97.2547 98.6507 o
97.9053 99.8804 o
98.5559 96.9629 o
99.2065 97.5177 o
99.8571 97.5176 o
100.508 95.7429 o
101.158 93.2184 o
101.809 94.2313 o
102.46 93.4808 o
103.11 98.512 o
103.761 97.5319 o
104.411 97.9549 o
105.062 95.2812 o
105.713 96.003 o
106.363 96.5419 o
107.014 98.3775 o
107.664 97.7489 o
108.315 99.1072 o
108.966 96.68 o
109.616 100.805 o
110.267 96.3546 o
110.918 98.5808 o
111.568 99.7695 o
112.219 98.6417 o
112.869 94.7832 o
113.52 94.5554 o
114.171 94.0194 o
114.821 94.5868 o
115.472 93.6586 o
116.122 94.4361 o
116.773 98.435 o
117.424 96.4889 o
118.074 100.812 o
118.725 91.6074 o
119.375 96.5039 o
120.026 96.2219 o
120.677 92.823 o
121.327 98.4606 o
121.978 95.8632 o
122.629 99.4216 o
123.279 95.9079 o
123.93 96.4151 o
124.58 99.1358 o
125.231 99.8644 o
125.882 95.0184 o
126.532 99.4997 o
127.183 99.2376 o
127.833 93.3885 o
128.484 95.032 o
129.135 104.248 o
129.785 96.769 o
130.436 94.7794 o
131.086 102.806 o
131.737 99.4817 o
132.388 97.0542 o
133.038 93.3018 o
133.689 99.3426 o
134.339 93.9753 o
134.99 99.2477 o
135.641 98.0423 o
136.291 101.463 o
136.942 94.7032 o
137.593 96.2994 o
138.243 99.8969 o
138.894 98.5055 o
139.544 92.6642 o
140.195 101.052 o
140.846 94.8043 o
141.496 103.212 o
142.147 96.6906 o
142.797 100.647 o
143.448 91.6425 o
144.099 91.5263 o
144.749 96.4736 o
145.4 102.445 o
146.05 90.2465 o
146.701 95.0315 o
147.352 98.061 o
148.002 94.9776 o
148.653 92.3166 o
149.304 94.895 o
149.954 96.2269 o
150.605 93.1993 o
151.255 97.9234 o
151.906 93.7189 o
152.557 94.724 o
153.207 89.715 o
153.858 98.4597 o
154.508 99.1676 o
155.159 96.8341 o
155.81 98.1878 o
156.46 92.4844 o
157.111 102.04 o
157.761 98.8876 o
158.412 99.532 o
159.063 96.1659 o
159.713 93.3509 o
160.364 101.836 o
161.015 85.9501 o
161.665 96.6433 o
162.316 95.0405 o
162.966 93.1451 o
163.617 94.4142 o
164.268 103.675 o
164.918 99.3076 o
165.569 93.01 o
166.219 95.591 o
166.87 90.944 o
167.521 93.3147 o
168.171 99.1145 o
168.822 97.8509 o
169.472 103.495 o
170.123 103.994 o
170.774 96.5633 o
171.424 97.8778 o
172.075 102.616 o
172.725 97.2545 o
173.376 100.124 o
174.027 100.627 o
174.677 91.5782 o
175.328 96.9399 o
175.979 100.178 o
176.629 106.418 o
177.28 96.0312 o
177.93 102.917 o
178.581 105.637 o
179.232 95.9929 o
179.882 91.843 o
180.533 100.315 o
181.183 99.6221 o
181.834 101.428 o
182.485 95.781 o
183.135 90.2798 o
183.786 94.418 o
184.436 108.801 o
185.087 97.7633 o
185.738 94.1292 o
186.388 90.6236 o
187.039 97.5622 o
187.69 91.8378 o
188.34 97.9439 o
188.991 92.2695 o
189.641 88.381 o
190.292 103.356 o
190.943 92.0895 o
191.593 104.997 o
192.244 91.0333 o
192.894 92.3815 o
193.545 94.4685 o
194.196 98.3249 o
194.846 104.971 o
195.497 102.571 o
196.147 96.4434 o
196.798 101.25 o
197.449 95.3078 o
198.099 100.555 o
198.75 95.3559 o
199.401 100.436 o
200.051 97.7009 o
200.702 95.6239 o
201.352 105.444 o
202.003 94.0226 o
202.654 95.8109 o
203.304 95.77 o
203.955 90.5447 o
204.605 98.8177 o
205.256 92.8068 o
205.907 96.888 o
206.557 89.8906 o
207.208 108.5 o
207.858 92.6212 o
208.509 100.353 o
209.16 92.0372 o
209.81 93.1908 o
210.461 92.681 o
211.112 103.786 o
211.762 95.8585 o
212.413 88.8335 o
213.063 112.703 o
213.714 99.2638 o
214.365 101.726 o
215.015 105.193 o
215.666 88.7204 o
216.316 98.613 o
216.967 98.2963 o
217.618 95.3028 o
218.268 96.7677 o
218.919 101.052 o
219.569 106.701 o
220.22 99.8694 o
220.871 103.127 o
221.521 93.8476 o
222.172 86.6787 o
222.822 93.3292 o
223.473 94.5648 o
224.124 98.3498 o
224.774 91.8996 o
225.425 104.305 o
226.076 100.733 o
226.726 111.198 o
227.377 103.966 o
228.027 97.6255 o
228.678 103.422 o
229.329 83.8351 o
229.979 102.282 o
230.63 95.3882 o
231.28 110.906 o
231.931 104.643 o
232.582 108.73 o
233.232 89.5393 o
233.883 79.6388 o
234.533 100.181 o
235.184 96.369 o
235.835 88.8341 o
236.485 85.1289 o
237.136 87.3688 o
237.787 100.011 o
238.437 105.026 o
239.088 92.8592 o
239.738 99.2047 o
240.389 94.6164 o
241.04 94.273 o
241.69 95.7693 o
242.341 93.9656 o
242.991 106.163 o
243.642 79.2175 o
244.293 103.016 o
244.943 108.829 o
245.594 96.6271 o
246.244 93.9346 o
246.895 85.6187 o
247.546 104.331 o
248.196 103.107 o
248.847 100.636 o
249.498 84.237 o
250.148 119.617 o
250.799 100.687 o
251.449 108.59 o
252.1 88.5602 o
252.751 92.7826 o
253.401 108.126 o
254.052 88.1003 o
254.702 103.943 o
255.353 102.65 o
256.004 101.531 o
256.654 99.1379 o
257.305 99.8689 o
257.955 101.956 o
258.606 84.7086 o
259.257 85.7089 o
259.907 92.1117 o
260.558 132.268 o
261.208 106.19 o
261.859 87.1511 o
262.51 94.8681 o
263.16 84.8757 o
263.811 96.07 o
264.462 102.197 o
265.112 103.766 o
265.763 94.8244 o
266.413 93.6678 o
267.064 102.475 o
267.715 102.324 o
268.365 99.7817 o
269.016 78.7153 o
269.666 84.4052 o
270.317 86.4643 o
270.968 91.337 o
271.618 107.1 o
272.269 116.788 o
272.919 96.9238 o
273.57 81.5267 o
274.221 90.5463 o
274.871 93.3416 o
275.522 78.6289 o
276.173 93.7958 o
276.823 93.8495 o
277.474 104.453 o
278.124 102.988 o
278.775 107.188 o
279.426 101.764 o
280.076 92.677 o
280.727 82.7619 o
281.377 81.3597 o
282.028 95.328 o
282.679 96.0639 o
283.329 89.336 o
283.98 120.526 o
284.63 88.2218 o
285.281 99.8627 o
285.932 95.3511 o
286.582 96.8862 o
287.233 86.2083 o
287.884 104.494 o
288.534 71.3119 o
289.185 97.2179 o
289.835 78.8601 o
290.486 90.7217 o
291.137 99.2513 o
291.787 89.3971 o
292.438 91.6495 o
293.088 106.242 o
293.739 105.089 o
294.39 82.987 o
295.04 87.9285 o
295.691 92.1891 o
296.341 85.5973 o
296.992 110.339 o
297.643 105.174 o
298.293 98.0659 o
298.944 86.9945 o
299.595 77.4479 o
300.245 98.8763 o
300.896 94.4198 o
301.546 83.7143 o
302.197 103.117 o
302.848 115.909 o
303.498 82.5591 o
304.149 100.356 o
304.799 99.4533 o
305.45 97.4878 o
306.101 103.043 o
306.751 110.12 o
307.402 99.2944 o
308.052 101.904 o
308.703 86.5387 o
309.354 95.6945 o
310.004 108.638 o
310.655 81.9925 o
311.305 99.2459 o
311.956 97.9984 o
312.607 76.8981 o
313.257 101.366 o
313.908 93.5516 o
314.559 85.2874 o
315.209 107.033 o
315.86 124.129 o
316.51 95.1332 o
317.161 119.052 o
317.812 97.4681 o
318.462 90.7412 o
319.113 106.762 o
319.763 104.676 o
320.414 93.9732 o
321.065 115.412 o
321.715 108.543 o
322.366 89.417 o
323.016 96.0631 o
323.667 98.722 o
324.318 99.1477 o
324.968 90.3114 o
325.619 84.9634 o
326.27 89.287 o
326.92 88.8468 o
327.571 90.9884 o
328.221 77.231 o
328.872 71.9764 o
329.523 81.8014 o
330.173 100.063 o
330.824 94.743 o
331.474 93.2718 o
332.125 91.7581 o
332.776 95.8495 o
333.426 102.81 o
334.077 92.7268 o
334.727 93.3178 o
335.378 120.609 o
336.029 105.696 o
336.679 77.9813 o
337.33 92.3882 o
337.981 108.745 o
338.631 83.907 o
339.282 101.062 o
339.932 111.231 o
340.583 95.5833 o
341.234 93.3277 o
341.884 80.119 o
342.535 80.5151 o
343.185 97.9919 o
343.836 50.4487 o
344.487 101.001 o
345.137 99.627 o
345.788 111.279 o
346.438 115.915 o
347.089 82.864 o
347.74 98.6112 o
348.39 98.2979 o
349.041 98.5386 o
349.691 104.551 o
350.342 90.1245 o
350.993 105.091 o
351.643 95.6137 o
352.294 89.4526 o
352.945 88.7599 o
353.595 88.539 o
354.246 95.9208 o
354.896 101.526 o
355.547 100.306 o
356.198 101.296 o
356.848 107.049 o
357.499 130.227 o
358.149 95.4279 o
358.8 100.34 o
359.451 112.71 o
360.101 111.666 o
360.752 93.3637 o
361.402 101.367 o
362.053 82.2416 o
362.704 109.366 o
363.354 89.2604 o
364.005 99.7967 o
364.656 95.5461 o
365.306 92.4175 o
365.957 92.9039 o
366.607 106.232 o
367.258 74.499 o
367.909 92.9887 o
368.559 73.7985 o
369.21 87.7382 o
369.86 90.031 o
370.511 86.1579 o
371.162 103.934 o
371.812 103.039 o
372.463 90.5107 o
373.113 98.5333 o
373.764 103.58 o
374.415 74.6729 o
375.065 117.068 o
375.716 102.261 o
376.367 103.182 o
377.017 115.72 o
377.668 118.152 o
378.318 83.0156 o
378.969 108.617 o
379.62 81.6479 o
380.27 106.814 o
380.921 109.213 o
381.571 82.431 o
382.222 80.3491 o
382.873 90.8191 o
383.523 104.422 o
384.174 100.514 o
384.824 94.0296 o
385.475 104.234 o
386.126 101.843 o
386.776 104.91 o
387.427 81.2658 o
388.078 104.483 o
388.728 105.674 o
389.379 93.4657 o
390.029 103.448 o
390.68 99.0941 o
391.331 106.527 o
391.981 93.5742 o
392.632 62.5707 o
393.282 94.6717 o
393.933 85.9895 o
394.584 102.863 o
395.234 70.1751 o
395.885 107.629 o
396.535 97.1337 o
397.186 101.624 o
397.837 104.435 o
398.487 132.019 o
grestore
1.000 0.498 0.055 setrgbcolor
gsave
357.1 121 57.6 38.02 clipbox
/o {
gsave
newpath
translate
1.0 setlinewidth
1 setlinejoin
0 setlinecap
0 -1.5 m
0.397805 -1.5 0.77937 -1.341951 1.06066 -1.06066 c
1.341951 -0.77937 1.5 -0.397805 1.5 0 c
1.5 0.397805 1.341951 0.77937 1.06066 1.06066 c
0.77937 1.341951 0.397805 1.5 0 1.5 c
-0.397805 1.5 -0.77937 1.341951 -1.06066 1.06066 c
-1.341951 0.77937 -1.5 0.397805 -1.5 0 c
-1.5 -0.397805 -1.341951 -0.77937 -1.06066 -1.06066 c
-0.77937 -1.341951 -0.397805 -1.5 0 -1.5 c
cl

gsave
1.000 0.498 0.055 setrgbcolor
fill
grestore
stroke
grestore
} bind def
73.8327 98.1238 o
74.4833 97.8714 o
75.1339 96.3931 o
75.7846 98.0643 o
76.4352 99.5243 o
77.0858 97.9676 o
77.7364 97.1256 o
78.387 96.8595 o
79.0376 94.5366 o
79.6882 98.3425 o
80.3388 97.1492 o
80.9894 97.8016 o
81.6401 98.0622 o
82.2907 96.5723 o
82.9413 97.0954 o
83.5919 97.3949 o
84.2425 98.054 o
84.8931 96.9239 o
85.5437 95.1847 o
86.1943 100.057 o
86.8449 97.6634 o
87.4955 96.9797 o
88.1462 100.444 o
88.7968 94.9109 o
89.4474 98.3235 o
90.098 97.8386 o
90.7486 95.8963 o
91.3992 95.0067 o
92.0498 98.9183 o
92.7004 93.5878 o
93.351 100.257 o
94.0016 98.0472 o
94.6523 100.173 o
95.3029 96.2943 o
95.9535 95.4637 o
96.6041 93.8034 o
97.2547 97.4144 o
97.9053 98.6014 o
98.5559 97.7006 o
99.2065 97.3614 o
99.8571 96.0222 o
100.508 96.3472 o
101.158 98.4944 o
101.809 97.2598 o
102.46 101.421 o
103.11 94.4176 o
103.761 97.4051 o
104.411 96.1721 o
105.062 96.7812 o
105.713 96.9071 o
106.363 95.2056 o
107.014 89.585 o
107.664 98.65 o
108.315 98.065 o
108.966 96.1935 o
109.616 96.5301 o
110.267 95.8052 o
110.918 95.3078 o
111.568 93.5108 o
112.219 97.8517 o
112.869 94.6824 o
113.52 93.6442 o
114.171 95.7992 o
114.821 91.4551 o
115.472 96.3276 o
116.122 98.8636 o
116.773 101.601 o
117.424 97.7053 o
118.074 98.2754 o
118.725 99.4797 o
119.375 96.4689 o
120.026 102.502 o
120.677 93.726 o
121.327 97.5963 o
121.978 100.596 o
122.629 99.8296 o
123.279 99.5772 o
123.93 99.7821 o
124.58 91.9204 o
125.231 101.442 o
125.882 94.8775 o
126.532 98.1627 o
127.183 99.9964 o
127.833 96.9178 o
128.484 98.211 o
129.135 96.238 o
129.785 95.4274 o
130.436 99.9886 o
131.086 96.3066 o
131.737 96.1774 o
132.388 97.0032 o
133.038 99.9246 o
133.689 101.065 o
134.339 100.023 o
134.99 99.9879 o
135.641 98.1863 o
136.291 101.448 o
136.942 96.3015 o
137.593 95.8332 o
138.243 101.081 o
138.894 95.134 o
139.544 100.61 o
140.195 98.8523 o
140.846 93.3291 o
141.496 94.9424 o
142.147 98.052 o
142.797 93.1771 o
143.448 100.088 o
144.099 100.987 o
144.749 98.9094 o
145.4 96.1209 o
146.05 98.8792 o
146.701 102.537 o
147.352 85.866 o
148.002 94.9388 o
148.653 100.3 o
149.304 96.2334 o
149.954 99.6459 o
150.605 99.1724 o
151.255 97.4491 o
151.906 100.807 o
152.557 104.858 o
153.207 103.238 o
153.858 101.415 o
154.508 100.851 o
155.159 98.3549 o
155.81 94.6032 o
156.46 97.1796 o
157.111 92.0605 o
157.761 99.3375 o
158.412 100.283 o
159.063 101.005 o
159.713 91.7996 o
160.364 100.216 o
161.015 96.4892 o
161.665 92.4289 o
162.316 93.0818 o
162.966 95.7232 o
163.617 98.8623 o
164.268 95.3878 o
164.918 94.2659 o
165.569 93.6634 o
166.219 99.1596 o
166.87 96.8975 o
167.521 101.022 o
168.171 101.006 o
168.822 92.4122 o
169.472 100.775 o
170.123 100.611 o
170.774 88.8989 o
171.424 101.61 o
172.075 97.4634 o
172.725 92.7704 o
173.376 100.891 o
174.027 95.7126 o
174.677 99.4091 o
175.328 99.7536 o
175.979 99.8577 o
176.629 97.3055 o
177.28 97.7268 o
177.93 87.8657 o
178.581 99.0798 o
179.232 88.1247 o
179.882 88.053 o
180.533 96.085 o
181.183 99.6996 o
181.834 98.1335 o
182.485 103.498 o
183.135 98.677 o
183.786 105.074 o
184.436 87.4555 o
185.087 86.5091 o
185.738 95.2104 o
186.388 94.9586 o
187.039 94.0264 o
187.69 92.9049 o
188.34 99.1688 o
188.991 93.9072 o
189.641 101.549 o
190.292 98.8181 o
190.943 100.255 o
191.593 95.2639 o
192.244 96.2205 o
192.894 88.3968 o
193.545 97.9284 o
194.196 88.3311 o
194.846 95.9719 o
195.497 92.4328 o
196.147 96.5539 o
196.798 97.4088 o
197.449 99.5873 o
198.099 96.137 o
198.75 91.1538 o
199.401 97.5824 o
200.051 94.5489 o
200.702 103.941 o
201.352 100.885 o
202.003 101.459 o
202.654 95.8818 o
203.304 97.8291 o
203.955 92.7365 o
204.605 98.4475 o
205.256 93.8739 o
205.907 93.7714 o
206.557 97.4822 o
207.208 87.8745 o
207.858 100.602 o
208.509 87.3682 o
209.16 101.048 o
209.81 98.6727 o
210.461 109.203 o
211.112 97.8828 o
211.762 96.5465 o
212.413 104.201 o
213.063 95.5357 o
213.714 95.0543 o
214.365 107.399 o
215.015 100.652 o
215.666 117.598 o
216.316 107.512 o
216.967 95.8277 o
217.618 98.1972 o
218.268 100.399 o
218.919 95.6206 o
219.569 103.316 o
220.22 92.3998 o
220.871 96.1323 o
221.521 90.7168 o
222.172 98.3422 o
222.822 93.4204 o
223.473 103.753 o
224.124 103.547 o
224.774 95.2718 o
225.425 94.8581 o
226.076 102.301 o
226.726 108.417 o
227.377 94.2059 o
228.027 105.108 o
228.678 101.712 o
229.329 102.928 o
229.979 88.7775 o
230.63 94.7737 o
231.28 98.3344 o
231.931 92.6931 o
232.582 101.682 o
233.232 93.4024 o
233.883 92.0733 o
234.533 86.6189 o
235.184 92.3199 o
235.835 100.128 o
236.485 93.5698 o
237.136 96.8224 o
237.787 99.6207 o
238.437 99.4651 o
239.088 98.5282 o
239.738 95.1293 o
240.389 89.5779 o
241.04 100.717 o
241.69 97.1148 o
242.341 89.8063 o
242.991 111.717 o
243.642 102.473 o
244.293 82.4514 o
244.943 112.012 o
245.594 102.289 o
246.244 102.863 o
246.895 104.744 o
247.546 85.4544 o
248.196 91.5687 o
248.847 101.73 o
249.498 101.712 o
250.148 104.854 o
250.799 89.2773 o
251.449 81.0238 o
252.1 101.232 o
252.751 94.8672 o
253.401 100.698 o
254.052 83.1884 o
254.702 102.026 o
255.353 108.331 o
256.004 94.8431 o
256.654 91.9751 o
257.305 98.2158 o
257.955 95.4379 o
258.606 93.8488 o
259.257 103.518 o
259.907 96.3355 o
260.558 119.383 o
261.208 95.3146 o
261.859 91.703 o
262.51 100.161 o
263.16 92.4695 o
263.811 86.281 o
264.462 84.7894 o
265.112 98.7246 o
265.763 101.869 o
266.413 84.2903 o
267.064 93.9838 o
267.715 97.6335 o
268.365 97.57 o
269.016 98.2345 o
269.666 92.7033 o
270.317 82.3913 o
270.968 90.9214 o
271.618 91.5762 o
272.269 78.4649 o
272.919 96.0221 o
273.57 83.5368 o
274.221 91.9279 o
274.871 91.6324 o
275.522 98.9306 o
276.173 107.941 o
276.823 99.7364 o
277.474 109.79 o
278.124 87.1253 o
278.775 109.561 o
279.426 93.4301 o
280.076 101.217 o
280.727 89.7731 o
281.377 85.3426 o
282.028 100.657 o
282.679 90.3361 o
283.329 94.5691 o
283.98 109.887 o
284.63 94.7971 o
285.281 92.1565 o
285.932 111.606 o
286.582 81.5525 o
287.233 86.5581 o
287.884 106.785 o
288.534 99.0925 o
289.185 106.055 o
289.835 93.7027 o
290.486 97.648 o
291.137 102.157 o
291.787 101.442 o
292.438 98.0256 o
293.088 107.929 o
293.739 106.955 o
294.39 114.838 o
295.04 96.1675 o
295.691 94.7859 o
296.341 98.1115 o
296.992 96.3448 o
297.643 89.2594 o
298.293 99.619 o
298.944 95.5014 o
299.595 94.2563 o
300.245 105.496 o
300.896 84.7929 o
301.546 94.5623 o
302.197 101.396 o
302.848 110.888 o
303.498 99.4445 o
304.149 102.444 o
304.799 112.934 o
305.45 88.8691 o
306.101 98.6966 o
306.751 105.63 o
307.402 90.9669 o
308.052 87.4152 o
308.703 90.1393 o
309.354 126.032 o
310.004 94.3781 o
310.655 69.3107 o
311.305 96.4992 o
311.956 96.9678 o
312.607 91.7035 o
313.257 88.6503 o
313.908 97.5052 o
314.559 94.1482 o
315.209 106.676 o
315.86 122.642 o
316.51 98.1308 o
317.161 85.0804 o
317.812 101.122 o
318.462 93.7642 o
319.113 87.6803 o
319.763 105.237 o
320.414 101.982 o
321.065 96.4413 o
321.715 119.8 o
322.366 95.3476 o
323.016 100.27 o
323.667 81.8596 o
324.318 104.848 o
324.968 101.598 o
325.619 104.91 o
326.27 99.5058 o
326.92 98.1676 o
327.571 92.8124 o
328.221 81.4393 o
328.872 83.6883 o
329.523 98.0833 o
330.173 60.5642 o
330.824 100.281 o
331.474 96.7861 o
332.125 101.172 o
332.776 111.004 o
333.426 103.898 o
334.077 87.9387 o
334.727 97.9511 o
335.378 95.866 o
336.029 107.18 o
336.679 106.32 o
337.33 107.002 o
337.981 73.4785 o
338.631 106.963 o
339.282 95.0762 o
339.932 99.731 o
340.583 99.3023 o
341.234 108.164 o
341.884 99.024 o
342.535 95.0849 o
343.185 98.7599 o
343.836 117.94 o
344.487 89.6647 o
345.137 104.036 o
345.788 94.3235 o
346.438 93.3209 o
347.089 89.1791 o
347.74 108.629 o
348.39 102.856 o
349.041 98.7458 o
349.691 98.8963 o
350.342 103.25 o
350.993 102.64 o
351.643 112.225 o
352.294 109.511 o
352.945 85.5477 o
353.595 89.7967 o
354.246 105.74 o
354.896 99.3207 o
355.547 112.013 o
356.198 95.8225 o
356.848 97.83 o
357.499 107.091 o
358.149 86.9163 o
358.8 86.8864 o
359.451 97.3116 o
360.101 90.952 o
360.752 65.8648 o
361.402 106.778 o
362.053 85.3539 o
362.704 99.5458 o
363.354 121.809 o
364.005 87.76 o
364.656 76.5015 o
365.306 98.6937 o
365.957 108.069 o
366.607 86.2444 o
367.258 91.7493 o
367.909 101.96 o
368.559 94.112 o
369.21 99.097 o
369.86 90.1849 o
370.511 118.938 o
371.162 99.8604 o
371.812 94.2826 o
372.463 92.1886 o
373.113 90.4372 o
373.764 113.582 o
374.415 99.7083 o
375.065 105.645 o
375.716 114.978 o
376.367 115.167 o
377.017 98.2879 o
377.668 81.7493 o
378.318 90.4726 o
378.969 100.154 o
379.62 110.176 o
380.27 110.046 o
380.921 103.498 o
381.571 82.0984 o
382.222 89.3 o
382.873 80.1939 o
383.523 78.6265 o
384.174 87.1436 o
384.824 90.8706 o
385.475 123.405 o
386.126 117.393 o
386.776 110.876 o
387.427 121.579 o
388.078 92.483 o
388.728 93.0894 o
389.379 107.208 o
390.029 85.9149 o
390.68 98.7479 o
391.331 130.322 o
391.981 77.3688 o
392.632 119.623 o
393.282 97.1937 o
393.933 115.549 o
394.584 109.823 o
395.234 75.3748 o
395.885 107.683 o
396.535 88.1653 o
397.186 88.1787 o
397.837 91.5083 o
398.487 85.3067 o
grestore
0.173 0.627 0.173 setrgbcolor
gsave
357.1 121 57.6 38.02 clipbox
/o {
gsave
newpath
translate
1.0 setlinewidth
1 setlinejoin
0 setlinecap
0 -1.5 m
0.397805 -1.5 0.77937 -1.341951 1.06066 -1.06066 c
1.341951 -0.77937 1.5 -0.397805 1.5 0 c
1.5 0.397805 1.341951 0.77937 1.06066 1.06066 c
0.77937 1.341951 0.397805 1.5 0 1.5 c
-0.397805 1.5 -0.77937 1.341951 -1.06066 1.06066 c
-1.341951 0.77937 -1.5 0.397805 -1.5 0 c
-1.5 -0.397805 -1.341951 -0.77937 -1.06066 -1.06066 c
-0.77937 -1.341951 -0.397805 -1.5 0 -1.5 c
cl

gsave
0.173 0.627 0.173 setrgbcolor
fill
grestore
stroke
grestore
} bind def
73.8327 95.594 o
74.4833 97.3387 o
75.1339 97.9193 o
75.7846 97.2781 o
76.4352 96.1283 o
77.0858 95.8891 o
77.7364 96.74 o
78.387 97.5549 o
79.0376 97.1242 o
79.6882 97.1737 o
80.3388 97.7764 o
80.9894 99.6028 o
81.6401 96.8088 o
82.2907 97.1064 o
82.9413 97.8953 o
83.5919 98.2804 o
84.2425 97.9273 o
84.8931 97.1895 o
85.5437 96.7596 o
86.1943 97.6914 o
86.8449 95.1419 o
87.4955 96.6096 o
88.1462 96.1632 o
88.7968 99.5121 o
89.4474 96.8097 o
90.098 96.0291 o
90.7486 95.4869 o
91.3992 97.4265 o
92.0498 95.7151 o
92.7004 97.2987 o
93.351 98.0728 o
94.0016 98.5311 o
94.6523 95.5169 o
95.3029 95.7938 o
95.9535 97.2281 o
96.6041 97.1684 o
97.2547 95.3565 o
97.9053 95.797 o
98.5559 97.9609 o
99.2065 98.7283 o
99.8571 96.8678 o
100.508 97.3651 o
101.158 98.6546 o
101.809 98.9951 o
102.46 98.4624 o
103.11 97.0069 o
103.761 97.4404 o
104.411 97.9191 o
105.062 96.3518 o
105.713 98.9144 o
106.363 97.8215 o
107.014 100.12 o
107.664 95.5538 o
108.315 97.5298 o
108.966 98.1782 o
109.616 95.4684 o
110.267 95.2999 o
110.918 97.2447 o
111.568 99.183 o
112.219 92.3176 o
112.869 98.878 o
113.52 99.5902 o
114.171 97.5878 o
114.821 100.642 o
115.472 97.4722 o
116.122 98.702 o
116.773 93.9493 o
117.424 98.1682 o
118.074 95.0343 o
118.725 96.9893 o
119.375 99.6141 o
120.026 96.9481 o
120.677 95.2141 o
121.327 98.8865 o
121.978 95.0803 o
122.629 93.4152 o
123.279 93.393 o
123.93 95.8921 o
124.58 100.911 o
125.231 92.9548 o
125.882 99.6931 o
126.532 91.6441 o
127.183 96.3769 o
127.833 96.2598 o
128.484 95.376 o
129.135 94.3109 o
129.785 98.3581 o
130.436 95.9504 o
131.086 97.2894 o
131.737 95.8501 o
132.388 100.75 o
133.038 98.308 o
133.689 93.2641 o
134.339 97.3521 o
134.99 97.7757 o
135.641 92.8199 o
136.291 96.1999 o
136.942 102.116 o
137.593 100.6 o
138.243 94.8695 o
138.894 97.0361 o
139.544 103.619 o
140.195 92.5993 o
140.846 96.3255 o
141.496 99.0897 o
142.147 92.376 o
142.797 96.4523 o
143.448 100.064 o
144.099 96.7879 o
144.749 96.1505 o
145.4 95.96 o
146.05 104.212 o
146.701 95.4995 o
147.352 106.286 o
148.002 98.1572 o
148.653 94.6572 o
149.304 97.8852 o
149.954 100.305 o
150.605 91.8645 o
151.255 93.2357 o
151.906 97.6976 o
152.557 100.41 o
153.207 92.2139 o
153.858 91.3706 o
154.508 98.345 o
155.159 92.0197 o
155.81 96.0545 o
156.46 103.344 o
157.111 95.6649 o
157.761 99.1996 o
158.412 99.3664 o
159.063 91.7558 o
159.713 107.961 o
160.364 93.1775 o
161.015 96.6097 o
161.665 106.255 o
162.316 103.702 o
162.966 96.7815 o
163.617 93.8373 o
164.268 95.4885 o
164.918 99.7822 o
165.569 102.303 o
166.219 93.1828 o
166.87 97.8601 o
167.521 92.5787 o
168.171 96.3153 o
168.822 100.535 o
169.472 97.1014 o
170.123 94.111 o
170.774 100.146 o
171.424 96.2846 o
172.075 96.9325 o
172.725 99.5257 o
173.376 94.849 o
174.027 101.338 o
174.677 105.684 o
175.328 98.237 o
175.979 94.7113 o
176.629 93.7317 o
177.28 96.963 o
177.93 99.0188 o
178.581 90.2972 o
179.232 99.3201 o
179.882 98.6239 o
180.533 90.3036 o
181.183 100.789 o
181.834 90.9277 o
182.485 104.31 o
183.135 91.6902 o
183.786 94.7253 o
184.436 107.184 o
185.087 103.564 o
185.738 96.3441 o
186.388 95.3656 o
187.039 98.8226 o
187.69 101.517 o
188.34 95.946 o
188.991 100.906 o
189.641 91.2498 o
190.292 94.1113 o
190.943 96.4314 o
191.593 94.1995 o
192.244 87.1668 o
192.894 108.917 o
193.545 91.6538 o
194.196 100.711 o
194.846 102.967 o
195.497 106.127 o
196.147 97.7011 o
196.798 93.7184 o
197.449 85.7118 o
198.099 92.33 o
198.75 95.4242 o
199.401 96.9028 o
200.051 103.169 o
200.702 104.754 o
201.352 89.202 o
202.003 93.6926 o
202.654 99.9111 o
203.304 94.3802 o
203.955 99.049 o
204.605 97.0481 o
205.256 89.3133 o
205.907 102.898 o
206.557 99.8645 o
207.208 100.71 o
207.858 94.6714 o
208.509 109.44 o
209.16 92.6701 o
209.81 94.8944 o
210.461 89.5087 o
211.112 93.9495 o
211.762 92.4139 o
212.413 92.491 o
213.063 93.1856 o
213.714 101.509 o
214.365 97.091 o
215.015 89.3674 o
215.666 99.2912 o
216.316 103.136 o
216.967 81.6114 o
217.618 95.117 o
218.268 95.8743 o
218.919 77.3841 o
219.569 91.2899 o
220.22 90.808 o
220.871 89.8623 o
221.521 96.839 o
222.172 92.1873 o
222.822 102.316 o
223.473 104.845 o
224.124 110.448 o
224.774 96.8759 o
225.425 107.091 o
226.076 87.0389 o
226.726 98.0865 o
227.377 82.5082 o
228.027 88.8828 o
228.678 83.5388 o
229.329 84.6586 o
229.979 93.4686 o
230.63 100.092 o
231.28 105.535 o
231.931 95.9804 o
232.582 102.486 o
233.232 99.4939 o
233.883 94.8064 o
234.533 116.532 o
235.184 100.846 o
235.835 93.3897 o
236.485 96.116 o
237.136 97.7046 o
237.787 94.7996 o
238.437 93.4577 o
239.088 90.1765 o
239.738 103.793 o
240.389 112.54 o
241.04 86.7472 o
241.69 84.1006 o
242.341 95.5942 o
242.991 87.6178 o
243.642 86.9434 o
244.293 127.029 o
244.943 103.253 o
245.594 95.8319 o
246.244 96.5802 o
246.895 97.8142 o
247.546 100.672 o
248.196 85.9548 o
248.847 99.1985 o
249.498 100.984 o
250.148 87.4366 o
250.799 101.48 o
251.449 121.062 o
252.1 98.3832 o
252.751 89.7479 o
253.401 87.0434 o
254.052 91.4584 o
254.702 94.5489 o
255.353 108.723 o
256.004 99.6876 o
256.654 94.8044 o
257.305 75.1037 o
257.955 96.5901 o
258.606 83.2099 o
259.257 93.8089 o
259.907 99.6094 o
260.558 56.8901 o
261.208 93.8624 o
261.859 92.2084 o
262.51 109.525 o
263.16 106.475 o
263.811 106.897 o
264.462 103.748 o
265.112 92.2902 o
265.763 81.941 o
266.413 98.4008 o
267.064 86.937 o
267.715 100.792 o
268.365 102.431 o
269.016 83.702 o
269.666 89.9717 o
270.317 108.963 o
270.968 94.6886 o
271.618 92.4824 o
272.269 123.148 o
272.919 91.7668 o
273.57 94.1334 o
274.221 94.469 o
274.871 97.3718 o
275.522 88.127 o
276.173 113.393 o
276.823 94.1601 o
277.474 105.921 o
278.124 97.2637 o
278.775 94.5196 o
279.426 95.1763 o
280.076 103.921 o
280.727 95.3448 o
281.377 84.7737 o
282.028 88.4068 o
282.679 104.827 o
283.329 84.8144 o
283.98 89.1381 o
284.63 97.2719 o
285.281 84.8111 o
285.932 96.7928 o
286.582 98.2427 o
287.233 95.5083 o
287.884 111.786 o
288.534 89.7235 o
289.185 105.901 o
289.835 85.6104 o
290.486 96.43 o
291.137 105.844 o
291.787 107.915 o
292.438 84.7523 o
293.088 90.1086 o
293.739 103.417 o
294.39 97.617 o
295.04 96.2643 o
295.691 81.8269 o
296.341 98.2815 o
296.992 88.209 o
297.643 84.237 o
298.293 105.283 o
298.944 84.3081 o
299.595 109.368 o
300.245 121.442 o
300.896 115.473 o
301.546 107.412 o
302.197 89.1733 o
302.848 80.5788 o
303.498 97.5443 o
304.149 105.405 o
304.799 99.1938 o
305.45 93.3394 o
306.101 110.404 o
306.751 93.8439 o
307.402 101.099 o
308.052 93.1613 o
308.703 84.7077 o
309.354 86.7415 o
310.004 95.9889 o
310.655 43.5142 o
311.305 92.6048 o
311.956 87.1247 o
312.607 74.3745 o
313.257 92.6815 o
313.908 88.437 o
314.559 95.6528 o
315.209 95.5389 o
315.86 90.1679 o
316.51 101.035 o
317.161 135.012 o
317.812 85.4869 o
318.462 96.5767 o
319.113 117.944 o
319.763 101.702 o
320.414 98.3137 o
321.065 94.2279 o
321.715 100.124 o
322.366 95.2079 o
323.016 101.118 o
323.667 121.076 o
324.318 100.816 o
324.968 91.0731 o
325.619 91.1605 o
326.27 95.0419 o
326.92 85.6931 o
327.571 96.2692 o
328.221 78.4342 o
328.872 96.6555 o
329.523 102.046 o
330.173 109.064 o
330.824 94.8903 o
331.474 102.441 o
332.125 96.8774 o
332.776 85.3739 o
333.426 100.613 o
334.077 102.182 o
334.727 96.8544 o
335.378 105.211 o
336.029 93.8036 o
336.679 113.25 o
337.33 102.95 o
337.981 91.6904 o
338.631 117.363 o
339.282 102.998 o
339.932 94.2014 o
340.583 88.8659 o
341.234 106.172 o
341.884 104.865 o
342.535 98.9143 o
343.185 104.619 o
343.836 129.727 o
344.487 111.435 o
345.137 103.356 o
345.788 71.274 o
346.438 92.4105 o
347.089 81.1398 o
347.74 89.4698 o
348.39 90.3287 o
349.041 106.385 o
349.691 90.5884 o
350.342 95.8537 o
350.993 99.3183 o
351.643 106.215 o
352.294 94.9437 o
352.945 86.1518 o
353.595 84.9573 o
354.246 95.7185 o
354.896 78.7659 o
355.547 101.481 o
356.198 107.091 o
356.848 86.2145 o
357.499 119.028 o
358.149 112.594 o
358.8 100.051 o
359.451 78.139 o
360.101 106.934 o
360.752 94.8404 o
361.402 92.0216 o
362.053 87.7731 o
362.704 67.2245 o
363.354 103.81 o
364.005 89.152 o
364.656 89.1431 o
365.306 87.0838 o
365.957 98.8747 o
366.607 113.142 o
367.258 88.5494 o
367.909 101.053 o
368.559 113.371 o
369.21 95.6467 o
369.86 92.0066 o
370.511 117.044 o
371.162 98.842 o
371.812 97.2259 o
372.463 98.4796 o
373.113 99.8158 o
373.764 111.885 o
374.415 114.208 o
375.065 90.5266 o
375.716 90.2657 o
376.367 106.007 o
377.017 79.0156 o
377.668 85.2918 o
378.318 81.3373 o
378.969 110.829 o
379.62 111.559 o
380.27 95.3773 o
380.921 88.9828 o
381.571 90.5915 o
382.222 94.8872 o
382.873 104.593 o
383.523 68.671 o
384.174 86.8269 o
384.824 97.0248 o
385.475 83.4491 o
386.126 76.0121 o
386.776 95.986 o
387.427 132.382 o
388.078 84.4901 o
388.728 83.8694 o
389.379 104.157 o
390.029 85.0169 o
390.68 113.601 o
391.331 90.5315 o
391.981 88.1596 o
392.632 153.478 o
393.282 84.3342 o
393.933 112.2 o
394.584 93.7812 o
395.234 86.3289 o
395.885 96.8992 o
396.535 100.91 o
397.186 113.386 o
397.837 94.7244 o
398.487 104.396 o
grestore
0.800 setlinewidth
0 setlinejoin
2 setlinecap
[] 0 setdash
0.000 setgray
gsave
57.6 38.016 m
57.6 158.976 l
stroke
grestore
gsave
414.72 38.016 m
414.72 158.976 l
stroke
grestore
gsave
57.6 38.016 m
414.72 38.016 l
stroke
grestore
gsave
57.6 158.976 m
414.72 158.976 l
stroke
grestore
1.000 setlinewidth
0 setlinecap
0.800 setgray
gsave
64.6 106.960375 m
121.490625 106.960375 l
122.823958 106.960375 123.490625 107.627042 123.490625 108.960375 c
123.490625 151.976 l
123.490625 153.309333 122.823958 153.976 121.490625 153.976 c
64.6 153.976 l
63.266667 153.976 62.6 153.309333 62.6 151.976 c
62.6 108.960375 l
62.6 107.627042 63.266667 106.960375 64.6 106.960375 c
cl
gsave
1.000 setgray
fill
grestore
stroke
grestore
1 setlinejoin
[] 0 setdash
0.122 0.467 0.706 setrgbcolor
gsave
/o {
gsave
newpath
translate
1.0 setlinewidth
1 setlinejoin
0 setlinecap
0 -1.5 m
0.397805 -1.5 0.77937 -1.341951 1.06066 -1.06066 c
1.341951 -0.77937 1.5 -0.397805 1.5 0 c
1.5 0.397805 1.341951 0.77937 1.06066 1.06066 c
0.77937 1.341951 0.397805 1.5 0 1.5 c
-0.397805 1.5 -0.77937 1.341951 -1.06066 1.06066 c
-1.341951 0.77937 -1.5 0.397805 -1.5 0 c
-1.5 -0.397805 -1.341951 -0.77937 -1.06066 -1.06066 c
-0.77937 -1.341951 -0.397805 -1.5 0 -1.5 c
cl

gsave
0.122 0.467 0.706 setrgbcolor
fill
grestore
stroke
grestore
} bind def
76.6 145.882 o
grestore
0.000 setgray
gsave
94.600000 142.382250 translate
0.000000 rotate
0.000000 0.000000 m /r glyphshow
4.111328 0.000000 m /o glyphshow
10.229492 0.000000 m /l glyphshow
13.007812 0.000000 m /l glyphshow
grestore
1.000 0.498 0.055 setrgbcolor
gsave
/o {
gsave
newpath
translate
1.0 setlinewidth
1 setlinejoin
0 setlinecap
0 -1.5 m
0.397805 -1.5 0.77937 -1.341951 1.06066 -1.06066 c
1.341951 -0.77937 1.5 -0.397805 1.5 0 c
1.5 0.397805 1.341951 0.77937 1.06066 1.06066 c
0.77937 1.341951 0.397805 1.5 0 1.5 c
-0.397805 1.5 -0.77937 1.341951 -1.06066 1.06066 c
-1.341951 0.77937 -1.5 0.397805 -1.5 0 c
-1.5 -0.397805 -1.341951 -0.77937 -1.06066 -1.06066 c
-0.77937 -1.341951 -0.397805 -1.5 0 -1.5 c
cl

gsave
1.000 0.498 0.055 setrgbcolor
fill
grestore
stroke
grestore
} bind def
76.6 131.21 o
grestore
0.000 setgray
gsave
94.600000 127.710375 translate
0.000000 rotate
0.000000 0.000000 m /p glyphshow
6.347656 0.000000 m /i glyphshow
9.125977 0.000000 m /t glyphshow
13.046875 0.000000 m /c glyphshow
18.544922 0.000000 m /h glyphshow
grestore
0.173 0.627 0.173 setrgbcolor
gsave
/o {
gsave
newpath
translate
1.0 setlinewidth
1 setlinejoin
0 setlinecap
0 -1.5 m
0.397805 -1.5 0.77937 -1.341951 1.06066 -1.06066 c
1.341951 -0.77937 1.5 -0.397805 1.5 0 c
1.5 0.397805 1.341951 0.77937 1.06066 1.06066 c
0.77937 1.341951 0.397805 1.5 0 1.5 c
-0.397805 1.5 -0.77937 1.341951 -1.06066 1.06066 c
-1.341951 0.77937 -1.5 0.397805 -1.5 0 c
-1.5 -0.397805 -1.341951 -0.77937 -1.06066 -1.06066 c
-0.77937 -1.341951 -0.397805 -1.5 0 -1.5 c
cl

gsave
0.173 0.627 0.173 setrgbcolor
fill
grestore
stroke
grestore
} bind def
76.6 116.538 o
grestore
0.000 setgray
gsave
94.600000 113.038500 translate
0.000000 rotate
0.000000 0.000000 m /y glyphshow
5.917969 0.000000 m /a glyphshow
12.045898 0.000000 m /w glyphshow
grestore

end
showpage
