%!PS-Adobe-3.0 EPSF-3.0
%%Title: figures/repeater.eps
%%Creator: matplotlib version 2.0.0, http://matplotlib.org/
%%CreationDate: Mon Feb 27 22:23:16 2017
%%Orientation: portrait
%%BoundingBox: 75 223 536 568
%%EndComments
%%BeginProlog
/mpldict 8 dict def
mpldict begin
/m { moveto } bind def
/l { lineto } bind def
/r { rlineto } bind def
/c { curveto } bind def
/cl { closepath } bind def
/box {
m
1 index 0 r
0 exch r
neg 0 r
cl
} bind def
/clipbox {
box
clip
newpath
} bind def
%!PS-Adobe-3.0 Resource-Font
%%Title: DejaVu Sans
%%Copyright: Copyright (c) 2003 by Bitstream, Inc. All Rights Reserved. Copyright (c) 2006 by Tavmjong Bah. All Rights Reserved. DejaVu changes are in public domain 
%%Creator: Converted from TrueType to type 3 by PPR
25 dict begin
/_d{bind def}bind def
/_m{moveto}_d
/_l{lineto}_d
/_cl{closepath eofill}_d
/_c{curveto}_d
/_sc{7 -1 roll{setcachedevice}{pop pop pop pop pop pop}ifelse}_d
/_e{exec}_d
/FontName /DejaVuSans def
/PaintType 0 def
/FontMatrix[.001 0 0 .001 0 0]def
/FontBBox[-1021 -463 1793 1232]def
/FontType 3 def
/Encoding [ /space /zero /one /two /five /seven /E /P /S /bracketleft /bracketright /a /c /d /e /g /h /i /l /m /n /o /p /r /s /t /u /w /x /y /z /minus ] def
/FontInfo 10 dict dup begin
/FamilyName (DejaVu Sans) def
/FullName (DejaVu Sans) def
/Notice (Copyright (c) 2003 by Bitstream, Inc. All Rights Reserved. Copyright (c) 2006 by Tavmjong Bah. All Rights Reserved. DejaVu changes are in public domain ) def
/Weight (Book) def
/Version (Version 2.35) def
/ItalicAngle 0.0 def
/isFixedPitch false def
/UnderlinePosition -130 def
/UnderlineThickness 90 def
end readonly def
/CharStrings 32 dict dup begin
/space{318 0 0 0 0 0 _sc
}_d
/zero{636 0 66 -13 570 742 _sc
318 664 _m
267 664 229 639 203 589 _c
177 539 165 464 165 364 _c
165 264 177 189 203 139 _c
229 89 267 64 318 64 _c
369 64 407 89 433 139 _c
458 189 471 264 471 364 _c
471 464 458 539 433 589 _c
407 639 369 664 318 664 _c
318 742 _m
399 742 461 709 505 645 _c
548 580 570 486 570 364 _c
570 241 548 147 505 83 _c
461 19 399 -13 318 -13 _c
236 -13 173 19 130 83 _c
87 147 66 241 66 364 _c
66 486 87 580 130 645 _c
173 709 236 742 318 742 _c
_cl}_d
/one{636 0 110 0 544 729 _sc
124 83 _m
285 83 _l
285 639 _l
110 604 _l
110 694 _l
284 729 _l
383 729 _l
383 83 _l
544 83 _l
544 0 _l
124 0 _l
124 83 _l
_cl}_d
/two{{636 0 73 0 536 742 _sc
192 83 _m
536 83 _l
536 0 _l
73 0 _l
73 83 _l
110 121 161 173 226 239 _c
290 304 331 346 348 365 _c
380 400 402 430 414 455 _c
426 479 433 504 433 528 _c
433 566 419 598 392 622 _c
365 646 330 659 286 659 _c
255 659 222 653 188 643 _c
154 632 117 616 78 594 _c
78 694 _l
118 710 155 722 189 730 _c
223 738 255 742 284 742 _c
}_e{359 742 419 723 464 685 _c
509 647 532 597 532 534 _c
532 504 526 475 515 449 _c
504 422 484 390 454 354 _c
446 344 420 317 376 272 _c
332 227 271 164 192 83 _c
_cl}_e}_d
/five{{636 0 77 -13 549 729 _sc
108 729 _m
495 729 _l
495 646 _l
198 646 _l
198 467 _l
212 472 227 476 241 478 _c
255 480 270 482 284 482 _c
365 482 429 459 477 415 _c
525 370 549 310 549 234 _c
549 155 524 94 475 51 _c
426 8 357 -13 269 -13 _c
238 -13 207 -10 175 -6 _c
143 -1 111 6 77 17 _c
77 116 _l
106 100 136 88 168 80 _c
199 72 232 69 267 69 _c
}_e{323 69 368 83 401 113 _c
433 143 450 183 450 234 _c
450 284 433 324 401 354 _c
368 384 323 399 267 399 _c
241 399 214 396 188 390 _c
162 384 135 375 108 363 _c
108 729 _l
_cl}_e}_d
/seven{636 0 82 0 551 729 _sc
82 729 _m
551 729 _l
551 687 _l
286 0 _l
183 0 _l
432 646 _l
82 646 _l
82 729 _l
_cl}_d
/E{632 0 98 0 568 729 _sc
98 729 _m
559 729 _l
559 646 _l
197 646 _l
197 430 _l
544 430 _l
544 347 _l
197 347 _l
197 83 _l
568 83 _l
568 0 _l
98 0 _l
98 729 _l
_cl}_d
/P{603 0 98 0 569 729 _sc
197 648 _m
197 374 _l
321 374 _l
367 374 402 385 427 409 _c
452 433 465 467 465 511 _c
465 555 452 588 427 612 _c
402 636 367 648 321 648 _c
197 648 _l
98 729 _m
321 729 _l
402 729 464 710 506 673 _c
548 636 569 582 569 511 _c
569 439 548 384 506 348 _c
464 311 402 293 321 293 _c
197 293 _l
197 0 _l
98 0 _l
98 729 _l
_cl}_d
/S{{635 0 66 -13 579 742 _sc
535 705 _m
535 609 _l
497 627 462 640 429 649 _c
395 657 363 662 333 662 _c
279 662 237 651 208 631 _c
179 610 165 580 165 542 _c
165 510 174 485 194 469 _c
213 452 250 439 304 429 _c
364 417 _l
437 403 491 378 526 343 _c
561 307 579 260 579 201 _c
579 130 555 77 508 41 _c
460 5 391 -13 300 -13 _c
265 -13 228 -9 189 -2 _c
}_e{150 5 110 16 69 32 _c
69 134 _l
109 111 148 94 186 83 _c
224 71 262 66 300 66 _c
356 66 399 77 430 99 _c
460 121 476 152 476 194 _c
476 230 465 258 443 278 _c
421 298 385 313 335 323 _c
275 335 _l
201 349 148 372 115 404 _c
82 435 66 478 66 534 _c
66 598 88 649 134 686 _c
179 723 242 742 322 742 _c
356 742 390 739 426 733 _c
461 727 497 717 535 705 _c
}_e{_cl}_e}_d
/bracketleft{390 0 86 -131 293 760 _sc
86 760 _m
293 760 _l
293 690 _l
176 690 _l
176 -61 _l
293 -61 _l
293 -131 _l
86 -131 _l
86 760 _l
_cl}_d
/bracketright{390 0 97 -131 304 760 _sc
304 760 _m
304 -131 _l
97 -131 _l
97 -61 _l
214 -61 _l
214 690 _l
97 690 _l
97 760 _l
304 760 _l
_cl}_d
/a{{613 0 60 -13 522 560 _sc
343 275 _m
270 275 220 266 192 250 _c
164 233 150 205 150 165 _c
150 133 160 107 181 89 _c
202 70 231 61 267 61 _c
317 61 357 78 387 114 _c
417 149 432 196 432 255 _c
432 275 _l
343 275 _l
522 312 _m
522 0 _l
432 0 _l
432 83 _l
411 49 385 25 355 10 _c
325 -5 287 -13 243 -13 _c
187 -13 142 2 109 33 _c
76 64 60 106 60 159 _c
}_e{60 220 80 266 122 298 _c
163 329 224 345 306 345 _c
432 345 _l
432 354 _l
432 395 418 427 391 450 _c
364 472 326 484 277 484 _c
245 484 215 480 185 472 _c
155 464 127 453 100 439 _c
100 522 _l
132 534 164 544 195 550 _c
226 556 256 560 286 560 _c
365 560 424 539 463 498 _c
502 457 522 395 522 312 _c
_cl}_e}_d
/c{{550 0 55 -13 488 560 _sc
488 526 _m
488 442 _l
462 456 437 466 411 473 _c
385 480 360 484 334 484 _c
276 484 230 465 198 428 _c
166 391 150 339 150 273 _c
150 206 166 154 198 117 _c
230 80 276 62 334 62 _c
360 62 385 65 411 72 _c
437 79 462 90 488 104 _c
488 21 _l
462 9 436 0 410 -5 _c
383 -10 354 -13 324 -13 _c
242 -13 176 12 128 64 _c
}_e{79 115 55 185 55 273 _c
55 362 79 432 128 483 _c
177 534 244 560 330 560 _c
358 560 385 557 411 551 _c
437 545 463 537 488 526 _c
_cl}_e}_d
/d{{635 0 55 -13 544 760 _sc
454 464 _m
454 760 _l
544 760 _l
544 0 _l
454 0 _l
454 82 _l
435 49 411 25 382 10 _c
353 -5 319 -13 279 -13 _c
213 -13 159 13 117 65 _c
75 117 55 187 55 273 _c
55 359 75 428 117 481 _c
159 533 213 560 279 560 _c
319 560 353 552 382 536 _c
411 520 435 496 454 464 _c
148 273 _m
148 207 161 155 188 117 _c
215 79 253 61 301 61 _c
}_e{348 61 385 79 413 117 _c
440 155 454 207 454 273 _c
454 339 440 390 413 428 _c
385 466 348 485 301 485 _c
253 485 215 466 188 428 _c
161 390 148 339 148 273 _c
_cl}_e}_d
/e{{615 0 55 -13 562 560 _sc
562 296 _m
562 252 _l
149 252 _l
153 190 171 142 205 110 _c
238 78 284 62 344 62 _c
378 62 412 66 444 74 _c
476 82 509 95 541 113 _c
541 28 _l
509 14 476 3 442 -3 _c
408 -9 373 -13 339 -13 _c
251 -13 182 12 131 62 _c
80 112 55 181 55 268 _c
55 357 79 428 127 481 _c
175 533 241 560 323 560 _c
397 560 455 536 498 489 _c
}_e{540 441 562 377 562 296 _c
472 322 _m
471 371 457 410 431 440 _c
404 469 368 484 324 484 _c
274 484 234 469 204 441 _c
174 413 156 373 152 322 _c
472 322 _l
_cl}_e}_d
/g{{635 0 55 -207 544 560 _sc
454 280 _m
454 344 440 395 414 431 _c
387 467 349 485 301 485 _c
253 485 215 467 188 431 _c
161 395 148 344 148 280 _c
148 215 161 165 188 129 _c
215 93 253 75 301 75 _c
349 75 387 93 414 129 _c
440 165 454 215 454 280 _c
544 68 _m
544 -24 523 -93 482 -139 _c
440 -184 377 -207 292 -207 _c
260 -207 231 -204 203 -200 _c
175 -195 147 -188 121 -178 _c
}_e{121 -91 _l
147 -105 173 -115 199 -122 _c
225 -129 251 -133 278 -133 _c
336 -133 380 -117 410 -87 _c
439 -56 454 -10 454 52 _c
454 96 _l
435 64 411 40 382 24 _c
353 8 319 0 279 0 _c
211 0 157 25 116 76 _c
75 127 55 195 55 280 _c
55 364 75 432 116 483 _c
157 534 211 560 279 560 _c
319 560 353 552 382 536 _c
411 520 435 496 454 464 _c
454 547 _l
544 547 _l
}_e{544 68 _l
_cl}_e}_d
/h{634 0 91 0 549 760 _sc
549 330 _m
549 0 _l
459 0 _l
459 327 _l
459 379 448 417 428 443 _c
408 469 378 482 338 482 _c
289 482 251 466 223 435 _c
195 404 181 362 181 309 _c
181 0 _l
91 0 _l
91 760 _l
181 760 _l
181 462 _l
202 494 227 519 257 535 _c
286 551 320 560 358 560 _c
420 560 468 540 500 501 _c
532 462 549 405 549 330 _c
_cl}_d
/i{278 0 94 0 184 760 _sc
94 547 _m
184 547 _l
184 0 _l
94 0 _l
94 547 _l
94 760 _m
184 760 _l
184 646 _l
94 646 _l
94 760 _l
_cl}_d
/l{278 0 94 0 184 760 _sc
94 760 _m
184 760 _l
184 0 _l
94 0 _l
94 760 _l
_cl}_d
/m{{974 0 91 0 889 560 _sc
520 442 _m
542 482 569 511 600 531 _c
631 550 668 560 711 560 _c
767 560 811 540 842 500 _c
873 460 889 403 889 330 _c
889 0 _l
799 0 _l
799 327 _l
799 379 789 418 771 444 _c
752 469 724 482 686 482 _c
639 482 602 466 575 435 _c
548 404 535 362 535 309 _c
535 0 _l
445 0 _l
445 327 _l
445 379 435 418 417 444 _c
398 469 369 482 331 482 _c
}_e{285 482 248 466 221 435 _c
194 404 181 362 181 309 _c
181 0 _l
91 0 _l
91 547 _l
181 547 _l
181 462 _l
201 495 226 520 255 536 _c
283 552 317 560 357 560 _c
397 560 430 550 458 530 _c
486 510 506 480 520 442 _c
_cl}_e}_d
/n{634 0 91 0 549 560 _sc
549 330 _m
549 0 _l
459 0 _l
459 327 _l
459 379 448 417 428 443 _c
408 469 378 482 338 482 _c
289 482 251 466 223 435 _c
195 404 181 362 181 309 _c
181 0 _l
91 0 _l
91 547 _l
181 547 _l
181 462 _l
202 494 227 519 257 535 _c
286 551 320 560 358 560 _c
420 560 468 540 500 501 _c
532 462 549 405 549 330 _c
_cl}_d
/o{612 0 55 -13 557 560 _sc
306 484 _m
258 484 220 465 192 427 _c
164 389 150 338 150 273 _c
150 207 163 156 191 118 _c
219 80 257 62 306 62 _c
354 62 392 80 420 118 _c
448 156 462 207 462 273 _c
462 337 448 389 420 427 _c
392 465 354 484 306 484 _c
306 560 _m
384 560 445 534 490 484 _c
534 433 557 363 557 273 _c
557 183 534 113 490 63 _c
445 12 384 -13 306 -13 _c
227 -13 165 12 121 63 _c
77 113 55 183 55 273 _c
55 363 77 433 121 484 _c
165 534 227 560 306 560 _c
_cl}_d
/p{{635 0 91 -207 580 560 _sc
181 82 _m
181 -207 _l
91 -207 _l
91 547 _l
181 547 _l
181 464 _l
199 496 223 520 252 536 _c
281 552 316 560 356 560 _c
422 560 476 533 518 481 _c
559 428 580 359 580 273 _c
580 187 559 117 518 65 _c
476 13 422 -13 356 -13 _c
316 -13 281 -5 252 10 _c
223 25 199 49 181 82 _c
487 273 _m
487 339 473 390 446 428 _c
418 466 381 485 334 485 _c
}_e{286 485 249 466 222 428 _c
194 390 181 339 181 273 _c
181 207 194 155 222 117 _c
249 79 286 61 334 61 _c
381 61 418 79 446 117 _c
473 155 487 207 487 273 _c
_cl}_e}_d
/r{411 0 91 0 411 560 _sc
411 463 _m
401 469 390 473 378 476 _c
366 478 353 480 339 480 _c
288 480 249 463 222 430 _c
194 397 181 350 181 288 _c
181 0 _l
91 0 _l
91 547 _l
181 547 _l
181 462 _l
199 495 224 520 254 536 _c
284 552 321 560 365 560 _c
371 560 378 559 386 559 _c
393 558 401 557 411 555 _c
411 463 _l
_cl}_d
/s{{521 0 54 -13 472 560 _sc
443 531 _m
443 446 _l
417 458 391 468 364 475 _c
336 481 308 485 279 485 _c
234 485 200 478 178 464 _c
156 450 145 430 145 403 _c
145 382 153 366 169 354 _c
185 342 217 330 265 320 _c
296 313 _l
360 299 405 279 432 255 _c
458 230 472 195 472 151 _c
472 100 452 60 412 31 _c
372 1 316 -13 246 -13 _c
216 -13 186 -10 154 -5 _c
}_e{122 0 89 8 54 20 _c
54 113 _l
87 95 120 82 152 74 _c
184 65 216 61 248 61 _c
290 61 323 68 346 82 _c
368 96 380 117 380 144 _c
380 168 371 187 355 200 _c
339 213 303 226 247 238 _c
216 245 _l
160 257 119 275 95 299 _c
70 323 58 356 58 399 _c
58 450 76 490 112 518 _c
148 546 200 560 268 560 _c
301 560 332 557 362 552 _c
391 547 418 540 443 531 _c
}_e{_cl}_e}_d
/t{392 0 27 0 368 702 _sc
183 702 _m
183 547 _l
368 547 _l
368 477 _l
183 477 _l
183 180 _l
183 135 189 106 201 94 _c
213 81 238 75 276 75 _c
368 75 _l
368 0 _l
276 0 _l
206 0 158 13 132 39 _c
106 65 93 112 93 180 _c
93 477 _l
27 477 _l
27 547 _l
93 547 _l
93 702 _l
183 702 _l
_cl}_d
/u{634 0 85 -13 543 560 _sc
85 216 _m
85 547 _l
175 547 _l
175 219 _l
175 167 185 129 205 103 _c
225 77 255 64 296 64 _c
344 64 383 79 411 110 _c
439 141 453 183 453 237 _c
453 547 _l
543 547 _l
543 0 _l
453 0 _l
453 84 _l
431 50 405 26 377 10 _c
348 -5 315 -13 277 -13 _c
214 -13 166 6 134 45 _c
101 83 85 140 85 216 _c
311 560 _m
311 560 _l
_cl}_d
/w{818 0 42 0 776 547 _sc
42 547 _m
132 547 _l
244 120 _l
356 547 _l
462 547 _l
574 120 _l
686 547 _l
776 547 _l
633 0 _l
527 0 _l
409 448 _l
291 0 _l
185 0 _l
42 547 _l
_cl}_d
/x{592 0 29 0 559 547 _sc
549 547 _m
351 281 _l
559 0 _l
453 0 _l
294 215 _l
135 0 _l
29 0 _l
241 286 _l
47 547 _l
153 547 _l
298 352 _l
443 547 _l
549 547 _l
_cl}_d
/y{592 0 30 -207 562 547 _sc
322 -50 _m
296 -114 271 -157 247 -177 _c
223 -197 191 -207 151 -207 _c
79 -207 _l
79 -132 _l
132 -132 _l
156 -132 175 -126 189 -114 _c
203 -102 218 -75 235 -31 _c
251 9 _l
30 547 _l
125 547 _l
296 119 _l
467 547 _l
562 547 _l
322 -50 _l
_cl}_d
/z{525 0 43 0 482 547 _sc
55 547 _m
482 547 _l
482 465 _l
144 72 _l
482 72 _l
482 0 _l
43 0 _l
43 82 _l
381 475 _l
55 475 _l
55 547 _l
_cl}_d
/minus{838 0 106 272 732 355 _sc
106 355 _m
732 355 _l
732 272 _l
106 272 _l
106 355 _l
_cl}_d
end readonly def

/BuildGlyph
 {exch begin
 CharStrings exch
 2 copy known not{pop /.notdef}if
 true 3 1 roll get exec
 end}_d

/BuildChar {
 1 index /Encoding get exch get
 1 index /BuildGlyph get exec
}_d

FontName currentdict end definefont pop
end
%%EndProlog
mpldict begin
75.6 223.2 translate
460.8 345.6 0 0 clipbox
gsave
0 0 m
460.8 0 l
460.8 345.6 l
0 345.6 l
cl
1.000 setgray
fill
grestore
gsave
57.6 183.168 m
414.72 183.168 l
414.72 304.128 l
57.6 304.128 l
cl
1.000 setgray
fill
grestore
0.800 setlinewidth
1 setlinejoin
2 setlinecap
[] 0 setdash
0.690 setgray
gsave
357.1 121 57.6 183.2 clipbox
73.832727 183.168 m
73.832727 304.128 l
stroke
grestore
0 setlinecap
0.000 setgray
gsave
/o {
gsave
newpath
translate
0.8 setlinewidth
1 setlinejoin
0 setlinecap
0 0 m
0 -3.5 l

gsave
0.000 setgray
fill
grestore
stroke
grestore
} bind def
73.8327 183.168 o
grestore
/DejaVuSans findfont
10.000 scalefont
setfont
gsave
70.653040 168.574250 translate
0.000000 rotate
0.000000 0.000000 m /zero glyphshow
grestore
2 setlinecap
0.690 setgray
gsave
357.1 121 57.6 183.2 clipbox
114.618474 183.168 m
114.618474 304.128 l
stroke
grestore
0 setlinecap
0.000 setgray
gsave
/o {
gsave
newpath
translate
0.8 setlinewidth
1 setlinejoin
0 setlinecap
0 0 m
0 -3.5 l

gsave
0.000 setgray
fill
grestore
stroke
grestore
} bind def
114.618 183.168 o
grestore
gsave
108.259099 168.574250 translate
0.000000 rotate
0.000000 0.000000 m /two glyphshow
6.362305 0.000000 m /five glyphshow
grestore
2 setlinecap
0.690 setgray
gsave
357.1 121 57.6 183.2 clipbox
155.404221 183.168 m
155.404221 304.128 l
stroke
grestore
0 setlinecap
0.000 setgray
gsave
/o {
gsave
newpath
translate
0.8 setlinewidth
1 setlinejoin
0 setlinecap
0 0 m
0 -3.5 l

gsave
0.000 setgray
fill
grestore
stroke
grestore
} bind def
155.404 183.168 o
grestore
gsave
149.044846 168.574250 translate
0.000000 rotate
0.000000 0.000000 m /five glyphshow
6.362305 0.000000 m /zero glyphshow
grestore
2 setlinecap
0.690 setgray
gsave
357.1 121 57.6 183.2 clipbox
196.189968 183.168 m
196.189968 304.128 l
stroke
grestore
0 setlinecap
0.000 setgray
gsave
/o {
gsave
newpath
translate
0.8 setlinewidth
1 setlinejoin
0 setlinecap
0 0 m
0 -3.5 l

gsave
0.000 setgray
fill
grestore
stroke
grestore
} bind def
196.19 183.168 o
grestore
gsave
189.830593 168.574250 translate
0.000000 rotate
0.000000 0.000000 m /seven glyphshow
6.362305 0.000000 m /five glyphshow
grestore
2 setlinecap
0.690 setgray
gsave
357.1 121 57.6 183.2 clipbox
236.975715 183.168 m
236.975715 304.128 l
stroke
grestore
0 setlinecap
0.000 setgray
gsave
/o {
gsave
newpath
translate
0.8 setlinewidth
1 setlinejoin
0 setlinecap
0 0 m
0 -3.5 l

gsave
0.000 setgray
fill
grestore
stroke
grestore
} bind def
236.976 183.168 o
grestore
gsave
227.436652 168.574250 translate
0.000000 rotate
0.000000 0.000000 m /one glyphshow
6.362305 0.000000 m /zero glyphshow
12.724609 0.000000 m /zero glyphshow
grestore
2 setlinecap
0.690 setgray
gsave
357.1 121 57.6 183.2 clipbox
277.761462 183.168 m
277.761462 304.128 l
stroke
grestore
0 setlinecap
0.000 setgray
gsave
/o {
gsave
newpath
translate
0.8 setlinewidth
1 setlinejoin
0 setlinecap
0 0 m
0 -3.5 l

gsave
0.000 setgray
fill
grestore
stroke
grestore
} bind def
277.761 183.168 o
grestore
gsave
268.222399 168.574250 translate
0.000000 rotate
0.000000 0.000000 m /one glyphshow
6.362305 0.000000 m /two glyphshow
12.724609 0.000000 m /five glyphshow
grestore
2 setlinecap
0.690 setgray
gsave
357.1 121 57.6 183.2 clipbox
318.547209 183.168 m
318.547209 304.128 l
stroke
grestore
0 setlinecap
0.000 setgray
gsave
/o {
gsave
newpath
translate
0.8 setlinewidth
1 setlinejoin
0 setlinecap
0 0 m
0 -3.5 l

gsave
0.000 setgray
fill
grestore
stroke
grestore
} bind def
318.547 183.168 o
grestore
gsave
309.008146 168.574250 translate
0.000000 rotate
0.000000 0.000000 m /one glyphshow
6.362305 0.000000 m /five glyphshow
12.724609 0.000000 m /zero glyphshow
grestore
2 setlinecap
0.690 setgray
gsave
357.1 121 57.6 183.2 clipbox
359.332956 183.168 m
359.332956 304.128 l
stroke
grestore
0 setlinecap
0.000 setgray
gsave
/o {
gsave
newpath
translate
0.8 setlinewidth
1 setlinejoin
0 setlinecap
0 0 m
0 -3.5 l

gsave
0.000 setgray
fill
grestore
stroke
grestore
} bind def
359.333 183.168 o
grestore
gsave
349.793893 168.574250 translate
0.000000 rotate
0.000000 0.000000 m /one glyphshow
6.362305 0.000000 m /seven glyphshow
12.724609 0.000000 m /five glyphshow
grestore
2 setlinecap
0.690 setgray
gsave
357.1 121 57.6 183.2 clipbox
400.118703 183.168 m
400.118703 304.128 l
stroke
grestore
0 setlinecap
0.000 setgray
gsave
/o {
gsave
newpath
translate
0.8 setlinewidth
1 setlinejoin
0 setlinecap
0 0 m
0 -3.5 l

gsave
0.000 setgray
fill
grestore
stroke
grestore
} bind def
400.119 183.168 o
grestore
gsave
390.579640 168.574250 translate
0.000000 rotate
0.000000 0.000000 m /two glyphshow
6.362305 0.000000 m /zero glyphshow
12.724609 0.000000 m /zero glyphshow
grestore
gsave
217.410000 154.902375 translate
0.000000 rotate
0.000000 0.000000 m /S glyphshow
6.347656 0.000000 m /a glyphshow
12.475586 0.000000 m /m glyphshow
22.216797 0.000000 m /p glyphshow
28.564453 0.000000 m /l glyphshow
31.342773 0.000000 m /e glyphshow
grestore
2 setlinecap
0.690 setgray
gsave
357.1 121 57.6 183.2 clipbox
57.6 208.837817 m
414.72 208.837817 l
stroke
grestore
0 setlinecap
0.000 setgray
gsave
/o {
gsave
newpath
translate
0.8 setlinewidth
1 setlinejoin
0 setlinecap
0 0 m
-3.5 0 l

gsave
0.000 setgray
fill
grestore
stroke
grestore
} bind def
57.6 208.838 o
grestore
gsave
35.865625 205.040942 translate
0.000000 rotate
0.000000 0.000000 m /minus glyphshow
8.378906 0.000000 m /five glyphshow
grestore
2 setlinecap
0.690 setgray
gsave
357.1 121 57.6 183.2 clipbox
57.6 237.5506 m
414.72 237.5506 l
stroke
grestore
0 setlinecap
0.000 setgray
gsave
/o {
gsave
newpath
translate
0.8 setlinewidth
1 setlinejoin
0 setlinecap
0 0 m
-3.5 0 l

gsave
0.000 setgray
fill
grestore
stroke
grestore
} bind def
57.6 237.551 o
grestore
gsave
44.240625 233.753725 translate
0.000000 rotate
0.000000 0.000000 m /zero glyphshow
grestore
2 setlinecap
0.690 setgray
gsave
357.1 121 57.6 183.2 clipbox
57.6 266.263383 m
414.72 266.263383 l
stroke
grestore
0 setlinecap
0.000 setgray
gsave
/o {
gsave
newpath
translate
0.8 setlinewidth
1 setlinejoin
0 setlinecap
0 0 m
-3.5 0 l

gsave
0.000 setgray
fill
grestore
stroke
grestore
} bind def
57.6 266.263 o
grestore
gsave
44.240625 262.466508 translate
0.000000 rotate
0.000000 0.000000 m /five glyphshow
grestore
2 setlinecap
0.690 setgray
gsave
357.1 121 57.6 183.2 clipbox
57.6 294.976167 m
414.72 294.976167 l
stroke
grestore
0 setlinecap
0.000 setgray
gsave
/o {
gsave
newpath
translate
0.8 setlinewidth
1 setlinejoin
0 setlinecap
0 0 m
-3.5 0 l

gsave
0.000 setgray
fill
grestore
stroke
grestore
} bind def
57.6 294.976 o
grestore
gsave
37.881250 291.179292 translate
0.000000 rotate
0.000000 0.000000 m /one glyphshow
6.362305 0.000000 m /zero glyphshow
grestore
gsave
29.787500 213.608937 translate
90.000000 rotate
0.000000 0.000000 m /P glyphshow
6.030273 0.000000 m /o glyphshow
12.148438 0.000000 m /s glyphshow
17.358398 0.000000 m /i glyphshow
20.136719 0.000000 m /t glyphshow
24.057617 0.000000 m /i glyphshow
26.835938 0.000000 m /o glyphshow
32.954102 0.000000 m /n glyphshow
39.291992 0.000000 m /space glyphshow
42.470703 0.000000 m /bracketleft glyphshow
46.372070 0.000000 m /m glyphshow
56.113281 0.000000 m /bracketright glyphshow
grestore
1.500 setlinewidth
2 setlinecap
0.122 0.467 0.706 setrgbcolor
gsave
357.1 121 57.6 183.2 clipbox
73.832727 240.421878 m
85.252736 242.322894 l
93.409886 243.435494 l
99.935605 244.10361 l
106.461325 244.52661 l
111.355614 244.660081 l
116.249904 244.621071 l
121.144194 244.398838 l
126.038483 243.985356 l
130.932773 243.375476 l
135.827063 242.567056 l
140.721352 241.561045 l
145.615642 240.36153 l
150.509931 238.975747 l
157.035651 236.856615 l
163.56137 234.457979 l
170.08709 231.821805 l
178.244239 228.269932 l
191.295678 222.270427 l
202.715688 217.073989 l
210.872837 213.621754 l
217.398556 211.12799 l
222.292846 209.462215 l
227.187136 208.004841 l
232.081425 206.784062 l
236.975715 205.826207 l
241.870005 205.155359 l
246.764294 204.793009 l
250.027154 204.732125 l
253.290014 204.821381 l
256.552873 205.064814 l
259.815733 205.465753 l
263.078593 206.026787 l
266.341453 206.749739 l
269.604312 207.635641 l
272.867172 208.684718 l
276.130032 209.896365 l
281.024322 212.015277 l
285.918611 214.488107 l
290.812901 217.302132 l
295.70719 220.440366 l
300.60148 223.881636 l
305.49577 227.600711 l
310.390059 231.568477 l
316.915779 237.188545 l
323.441498 243.105157 l
333.230078 252.32332 l
347.912947 266.206032 l
354.438666 272.104877 l
360.964386 277.672236 l
365.858675 281.561189 l
370.752965 285.152241 l
375.647254 288.40026 l
378.910114 290.353784 l
382.172974 292.123762 l
385.435834 293.698813 l
388.698693 295.068246 l
391.961553 296.222113 l
395.224413 297.151274 l
398.487273 297.847445 l
398.487273 297.847445 l
stroke
grestore
1.000 0.498 0.055 setrgbcolor
gsave
357.1 121 57.6 183.2 clipbox
73.832727 237.5506 m
80.358447 238.057659 l
86.884166 238.84511 l
93.409886 239.8935 l
99.935605 241.174733 l
108.092755 243.048 l
117.881334 245.578783 l
142.352782 252.09527 l
148.878502 253.58309 l
155.404221 254.849874 l
160.298511 255.620569 l
165.1928 256.212485 l
170.08709 256.604982 l
174.98138 256.779499 l
179.875669 256.71985 l
184.769959 256.412503 l
189.664249 255.846826 l
194.558538 255.015302 l
199.452828 253.913713 l
204.347117 252.541278 l
209.241407 250.900757 l
214.135697 248.998513 l
219.029986 246.844528 l
223.924276 244.452378 l
228.818566 241.839163 l
235.344285 238.046916 l
241.870005 233.956013 l
250.027154 228.525129 l
263.078593 219.460742 l
274.498602 211.625061 l
281.024322 207.388399 l
287.550041 203.444311 l
292.444331 200.733875 l
297.33862 198.277678 l
302.23291 196.11181 l
307.1272 194.270309 l
310.390059 193.238542 l
313.652919 192.373671 l
316.915779 191.683718 l
320.178639 191.17603 l
323.441498 190.857226 l
326.704358 190.73316 l
329.967218 190.808875 l
333.230078 191.088562 l
336.492937 191.575532 l
339.755797 192.272181 l
343.018657 193.179961 l
346.281517 194.299365 l
349.544376 195.6299 l
352.807236 197.17008 l
356.070096 198.91741 l
359.332956 200.868389 l
362.595815 203.018504 l
365.858675 205.362237 l
370.752965 209.22636 l
375.647254 213.485151 l
380.541544 218.107717 l
385.435834 223.058577 l
390.330123 228.297926 l
396.855843 235.656226 l
398.487273 237.5506 l
398.487273 237.5506 l
stroke
grestore
0.173 0.627 0.173 setrgbcolor
gsave
357.1 121 57.6 183.2 clipbox
73.832727 240.421878 m
398.487273 297.847445 l
398.487273 297.847445 l
stroke
grestore
1.000 setlinewidth
0 setlinecap
0.839 0.153 0.157 setrgbcolor
gsave
357.1 121 57.6 183.2 clipbox
/o {
gsave
newpath
translate
1.0 setlinewidth
1 setlinejoin
0 setlinecap
0 -1.5 m
0.397805 -1.5 0.77937 -1.341951 1.06066 -1.06066 c
1.341951 -0.77937 1.5 -0.397805 1.5 0 c
1.5 0.397805 1.341951 0.77937 1.06066 1.06066 c
0.77937 1.341951 0.397805 1.5 0 1.5 c
-0.397805 1.5 -0.77937 1.341951 -1.06066 1.06066 c
-1.341951 0.77937 -1.5 0.397805 -1.5 0 c
-1.5 -0.397805 -1.341951 -0.77937 -1.06066 -1.06066 c
-0.77937 -1.341951 -0.397805 -1.5 0 -1.5 c
cl

gsave
0.839 0.153 0.157 setrgbcolor
fill
grestore
stroke
grestore
} bind def
73.8327 240.691 o
75.4642 240.931 o
77.0956 240.926 o
78.727 241.289 o
80.3584 241.425 o
81.9899 241.898 o
83.6213 242.119 o
85.2527 242.393 o
86.8842 242.829 o
88.5156 242.735 o
90.147 242.943 o
91.7785 243.619 o
93.4099 243.568 o
95.0413 243.584 o
96.6727 243.986 o
98.3042 244.167 o
99.9356 244.234 o
101.567 244.274 o
103.198 244.555 o
104.83 244.215 o
106.461 244.655 o
108.093 244.303 o
109.724 244.54 o
111.356 244.487 o
112.987 244.654 o
114.618 244.617 o
116.25 244.379 o
117.881 244.431 o
119.513 244.36 o
121.144 244.559 o
122.776 244.005 o
124.407 243.951 o
126.038 243.918 o
127.67 243.877 o
129.301 243.748 o
130.933 243.366 o
132.564 243.139 o
134.196 242.929 o
135.827 242.817 o
137.458 242.564 o
139.09 242.622 o
140.721 241.663 o
142.353 241.144 o
143.984 240.622 o
145.616 240.678 o
147.247 240.494 o
148.879 238.85 o
150.51 238.909 o
152.141 238.38 o
153.773 238.634 o
155.404 237.35 o
157.036 237.263 o
158.667 236.642 o
160.299 235.621 o
161.93 235.56 o
163.561 234.646 o
165.193 234.641 o
166.824 233.774 o
168.456 231.958 o
170.087 232.355 o
171.719 231.301 o
173.35 230.296 o
174.981 228.755 o
176.613 228.809 o
178.244 228.966 o
179.876 227.538 o
181.507 227.079 o
183.139 224.774 o
184.77 224.313 o
186.401 224.508 o
188.033 223.331 o
189.664 223.141 o
191.296 222.411 o
192.927 221.541 o
194.559 221.26 o
196.19 220.119 o
197.821 219.338 o
199.453 217.806 o
201.084 217.978 o
202.716 216.826 o
204.347 216.02 o
205.979 215.695 o
207.61 214.397 o
209.241 215.228 o
210.873 213.796 o
212.504 213.229 o
214.136 212.221 o
215.767 211.814 o
217.399 211.462 o
219.03 210.74 o
220.661 209.88 o
222.293 207.712 o
223.924 209.411 o
225.556 208.236 o
227.187 209.05 o
228.819 206.758 o
230.45 206.883 o
232.081 205.571 o
233.713 207.242 o
235.344 205.016 o
236.976 206.352 o
238.607 206.414 o
240.239 205.303 o
241.87 205.104 o
243.501 204.395 o
245.133 204.983 o
246.764 205.085 o
248.396 204.859 o
250.027 204.276 o
251.659 204.874 o
253.29 204.491 o
254.921 203.096 o
256.553 203.93 o
258.184 204.529 o
259.816 205.797 o
261.447 203.821 o
263.079 206.594 o
264.71 207.157 o
266.341 205.633 o
267.973 206.678 o
269.604 208.715 o
271.236 204.932 o
272.867 209.299 o
274.499 208.531 o
276.13 210.396 o
277.761 209.816 o
279.393 210.235 o
281.024 211.263 o
282.656 213.084 o
284.287 212.416 o
285.919 214.975 o
287.55 214.657 o
289.181 216.126 o
290.813 216.72 o
292.444 219.571 o
294.076 218.846 o
295.707 218.621 o
297.339 217.874 o
298.97 222.78 o
300.601 223.581 o
302.233 226.503 o
303.864 223.962 o
305.496 226.608 o
307.127 228.286 o
308.759 229.277 o
310.39 230.055 o
312.021 230.695 o
313.653 234.352 o
315.284 235.987 o
316.916 237.248 o
318.547 238.219 o
320.179 239.574 o
321.81 241.014 o
323.441 242.339 o
325.073 245.05 o
326.704 245.837 o
328.336 246.675 o
329.967 248.878 o
331.599 249.853 o
333.23 252.416 o
334.862 253.829 o
336.493 257.074 o
338.124 258.206 o
339.756 257.243 o
341.387 255.699 o
343.019 262.966 o
344.65 263.181 o
346.282 264.727 o
347.913 266.493 o
349.544 268.772 o
351.176 269.294 o
352.807 271.58 o
354.439 272.608 o
356.07 273.958 o
357.702 274.431 o
359.333 276.246 o
360.964 276.066 o
362.596 278.227 o
364.227 279.176 o
365.859 282.245 o
367.49 282.263 o
369.122 283.65 o
370.753 285.321 o
372.384 287.007 o
374.016 287.497 o
375.647 287.593 o
377.279 290.015 o
378.91 289.074 o
380.542 291.104 o
382.173 291.111 o
383.804 292.624 o
385.436 292.399 o
387.067 292.991 o
388.699 294.241 o
390.33 295.188 o
391.962 292.929 o
393.593 296.775 o
395.224 295.725 o
396.856 295.646 o
398.487 298.63 o
grestore
0.580 0.404 0.741 setrgbcolor
gsave
357.1 121 57.6 183.2 clipbox
/o {
gsave
newpath
translate
1.0 setlinewidth
1 setlinejoin
0 setlinecap
0 -1.5 m
0.397805 -1.5 0.77937 -1.341951 1.06066 -1.06066 c
1.341951 -0.77937 1.5 -0.397805 1.5 0 c
1.5 0.397805 1.341951 0.77937 1.06066 1.06066 c
0.77937 1.341951 0.397805 1.5 0 1.5 c
-0.397805 1.5 -0.77937 1.341951 -1.06066 1.06066 c
-1.341951 0.77937 -1.5 0.397805 -1.5 0 c
-1.5 -0.397805 -1.341951 -0.77937 -1.06066 -1.06066 c
-0.77937 -1.341951 -0.397805 -1.5 0 -1.5 c
cl

gsave
0.580 0.404 0.741 setrgbcolor
fill
grestore
stroke
grestore
} bind def
73.8327 237.567 o
75.4642 237.445 o
77.0956 237.738 o
78.727 237.71 o
80.3584 237.984 o
81.9899 238.179 o
83.6213 238.484 o
85.2527 238.663 o
86.8842 238.844 o
88.5156 239.119 o
90.147 239.283 o
91.7785 239.419 o
93.4099 239.873 o
95.0413 240.382 o
96.6727 240.592 o
98.3042 240.726 o
99.9356 241.11 o
101.567 241.466 o
103.198 241.745 o
104.83 242.429 o
106.461 242.185 o
108.093 243.298 o
109.724 243.477 o
111.356 244.008 o
112.987 244.236 o
114.618 244.686 o
116.25 244.967 o
117.881 245.351 o
119.513 246.163 o
121.144 246.235 o
122.776 246.917 o
124.407 247.514 o
126.038 248.23 o
127.67 248.127 o
129.301 248.193 o
130.933 249.073 o
132.564 249.531 o
134.196 249.849 o
135.827 250.22 o
137.458 250.924 o
139.09 250.967 o
140.721 251.396 o
142.353 252.061 o
143.984 252.69 o
145.616 252.855 o
147.247 253.378 o
148.879 253.476 o
150.51 253.847 o
152.141 254.217 o
153.773 254.35 o
155.404 254.828 o
157.036 254.885 o
158.667 255.151 o
160.299 255.433 o
161.93 255.824 o
163.561 256.196 o
165.193 256.387 o
166.824 256.429 o
168.456 256.399 o
170.087 256.968 o
171.719 256.343 o
173.35 256.544 o
174.981 256.458 o
176.613 257.224 o
178.244 256.65 o
179.876 256.85 o
181.507 256.519 o
183.139 256.18 o
184.77 256.569 o
186.401 256.304 o
188.033 255.434 o
189.664 256.089 o
191.296 255.765 o
192.927 255.023 o
194.559 255.03 o
196.19 254.733 o
197.821 254.031 o
199.453 253.957 o
201.084 252.915 o
202.716 253.11 o
204.347 252.527 o
205.979 251.86 o
207.61 251.411 o
209.241 251.407 o
210.873 250.461 o
212.504 249.711 o
214.136 248.006 o
215.767 248.154 o
217.399 248.057 o
219.03 246.849 o
220.661 244.306 o
222.293 243.892 o
223.924 244.99 o
225.556 244.056 o
227.187 242.841 o
228.819 241.121 o
230.45 239.982 o
232.081 239.598 o
233.713 239.505 o
235.344 237.467 o
236.976 237.155 o
238.607 236.027 o
240.239 234.706 o
241.87 233.382 o
243.501 232.395 o
245.133 232.523 o
246.764 229.639 o
248.396 228.741 o
250.027 228.343 o
251.659 228.724 o
253.29 225.408 o
254.921 225.079 o
256.553 224.244 o
258.184 222.558 o
259.816 222.438 o
261.447 220.885 o
263.079 219.942 o
264.71 218.694 o
266.341 214.695 o
267.973 215.033 o
269.604 214.722 o
271.236 214.302 o
272.867 214.959 o
274.499 210.745 o
276.13 210.087 o
277.761 209.115 o
279.393 208.631 o
281.024 209.951 o
282.656 205.447 o
284.287 206.856 o
285.919 205.244 o
287.55 203.387 o
289.181 202.77 o
290.813 199.957 o
292.444 201.273 o
294.076 199.552 o
295.707 198.776 o
297.339 197.598 o
298.97 197.259 o
300.601 197.956 o
302.233 197.087 o
303.864 195.665 o
305.496 193.707 o
307.127 193.885 o
308.759 193.035 o
310.39 194.472 o
312.021 192.864 o
313.653 192.711 o
315.284 191.6 o
316.916 191.132 o
318.547 192.138 o
320.179 190.818 o
321.81 189.536 o
323.441 190.84 o
325.073 190.763 o
326.704 192.699 o
328.336 188.666 o
329.967 191.74 o
331.599 191.1 o
333.23 190.239 o
334.862 191.603 o
336.493 191.095 o
338.124 193.28 o
339.756 192.079 o
341.387 192.266 o
343.019 192.213 o
344.65 194.461 o
346.282 194.971 o
347.913 197.031 o
349.544 197.129 o
351.176 196.733 o
352.807 194.45 o
354.439 199.663 o
356.07 198.553 o
357.702 200.359 o
359.333 199.194 o
360.964 204.252 o
362.596 201.414 o
364.227 205.847 o
365.859 206.343 o
367.49 204.732 o
369.122 206.22 o
370.753 209.203 o
372.384 210.379 o
374.016 209.605 o
375.647 213.897 o
377.279 213.015 o
378.91 216.72 o
380.542 219.496 o
382.173 220.083 o
383.804 218.526 o
385.436 223.582 o
387.067 224.355 o
388.699 226.883 o
390.33 229.544 o
391.962 230.157 o
393.593 232.595 o
395.224 233.475 o
396.856 236.037 o
398.487 236.209 o
grestore
0.549 0.337 0.294 setrgbcolor
gsave
357.1 121 57.6 183.2 clipbox
/o {
gsave
newpath
translate
1.0 setlinewidth
1 setlinejoin
0 setlinecap
0 -1.5 m
0.397805 -1.5 0.77937 -1.341951 1.06066 -1.06066 c
1.341951 -0.77937 1.5 -0.397805 1.5 0 c
1.5 0.397805 1.341951 0.77937 1.06066 1.06066 c
0.77937 1.341951 0.397805 1.5 0 1.5 c
-0.397805 1.5 -0.77937 1.341951 -1.06066 1.06066 c
-1.341951 0.77937 -1.5 0.397805 -1.5 0 c
-1.5 -0.397805 -1.341951 -0.77937 -1.06066 -1.06066 c
-0.77937 -1.341951 -0.397805 -1.5 0 -1.5 c
cl

gsave
0.549 0.337 0.294 setrgbcolor
fill
grestore
stroke
grestore
} bind def
73.8327 240.447 o
75.4642 240.45 o
77.0956 241.116 o
78.727 241.269 o
80.3584 241.565 o
81.9899 242.123 o
83.6213 242.034 o
85.2527 242.463 o
86.8842 242.731 o
88.5156 242.887 o
90.147 243.094 o
91.7785 243.578 o
93.4099 244.124 o
95.0413 244.049 o
96.6727 244.31 o
98.3042 244.701 o
99.9356 244.941 o
101.567 245.195 o
103.198 245.705 o
104.83 246.012 o
106.461 246.245 o
108.093 246.539 o
109.724 246.767 o
111.356 247.139 o
112.987 247.457 o
114.618 247.562 o
116.25 248.151 o
117.881 248.263 o
119.513 248.496 o
121.144 248.711 o
122.776 249.153 o
124.407 249.343 o
126.038 249.542 o
127.67 249.898 o
129.301 250.438 o
130.933 250.502 o
132.564 250.797 o
134.196 251.164 o
135.827 251.59 o
137.458 251.499 o
139.09 251.627 o
140.721 252.29 o
142.353 252.421 o
143.984 252.581 o
145.616 252.99 o
147.247 253.202 o
148.879 253.667 o
150.51 253.961 o
152.141 254.586 o
153.773 254.698 o
155.404 254.716 o
157.036 255.004 o
158.667 255.784 o
160.299 255.668 o
161.93 256.067 o
163.561 256.028 o
165.193 256.493 o
166.824 257.368 o
168.456 256.537 o
170.087 257.658 o
171.719 258.096 o
173.35 258.452 o
174.981 258.253 o
176.613 258.481 o
178.244 259.34 o
179.876 258.923 o
181.507 259.911 o
183.139 259.396 o
184.77 259.271 o
186.401 260.113 o
188.033 260.366 o
189.664 261.217 o
191.296 261.692 o
192.927 262.044 o
194.559 262.241 o
196.19 262.45 o
197.821 262.211 o
199.453 262.168 o
201.084 263.244 o
202.716 262.295 o
204.347 263.257 o
205.979 262.64 o
207.61 263.759 o
209.241 265.205 o
210.873 263.907 o
212.504 264.549 o
214.136 264.962 o
215.767 265.908 o
217.399 267.255 o
219.03 266.531 o
220.661 266.356 o
222.293 264.788 o
223.924 266.696 o
225.556 267.001 o
227.187 268.904 o
228.819 266.186 o
230.45 267.256 o
232.081 267.546 o
233.713 268.902 o
235.344 268.824 o
236.976 268.777 o
238.607 270.559 o
240.239 269.261 o
241.87 269.841 o
243.501 269.863 o
245.133 269.972 o
246.764 270.103 o
248.396 270.844 o
250.027 272.843 o
251.659 272.578 o
253.29 272.029 o
254.921 271.597 o
256.553 272.607 o
258.184 272.475 o
259.816 273.295 o
261.447 272.547 o
263.079 272.808 o
264.71 274.252 o
266.341 272.514 o
267.973 273.027 o
269.604 275.522 o
271.236 273.302 o
272.867 275.38 o
274.499 275.473 o
276.13 276.088 o
277.761 273.723 o
279.393 276.403 o
281.024 276.967 o
282.656 277.069 o
284.287 276.661 o
285.919 279.413 o
287.55 276.777 o
289.181 278.56 o
290.813 278.206 o
292.444 280.08 o
294.076 278.429 o
295.707 278.312 o
297.339 277.753 o
298.97 280.586 o
300.601 280.213 o
302.233 283.005 o
303.864 280.824 o
305.496 279.427 o
307.127 282.017 o
308.759 281.885 o
310.39 281.101 o
312.021 283.097 o
313.653 282.367 o
315.284 281.595 o
316.916 282.1 o
318.547 284.143 o
320.179 283.216 o
321.81 281.562 o
323.441 282.649 o
325.073 284.649 o
326.704 286.133 o
328.336 283.255 o
329.967 287.343 o
331.599 285.238 o
333.23 285.558 o
334.862 286.253 o
336.493 286.172 o
338.124 288.216 o
339.756 287.891 o
341.387 287.254 o
343.019 287.013 o
344.65 288.747 o
346.282 289.383 o
347.913 290.85 o
349.544 289.866 o
351.176 290.003 o
352.807 286.865 o
354.439 290.187 o
356.07 289.243 o
357.702 291.129 o
359.333 287.144 o
360.964 290.238 o
362.596 290.151 o
364.227 293.91 o
365.859 292.026 o
367.49 292.034 o
369.122 292.481 o
370.753 290.413 o
372.384 291.871 o
374.016 292.794 o
375.647 294.854 o
377.279 292.555 o
378.91 292.831 o
380.542 294.242 o
382.173 295.833 o
383.804 294.489 o
385.436 294.596 o
387.067 296.869 o
388.699 297.144 o
390.33 297.175 o
391.962 298.497 o
393.593 296.764 o
395.224 298.263 o
396.856 297.668 o
398.487 295.013 o
grestore
0.800 setlinewidth
0 setlinejoin
2 setlinecap
[] 0 setdash
0.000 setgray
gsave
57.6 183.168 m
57.6 304.128 l
stroke
grestore
gsave
414.72 183.168 m
414.72 304.128 l
stroke
grestore
gsave
57.6 183.168 m
414.72 183.168 l
stroke
grestore
gsave
57.6 304.128 m
414.72 304.128 l
stroke
grestore
1.000 setlinewidth
0 setlinecap
0.800 setgray
gsave
64.6 252.112375 m
102.521875 252.112375 l
103.855208 252.112375 104.521875 252.779042 104.521875 254.112375 c
104.521875 297.128 l
104.521875 298.461333 103.855208 299.128 102.521875 299.128 c
64.6 299.128 l
63.266667 299.128 62.6 298.461333 62.6 297.128 c
62.6 254.112375 l
62.6 252.779042 63.266667 252.112375 64.6 252.112375 c
cl
gsave
1.000 setgray
fill
grestore
stroke
grestore
1.500 setlinewidth
1 setlinejoin
2 setlinecap
[] 0 setdash
0.122 0.467 0.706 setrgbcolor
gsave
66.6 291.03425 m
86.6 291.03425 l
stroke
grestore
0.000 setgray
gsave
94.600000 287.534250 translate
0.000000 rotate
0.000000 0.000000 m /x glyphshow
grestore
1.000 0.498 0.055 setrgbcolor
gsave
66.6 276.362375 m
86.6 276.362375 l
stroke
grestore
0.000 setgray
gsave
94.600000 272.862375 translate
0.000000 rotate
0.000000 0.000000 m /y glyphshow
grestore
0.173 0.627 0.173 setrgbcolor
gsave
66.6 261.6905 m
86.6 261.6905 l
stroke
grestore
0.000 setgray
gsave
94.600000 258.190500 translate
0.000000 rotate
0.000000 0.000000 m /z glyphshow
grestore
gsave
57.6 38.016 m
414.72 38.016 l
414.72 158.976 l
57.6 158.976 l
cl
1.000 setgray
fill
grestore
0.800 setlinewidth
0.690 setgray
gsave
357.1 121 57.6 38.02 clipbox
73.832727 38.016 m
73.832727 158.976 l
stroke
grestore
0 setlinecap
0.000 setgray
gsave
/o {
gsave
newpath
translate
0.8 setlinewidth
1 setlinejoin
0 setlinecap
0 0 m
0 -3.5 l

gsave
0.000 setgray
fill
grestore
stroke
grestore
} bind def
73.8327 38.016 o
grestore
gsave
70.653040 23.422250 translate
0.000000 rotate
0.000000 0.000000 m /zero glyphshow
grestore
2 setlinecap
0.690 setgray
gsave
357.1 121 57.6 38.02 clipbox
114.618474 38.016 m
114.618474 158.976 l
stroke
grestore
0 setlinecap
0.000 setgray
gsave
/o {
gsave
newpath
translate
0.8 setlinewidth
1 setlinejoin
0 setlinecap
0 0 m
0 -3.5 l

gsave
0.000 setgray
fill
grestore
stroke
grestore
} bind def
114.618 38.016 o
grestore
gsave
108.259099 23.422250 translate
0.000000 rotate
0.000000 0.000000 m /two glyphshow
6.362305 0.000000 m /five glyphshow
grestore
2 setlinecap
0.690 setgray
gsave
357.1 121 57.6 38.02 clipbox
155.404221 38.016 m
155.404221 158.976 l
stroke
grestore
0 setlinecap
0.000 setgray
gsave
/o {
gsave
newpath
translate
0.8 setlinewidth
1 setlinejoin
0 setlinecap
0 0 m
0 -3.5 l

gsave
0.000 setgray
fill
grestore
stroke
grestore
} bind def
155.404 38.016 o
grestore
gsave
149.044846 23.422250 translate
0.000000 rotate
0.000000 0.000000 m /five glyphshow
6.362305 0.000000 m /zero glyphshow
grestore
2 setlinecap
0.690 setgray
gsave
357.1 121 57.6 38.02 clipbox
196.189968 38.016 m
196.189968 158.976 l
stroke
grestore
0 setlinecap
0.000 setgray
gsave
/o {
gsave
newpath
translate
0.8 setlinewidth
1 setlinejoin
0 setlinecap
0 0 m
0 -3.5 l

gsave
0.000 setgray
fill
grestore
stroke
grestore
} bind def
196.19 38.016 o
grestore
gsave
189.830593 23.422250 translate
0.000000 rotate
0.000000 0.000000 m /seven glyphshow
6.362305 0.000000 m /five glyphshow
grestore
2 setlinecap
0.690 setgray
gsave
357.1 121 57.6 38.02 clipbox
236.975715 38.016 m
236.975715 158.976 l
stroke
grestore
0 setlinecap
0.000 setgray
gsave
/o {
gsave
newpath
translate
0.8 setlinewidth
1 setlinejoin
0 setlinecap
0 0 m
0 -3.5 l

gsave
0.000 setgray
fill
grestore
stroke
grestore
} bind def
236.976 38.016 o
grestore
gsave
227.436652 23.422250 translate
0.000000 rotate
0.000000 0.000000 m /one glyphshow
6.362305 0.000000 m /zero glyphshow
12.724609 0.000000 m /zero glyphshow
grestore
2 setlinecap
0.690 setgray
gsave
357.1 121 57.6 38.02 clipbox
277.761462 38.016 m
277.761462 158.976 l
stroke
grestore
0 setlinecap
0.000 setgray
gsave
/o {
gsave
newpath
translate
0.8 setlinewidth
1 setlinejoin
0 setlinecap
0 0 m
0 -3.5 l

gsave
0.000 setgray
fill
grestore
stroke
grestore
} bind def
277.761 38.016 o
grestore
gsave
268.222399 23.422250 translate
0.000000 rotate
0.000000 0.000000 m /one glyphshow
6.362305 0.000000 m /two glyphshow
12.724609 0.000000 m /five glyphshow
grestore
2 setlinecap
0.690 setgray
gsave
357.1 121 57.6 38.02 clipbox
318.547209 38.016 m
318.547209 158.976 l
stroke
grestore
0 setlinecap
0.000 setgray
gsave
/o {
gsave
newpath
translate
0.8 setlinewidth
1 setlinejoin
0 setlinecap
0 0 m
0 -3.5 l

gsave
0.000 setgray
fill
grestore
stroke
grestore
} bind def
318.547 38.016 o
grestore
gsave
309.008146 23.422250 translate
0.000000 rotate
0.000000 0.000000 m /one glyphshow
6.362305 0.000000 m /five glyphshow
12.724609 0.000000 m /zero glyphshow
grestore
2 setlinecap
0.690 setgray
gsave
357.1 121 57.6 38.02 clipbox
359.332956 38.016 m
359.332956 158.976 l
stroke
grestore
0 setlinecap
0.000 setgray
gsave
/o {
gsave
newpath
translate
0.8 setlinewidth
1 setlinejoin
0 setlinecap
0 0 m
0 -3.5 l

gsave
0.000 setgray
fill
grestore
stroke
grestore
} bind def
359.333 38.016 o
grestore
gsave
349.793893 23.422250 translate
0.000000 rotate
0.000000 0.000000 m /one glyphshow
6.362305 0.000000 m /seven glyphshow
12.724609 0.000000 m /five glyphshow
grestore
2 setlinecap
0.690 setgray
gsave
357.1 121 57.6 38.02 clipbox
400.118703 38.016 m
400.118703 158.976 l
stroke
grestore
0 setlinecap
0.000 setgray
gsave
/o {
gsave
newpath
translate
0.8 setlinewidth
1 setlinejoin
0 setlinecap
0 0 m
0 -3.5 l

gsave
0.000 setgray
fill
grestore
stroke
grestore
} bind def
400.119 38.016 o
grestore
gsave
390.579640 23.422250 translate
0.000000 rotate
0.000000 0.000000 m /two glyphshow
6.362305 0.000000 m /zero glyphshow
12.724609 0.000000 m /zero glyphshow
grestore
gsave
217.410000 9.750375 translate
0.000000 rotate
0.000000 0.000000 m /S glyphshow
6.347656 0.000000 m /a glyphshow
12.475586 0.000000 m /m glyphshow
22.216797 0.000000 m /p glyphshow
28.564453 0.000000 m /l glyphshow
31.342773 0.000000 m /e glyphshow
grestore
2 setlinecap
0.690 setgray
gsave
357.1 121 57.6 38.02 clipbox
57.6 55.663225 m
414.72 55.663225 l
stroke
grestore
0 setlinecap
0.000 setgray
gsave
/o {
gsave
newpath
translate
0.8 setlinewidth
1 setlinejoin
0 setlinecap
0 0 m
-3.5 0 l

gsave
0.000 setgray
fill
grestore
stroke
grestore
} bind def
57.6 55.6632 o
grestore
gsave
23.146875 51.866350 translate
0.000000 rotate
0.000000 0.000000 m /minus glyphshow
8.378906 0.000000 m /one glyphshow
14.741211 0.000000 m /zero glyphshow
21.103516 0.000000 m /zero glyphshow
grestore
2 setlinecap
0.690 setgray
gsave
357.1 121 57.6 38.02 clipbox
57.6 90.931854 m
414.72 90.931854 l
stroke
grestore
0 setlinecap
0.000 setgray
gsave
/o {
gsave
newpath
translate
0.8 setlinewidth
1 setlinejoin
0 setlinecap
0 0 m
-3.5 0 l

gsave
0.000 setgray
fill
grestore
stroke
grestore
} bind def
57.6 90.9319 o
grestore
gsave
44.240625 87.134979 translate
0.000000 rotate
0.000000 0.000000 m /zero glyphshow
grestore
2 setlinecap
0.690 setgray
gsave
357.1 121 57.6 38.02 clipbox
57.6 126.200483 m
414.72 126.200483 l
stroke
grestore
0 setlinecap
0.000 setgray
gsave
/o {
gsave
newpath
translate
0.8 setlinewidth
1 setlinejoin
0 setlinecap
0 0 m
-3.5 0 l

gsave
0.000 setgray
fill
grestore
stroke
grestore
} bind def
57.6 126.2 o
grestore
gsave
31.521875 122.403608 translate
0.000000 rotate
0.000000 0.000000 m /one glyphshow
6.362305 0.000000 m /zero glyphshow
12.724609 0.000000 m /zero glyphshow
grestore
gsave
17.068750 51.050687 translate
90.000000 rotate
0.000000 0.000000 m /E glyphshow
6.318359 0.000000 m /u glyphshow
12.656250 0.000000 m /l glyphshow
15.434570 0.000000 m /e glyphshow
21.586914 0.000000 m /r glyphshow
25.698242 0.000000 m /space glyphshow
28.876953 0.000000 m /a glyphshow
35.004883 0.000000 m /n glyphshow
41.342773 0.000000 m /g glyphshow
47.690430 0.000000 m /l glyphshow
50.468750 0.000000 m /e glyphshow
56.621094 0.000000 m /s glyphshow
61.831055 0.000000 m /space glyphshow
65.009766 0.000000 m /space glyphshow
68.188477 0.000000 m /bracketleft glyphshow
72.089844 0.000000 m /d glyphshow
78.437500 0.000000 m /e glyphshow
84.589844 0.000000 m /g glyphshow
90.937500 0.000000 m /bracketright glyphshow
grestore
1.500 setlinewidth
2 setlinecap
0.122 0.467 0.706 setrgbcolor
gsave
357.1 121 57.6 38.02 clipbox
73.832727 90.931854 m
99.935605 88.234868 l
139.089922 83.932821 l
179.875669 79.507211 l
205.978547 76.900745 l
228.818566 74.842352 l
250.027154 73.14836 l
271.235742 71.682629 l
290.812901 70.546264 l
310.390059 69.634745 l
328.335788 69.018895 l
344.650087 68.669525 l
359.332956 68.559217 l
372.384395 68.658634 l
385.435834 68.988216 l
396.855843 69.511988 l
398.487273 69.607872 l
398.487273 69.607872 l
stroke
grestore
1.000 0.498 0.055 setrgbcolor
gsave
357.1 121 57.6 38.02 clipbox
73.832727 90.931854 m
91.778456 91.700055 l
108.092755 92.178018 l
124.407053 92.434497 l
140.721352 92.463268 l
157.035651 92.263619 l
173.34995 91.840431 l
189.664249 91.203665 l
207.609977 90.273448 l
225.555706 89.124666 l
245.132864 87.651742 l
266.341453 85.835354 l
290.812901 83.507965 l
320.178639 80.471677 l
362.595815 75.825903 l
398.487273 71.921257 l
398.487273 71.921257 l
stroke
grestore
0.173 0.627 0.173 setrgbcolor
gsave
357.1 121 57.6 38.02 clipbox
73.832727 90.931854 m
106.461325 95.896479 l
204.347117 110.9909 l
233.712855 115.178648 l
266.341453 119.591573 l
354.438666 131.321773 l
372.384395 134.050505 l
385.435834 136.236039 l
396.855843 138.34516 l
398.487273 138.664887 l
398.487273 138.664887 l
stroke
grestore
1.000 setlinewidth
0 setlinecap
0.839 0.153 0.157 setrgbcolor
gsave
357.1 121 57.6 38.02 clipbox
/o {
gsave
newpath
translate
1.0 setlinewidth
1 setlinejoin
0 setlinecap
0 -1.5 m
0.397805 -1.5 0.77937 -1.341951 1.06066 -1.06066 c
1.341951 -0.77937 1.5 -0.397805 1.5 0 c
1.5 0.397805 1.341951 0.77937 1.06066 1.06066 c
0.77937 1.341951 0.397805 1.5 0 1.5 c
-0.397805 1.5 -0.77937 1.341951 -1.06066 1.06066 c
-1.341951 0.77937 -1.5 0.397805 -1.5 0 c
-1.5 -0.397805 -1.341951 -0.77937 -1.06066 -1.06066 c
-0.77937 -1.341951 -0.397805 -1.5 0 -1.5 c
cl

gsave
0.839 0.153 0.157 setrgbcolor
fill
grestore
stroke
grestore
} bind def
73.8327 91.2517 o
75.4642 92.6254 o
77.0956 88.5403 o
78.727 91.6453 o
80.3584 88.9895 o
81.9899 86.3012 o
83.6213 89.3239 o
85.2527 89.2795 o
86.8842 88.3843 o
88.5156 91.1233 o
90.147 91.8754 o
91.7785 88.5995 o
93.4099 85.7157 o
95.0413 90.0227 o
96.6727 90.0991 o
98.3042 89.4963 o
99.9356 88.1904 o
101.567 88.9977 o
103.198 86.3269 o
104.83 88.0711 o
106.461 87.0778 o
108.093 85.7072 o
109.724 87.5845 o
111.356 88.6698 o
112.987 85.3637 o
114.618 87.2392 o
116.25 86.2582 o
117.881 87.9978 o
119.513 85.5273 o
121.144 87.5328 o
122.776 86.2225 o
124.407 85.634 o
126.038 83.7682 o
127.67 86.9096 o
129.301 83.7288 o
130.933 85.0695 o
132.564 84.9851 o
134.196 84.4143 o
135.827 85.1595 o
137.458 83.7082 o
139.09 86.6536 o
140.721 84.3608 o
142.353 83.8812 o
143.984 83.6148 o
145.616 85.5346 o
147.247 85.0654 o
148.879 83.9435 o
150.51 86.2893 o
152.141 81.5993 o
153.773 81.1759 o
155.404 83.8798 o
157.036 85.1258 o
158.667 79.3472 o
160.299 83.0994 o
161.93 80.2265 o
163.561 83.0682 o
165.193 81.5113 o
166.824 79.2882 o
168.456 81.4049 o
170.087 75.5892 o
171.719 82.2246 o
173.35 76.1917 o
174.981 79.9827 o
176.613 78.4175 o
178.244 76.958 o
179.876 77.2487 o
181.507 75.491 o
183.139 77.7688 o
184.77 89.6166 o
186.401 76.7313 o
188.033 80.275 o
189.664 72.9108 o
191.296 73.3873 o
192.927 78.1484 o
194.559 80.4546 o
196.19 76.7328 o
197.821 76.1589 o
199.453 72.6679 o
201.084 80.2618 o
202.716 82.7959 o
204.347 80.5665 o
205.979 84.3499 o
207.61 74.0434 o
209.241 70.512 o
210.873 88.2949 o
212.504 76.5986 o
214.136 85.8221 o
215.767 74.9324 o
217.399 70.784 o
219.03 73.3585 o
220.661 76.4754 o
222.293 85.2992 o
223.924 74.7333 o
225.556 77.8043 o
227.187 73.5947 o
228.819 83.9877 o
230.45 85.6533 o
232.081 81.74 o
233.713 75.7282 o
235.344 72.1463 o
236.976 91.4771 o
238.607 71.4333 o
240.239 80.0911 o
241.87 68.2394 o
243.501 79.566 o
245.133 78.745 o
246.764 83.3984 o
248.396 77.5923 o
250.027 66.7061 o
251.659 68.2495 o
253.29 78.0954 o
254.921 91.7301 o
256.553 68.0526 o
258.184 76.1797 o
259.816 71.9179 o
261.447 67.2614 o
263.079 77.4307 o
264.71 77.1261 o
266.341 72.7211 o
267.973 92.3665 o
269.604 82.8971 o
271.236 142.759 o
272.867 83.946 o
274.499 69.3567 o
276.13 70.3185 o
277.761 105.906 o
279.393 56.0048 o
281.024 69.459 o
282.656 68.5054 o
284.287 110.621 o
285.919 78.3876 o
287.55 71.62 o
289.181 70.7955 o
290.813 70.2957 o
292.444 77.6544 o
294.076 90.9442 o
295.707 70.6068 o
297.339 147.011 o
298.97 80.5343 o
300.601 71.753 o
302.233 57.3623 o
303.864 66.2645 o
305.496 75.1729 o
307.127 66.6486 o
308.759 56.4475 o
310.39 104.373 o
312.021 59.3122 o
313.653 64.4447 o
315.284 76.1037 o
316.916 86.7931 o
318.547 78.2509 o
320.179 69.7884 o
321.81 58.1297 o
323.441 77.9801 o
325.073 64.8141 o
326.704 91.9523 o
328.336 60.9862 o
329.967 47.0198 o
331.599 80.0897 o
333.23 94.6171 o
334.862 87.8234 o
336.493 56.7358 o
338.124 65.7981 o
339.756 53.9752 o
341.387 135.12 o
343.019 70.5558 o
344.65 56.435 o
346.282 59.4443 o
347.913 61.855 o
349.544 69.4725 o
351.176 53.9135 o
352.807 60.7089 o
354.439 108.972 o
356.07 66.3445 o
357.702 88.2336 o
359.333 100.035 o
360.964 106.052 o
362.596 93.3112 o
364.227 65.9347 o
365.859 53.4309 o
367.49 131.903 o
369.122 70.9423 o
370.753 79.3801 o
372.384 85.273 o
374.016 52.6135 o
375.647 83.5983 o
377.279 61.9014 o
378.91 93.2724 o
380.542 79.1223 o
382.173 61.2049 o
383.804 87.2008 o
385.436 114.615 o
387.067 45.9678 o
388.699 51.6916 o
390.33 116.14 o
391.962 133.919 o
393.593 80.0201 o
395.224 64.6576 o
396.856 100.074 o
398.487 83.0708 o
grestore
0.580 0.404 0.741 setrgbcolor
gsave
357.1 121 57.6 38.02 clipbox
/o {
gsave
newpath
translate
1.0 setlinewidth
1 setlinejoin
0 setlinecap
0 -1.5 m
0.397805 -1.5 0.77937 -1.341951 1.06066 -1.06066 c
1.341951 -0.77937 1.5 -0.397805 1.5 0 c
1.5 0.397805 1.341951 0.77937 1.06066 1.06066 c
0.77937 1.341951 0.397805 1.5 0 1.5 c
-0.397805 1.5 -0.77937 1.341951 -1.06066 1.06066 c
-1.341951 0.77937 -1.5 0.397805 -1.5 0 c
-1.5 -0.397805 -1.341951 -0.77937 -1.06066 -1.06066 c
-0.77937 -1.341951 -0.397805 -1.5 0 -1.5 c
cl

gsave
0.580 0.404 0.741 setrgbcolor
fill
grestore
stroke
grestore
} bind def
73.8327 89.4315 o
75.4642 89.0096 o
77.0956 92.0233 o
78.727 90.5483 o
80.3584 91.0002 o
81.9899 90.026 o
83.6213 91.422 o
85.2527 91.5284 o
86.8842 88.194 o
88.5156 92.2697 o
90.147 91.9552 o
91.7785 90.1893 o
93.4099 91.1139 o
95.0413 93.2381 o
96.6727 93.3046 o
98.3042 92.9638 o
99.9356 91.6425 o
101.567 91.6701 o
103.198 92.3871 o
104.83 93.9853 o
106.461 91.2333 o
108.093 92.3605 o
109.724 93.9352 o
111.356 94.3427 o
112.987 93.0426 o
114.618 91.8345 o
116.25 93.7092 o
117.881 93.9128 o
119.513 90.9775 o
121.144 90.6515 o
122.776 95.0281 o
124.407 94.1996 o
126.038 91.7173 o
127.67 94.4086 o
129.301 88.9797 o
130.933 91.4682 o
132.564 90.7196 o
134.196 90.2219 o
135.827 93.0048 o
137.458 92.283 o
139.09 92.4297 o
140.721 94.2578 o
142.353 91.5533 o
143.984 89.6098 o
145.616 97.2075 o
147.247 96.0136 o
148.879 93.7923 o
150.51 95.2181 o
152.141 94.9623 o
153.773 92.7375 o
155.404 94.5167 o
157.036 90.405 o
158.667 88.0796 o
160.299 92.9251 o
161.93 89.6606 o
163.561 89.5187 o
165.193 86.5945 o
166.824 90.228 o
168.456 93.3716 o
170.087 89.941 o
171.719 92.599 o
173.35 90.5538 o
174.981 92.8224 o
176.613 91.5089 o
178.244 90.4275 o
179.876 94.4516 o
181.507 86.2624 o
183.139 97.5463 o
184.77 97.6078 o
186.401 92.0571 o
188.033 96.3277 o
189.664 91.9259 o
191.296 80.8274 o
192.927 86.1285 o
194.559 90.2084 o
196.19 87.1897 o
197.821 93.1515 o
199.453 86.2387 o
201.084 81.3205 o
202.716 92.7733 o
204.347 92.3083 o
205.979 87.2331 o
207.61 103.143 o
209.241 92.2737 o
210.873 81.1256 o
212.504 87.2499 o
214.136 88.603 o
215.767 86.7986 o
217.399 89.7307 o
219.03 94.9269 o
220.661 80.2541 o
222.293 89.1321 o
223.924 85.3146 o
225.556 95.0263 o
227.187 91.6577 o
228.819 84.7407 o
230.45 92.5405 o
232.081 89.4297 o
233.713 85.8938 o
235.344 101.68 o
236.976 88.1656 o
238.607 100.775 o
240.239 88.3317 o
241.87 97.0272 o
243.501 91.6883 o
245.133 77.0752 o
246.764 87.684 o
248.396 83.4793 o
250.027 82.2905 o
251.659 78.1107 o
253.29 102.85 o
254.921 107.686 o
256.553 92.222 o
258.184 97.6506 o
259.816 88.8019 o
261.447 82.1205 o
263.079 80.5291 o
264.71 83.8396 o
266.341 89.3717 o
267.973 95.6324 o
269.604 83.1914 o
271.236 98.4273 o
272.867 85.5553 o
274.499 87.6899 o
276.13 93.2387 o
277.761 89.4336 o
279.393 81.3513 o
281.024 61.303 o
282.656 91.8992 o
284.287 113.432 o
285.919 83.1917 o
287.55 70.8914 o
289.181 84.9449 o
290.813 97.3228 o
292.444 83.5732 o
294.076 90.8432 o
295.707 78.0926 o
297.339 101.092 o
298.97 67.2168 o
300.601 78.1003 o
302.233 78.1181 o
303.864 81.2271 o
305.496 87.4995 o
307.127 81.8307 o
308.759 104.088 o
310.39 97.5548 o
312.021 94.7235 o
313.653 86.4131 o
315.284 77.1172 o
316.916 82.6535 o
318.547 74.8467 o
320.179 94.3023 o
321.81 74.6096 o
323.441 77.1705 o
325.073 87.651 o
326.704 69.5718 o
328.336 80.7262 o
329.967 100.523 o
331.599 76.9435 o
333.23 76.0889 o
334.862 95.0536 o
336.493 88.0187 o
338.124 82.9924 o
339.756 82.2248 o
341.387 107.215 o
343.019 94.9616 o
344.65 71.8267 o
346.282 75.3507 o
347.913 80.0516 o
349.544 83.1727 o
351.176 87.3766 o
352.807 85.2616 o
354.439 88.9787 o
356.07 98.0625 o
357.702 65.6329 o
359.333 103.71 o
360.964 113.885 o
362.596 68.9948 o
364.227 69.8514 o
365.859 82.9208 o
367.49 63.0226 o
369.122 71.6846 o
370.753 95.7532 o
372.384 74.7842 o
374.016 102.929 o
375.647 65.0952 o
377.279 83.8387 o
378.91 82.279 o
380.542 75.8334 o
382.173 73.377 o
383.804 72.5826 o
385.436 69.9078 o
387.067 83.853 o
388.699 74.7817 o
390.33 66.0778 o
391.962 102.302 o
393.593 76.7573 o
395.224 64.1203 o
396.856 68.7918 o
398.487 99.3627 o
grestore
0.549 0.337 0.294 setrgbcolor
gsave
357.1 121 57.6 38.02 clipbox
/o {
gsave
newpath
translate
1.0 setlinewidth
1 setlinejoin
0 setlinecap
0 -1.5 m
0.397805 -1.5 0.77937 -1.341951 1.06066 -1.06066 c
1.341951 -0.77937 1.5 -0.397805 1.5 0 c
1.5 0.397805 1.341951 0.77937 1.06066 1.06066 c
0.77937 1.341951 0.397805 1.5 0 1.5 c
-0.397805 1.5 -0.77937 1.341951 -1.06066 1.06066 c
-1.341951 0.77937 -1.5 0.397805 -1.5 0 c
-1.5 -0.397805 -1.341951 -0.77937 -1.06066 -1.06066 c
-0.77937 -1.341951 -0.397805 -1.5 0 -1.5 c
cl

gsave
0.549 0.337 0.294 setrgbcolor
fill
grestore
stroke
grestore
} bind def
73.8327 92.76 o
75.4642 92.9303 o
77.0956 91.0563 o
78.727 93.6183 o
80.3584 92.0458 o
81.9899 92.8706 o
83.6213 93.045 o
85.2527 93.1098 o
86.8842 94.967 o
88.5156 91.5418 o
90.147 92.4453 o
91.7785 95.6889 o
93.4099 95.2385 o
95.0413 93.7525 o
96.6727 95.6787 o
98.3042 96.5564 o
99.9356 95.7968 o
101.567 96.506 o
103.198 95.1957 o
104.83 92.6421 o
106.461 96.7132 o
108.093 95.0456 o
109.724 97.2153 o
111.356 97.3392 o
112.987 98.2521 o
114.618 98.7768 o
116.25 96.4107 o
117.881 96.7734 o
119.513 95.2444 o
121.144 99.1997 o
122.776 97.3103 o
124.407 100.698 o
126.038 99.2696 o
127.67 99.1138 o
129.301 98.4912 o
130.933 104.311 o
132.564 100.131 o
134.196 102.267 o
135.827 102.073 o
137.458 96.9849 o
139.09 106.225 o
140.721 103.784 o
142.353 96.3773 o
143.984 100.085 o
145.616 104.732 o
147.247 103.902 o
148.879 103.659 o
150.51 103.136 o
152.141 102.922 o
153.773 108.392 o
155.404 102.577 o
157.036 102.421 o
158.667 104.502 o
160.299 105.692 o
161.93 107.534 o
163.561 101.89 o
165.193 107.029 o
166.824 104.16 o
168.456 110.707 o
170.087 110.544 o
171.719 103.775 o
173.35 109.078 o
174.981 103.187 o
176.613 103.15 o
178.244 112.778 o
179.876 112.049 o
181.507 109.401 o
183.139 108.028 o
184.77 98.2782 o
186.401 111.132 o
188.033 109.242 o
189.664 112.69 o
191.296 112.173 o
192.927 98.9226 o
194.559 104.236 o
196.19 108.695 o
197.821 113.579 o
199.453 114.308 o
201.084 109.069 o
202.716 109.369 o
204.347 107.368 o
205.979 120.304 o
207.61 113.433 o
209.241 116.113 o
210.873 105.24 o
212.504 117.698 o
214.136 110.776 o
215.767 107.773 o
217.399 102.597 o
219.03 114.007 o
220.661 114.031 o
222.293 102.374 o
223.924 120.538 o
225.556 110.786 o
227.187 112.588 o
228.819 110.887 o
230.45 112.351 o
232.081 100.988 o
233.713 119.681 o
235.344 109.255 o
236.976 112.181 o
238.607 118.939 o
240.239 116.891 o
241.87 122.182 o
243.501 107.482 o
245.133 124.779 o
246.764 119.267 o
248.396 117.573 o
250.027 99.3738 o
251.659 116.827 o
253.29 112.087 o
254.921 99.806 o
256.553 109.458 o
258.184 115.224 o
259.816 124.761 o
261.447 110.338 o
263.079 134.972 o
264.71 124.287 o
266.341 112.011 o
267.973 111.321 o
269.604 119.453 o
271.236 78.4864 o
272.867 137.237 o
274.499 113.064 o
276.13 123.287 o
277.761 110.681 o
279.393 113.471 o
281.024 136.983 o
282.656 120.727 o
284.287 106.99 o
285.919 116.218 o
287.55 129.717 o
289.181 122.549 o
290.813 113.219 o
292.444 125.394 o
294.076 113.638 o
295.707 121.316 o
297.339 68.9572 o
298.97 120.58 o
300.601 133.282 o
302.233 109.223 o
303.864 117.454 o
305.496 125.588 o
307.127 113.568 o
308.759 127.9 o
310.39 118.824 o
312.021 112.225 o
313.653 133.965 o
315.284 136.371 o
316.916 131.232 o
318.547 130.285 o
320.179 134.573 o
321.81 123.642 o
323.441 144.41 o
325.073 131.405 o
326.704 149.526 o
328.336 120.599 o
329.967 134.518 o
331.599 140.366 o
333.23 130.058 o
334.862 126.8 o
336.493 123.953 o
338.124 128.802 o
339.756 113.991 o
341.387 74.3922 o
343.019 126.395 o
344.65 117.366 o
346.282 118.715 o
347.913 125.578 o
349.544 132.951 o
351.176 124.594 o
352.807 130.767 o
354.439 142.778 o
356.07 141.52 o
357.702 145.622 o
359.333 127.434 o
360.964 132.699 o
362.596 153.252 o
364.227 126.021 o
365.859 133.933 o
367.49 49.7708 o
369.122 119.597 o
370.753 153.478 o
372.384 148.928 o
374.016 131.904 o
375.647 140.989 o
377.279 134.397 o
378.91 43.5142 o
380.542 152.246 o
382.173 131.938 o
383.804 144.327 o
385.436 64.419 o
387.067 106.911 o
388.699 120.52 o
390.33 43.5562 o
391.962 52.6788 o
393.593 144.827 o
395.224 128.938 o
396.856 49.0887 o
398.487 145.343 o
grestore
0.800 setlinewidth
0 setlinejoin
2 setlinecap
[] 0 setdash
0.000 setgray
gsave
57.6 38.016 m
57.6 158.976 l
stroke
grestore
gsave
414.72 38.016 m
414.72 158.976 l
stroke
grestore
gsave
57.6 38.016 m
414.72 38.016 l
stroke
grestore
gsave
57.6 158.976 m
414.72 158.976 l
stroke
grestore
1.000 setlinewidth
0 setlinecap
0.800 setgray
gsave
64.6 106.960375 m
121.490625 106.960375 l
122.823958 106.960375 123.490625 107.627042 123.490625 108.960375 c
123.490625 151.976 l
123.490625 153.309333 122.823958 153.976 121.490625 153.976 c
64.6 153.976 l
63.266667 153.976 62.6 153.309333 62.6 151.976 c
62.6 108.960375 l
62.6 107.627042 63.266667 106.960375 64.6 106.960375 c
cl
gsave
1.000 setgray
fill
grestore
stroke
grestore
1.500 setlinewidth
1 setlinejoin
2 setlinecap
[] 0 setdash
0.122 0.467 0.706 setrgbcolor
gsave
66.6 145.88225 m
86.6 145.88225 l
stroke
grestore
0.000 setgray
gsave
94.600000 142.382250 translate
0.000000 rotate
0.000000 0.000000 m /r glyphshow
4.111328 0.000000 m /o glyphshow
10.229492 0.000000 m /l glyphshow
13.007812 0.000000 m /l glyphshow
grestore
1.000 0.498 0.055 setrgbcolor
gsave
66.6 131.210375 m
86.6 131.210375 l
stroke
grestore
0.000 setgray
gsave
94.600000 127.710375 translate
0.000000 rotate
0.000000 0.000000 m /p glyphshow
6.347656 0.000000 m /i glyphshow
9.125977 0.000000 m /t glyphshow
13.046875 0.000000 m /c glyphshow
18.544922 0.000000 m /h glyphshow
grestore
0.173 0.627 0.173 setrgbcolor
gsave
66.6 116.5385 m
86.6 116.5385 l
stroke
grestore
0.000 setgray
gsave
94.600000 113.038500 translate
0.000000 rotate
0.000000 0.000000 m /y glyphshow
5.917969 0.000000 m /a glyphshow
12.045898 0.000000 m /w glyphshow
grestore

end
showpage
