%!PS-Adobe-3.0 EPSF-3.0
%%Title: figures/repeater_500_err.eps
%%Creator: matplotlib version 2.0.0, http://matplotlib.org/
%%CreationDate: Tue Feb 28 10:42:41 2017
%%Orientation: portrait
%%BoundingBox: 75 223 536 568
%%EndComments
%%BeginProlog
/mpldict 8 dict def
mpldict begin
/m { moveto } bind def
/l { lineto } bind def
/r { rlineto } bind def
/c { curveto } bind def
/cl { closepath } bind def
/box {
m
1 index 0 r
0 exch r
neg 0 r
cl
} bind def
/clipbox {
box
clip
newpath
} bind def
%!PS-Adobe-3.0 Resource-Font
%%Title: DejaVu Sans
%%Copyright: Copyright (c) 2003 by Bitstream, Inc. All Rights Reserved. Copyright (c) 2006 by Tavmjong Bah. All Rights Reserved. DejaVu changes are in public domain 
%%Creator: Converted from TrueType to type 3 by PPR
25 dict begin
/_d{bind def}bind def
/_m{moveto}_d
/_l{lineto}_d
/_cl{closepath eofill}_d
/_c{curveto}_d
/_sc{7 -1 roll{setcachedevice}{pop pop pop pop pop pop}ifelse}_d
/_e{exec}_d
/FontName /DejaVuSans def
/PaintType 0 def
/FontMatrix[.001 0 0 .001 0 0]def
/FontBBox[-1021 -463 1793 1232]def
/FontType 3 def
/Encoding [ /space /period /zero /one /two /three /four /five /seven /E /P /S /bracketleft /bracketright /a /c /d /e /g /h /i /l /m /n /o /p /r /s /t /u /w /x /y /z /minus ] def
/FontInfo 10 dict dup begin
/FamilyName (DejaVu Sans) def
/FullName (DejaVu Sans) def
/Notice (Copyright (c) 2003 by Bitstream, Inc. All Rights Reserved. Copyright (c) 2006 by Tavmjong Bah. All Rights Reserved. DejaVu changes are in public domain ) def
/Weight (Book) def
/Version (Version 2.35) def
/ItalicAngle 0.0 def
/isFixedPitch false def
/UnderlinePosition -130 def
/UnderlineThickness 90 def
end readonly def
/CharStrings 35 dict dup begin
/space{318 0 0 0 0 0 _sc
}_d
/period{318 0 107 0 210 124 _sc
107 124 _m
210 124 _l
210 0 _l
107 0 _l
107 124 _l
_cl}_d
/zero{636 0 66 -13 570 742 _sc
318 664 _m
267 664 229 639 203 589 _c
177 539 165 464 165 364 _c
165 264 177 189 203 139 _c
229 89 267 64 318 64 _c
369 64 407 89 433 139 _c
458 189 471 264 471 364 _c
471 464 458 539 433 589 _c
407 639 369 664 318 664 _c
318 742 _m
399 742 461 709 505 645 _c
548 580 570 486 570 364 _c
570 241 548 147 505 83 _c
461 19 399 -13 318 -13 _c
236 -13 173 19 130 83 _c
87 147 66 241 66 364 _c
66 486 87 580 130 645 _c
173 709 236 742 318 742 _c
_cl}_d
/one{636 0 110 0 544 729 _sc
124 83 _m
285 83 _l
285 639 _l
110 604 _l
110 694 _l
284 729 _l
383 729 _l
383 83 _l
544 83 _l
544 0 _l
124 0 _l
124 83 _l
_cl}_d
/two{{636 0 73 0 536 742 _sc
192 83 _m
536 83 _l
536 0 _l
73 0 _l
73 83 _l
110 121 161 173 226 239 _c
290 304 331 346 348 365 _c
380 400 402 430 414 455 _c
426 479 433 504 433 528 _c
433 566 419 598 392 622 _c
365 646 330 659 286 659 _c
255 659 222 653 188 643 _c
154 632 117 616 78 594 _c
78 694 _l
118 710 155 722 189 730 _c
223 738 255 742 284 742 _c
}_e{359 742 419 723 464 685 _c
509 647 532 597 532 534 _c
532 504 526 475 515 449 _c
504 422 484 390 454 354 _c
446 344 420 317 376 272 _c
332 227 271 164 192 83 _c
_cl}_e}_d
/three{{636 0 76 -13 556 742 _sc
406 393 _m
453 383 490 362 516 330 _c
542 298 556 258 556 212 _c
556 140 531 84 482 45 _c
432 6 362 -13 271 -13 _c
240 -13 208 -10 176 -4 _c
144 1 110 10 76 22 _c
76 117 _l
103 101 133 89 166 81 _c
198 73 232 69 268 69 _c
330 69 377 81 409 105 _c
441 129 458 165 458 212 _c
458 254 443 288 413 312 _c
383 336 341 349 287 349 _c
}_e{202 349 _l
202 430 _l
291 430 _l
339 430 376 439 402 459 _c
428 478 441 506 441 543 _c
441 580 427 609 401 629 _c
374 649 336 659 287 659 _c
260 659 231 656 200 650 _c
169 644 135 635 98 623 _c
98 711 _l
135 721 170 729 203 734 _c
235 739 266 742 296 742 _c
370 742 429 725 473 691 _c
517 657 539 611 539 553 _c
539 513 527 479 504 451 _c
481 423 448 403 406 393 _c
_cl}_e}_d
/four{636 0 49 0 580 729 _sc
378 643 _m
129 254 _l
378 254 _l
378 643 _l
352 729 _m
476 729 _l
476 254 _l
580 254 _l
580 172 _l
476 172 _l
476 0 _l
378 0 _l
378 172 _l
49 172 _l
49 267 _l
352 729 _l
_cl}_d
/five{{636 0 77 -13 549 729 _sc
108 729 _m
495 729 _l
495 646 _l
198 646 _l
198 467 _l
212 472 227 476 241 478 _c
255 480 270 482 284 482 _c
365 482 429 459 477 415 _c
525 370 549 310 549 234 _c
549 155 524 94 475 51 _c
426 8 357 -13 269 -13 _c
238 -13 207 -10 175 -6 _c
143 -1 111 6 77 17 _c
77 116 _l
106 100 136 88 168 80 _c
199 72 232 69 267 69 _c
}_e{323 69 368 83 401 113 _c
433 143 450 183 450 234 _c
450 284 433 324 401 354 _c
368 384 323 399 267 399 _c
241 399 214 396 188 390 _c
162 384 135 375 108 363 _c
108 729 _l
_cl}_e}_d
/seven{636 0 82 0 551 729 _sc
82 729 _m
551 729 _l
551 687 _l
286 0 _l
183 0 _l
432 646 _l
82 646 _l
82 729 _l
_cl}_d
/E{632 0 98 0 568 729 _sc
98 729 _m
559 729 _l
559 646 _l
197 646 _l
197 430 _l
544 430 _l
544 347 _l
197 347 _l
197 83 _l
568 83 _l
568 0 _l
98 0 _l
98 729 _l
_cl}_d
/P{603 0 98 0 569 729 _sc
197 648 _m
197 374 _l
321 374 _l
367 374 402 385 427 409 _c
452 433 465 467 465 511 _c
465 555 452 588 427 612 _c
402 636 367 648 321 648 _c
197 648 _l
98 729 _m
321 729 _l
402 729 464 710 506 673 _c
548 636 569 582 569 511 _c
569 439 548 384 506 348 _c
464 311 402 293 321 293 _c
197 293 _l
197 0 _l
98 0 _l
98 729 _l
_cl}_d
/S{{635 0 66 -13 579 742 _sc
535 705 _m
535 609 _l
497 627 462 640 429 649 _c
395 657 363 662 333 662 _c
279 662 237 651 208 631 _c
179 610 165 580 165 542 _c
165 510 174 485 194 469 _c
213 452 250 439 304 429 _c
364 417 _l
437 403 491 378 526 343 _c
561 307 579 260 579 201 _c
579 130 555 77 508 41 _c
460 5 391 -13 300 -13 _c
265 -13 228 -9 189 -2 _c
}_e{150 5 110 16 69 32 _c
69 134 _l
109 111 148 94 186 83 _c
224 71 262 66 300 66 _c
356 66 399 77 430 99 _c
460 121 476 152 476 194 _c
476 230 465 258 443 278 _c
421 298 385 313 335 323 _c
275 335 _l
201 349 148 372 115 404 _c
82 435 66 478 66 534 _c
66 598 88 649 134 686 _c
179 723 242 742 322 742 _c
356 742 390 739 426 733 _c
461 727 497 717 535 705 _c
}_e{_cl}_e}_d
/bracketleft{390 0 86 -131 293 760 _sc
86 760 _m
293 760 _l
293 690 _l
176 690 _l
176 -61 _l
293 -61 _l
293 -131 _l
86 -131 _l
86 760 _l
_cl}_d
/bracketright{390 0 97 -131 304 760 _sc
304 760 _m
304 -131 _l
97 -131 _l
97 -61 _l
214 -61 _l
214 690 _l
97 690 _l
97 760 _l
304 760 _l
_cl}_d
/a{{613 0 60 -13 522 560 _sc
343 275 _m
270 275 220 266 192 250 _c
164 233 150 205 150 165 _c
150 133 160 107 181 89 _c
202 70 231 61 267 61 _c
317 61 357 78 387 114 _c
417 149 432 196 432 255 _c
432 275 _l
343 275 _l
522 312 _m
522 0 _l
432 0 _l
432 83 _l
411 49 385 25 355 10 _c
325 -5 287 -13 243 -13 _c
187 -13 142 2 109 33 _c
76 64 60 106 60 159 _c
}_e{60 220 80 266 122 298 _c
163 329 224 345 306 345 _c
432 345 _l
432 354 _l
432 395 418 427 391 450 _c
364 472 326 484 277 484 _c
245 484 215 480 185 472 _c
155 464 127 453 100 439 _c
100 522 _l
132 534 164 544 195 550 _c
226 556 256 560 286 560 _c
365 560 424 539 463 498 _c
502 457 522 395 522 312 _c
_cl}_e}_d
/c{{550 0 55 -13 488 560 _sc
488 526 _m
488 442 _l
462 456 437 466 411 473 _c
385 480 360 484 334 484 _c
276 484 230 465 198 428 _c
166 391 150 339 150 273 _c
150 206 166 154 198 117 _c
230 80 276 62 334 62 _c
360 62 385 65 411 72 _c
437 79 462 90 488 104 _c
488 21 _l
462 9 436 0 410 -5 _c
383 -10 354 -13 324 -13 _c
242 -13 176 12 128 64 _c
}_e{79 115 55 185 55 273 _c
55 362 79 432 128 483 _c
177 534 244 560 330 560 _c
358 560 385 557 411 551 _c
437 545 463 537 488 526 _c
_cl}_e}_d
/d{{635 0 55 -13 544 760 _sc
454 464 _m
454 760 _l
544 760 _l
544 0 _l
454 0 _l
454 82 _l
435 49 411 25 382 10 _c
353 -5 319 -13 279 -13 _c
213 -13 159 13 117 65 _c
75 117 55 187 55 273 _c
55 359 75 428 117 481 _c
159 533 213 560 279 560 _c
319 560 353 552 382 536 _c
411 520 435 496 454 464 _c
148 273 _m
148 207 161 155 188 117 _c
215 79 253 61 301 61 _c
}_e{348 61 385 79 413 117 _c
440 155 454 207 454 273 _c
454 339 440 390 413 428 _c
385 466 348 485 301 485 _c
253 485 215 466 188 428 _c
161 390 148 339 148 273 _c
_cl}_e}_d
/e{{615 0 55 -13 562 560 _sc
562 296 _m
562 252 _l
149 252 _l
153 190 171 142 205 110 _c
238 78 284 62 344 62 _c
378 62 412 66 444 74 _c
476 82 509 95 541 113 _c
541 28 _l
509 14 476 3 442 -3 _c
408 -9 373 -13 339 -13 _c
251 -13 182 12 131 62 _c
80 112 55 181 55 268 _c
55 357 79 428 127 481 _c
175 533 241 560 323 560 _c
397 560 455 536 498 489 _c
}_e{540 441 562 377 562 296 _c
472 322 _m
471 371 457 410 431 440 _c
404 469 368 484 324 484 _c
274 484 234 469 204 441 _c
174 413 156 373 152 322 _c
472 322 _l
_cl}_e}_d
/g{{635 0 55 -207 544 560 _sc
454 280 _m
454 344 440 395 414 431 _c
387 467 349 485 301 485 _c
253 485 215 467 188 431 _c
161 395 148 344 148 280 _c
148 215 161 165 188 129 _c
215 93 253 75 301 75 _c
349 75 387 93 414 129 _c
440 165 454 215 454 280 _c
544 68 _m
544 -24 523 -93 482 -139 _c
440 -184 377 -207 292 -207 _c
260 -207 231 -204 203 -200 _c
175 -195 147 -188 121 -178 _c
}_e{121 -91 _l
147 -105 173 -115 199 -122 _c
225 -129 251 -133 278 -133 _c
336 -133 380 -117 410 -87 _c
439 -56 454 -10 454 52 _c
454 96 _l
435 64 411 40 382 24 _c
353 8 319 0 279 0 _c
211 0 157 25 116 76 _c
75 127 55 195 55 280 _c
55 364 75 432 116 483 _c
157 534 211 560 279 560 _c
319 560 353 552 382 536 _c
411 520 435 496 454 464 _c
454 547 _l
544 547 _l
}_e{544 68 _l
_cl}_e}_d
/h{634 0 91 0 549 760 _sc
549 330 _m
549 0 _l
459 0 _l
459 327 _l
459 379 448 417 428 443 _c
408 469 378 482 338 482 _c
289 482 251 466 223 435 _c
195 404 181 362 181 309 _c
181 0 _l
91 0 _l
91 760 _l
181 760 _l
181 462 _l
202 494 227 519 257 535 _c
286 551 320 560 358 560 _c
420 560 468 540 500 501 _c
532 462 549 405 549 330 _c
_cl}_d
/i{278 0 94 0 184 760 _sc
94 547 _m
184 547 _l
184 0 _l
94 0 _l
94 547 _l
94 760 _m
184 760 _l
184 646 _l
94 646 _l
94 760 _l
_cl}_d
/l{278 0 94 0 184 760 _sc
94 760 _m
184 760 _l
184 0 _l
94 0 _l
94 760 _l
_cl}_d
/m{{974 0 91 0 889 560 _sc
520 442 _m
542 482 569 511 600 531 _c
631 550 668 560 711 560 _c
767 560 811 540 842 500 _c
873 460 889 403 889 330 _c
889 0 _l
799 0 _l
799 327 _l
799 379 789 418 771 444 _c
752 469 724 482 686 482 _c
639 482 602 466 575 435 _c
548 404 535 362 535 309 _c
535 0 _l
445 0 _l
445 327 _l
445 379 435 418 417 444 _c
398 469 369 482 331 482 _c
}_e{285 482 248 466 221 435 _c
194 404 181 362 181 309 _c
181 0 _l
91 0 _l
91 547 _l
181 547 _l
181 462 _l
201 495 226 520 255 536 _c
283 552 317 560 357 560 _c
397 560 430 550 458 530 _c
486 510 506 480 520 442 _c
_cl}_e}_d
/n{634 0 91 0 549 560 _sc
549 330 _m
549 0 _l
459 0 _l
459 327 _l
459 379 448 417 428 443 _c
408 469 378 482 338 482 _c
289 482 251 466 223 435 _c
195 404 181 362 181 309 _c
181 0 _l
91 0 _l
91 547 _l
181 547 _l
181 462 _l
202 494 227 519 257 535 _c
286 551 320 560 358 560 _c
420 560 468 540 500 501 _c
532 462 549 405 549 330 _c
_cl}_d
/o{612 0 55 -13 557 560 _sc
306 484 _m
258 484 220 465 192 427 _c
164 389 150 338 150 273 _c
150 207 163 156 191 118 _c
219 80 257 62 306 62 _c
354 62 392 80 420 118 _c
448 156 462 207 462 273 _c
462 337 448 389 420 427 _c
392 465 354 484 306 484 _c
306 560 _m
384 560 445 534 490 484 _c
534 433 557 363 557 273 _c
557 183 534 113 490 63 _c
445 12 384 -13 306 -13 _c
227 -13 165 12 121 63 _c
77 113 55 183 55 273 _c
55 363 77 433 121 484 _c
165 534 227 560 306 560 _c
_cl}_d
/p{{635 0 91 -207 580 560 _sc
181 82 _m
181 -207 _l
91 -207 _l
91 547 _l
181 547 _l
181 464 _l
199 496 223 520 252 536 _c
281 552 316 560 356 560 _c
422 560 476 533 518 481 _c
559 428 580 359 580 273 _c
580 187 559 117 518 65 _c
476 13 422 -13 356 -13 _c
316 -13 281 -5 252 10 _c
223 25 199 49 181 82 _c
487 273 _m
487 339 473 390 446 428 _c
418 466 381 485 334 485 _c
}_e{286 485 249 466 222 428 _c
194 390 181 339 181 273 _c
181 207 194 155 222 117 _c
249 79 286 61 334 61 _c
381 61 418 79 446 117 _c
473 155 487 207 487 273 _c
_cl}_e}_d
/r{411 0 91 0 411 560 _sc
411 463 _m
401 469 390 473 378 476 _c
366 478 353 480 339 480 _c
288 480 249 463 222 430 _c
194 397 181 350 181 288 _c
181 0 _l
91 0 _l
91 547 _l
181 547 _l
181 462 _l
199 495 224 520 254 536 _c
284 552 321 560 365 560 _c
371 560 378 559 386 559 _c
393 558 401 557 411 555 _c
411 463 _l
_cl}_d
/s{{521 0 54 -13 472 560 _sc
443 531 _m
443 446 _l
417 458 391 468 364 475 _c
336 481 308 485 279 485 _c
234 485 200 478 178 464 _c
156 450 145 430 145 403 _c
145 382 153 366 169 354 _c
185 342 217 330 265 320 _c
296 313 _l
360 299 405 279 432 255 _c
458 230 472 195 472 151 _c
472 100 452 60 412 31 _c
372 1 316 -13 246 -13 _c
216 -13 186 -10 154 -5 _c
}_e{122 0 89 8 54 20 _c
54 113 _l
87 95 120 82 152 74 _c
184 65 216 61 248 61 _c
290 61 323 68 346 82 _c
368 96 380 117 380 144 _c
380 168 371 187 355 200 _c
339 213 303 226 247 238 _c
216 245 _l
160 257 119 275 95 299 _c
70 323 58 356 58 399 _c
58 450 76 490 112 518 _c
148 546 200 560 268 560 _c
301 560 332 557 362 552 _c
391 547 418 540 443 531 _c
}_e{_cl}_e}_d
/t{392 0 27 0 368 702 _sc
183 702 _m
183 547 _l
368 547 _l
368 477 _l
183 477 _l
183 180 _l
183 135 189 106 201 94 _c
213 81 238 75 276 75 _c
368 75 _l
368 0 _l
276 0 _l
206 0 158 13 132 39 _c
106 65 93 112 93 180 _c
93 477 _l
27 477 _l
27 547 _l
93 547 _l
93 702 _l
183 702 _l
_cl}_d
/u{634 0 85 -13 543 560 _sc
85 216 _m
85 547 _l
175 547 _l
175 219 _l
175 167 185 129 205 103 _c
225 77 255 64 296 64 _c
344 64 383 79 411 110 _c
439 141 453 183 453 237 _c
453 547 _l
543 547 _l
543 0 _l
453 0 _l
453 84 _l
431 50 405 26 377 10 _c
348 -5 315 -13 277 -13 _c
214 -13 166 6 134 45 _c
101 83 85 140 85 216 _c
311 560 _m
311 560 _l
_cl}_d
/w{818 0 42 0 776 547 _sc
42 547 _m
132 547 _l
244 120 _l
356 547 _l
462 547 _l
574 120 _l
686 547 _l
776 547 _l
633 0 _l
527 0 _l
409 448 _l
291 0 _l
185 0 _l
42 547 _l
_cl}_d
/x{592 0 29 0 559 547 _sc
549 547 _m
351 281 _l
559 0 _l
453 0 _l
294 215 _l
135 0 _l
29 0 _l
241 286 _l
47 547 _l
153 547 _l
298 352 _l
443 547 _l
549 547 _l
_cl}_d
/y{592 0 30 -207 562 547 _sc
322 -50 _m
296 -114 271 -157 247 -177 _c
223 -197 191 -207 151 -207 _c
79 -207 _l
79 -132 _l
132 -132 _l
156 -132 175 -126 189 -114 _c
203 -102 218 -75 235 -31 _c
251 9 _l
30 547 _l
125 547 _l
296 119 _l
467 547 _l
562 547 _l
322 -50 _l
_cl}_d
/z{525 0 43 0 482 547 _sc
55 547 _m
482 547 _l
482 465 _l
144 72 _l
482 72 _l
482 0 _l
43 0 _l
43 82 _l
381 475 _l
55 475 _l
55 547 _l
_cl}_d
/minus{838 0 106 272 732 355 _sc
106 355 _m
732 355 _l
732 272 _l
106 272 _l
106 355 _l
_cl}_d
end readonly def

/BuildGlyph
 {exch begin
 CharStrings exch
 2 copy known not{pop /.notdef}if
 true 3 1 roll get exec
 end}_d

/BuildChar {
 1 index /Encoding get exch get
 1 index /BuildGlyph get exec
}_d

FontName currentdict end definefont pop
end
%%EndProlog
mpldict begin
75.6 223.2 translate
460.8 345.6 0 0 clipbox
gsave
0 0 m
460.8 0 l
460.8 345.6 l
0 345.6 l
cl
1.000 setgray
fill
grestore
gsave
57.6 183.168 m
414.72 183.168 l
414.72 304.128 l
57.6 304.128 l
cl
1.000 setgray
fill
grestore
0.800 setlinewidth
1 setlinejoin
2 setlinecap
[] 0 setdash
0.690 setgray
gsave
357.1 121 57.6 183.2 clipbox
73.832727 183.168 m
73.832727 304.128 l
stroke
grestore
0 setlinecap
0.000 setgray
gsave
/o {
gsave
newpath
translate
0.8 setlinewidth
1 setlinejoin
0 setlinecap
0 0 m
0 -3.5 l

gsave
0.000 setgray
fill
grestore
stroke
grestore
} bind def
73.8327 183.168 o
grestore
/DejaVuSans findfont
10.000 scalefont
setfont
gsave
70.653040 168.574250 translate
0.000000 rotate
0.000000 0.000000 m /zero glyphshow
grestore
2 setlinecap
0.690 setgray
gsave
357.1 121 57.6 183.2 clipbox
138.893758 183.168 m
138.893758 304.128 l
stroke
grestore
0 setlinecap
0.000 setgray
gsave
/o {
gsave
newpath
translate
0.8 setlinewidth
1 setlinejoin
0 setlinecap
0 0 m
0 -3.5 l

gsave
0.000 setgray
fill
grestore
stroke
grestore
} bind def
138.894 183.168 o
grestore
gsave
129.354696 168.574250 translate
0.000000 rotate
0.000000 0.000000 m /one glyphshow
6.362305 0.000000 m /zero glyphshow
12.724609 0.000000 m /zero glyphshow
grestore
2 setlinecap
0.690 setgray
gsave
357.1 121 57.6 183.2 clipbox
203.95479 183.168 m
203.95479 304.128 l
stroke
grestore
0 setlinecap
0.000 setgray
gsave
/o {
gsave
newpath
translate
0.8 setlinewidth
1 setlinejoin
0 setlinecap
0 0 m
0 -3.5 l

gsave
0.000 setgray
fill
grestore
stroke
grestore
} bind def
203.955 183.168 o
grestore
gsave
194.415727 168.574250 translate
0.000000 rotate
0.000000 0.000000 m /two glyphshow
6.362305 0.000000 m /zero glyphshow
12.724609 0.000000 m /zero glyphshow
grestore
2 setlinecap
0.690 setgray
gsave
357.1 121 57.6 183.2 clipbox
269.015821 183.168 m
269.015821 304.128 l
stroke
grestore
0 setlinecap
0.000 setgray
gsave
/o {
gsave
newpath
translate
0.8 setlinewidth
1 setlinejoin
0 setlinecap
0 0 m
0 -3.5 l

gsave
0.000 setgray
fill
grestore
stroke
grestore
} bind def
269.016 183.168 o
grestore
gsave
259.476758 168.574250 translate
0.000000 rotate
0.000000 0.000000 m /three glyphshow
6.362305 0.000000 m /zero glyphshow
12.724609 0.000000 m /zero glyphshow
grestore
2 setlinecap
0.690 setgray
gsave
357.1 121 57.6 183.2 clipbox
334.076852 183.168 m
334.076852 304.128 l
stroke
grestore
0 setlinecap
0.000 setgray
gsave
/o {
gsave
newpath
translate
0.8 setlinewidth
1 setlinejoin
0 setlinecap
0 0 m
0 -3.5 l

gsave
0.000 setgray
fill
grestore
stroke
grestore
} bind def
334.077 183.168 o
grestore
gsave
324.537789 168.574250 translate
0.000000 rotate
0.000000 0.000000 m /four glyphshow
6.362305 0.000000 m /zero glyphshow
12.724609 0.000000 m /zero glyphshow
grestore
2 setlinecap
0.690 setgray
gsave
357.1 121 57.6 183.2 clipbox
399.137883 183.168 m
399.137883 304.128 l
stroke
grestore
0 setlinecap
0.000 setgray
gsave
/o {
gsave
newpath
translate
0.8 setlinewidth
1 setlinejoin
0 setlinecap
0 0 m
0 -3.5 l

gsave
0.000 setgray
fill
grestore
stroke
grestore
} bind def
399.138 183.168 o
grestore
gsave
389.598821 168.574250 translate
0.000000 rotate
0.000000 0.000000 m /five glyphshow
6.362305 0.000000 m /zero glyphshow
12.724609 0.000000 m /zero glyphshow
grestore
gsave
217.410000 154.902375 translate
0.000000 rotate
0.000000 0.000000 m /S glyphshow
6.347656 0.000000 m /a glyphshow
12.475586 0.000000 m /m glyphshow
22.216797 0.000000 m /p glyphshow
28.564453 0.000000 m /l glyphshow
31.342773 0.000000 m /e glyphshow
grestore
2 setlinecap
0.690 setgray
gsave
357.1 121 57.6 183.2 clipbox
57.6 183.2085 m
414.72 183.2085 l
stroke
grestore
0 setlinecap
0.000 setgray
gsave
/o {
gsave
newpath
translate
0.8 setlinewidth
1 setlinejoin
0 setlinecap
0 0 m
-3.5 0 l

gsave
0.000 setgray
fill
grestore
stroke
grestore
} bind def
57.6 183.208 o
grestore
gsave
26.318750 179.411625 translate
0.000000 rotate
0.000000 0.000000 m /minus glyphshow
8.378906 0.000000 m /zero glyphshow
14.741211 0.000000 m /period glyphshow
17.919922 0.000000 m /four glyphshow
grestore
2 setlinecap
0.690 setgray
gsave
357.1 121 57.6 183.2 clipbox
57.6 212.096061 m
414.72 212.096061 l
stroke
grestore
0 setlinecap
0.000 setgray
gsave
/o {
gsave
newpath
translate
0.8 setlinewidth
1 setlinejoin
0 setlinecap
0 0 m
-3.5 0 l

gsave
0.000 setgray
fill
grestore
stroke
grestore
} bind def
57.6 212.096 o
grestore
gsave
26.318750 208.299186 translate
0.000000 rotate
0.000000 0.000000 m /minus glyphshow
8.378906 0.000000 m /zero glyphshow
14.741211 0.000000 m /period glyphshow
17.919922 0.000000 m /two glyphshow
grestore
2 setlinecap
0.690 setgray
gsave
357.1 121 57.6 183.2 clipbox
57.6 240.983622 m
414.72 240.983622 l
stroke
grestore
0 setlinecap
0.000 setgray
gsave
/o {
gsave
newpath
translate
0.8 setlinewidth
1 setlinejoin
0 setlinecap
0 0 m
-3.5 0 l

gsave
0.000 setgray
fill
grestore
stroke
grestore
} bind def
57.6 240.984 o
grestore
gsave
34.693750 237.186747 translate
0.000000 rotate
0.000000 0.000000 m /zero glyphshow
6.362305 0.000000 m /period glyphshow
9.541016 0.000000 m /zero glyphshow
grestore
2 setlinecap
0.690 setgray
gsave
357.1 121 57.6 183.2 clipbox
57.6 269.871184 m
414.72 269.871184 l
stroke
grestore
0 setlinecap
0.000 setgray
gsave
/o {
gsave
newpath
translate
0.8 setlinewidth
1 setlinejoin
0 setlinecap
0 0 m
-3.5 0 l

gsave
0.000 setgray
fill
grestore
stroke
grestore
} bind def
57.6 269.871 o
grestore
gsave
34.693750 266.074309 translate
0.000000 rotate
0.000000 0.000000 m /zero glyphshow
6.362305 0.000000 m /period glyphshow
9.541016 0.000000 m /two glyphshow
grestore
2 setlinecap
0.690 setgray
gsave
357.1 121 57.6 183.2 clipbox
57.6 298.758745 m
414.72 298.758745 l
stroke
grestore
0 setlinecap
0.000 setgray
gsave
/o {
gsave
newpath
translate
0.8 setlinewidth
1 setlinejoin
0 setlinecap
0 0 m
-3.5 0 l

gsave
0.000 setgray
fill
grestore
stroke
grestore
} bind def
57.6 298.759 o
grestore
gsave
34.693750 294.961870 translate
0.000000 rotate
0.000000 0.000000 m /zero glyphshow
6.362305 0.000000 m /period glyphshow
9.541016 0.000000 m /four glyphshow
grestore
gsave
20.240625 199.632375 translate
90.000000 rotate
0.000000 0.000000 m /P glyphshow
6.030273 0.000000 m /o glyphshow
12.148438 0.000000 m /s glyphshow
17.358398 0.000000 m /i glyphshow
20.136719 0.000000 m /t glyphshow
24.057617 0.000000 m /i glyphshow
26.835938 0.000000 m /o glyphshow
32.954102 0.000000 m /n glyphshow
39.291992 0.000000 m /space glyphshow
42.470703 0.000000 m /E glyphshow
48.789062 0.000000 m /r glyphshow
52.900391 0.000000 m /r glyphshow
57.011719 0.000000 m /o glyphshow
63.129883 0.000000 m /r glyphshow
67.241211 0.000000 m /space glyphshow
70.419922 0.000000 m /bracketleft glyphshow
74.321289 0.000000 m /m glyphshow
84.062500 0.000000 m /bracketright glyphshow
grestore
1.000 setlinewidth
0.122 0.467 0.706 setrgbcolor
gsave
357.1 121 57.6 183.2 clipbox
/o {
gsave
newpath
translate
1.0 setlinewidth
1 setlinejoin
0 setlinecap
0 -1.5 m
0.397805 -1.5 0.77937 -1.341951 1.06066 -1.06066 c
1.341951 -0.77937 1.5 -0.397805 1.5 0 c
1.5 0.397805 1.341951 0.77937 1.06066 1.06066 c
0.77937 1.341951 0.397805 1.5 0 1.5 c
-0.397805 1.5 -0.77937 1.341951 -1.06066 1.06066 c
-1.341951 0.77937 -1.5 0.397805 -1.5 0 c
-1.5 -0.397805 -1.341951 -0.77937 -1.06066 -1.06066 c
-0.77937 -1.341951 -0.397805 -1.5 0 -1.5 c
cl

gsave
0.122 0.467 0.706 setrgbcolor
fill
grestore
stroke
grestore
} bind def
73.8327 238.161 o
74.4833 237.664 o
75.1339 241.199 o
75.7846 241.737 o
76.4352 238.83 o
77.0858 239.414 o
77.7364 240.245 o
78.387 243.727 o
79.0376 239.869 o
79.6882 240.411 o
80.3388 239.72 o
80.9894 243.732 o
81.6401 237.088 o
82.2907 242.221 o
82.9413 239.392 o
83.5919 242.745 o
84.2425 240.731 o
84.8931 242.593 o
85.5437 241.86 o
86.1943 241.342 o
86.8449 240.116 o
87.4955 243.669 o
88.1462 239.799 o
88.7968 240.037 o
89.4474 241.033 o
90.098 240.615 o
90.7486 240.461 o
91.3992 237.736 o
92.0498 242.524 o
92.7004 240.587 o
93.351 241.062 o
94.0016 241.259 o
94.6523 240.978 o
95.3029 242.97 o
95.9535 239.219 o
96.6041 239.101 o
97.2547 241.824 o
97.9053 239.491 o
98.5559 242.653 o
99.2065 242.865 o
99.8571 243.007 o
100.508 240.237 o
101.158 242.521 o
101.809 243.084 o
102.46 243.354 o
103.11 241.805 o
103.761 238.614 o
104.411 240.112 o
105.062 242.221 o
105.713 243.11 o
106.363 242.137 o
107.014 241.553 o
107.664 235.511 o
108.315 238.792 o
108.966 244.226 o
109.616 235.718 o
110.267 241.021 o
110.918 242.768 o
111.568 240.136 o
112.219 235.368 o
112.869 243.166 o
113.52 242.142 o
114.171 235.9 o
114.821 240.577 o
115.472 239.442 o
116.122 246.026 o
116.773 240.187 o
117.424 243.396 o
118.074 237.221 o
118.725 234.91 o
119.375 249.203 o
120.026 245.74 o
120.677 238.056 o
121.327 244.834 o
121.978 236.003 o
122.629 236.113 o
123.279 238.347 o
123.93 236.793 o
124.58 237.269 o
125.231 244.786 o
125.882 240.351 o
126.532 244.005 o
127.183 245.756 o
127.833 237.267 o
128.484 242.3 o
129.135 242.529 o
129.785 233.378 o
130.436 238.422 o
131.086 238.798 o
131.737 242.762 o
132.388 245.648 o
133.038 241.234 o
133.689 236.278 o
134.339 239.567 o
134.99 247.271 o
135.641 240.646 o
136.291 247.392 o
136.942 243.102 o
137.593 238.06 o
138.243 241.663 o
138.894 238.783 o
139.544 246.45 o
140.195 236.466 o
140.846 242.237 o
141.496 244.866 o
142.147 242.56 o
142.797 240.772 o
143.448 243.09 o
144.099 240.23 o
144.749 243.117 o
145.4 239.391 o
146.05 247.088 o
146.701 243.749 o
147.352 242.734 o
148.002 235.037 o
148.653 241.705 o
149.304 244.102 o
149.954 245.546 o
150.605 237.745 o
151.255 232.844 o
151.906 243.37 o
152.557 248.008 o
153.207 221.792 o
153.858 237.251 o
154.508 244.33 o
155.159 235.676 o
155.81 250.111 o
156.46 246.558 o
157.111 237.018 o
157.761 241.618 o
158.412 253.186 o
159.063 240.125 o
159.713 250.821 o
160.364 240.268 o
161.015 237.318 o
161.665 242.924 o
162.316 226.649 o
162.966 253.783 o
163.617 246.607 o
164.268 241.167 o
164.918 244.977 o
165.569 243.761 o
166.219 246.482 o
166.87 236.868 o
167.521 247.33 o
168.171 237.811 o
168.822 243.856 o
169.472 240.355 o
170.123 231.859 o
170.774 241.266 o
171.424 244.667 o
172.075 235.393 o
172.725 238.307 o
173.376 250.189 o
174.027 249.598 o
174.677 250.313 o
175.328 243.919 o
175.979 241.427 o
176.629 237.156 o
177.28 245.533 o
177.93 241.62 o
178.581 233.753 o
179.232 231.113 o
179.882 227.396 o
180.533 237.379 o
181.183 235.637 o
181.834 235.291 o
182.485 264.18 o
183.135 234.528 o
183.786 247.471 o
184.436 231.053 o
185.087 248.239 o
185.738 246.237 o
186.388 246.817 o
187.039 233.087 o
187.69 243.753 o
188.34 242.88 o
188.991 237.509 o
189.641 234.383 o
190.292 233.225 o
190.943 239.807 o
191.593 229.911 o
192.244 218.838 o
192.894 244.057 o
193.545 244.937 o
194.196 239.438 o
194.846 244.247 o
195.497 238.547 o
196.147 240.092 o
196.798 232.02 o
197.449 225.791 o
198.099 240.983 o
198.75 240.241 o
199.401 233.966 o
200.051 248.341 o
200.702 255.652 o
201.352 249.735 o
202.003 237.647 o
202.654 245.855 o
203.304 238.994 o
203.955 241.779 o
204.605 241.821 o
205.256 224.522 o
205.907 251.209 o
206.557 242.947 o
207.208 233.471 o
207.858 243.603 o
208.509 244.809 o
209.16 240.639 o
209.81 230.994 o
210.461 242.108 o
211.112 237.196 o
211.762 236.359 o
212.413 248.484 o
213.063 240.823 o
213.714 235.971 o
214.365 239.094 o
215.015 241.33 o
215.666 252.301 o
216.316 252.642 o
216.967 233.556 o
217.618 235.212 o
218.268 246.751 o
218.919 240.818 o
219.569 225.212 o
220.22 233.125 o
220.871 246.705 o
221.521 244.231 o
222.172 232.295 o
222.822 237.497 o
223.473 260.777 o
224.124 278.473 o
224.774 251.611 o
225.425 237.135 o
226.076 249.974 o
226.726 257.907 o
227.377 222.271 o
228.027 237.848 o
228.678 223.393 o
229.329 240.33 o
229.979 233.421 o
230.63 231.161 o
231.28 261.33 o
231.931 229.271 o
232.582 240.279 o
233.232 239.865 o
233.883 236.046 o
234.533 247.191 o
235.184 230.651 o
235.835 242.292 o
236.485 233.114 o
237.136 235.776 o
237.787 249.924 o
238.437 249.596 o
239.088 229.27 o
239.738 245.534 o
240.389 243.048 o
241.04 239.427 o
241.69 237.505 o
242.341 236.191 o
242.991 255.204 o
243.642 249.921 o
244.293 261.527 o
244.943 242.656 o
245.594 259.496 o
246.244 231.661 o
246.895 248.104 o
247.546 228.246 o
248.196 220.334 o
248.847 234.264 o
249.498 248.391 o
250.148 241.463 o
250.799 228.385 o
251.449 250.237 o
252.1 243.721 o
252.751 225.902 o
253.401 243.81 o
254.052 231.199 o
254.702 242.22 o
255.353 240.593 o
256.004 258.378 o
256.654 233.98 o
257.305 246.213 o
257.955 248.745 o
258.606 204.61 o
259.257 227.42 o
259.907 255.802 o
260.558 289.362 o
261.208 253.301 o
261.859 245.151 o
262.51 246.543 o
263.16 262.344 o
263.811 250.182 o
264.462 256.81 o
265.112 241.672 o
265.763 228.285 o
266.413 241.35 o
267.064 242.778 o
267.715 230.345 o
268.365 254.722 o
269.016 230.713 o
269.666 216.385 o
270.317 227.357 o
270.968 252.191 o
271.618 234.816 o
272.269 257.264 o
272.919 246.121 o
273.57 228.581 o
274.221 220.091 o
274.871 232.158 o
275.522 239.257 o
276.173 266.898 o
276.823 201.76 o
277.474 261.71 o
278.124 249.867 o
278.775 253.79 o
279.426 240.727 o
280.076 246.815 o
280.727 241.426 o
281.377 222.429 o
282.028 258.17 o
282.679 236.859 o
283.329 198.821 o
283.98 242.478 o
284.63 211.057 o
285.281 204.168 o
285.932 232.038 o
286.582 250.276 o
287.233 239.106 o
287.884 235.775 o
288.534 246.97 o
289.185 254.498 o
289.835 216.09 o
290.486 271.112 o
291.137 237.643 o
291.787 236.963 o
292.438 266.358 o
293.088 250.29 o
293.739 297.246 o
294.39 265.496 o
295.04 257.539 o
295.691 219.966 o
296.341 223.051 o
296.992 238.451 o
297.643 217.886 o
298.293 266.479 o
298.944 234.368 o
299.595 224.635 o
300.245 245.459 o
300.896 228.993 o
301.546 251.561 o
302.197 232.477 o
302.848 255.794 o
303.498 271.674 o
304.149 232.647 o
304.799 254.09 o
305.45 251.221 o
306.101 260.057 o
306.751 254.467 o
307.402 234.168 o
308.052 233.078 o
308.703 248.642 o
309.354 248.291 o
310.004 240.474 o
310.655 244.181 o
311.305 249.601 o
311.956 258.883 o
312.607 232.834 o
313.257 245.366 o
313.908 242.591 o
314.559 240.267 o
315.209 214.232 o
315.86 235.825 o
316.51 249.254 o
317.161 243.809 o
317.812 260.233 o
318.462 209.351 o
319.113 241.635 o
319.763 233.615 o
320.414 220.606 o
321.065 249.005 o
321.715 249.372 o
322.366 240.498 o
323.016 244.046 o
323.667 256.152 o
324.318 225.295 o
324.968 223.015 o
325.619 269.535 o
326.27 239.866 o
326.92 234.158 o
327.571 270.615 o
328.221 249.352 o
328.872 250.355 o
329.523 216.741 o
330.173 277.489 o
330.824 249.438 o
331.474 243.706 o
332.125 239.125 o
332.776 226.615 o
333.426 252.416 o
334.077 263.196 o
334.727 241.709 o
335.378 236.71 o
336.029 262.919 o
336.679 233.368 o
337.33 257.427 o
337.981 234.523 o
338.631 226.805 o
339.282 257.879 o
339.932 235.745 o
340.583 227.29 o
341.234 261.785 o
341.884 260.091 o
342.535 247.492 o
343.185 261.322 o
343.836 254.618 o
344.487 243.909 o
345.137 257.303 o
345.788 251.663 o
346.438 228.879 o
347.089 229.827 o
347.74 250.355 o
348.39 253.856 o
349.041 243.845 o
349.691 234.81 o
350.342 253.417 o
350.993 251.482 o
351.643 243.879 o
352.294 225.794 o
352.945 245.741 o
353.595 230.353 o
354.246 236.79 o
354.896 267.417 o
355.547 218.829 o
356.198 216.158 o
356.848 227.841 o
357.499 237.384 o
358.149 281.635 o
358.8 253.252 o
359.451 264.569 o
360.101 232.587 o
360.752 243.605 o
361.402 240.077 o
362.053 222.271 o
362.704 233.165 o
363.354 254.318 o
364.005 225.621 o
364.656 232.576 o
365.306 240.014 o
365.957 257.888 o
366.607 226.549 o
367.258 252.992 o
367.909 255.102 o
368.559 243.535 o
369.21 240.824 o
369.86 247.263 o
370.511 239.127 o
371.162 272.173 o
371.812 248.849 o
372.463 229.043 o
373.113 248.05 o
373.764 245.458 o
374.415 260.362 o
375.065 256.658 o
375.716 252.461 o
376.367 244.322 o
377.017 242.272 o
377.668 244.414 o
378.318 234.645 o
378.969 223.141 o
379.62 251.619 o
380.27 244.924 o
380.921 252.453 o
381.571 245.084 o
382.222 261.623 o
382.873 220.777 o
383.523 244.73 o
384.174 250.858 o
384.824 247.242 o
385.475 247.5 o
386.126 250.856 o
386.776 242.121 o
387.427 246.356 o
388.078 241.261 o
388.728 248.672 o
389.379 243.201 o
390.029 238.085 o
390.68 235.935 o
391.331 244.862 o
391.981 252.763 o
392.632 242.64 o
393.282 252.195 o
393.933 241.724 o
394.584 248.715 o
395.234 232.55 o
395.885 226.752 o
396.535 237.542 o
397.186 233.05 o
397.837 242.396 o
398.487 230.942 o
grestore
1.000 0.498 0.055 setrgbcolor
gsave
357.1 121 57.6 183.2 clipbox
/o {
gsave
newpath
translate
1.0 setlinewidth
1 setlinejoin
0 setlinecap
0 -1.5 m
0.397805 -1.5 0.77937 -1.341951 1.06066 -1.06066 c
1.341951 -0.77937 1.5 -0.397805 1.5 0 c
1.5 0.397805 1.341951 0.77937 1.06066 1.06066 c
0.77937 1.341951 0.397805 1.5 0 1.5 c
-0.397805 1.5 -0.77937 1.341951 -1.06066 1.06066 c
-1.341951 0.77937 -1.5 0.397805 -1.5 0 c
-1.5 -0.397805 -1.341951 -0.77937 -1.06066 -1.06066 c
-0.77937 -1.341951 -0.397805 -1.5 0 -1.5 c
cl

gsave
1.000 0.498 0.055 setrgbcolor
fill
grestore
stroke
grestore
} bind def
73.8327 247.485 o
74.4833 236.297 o
75.1339 243.378 o
75.7846 238.814 o
76.4352 245.234 o
77.0858 239.425 o
77.7364 238.443 o
78.387 238.52 o
79.0376 239.854 o
79.6882 239.615 o
80.3388 242.735 o
80.9894 238.571 o
81.6401 242.751 o
82.2907 242.852 o
82.9413 241.601 o
83.5919 235.911 o
84.2425 240.983 o
84.8931 243.253 o
85.5437 241.775 o
86.1943 240.053 o
86.8449 244.75 o
87.4955 241.262 o
88.1462 240.529 o
88.7968 243.215 o
89.4474 237.701 o
90.098 240.477 o
90.7486 242.381 o
91.3992 241.029 o
92.0498 241.055 o
92.7004 238.77 o
93.351 241.101 o
94.0016 241.511 o
94.6523 245.401 o
95.3029 239.854 o
95.9535 241.034 o
96.6041 241.521 o
97.2547 240.883 o
97.9053 245.458 o
98.5559 240.202 o
99.2065 240.708 o
99.8571 236.039 o
100.508 242.36 o
101.158 239.595 o
101.809 241.046 o
102.46 238.66 o
103.11 240.372 o
103.761 240.38 o
104.411 241.888 o
105.062 243.071 o
105.713 237.622 o
106.363 240.704 o
107.014 242.733 o
107.664 243.122 o
108.315 241.994 o
108.966 242.54 o
109.616 243.061 o
110.267 240.038 o
110.918 243.779 o
111.568 239.574 o
112.219 238.986 o
112.869 240.775 o
113.52 239.783 o
114.171 243.616 o
114.821 236.668 o
115.472 240.495 o
116.122 243.662 o
116.773 238.93 o
117.424 238.525 o
118.074 244.13 o
118.725 243.503 o
119.375 235.325 o
120.026 239.496 o
120.677 239.594 o
121.327 239.702 o
121.978 241.111 o
122.629 241.967 o
123.279 244.467 o
123.93 241.91 o
124.58 243.244 o
125.231 237.421 o
125.882 239.217 o
126.532 240.441 o
127.183 238.298 o
127.833 245.057 o
128.484 241.055 o
129.135 239.116 o
129.785 243.422 o
130.436 239.736 o
131.086 245.036 o
131.737 240.709 o
132.388 242.954 o
133.038 240.151 o
133.689 241.978 o
134.339 235.691 o
134.99 241.327 o
135.641 240.516 o
136.291 242.692 o
136.942 236.101 o
137.593 241.992 o
138.243 238.054 o
138.894 242.021 o
139.544 239.542 o
140.195 242.885 o
140.846 242.836 o
141.496 237.524 o
142.147 240.808 o
142.797 239.762 o
143.448 245.862 o
144.099 241.712 o
144.749 242.328 o
145.4 240.556 o
146.05 240.754 o
146.701 244.073 o
147.352 238.384 o
148.002 243.645 o
148.653 248.066 o
149.304 242.021 o
149.954 245.163 o
150.605 238.754 o
151.255 238.875 o
151.906 236.23 o
152.557 237.332 o
153.207 243.499 o
153.858 237.581 o
154.508 241.164 o
155.159 241.263 o
155.81 235.013 o
156.46 243.85 o
157.111 244.13 o
157.761 235.08 o
158.412 236.772 o
159.063 242.74 o
159.713 237.932 o
160.364 235.216 o
161.015 244.784 o
161.665 238.064 o
162.316 239.911 o
162.966 237.897 o
163.617 241.115 o
164.268 244.972 o
164.918 243.404 o
165.569 239.527 o
166.219 240.933 o
166.87 241.603 o
167.521 241.767 o
168.171 233.545 o
168.822 238.621 o
169.472 234.88 o
170.123 244.358 o
170.774 245.766 o
171.424 235.758 o
172.075 242.87 o
172.725 246.69 o
173.376 244.363 o
174.027 236.502 o
174.677 232.455 o
175.328 244.466 o
175.979 237.49 o
176.629 242.176 o
177.28 239.244 o
177.93 245.584 o
178.581 245.868 o
179.232 240.775 o
179.882 233.649 o
180.533 240.506 o
181.183 234.066 o
181.834 239.834 o
182.485 239.424 o
183.135 244.663 o
183.786 233.975 o
184.436 230.413 o
185.087 240.509 o
185.738 242.591 o
186.388 243.026 o
187.039 247.827 o
187.69 243.779 o
188.34 239.107 o
188.991 246.512 o
189.641 242.394 o
190.292 232.435 o
190.943 248.681 o
191.593 241.972 o
192.244 238.64 o
192.894 244.541 o
193.545 236.658 o
194.196 239.433 o
194.846 234.372 o
195.497 240.939 o
196.147 241.816 o
196.798 235.401 o
197.449 247.673 o
198.099 246.076 o
198.75 242.241 o
199.401 227.053 o
200.051 243.849 o
200.702 255.245 o
201.352 250.215 o
202.003 236.727 o
202.654 229.566 o
203.304 238.451 o
203.955 247.979 o
204.605 247.708 o
205.256 242.279 o
205.907 236.619 o
206.557 235.47 o
207.208 226.05 o
207.858 241.208 o
208.509 239.817 o
209.16 245.212 o
209.81 250.101 o
210.461 231.178 o
211.112 241.137 o
211.762 230.624 o
212.413 236.685 o
213.063 217.984 o
213.714 233.295 o
214.365 248.179 o
215.015 235.298 o
215.666 240.389 o
216.316 239.352 o
216.967 237.937 o
217.618 232.777 o
218.268 246.032 o
218.919 250.272 o
219.569 225.786 o
220.22 241.095 o
220.871 231.446 o
221.521 241.849 o
222.172 243.473 o
222.822 248.537 o
223.473 256.472 o
224.124 252.328 o
224.774 251.17 o
225.425 251.311 o
226.076 241.934 o
226.726 245.794 o
227.377 232.626 o
228.027 237.784 o
228.678 229.867 o
229.329 242.735 o
229.979 236.096 o
230.63 241.181 o
231.28 232.391 o
231.931 222.933 o
232.582 218.299 o
233.232 239.751 o
233.883 253.266 o
234.533 262.755 o
235.184 228.508 o
235.835 233.124 o
236.485 264.798 o
237.136 240.921 o
237.787 244.675 o
238.437 238.44 o
239.088 260.948 o
239.738 226.075 o
240.389 237.597 o
241.04 250.247 o
241.69 218.645 o
242.341 228.788 o
242.991 235.54 o
243.642 254.559 o
244.293 234.134 o
244.943 225.384 o
245.594 229.901 o
246.244 253.503 o
246.895 262.932 o
247.546 249.319 o
248.196 212.645 o
248.847 248.951 o
249.498 239.889 o
250.148 222.206 o
250.799 229.705 o
251.449 265.279 o
252.1 236.564 o
252.751 216.385 o
253.401 213.394 o
254.052 240.862 o
254.702 230.288 o
255.353 223.789 o
256.004 235.894 o
256.654 227.468 o
257.305 211.37 o
257.955 229.447 o
258.606 254.118 o
259.257 235.152 o
259.907 229.821 o
260.558 198.55 o
261.208 222.253 o
261.859 251.59 o
262.51 235.082 o
263.16 253.606 o
263.811 274.087 o
264.462 244.436 o
265.112 255.048 o
265.763 238.325 o
266.413 239 o
267.064 223.332 o
267.715 235.451 o
268.365 248.894 o
269.016 229.458 o
269.666 262.889 o
270.317 259.589 o
270.968 271.605 o
271.618 230.282 o
272.269 271.299 o
272.919 232.851 o
273.57 248.684 o
274.221 243.289 o
274.871 276.927 o
275.522 259.034 o
276.173 235.066 o
276.823 264.145 o
277.474 223.532 o
278.124 229.146 o
278.775 241.22 o
279.426 232.157 o
280.076 254.382 o
280.727 260.215 o
281.377 222.036 o
282.028 226.245 o
282.679 255.946 o
283.329 228.951 o
283.98 212.285 o
284.63 268.749 o
285.281 235.476 o
285.932 235.33 o
286.582 229.804 o
287.233 240.819 o
287.884 259.111 o
288.534 232.112 o
289.185 230.417 o
289.835 245.046 o
290.486 244.23 o
291.137 239.805 o
291.787 254.84 o
292.438 233.396 o
293.088 228.683 o
293.739 236.229 o
294.39 251.718 o
295.04 246.648 o
295.691 234.493 o
296.341 246.878 o
296.992 254.379 o
297.643 218.956 o
298.293 245.25 o
298.944 217.211 o
299.595 260.998 o
300.245 243.849 o
300.896 245.769 o
301.546 258.424 o
302.197 260.126 o
302.848 239.691 o
303.498 261.761 o
304.149 251.267 o
304.799 234.036 o
305.45 262.872 o
306.101 255.464 o
306.751 208.269 o
307.402 252.691 o
308.052 238.929 o
308.703 224.487 o
309.354 252.695 o
310.004 263.914 o
310.655 210.295 o
311.305 247.057 o
311.956 230.687 o
312.607 209.973 o
313.257 240.541 o
313.908 255.494 o
314.559 240.821 o
315.209 245.565 o
315.86 244.936 o
316.51 245.171 o
317.161 277.786 o
317.812 264.877 o
318.462 234.166 o
319.113 243.944 o
319.763 246.186 o
320.414 235.347 o
321.065 201.519 o
321.715 229.811 o
322.366 228.393 o
323.016 254.705 o
323.667 278.403 o
324.318 238.552 o
324.968 210.756 o
325.619 273.096 o
326.27 242.425 o
326.92 217.92 o
327.571 225.029 o
328.221 253.123 o
328.872 263.082 o
329.523 219.898 o
330.173 270.505 o
330.824 233.935 o
331.474 241.982 o
332.125 233.5 o
332.776 217.678 o
333.426 249.319 o
334.077 254.267 o
334.727 232.916 o
335.378 249.48 o
336.029 226.736 o
336.679 226.344 o
337.33 245.158 o
337.981 247.525 o
338.631 222.144 o
339.282 244.998 o
339.932 249.38 o
340.583 238.042 o
341.234 274.392 o
341.884 279.718 o
342.535 238.023 o
343.185 246.858 o
343.836 277.601 o
344.487 248.726 o
345.137 239.026 o
345.788 214.821 o
346.438 259.756 o
347.089 199.906 o
347.74 233.316 o
348.39 203.868 o
349.041 251.604 o
349.691 231.164 o
350.342 251.272 o
350.993 258.56 o
351.643 253.665 o
352.294 221.644 o
352.945 250.801 o
353.595 198.812 o
354.246 236.105 o
354.896 222.68 o
355.547 264.653 o
356.198 250.068 o
356.848 216.165 o
357.499 272.465 o
358.149 226.962 o
358.8 236.196 o
359.451 244.184 o
360.101 270.867 o
360.752 280.525 o
361.402 269.888 o
362.053 205.932 o
362.704 256.329 o
363.354 223.35 o
364.005 213.602 o
364.656 233.957 o
365.306 248.201 o
365.957 242.347 o
366.607 224.607 o
367.258 215.389 o
367.909 247.667 o
368.559 252.686 o
369.21 277.297 o
369.86 188.666 o
370.511 242.392 o
371.162 262.552 o
371.812 254.341 o
372.463 262.123 o
373.113 227.53 o
373.764 205.742 o
374.415 215.246 o
375.065 238.076 o
375.716 220.71 o
376.367 241.982 o
377.017 233.024 o
377.668 231.666 o
378.318 212.642 o
378.969 261.645 o
379.62 257.363 o
380.27 230.003 o
380.921 213.247 o
381.571 250.282 o
382.222 248.428 o
382.873 270.153 o
383.523 234.812 o
384.174 249.249 o
384.824 247.481 o
385.475 228.17 o
386.126 228.229 o
386.776 266.205 o
387.427 230.054 o
388.078 237.938 o
388.728 238.448 o
389.379 258.167 o
390.029 190.051 o
390.68 255.016 o
391.331 221.831 o
391.981 232.685 o
392.632 239.262 o
393.282 231.837 o
393.933 219.562 o
394.584 242.908 o
395.234 276.822 o
395.885 258.919 o
396.535 274.744 o
397.186 275.636 o
397.837 230.527 o
398.487 252.624 o
grestore
0.173 0.627 0.173 setrgbcolor
gsave
357.1 121 57.6 183.2 clipbox
/o {
gsave
newpath
translate
1.0 setlinewidth
1 setlinejoin
0 setlinecap
0 -1.5 m
0.397805 -1.5 0.77937 -1.341951 1.06066 -1.06066 c
1.341951 -0.77937 1.5 -0.397805 1.5 0 c
1.5 0.397805 1.341951 0.77937 1.06066 1.06066 c
0.77937 1.341951 0.397805 1.5 0 1.5 c
-0.397805 1.5 -0.77937 1.341951 -1.06066 1.06066 c
-1.341951 0.77937 -1.5 0.397805 -1.5 0 c
-1.5 -0.397805 -1.341951 -0.77937 -1.06066 -1.06066 c
-0.77937 -1.341951 -0.397805 -1.5 0 -1.5 c
cl

gsave
0.173 0.627 0.173 setrgbcolor
fill
grestore
stroke
grestore
} bind def
73.8327 239.314 o
74.4833 240.767 o
75.1339 239.471 o
75.7846 242.978 o
76.4352 242.015 o
77.0858 239.512 o
77.7364 236.313 o
78.387 241.93 o
79.0376 237.141 o
79.6882 236.877 o
80.3388 242.233 o
80.9894 239.812 o
81.6401 244.063 o
82.2907 239.278 o
82.9413 242.478 o
83.5919 241.123 o
84.2425 241.621 o
84.8931 239.916 o
85.5437 242.841 o
86.1943 241.869 o
86.8449 240.164 o
87.4955 243.004 o
88.1462 241.93 o
88.7968 242.183 o
89.4474 241.624 o
90.098 236.763 o
90.7486 243.342 o
91.3992 239.644 o
92.0498 242.312 o
92.7004 239.362 o
93.351 239.147 o
94.0016 241.524 o
94.6523 241.422 o
95.3029 236.772 o
95.9535 243.209 o
96.6041 239.85 o
97.2547 239.787 o
97.9053 238.749 o
98.5559 239.238 o
99.2065 242.581 o
99.8571 240.195 o
100.508 241.905 o
101.158 243.666 o
101.809 242.249 o
102.46 241.339 o
103.11 243.424 o
103.761 241.38 o
104.411 240.214 o
105.062 239.993 o
105.713 240.663 o
106.363 239.122 o
107.014 239.654 o
107.664 242.147 o
108.315 239.943 o
108.966 241.314 o
109.616 238.486 o
110.267 239.856 o
110.918 238.26 o
111.568 238.443 o
112.219 244.397 o
112.869 241.15 o
113.52 242.785 o
114.171 238.9 o
114.821 242.145 o
115.472 242.068 o
116.122 239.967 o
116.773 241.772 o
117.424 239.476 o
118.074 236.676 o
118.725 243.373 o
119.375 240.979 o
120.026 241.544 o
120.677 243.67 o
121.327 240.97 o
121.978 242.812 o
122.629 245.161 o
123.279 240.892 o
123.93 242.856 o
124.58 238.063 o
125.231 243.859 o
125.882 239.981 o
126.532 241.211 o
127.183 243.877 o
127.833 240.202 o
128.484 240.451 o
129.135 239.469 o
129.785 241.219 o
130.436 239.39 o
131.086 232.623 o
131.737 242.523 o
132.388 236.005 o
133.038 240.987 o
133.689 243.157 o
134.339 246.19 o
134.99 240.947 o
135.641 239.042 o
136.291 238.75 o
136.942 242.416 o
137.593 244.377 o
138.243 243.076 o
138.894 240.186 o
139.544 243.504 o
140.195 237.351 o
140.846 240.582 o
141.496 240.993 o
142.147 243.369 o
142.797 241.383 o
143.448 239.476 o
144.099 237.892 o
144.749 238.307 o
145.4 242.27 o
146.05 240.956 o
146.701 241.347 o
147.352 244.964 o
148.002 239 o
148.653 238.919 o
149.304 241.192 o
149.954 243.573 o
150.605 245.676 o
151.255 241.432 o
151.906 244.637 o
152.557 242.971 o
153.207 237.059 o
153.858 240.122 o
154.508 237.438 o
155.159 240.119 o
155.81 245.157 o
156.46 240.977 o
157.111 238.118 o
157.761 236.472 o
158.412 251.288 o
159.063 242.517 o
159.713 249.052 o
160.364 238.15 o
161.015 234.372 o
161.665 242.593 o
162.316 235.015 o
162.966 251.768 o
163.617 243.846 o
164.268 240.384 o
164.918 240.696 o
165.569 244.81 o
166.219 243.476 o
166.87 241.188 o
167.521 249.515 o
168.171 245.171 o
168.822 245.333 o
169.472 244.155 o
170.123 236.565 o
170.774 244.948 o
171.424 236.423 o
172.075 237.398 o
172.725 233.899 o
173.376 243.51 o
174.027 250.133 o
174.677 249.674 o
175.328 236.552 o
175.979 247.837 o
176.629 235.642 o
177.28 243.235 o
177.93 236.379 o
178.581 238.99 o
179.232 240.033 o
179.882 235.518 o
180.533 237.423 o
181.183 239.357 o
181.834 237.521 o
182.485 248.284 o
183.135 240.039 o
183.786 247.188 o
184.436 229.619 o
185.087 236.664 o
185.738 241.806 o
186.388 247.256 o
187.039 231.025 o
187.69 241.465 o
188.34 239.382 o
188.991 236.795 o
189.641 234.763 o
190.292 233.816 o
190.943 233.885 o
191.593 233.393 o
192.244 228.194 o
192.894 246.096 o
193.545 249.802 o
194.196 239.317 o
194.846 241.638 o
195.497 237.93 o
196.147 246.467 o
196.798 236.272 o
197.449 231.154 o
198.099 234.876 o
198.75 236.88 o
199.401 234.554 o
200.051 235.342 o
200.702 247.445 o
201.352 244.646 o
202.003 246.248 o
202.654 249.437 o
203.304 237.309 o
203.955 244.864 o
204.605 227.295 o
205.256 224.723 o
205.907 251.111 o
206.557 236.365 o
207.208 230.966 o
207.858 249.969 o
208.509 249.91 o
209.16 247.371 o
209.81 236.88 o
210.461 250.726 o
211.112 236.771 o
211.762 230.342 o
212.413 247.353 o
213.063 236.588 o
213.714 242.266 o
214.365 237.52 o
215.015 238.311 o
215.666 250.5 o
216.316 247.451 o
216.967 242.956 o
217.618 248.564 o
218.268 248.128 o
218.919 247.556 o
219.569 220.564 o
220.22 231.044 o
220.871 254.433 o
221.521 246.491 o
222.172 228.419 o
222.822 232.676 o
223.473 255.329 o
224.124 255.711 o
224.774 254.532 o
225.425 217.664 o
226.076 256.991 o
226.726 238.234 o
227.377 231.095 o
228.027 234.746 o
228.678 232.423 o
229.329 257.423 o
229.979 235.975 o
230.63 232.839 o
231.28 242.419 o
231.931 227.577 o
232.582 230.862 o
233.232 247.445 o
233.883 243.404 o
234.533 239.047 o
235.184 233.709 o
235.835 253.862 o
236.485 242.981 o
237.136 251.171 o
237.787 247.005 o
238.437 246.582 o
239.088 239.711 o
239.738 238.579 o
240.389 251.374 o
241.04 258.497 o
241.69 244.109 o
242.341 241.858 o
242.991 243.493 o
243.642 273.318 o
244.293 237.02 o
244.943 204.62 o
245.594 243.916 o
246.244 240.325 o
246.895 240.553 o
247.546 238.732 o
248.196 231.998 o
248.847 236.561 o
249.498 253.849 o
250.148 223.657 o
250.799 230.392 o
251.449 244.527 o
252.1 258.341 o
252.751 238.717 o
253.401 234.327 o
254.052 242.825 o
254.702 228.193 o
255.353 202.06 o
256.004 257.428 o
256.654 235.864 o
257.305 245.283 o
257.955 252.982 o
258.606 235.542 o
259.257 238.756 o
259.907 238.223 o
260.558 231.42 o
261.208 253.816 o
261.859 278.836 o
262.51 226.088 o
263.16 259.573 o
263.811 264.651 o
264.462 256.712 o
265.112 250.509 o
265.763 247.603 o
266.413 256.278 o
267.064 240.876 o
267.715 219.937 o
268.365 255.618 o
269.016 236.846 o
269.666 260.284 o
270.317 245.837 o
270.968 275.269 o
271.618 254.04 o
272.269 265.093 o
272.919 236.949 o
273.57 264.735 o
274.221 235.414 o
274.871 252.557 o
275.522 259.383 o
276.173 222.097 o
276.823 242.576 o
277.474 221.823 o
278.124 251.325 o
278.775 234.237 o
279.426 256.253 o
280.076 243.184 o
280.727 270.851 o
281.377 234.617 o
282.028 253.1 o
282.679 246.95 o
283.329 228.407 o
283.98 208.539 o
284.63 248.516 o
285.281 233.901 o
285.932 217.041 o
286.582 257.007 o
287.233 247.89 o
287.884 226.774 o
288.534 269.014 o
289.185 227.732 o
289.835 232.73 o
290.486 268.451 o
291.137 241.902 o
291.787 234.23 o
292.438 252.618 o
293.088 229.566 o
293.739 253.096 o
294.39 228.738 o
295.04 242.631 o
295.691 249.44 o
296.341 244.351 o
296.992 259.121 o
297.643 231.984 o
298.293 241.475 o
298.944 238.814 o
299.595 239.214 o
300.245 232.848 o
300.896 233.504 o
301.546 265.77 o
302.197 241.933 o
302.848 241.072 o
303.498 262.425 o
304.149 243.249 o
304.799 231.658 o
305.45 267.338 o
306.101 240.827 o
306.751 221.132 o
307.402 247.236 o
308.052 246.474 o
308.703 239.061 o
309.354 230.459 o
310.004 258.64 o
310.655 272.053 o
311.305 262.174 o
311.956 256.386 o
312.607 234.777 o
313.257 258.785 o
313.908 263.007 o
314.559 255.779 o
315.209 229.131 o
315.86 247.492 o
316.51 241.951 o
317.161 273.872 o
317.812 269.03 o
318.462 254.99 o
319.113 258.478 o
319.763 239.002 o
320.414 229.685 o
321.065 219.592 o
321.715 223.56 o
322.366 215.477 o
323.016 239.154 o
323.667 296.744 o
324.318 243.683 o
324.968 225.353 o
325.619 255.967 o
326.27 252.136 o
326.92 226.077 o
327.571 217.847 o
328.221 284.166 o
328.872 289.351 o
329.523 216.781 o
330.173 269.285 o
330.824 224.591 o
331.474 231.356 o
332.125 250.133 o
332.776 225.608 o
333.426 245.894 o
334.077 256.27 o
334.727 244.678 o
335.378 238.427 o
336.029 216.94 o
336.679 229.663 o
337.33 236.837 o
337.981 280.126 o
338.631 233.473 o
339.282 227.458 o
339.932 243.165 o
340.583 255.872 o
341.234 250.934 o
341.884 253.828 o
342.535 243.162 o
343.185 218.702 o
343.836 256.755 o
344.487 239.074 o
345.137 220.523 o
345.788 224.86 o
346.438 264.566 o
347.089 223.659 o
347.74 246.102 o
348.39 215.755 o
349.041 249.67 o
349.691 229.468 o
350.342 236.655 o
350.993 251.793 o
351.643 254.989 o
352.294 224.135 o
352.945 247.541 o
353.595 234.02 o
354.246 271.438 o
354.896 218.92 o
355.547 270.086 o
356.198 275.329 o
356.848 238.247 o
357.499 282.804 o
358.149 191.204 o
358.8 240 o
359.451 232.388 o
360.101 265.689 o
360.752 298.63 o
361.402 254.7 o
362.053 229.801 o
362.704 267.772 o
363.354 212.754 o
364.005 245.992 o
364.656 250.785 o
365.306 260.437 o
365.957 222.424 o
366.607 251.424 o
367.258 219.343 o
367.909 234.744 o
368.559 238.406 o
369.21 268.193 o
369.86 219.568 o
370.511 263.557 o
371.162 234.615 o
371.812 260.854 o
372.463 262.622 o
373.113 247.761 o
373.764 226.246 o
374.415 197.573 o
375.065 227.766 o
375.716 226.402 o
376.367 233.498 o
377.017 220.267 o
377.668 237.017 o
378.318 237.457 o
378.969 259.252 o
379.62 236.427 o
380.27 226.957 o
380.921 239.161 o
381.571 251.517 o
382.222 229.522 o
382.873 273.906 o
383.523 238.285 o
384.174 240.072 o
384.824 247.714 o
385.475 238.846 o
386.126 219.956 o
386.776 244.87 o
387.427 235.074 o
388.078 245.45 o
388.728 238.762 o
389.379 240.104 o
390.029 257.101 o
390.68 239.788 o
391.331 226.021 o
391.981 237.777 o
392.632 263.106 o
393.282 228.18 o
393.933 241.982 o
394.584 229.793 o
395.234 278.862 o
395.885 248.897 o
396.535 271.652 o
397.186 258.19 o
397.837 243.705 o
398.487 276.769 o
grestore
0.800 setlinewidth
0 setlinejoin
2 setlinecap
[] 0 setdash
0.000 setgray
gsave
57.6 183.168 m
57.6 304.128 l
stroke
grestore
gsave
414.72 183.168 m
414.72 304.128 l
stroke
grestore
gsave
57.6 183.168 m
414.72 183.168 l
stroke
grestore
gsave
57.6 304.128 m
414.72 304.128 l
stroke
grestore
1.000 setlinewidth
0 setlinecap
0.800 setgray
gsave
64.6 252.112375 m
102.521875 252.112375 l
103.855208 252.112375 104.521875 252.779042 104.521875 254.112375 c
104.521875 297.128 l
104.521875 298.461333 103.855208 299.128 102.521875 299.128 c
64.6 299.128 l
63.266667 299.128 62.6 298.461333 62.6 297.128 c
62.6 254.112375 l
62.6 252.779042 63.266667 252.112375 64.6 252.112375 c
cl
gsave
1.000 setgray
fill
grestore
stroke
grestore
1 setlinejoin
[] 0 setdash
0.122 0.467 0.706 setrgbcolor
gsave
/o {
gsave
newpath
translate
1.0 setlinewidth
1 setlinejoin
0 setlinecap
0 -1.5 m
0.397805 -1.5 0.77937 -1.341951 1.06066 -1.06066 c
1.341951 -0.77937 1.5 -0.397805 1.5 0 c
1.5 0.397805 1.341951 0.77937 1.06066 1.06066 c
0.77937 1.341951 0.397805 1.5 0 1.5 c
-0.397805 1.5 -0.77937 1.341951 -1.06066 1.06066 c
-1.341951 0.77937 -1.5 0.397805 -1.5 0 c
-1.5 -0.397805 -1.341951 -0.77937 -1.06066 -1.06066 c
-0.77937 -1.341951 -0.397805 -1.5 0 -1.5 c
cl

gsave
0.122 0.467 0.706 setrgbcolor
fill
grestore
stroke
grestore
} bind def
76.6 291.034 o
grestore
0.000 setgray
gsave
94.600000 287.534250 translate
0.000000 rotate
0.000000 0.000000 m /x glyphshow
grestore
1.000 0.498 0.055 setrgbcolor
gsave
/o {
gsave
newpath
translate
1.0 setlinewidth
1 setlinejoin
0 setlinecap
0 -1.5 m
0.397805 -1.5 0.77937 -1.341951 1.06066 -1.06066 c
1.341951 -0.77937 1.5 -0.397805 1.5 0 c
1.5 0.397805 1.341951 0.77937 1.06066 1.06066 c
0.77937 1.341951 0.397805 1.5 0 1.5 c
-0.397805 1.5 -0.77937 1.341951 -1.06066 1.06066 c
-1.341951 0.77937 -1.5 0.397805 -1.5 0 c
-1.5 -0.397805 -1.341951 -0.77937 -1.06066 -1.06066 c
-0.77937 -1.341951 -0.397805 -1.5 0 -1.5 c
cl

gsave
1.000 0.498 0.055 setrgbcolor
fill
grestore
stroke
grestore
} bind def
76.6 276.362 o
grestore
0.000 setgray
gsave
94.600000 272.862375 translate
0.000000 rotate
0.000000 0.000000 m /y glyphshow
grestore
0.173 0.627 0.173 setrgbcolor
gsave
/o {
gsave
newpath
translate
1.0 setlinewidth
1 setlinejoin
0 setlinecap
0 -1.5 m
0.397805 -1.5 0.77937 -1.341951 1.06066 -1.06066 c
1.341951 -0.77937 1.5 -0.397805 1.5 0 c
1.5 0.397805 1.341951 0.77937 1.06066 1.06066 c
0.77937 1.341951 0.397805 1.5 0 1.5 c
-0.397805 1.5 -0.77937 1.341951 -1.06066 1.06066 c
-1.341951 0.77937 -1.5 0.397805 -1.5 0 c
-1.5 -0.397805 -1.341951 -0.77937 -1.06066 -1.06066 c
-0.77937 -1.341951 -0.397805 -1.5 0 -1.5 c
cl

gsave
0.173 0.627 0.173 setrgbcolor
fill
grestore
stroke
grestore
} bind def
76.6 261.69 o
grestore
0.000 setgray
gsave
94.600000 258.190500 translate
0.000000 rotate
0.000000 0.000000 m /z glyphshow
grestore
gsave
57.6 38.016 m
414.72 38.016 l
414.72 158.976 l
57.6 158.976 l
cl
1.000 setgray
fill
grestore
0.800 setlinewidth
2 setlinecap
0.690 setgray
gsave
357.1 121 57.6 38.02 clipbox
73.832727 38.016 m
73.832727 158.976 l
stroke
grestore
0 setlinecap
0.000 setgray
gsave
/o {
gsave
newpath
translate
0.8 setlinewidth
1 setlinejoin
0 setlinecap
0 0 m
0 -3.5 l

gsave
0.000 setgray
fill
grestore
stroke
grestore
} bind def
73.8327 38.016 o
grestore
gsave
70.653040 23.422250 translate
0.000000 rotate
0.000000 0.000000 m /zero glyphshow
grestore
2 setlinecap
0.690 setgray
gsave
357.1 121 57.6 38.02 clipbox
138.893758 38.016 m
138.893758 158.976 l
stroke
grestore
0 setlinecap
0.000 setgray
gsave
/o {
gsave
newpath
translate
0.8 setlinewidth
1 setlinejoin
0 setlinecap
0 0 m
0 -3.5 l

gsave
0.000 setgray
fill
grestore
stroke
grestore
} bind def
138.894 38.016 o
grestore
gsave
129.354696 23.422250 translate
0.000000 rotate
0.000000 0.000000 m /one glyphshow
6.362305 0.000000 m /zero glyphshow
12.724609 0.000000 m /zero glyphshow
grestore
2 setlinecap
0.690 setgray
gsave
357.1 121 57.6 38.02 clipbox
203.95479 38.016 m
203.95479 158.976 l
stroke
grestore
0 setlinecap
0.000 setgray
gsave
/o {
gsave
newpath
translate
0.8 setlinewidth
1 setlinejoin
0 setlinecap
0 0 m
0 -3.5 l

gsave
0.000 setgray
fill
grestore
stroke
grestore
} bind def
203.955 38.016 o
grestore
gsave
194.415727 23.422250 translate
0.000000 rotate
0.000000 0.000000 m /two glyphshow
6.362305 0.000000 m /zero glyphshow
12.724609 0.000000 m /zero glyphshow
grestore
2 setlinecap
0.690 setgray
gsave
357.1 121 57.6 38.02 clipbox
269.015821 38.016 m
269.015821 158.976 l
stroke
grestore
0 setlinecap
0.000 setgray
gsave
/o {
gsave
newpath
translate
0.8 setlinewidth
1 setlinejoin
0 setlinecap
0 0 m
0 -3.5 l

gsave
0.000 setgray
fill
grestore
stroke
grestore
} bind def
269.016 38.016 o
grestore
gsave
259.476758 23.422250 translate
0.000000 rotate
0.000000 0.000000 m /three glyphshow
6.362305 0.000000 m /zero glyphshow
12.724609 0.000000 m /zero glyphshow
grestore
2 setlinecap
0.690 setgray
gsave
357.1 121 57.6 38.02 clipbox
334.076852 38.016 m
334.076852 158.976 l
stroke
grestore
0 setlinecap
0.000 setgray
gsave
/o {
gsave
newpath
translate
0.8 setlinewidth
1 setlinejoin
0 setlinecap
0 0 m
0 -3.5 l

gsave
0.000 setgray
fill
grestore
stroke
grestore
} bind def
334.077 38.016 o
grestore
gsave
324.537789 23.422250 translate
0.000000 rotate
0.000000 0.000000 m /four glyphshow
6.362305 0.000000 m /zero glyphshow
12.724609 0.000000 m /zero glyphshow
grestore
2 setlinecap
0.690 setgray
gsave
357.1 121 57.6 38.02 clipbox
399.137883 38.016 m
399.137883 158.976 l
stroke
grestore
0 setlinecap
0.000 setgray
gsave
/o {
gsave
newpath
translate
0.8 setlinewidth
1 setlinejoin
0 setlinecap
0 0 m
0 -3.5 l

gsave
0.000 setgray
fill
grestore
stroke
grestore
} bind def
399.138 38.016 o
grestore
gsave
389.598821 23.422250 translate
0.000000 rotate
0.000000 0.000000 m /five glyphshow
6.362305 0.000000 m /zero glyphshow
12.724609 0.000000 m /zero glyphshow
grestore
gsave
217.410000 9.750375 translate
0.000000 rotate
0.000000 0.000000 m /S glyphshow
6.347656 0.000000 m /a glyphshow
12.475586 0.000000 m /m glyphshow
22.216797 0.000000 m /p glyphshow
28.564453 0.000000 m /l glyphshow
31.342773 0.000000 m /e glyphshow
grestore
2 setlinecap
0.690 setgray
gsave
357.1 121 57.6 38.02 clipbox
57.6 50.352775 m
414.72 50.352775 l
stroke
grestore
0 setlinecap
0.000 setgray
gsave
/o {
gsave
newpath
translate
0.8 setlinewidth
1 setlinejoin
0 setlinecap
0 0 m
-3.5 0 l

gsave
0.000 setgray
fill
grestore
stroke
grestore
} bind def
57.6 50.3528 o
grestore
gsave
29.506250 46.555900 translate
0.000000 rotate
0.000000 0.000000 m /minus glyphshow
8.378906 0.000000 m /five glyphshow
14.741211 0.000000 m /zero glyphshow
grestore
2 setlinecap
0.690 setgray
gsave
357.1 121 57.6 38.02 clipbox
57.6 71.104507 m
414.72 71.104507 l
stroke
grestore
0 setlinecap
0.000 setgray
gsave
/o {
gsave
newpath
translate
0.8 setlinewidth
1 setlinejoin
0 setlinecap
0 0 m
-3.5 0 l

gsave
0.000 setgray
fill
grestore
stroke
grestore
} bind def
57.6 71.1045 o
grestore
gsave
29.506250 67.307632 translate
0.000000 rotate
0.000000 0.000000 m /minus glyphshow
8.378906 0.000000 m /two glyphshow
14.741211 0.000000 m /five glyphshow
grestore
2 setlinecap
0.690 setgray
gsave
357.1 121 57.6 38.02 clipbox
57.6 91.856239 m
414.72 91.856239 l
stroke
grestore
0 setlinecap
0.000 setgray
gsave
/o {
gsave
newpath
translate
0.8 setlinewidth
1 setlinejoin
0 setlinecap
0 0 m
-3.5 0 l

gsave
0.000 setgray
fill
grestore
stroke
grestore
} bind def
57.6 91.8562 o
grestore
gsave
44.240625 88.059364 translate
0.000000 rotate
0.000000 0.000000 m /zero glyphshow
grestore
2 setlinecap
0.690 setgray
gsave
357.1 121 57.6 38.02 clipbox
57.6 112.607971 m
414.72 112.607971 l
stroke
grestore
0 setlinecap
0.000 setgray
gsave
/o {
gsave
newpath
translate
0.8 setlinewidth
1 setlinejoin
0 setlinecap
0 0 m
-3.5 0 l

gsave
0.000 setgray
fill
grestore
stroke
grestore
} bind def
57.6 112.608 o
grestore
gsave
37.881250 108.811096 translate
0.000000 rotate
0.000000 0.000000 m /two glyphshow
6.362305 0.000000 m /five glyphshow
grestore
2 setlinecap
0.690 setgray
gsave
357.1 121 57.6 38.02 clipbox
57.6 133.359703 m
414.72 133.359703 l
stroke
grestore
0 setlinecap
0.000 setgray
gsave
/o {
gsave
newpath
translate
0.8 setlinewidth
1 setlinejoin
0 setlinecap
0 0 m
-3.5 0 l

gsave
0.000 setgray
fill
grestore
stroke
grestore
} bind def
57.6 133.36 o
grestore
gsave
37.881250 129.562828 translate
0.000000 rotate
0.000000 0.000000 m /five glyphshow
6.362305 0.000000 m /zero glyphshow
grestore
2 setlinecap
0.690 setgray
gsave
357.1 121 57.6 38.02 clipbox
57.6 154.111435 m
414.72 154.111435 l
stroke
grestore
0 setlinecap
0.000 setgray
gsave
/o {
gsave
newpath
translate
0.8 setlinewidth
1 setlinejoin
0 setlinecap
0 0 m
-3.5 0 l

gsave
0.000 setgray
fill
grestore
stroke
grestore
} bind def
57.6 154.111 o
grestore
gsave
37.881250 150.314560 translate
0.000000 rotate
0.000000 0.000000 m /seven glyphshow
6.362305 0.000000 m /five glyphshow
grestore
gsave
23.428125 38.746000 translate
90.000000 rotate
0.000000 0.000000 m /E glyphshow
6.318359 0.000000 m /u glyphshow
12.656250 0.000000 m /l glyphshow
15.434570 0.000000 m /e glyphshow
21.586914 0.000000 m /r glyphshow
25.698242 0.000000 m /space glyphshow
28.876953 0.000000 m /a glyphshow
35.004883 0.000000 m /n glyphshow
41.342773 0.000000 m /g glyphshow
47.690430 0.000000 m /l glyphshow
50.468750 0.000000 m /e glyphshow
56.621094 0.000000 m /s glyphshow
61.831055 0.000000 m /space glyphshow
65.009766 0.000000 m /e glyphshow
71.162109 0.000000 m /r glyphshow
75.273438 0.000000 m /r glyphshow
79.384766 0.000000 m /o glyphshow
85.502930 0.000000 m /r glyphshow
89.614258 0.000000 m /space glyphshow
92.792969 0.000000 m /bracketleft glyphshow
96.694336 0.000000 m /d glyphshow
103.041992 0.000000 m /e glyphshow
109.194336 0.000000 m /g glyphshow
115.541992 0.000000 m /bracketright glyphshow
grestore
1.000 setlinewidth
0.122 0.467 0.706 setrgbcolor
gsave
357.1 121 57.6 38.02 clipbox
/o {
gsave
newpath
translate
1.0 setlinewidth
1 setlinejoin
0 setlinecap
0 -1.5 m
0.397805 -1.5 0.77937 -1.341951 1.06066 -1.06066 c
1.341951 -0.77937 1.5 -0.397805 1.5 0 c
1.5 0.397805 1.341951 0.77937 1.06066 1.06066 c
0.77937 1.341951 0.397805 1.5 0 1.5 c
-0.397805 1.5 -0.77937 1.341951 -1.06066 1.06066 c
-1.341951 0.77937 -1.5 0.397805 -1.5 0 c
-1.5 -0.397805 -1.341951 -0.77937 -1.06066 -1.06066 c
-0.77937 -1.341951 -0.397805 -1.5 0 -1.5 c
cl

gsave
0.122 0.467 0.706 setrgbcolor
fill
grestore
stroke
grestore
} bind def
73.8327 94.263 o
74.4833 88.5433 o
75.1339 93.0869 o
75.7846 88.7945 o
76.4352 93.9118 o
77.0858 94.0681 o
77.7364 91.5341 o
78.387 90.9244 o
79.0376 94.3339 o
79.6882 93.547 o
80.3388 94.9707 o
80.9894 93.677 o
81.6401 91.2912 o
82.2907 91.5328 o
82.9413 89.8136 o
83.5919 89.7674 o
84.2425 91.0366 o
84.8931 92.0319 o
85.5437 91.0203 o
86.1943 92.4162 o
86.8449 94.4975 o
87.4955 89.3747 o
88.1462 89.666 o
88.7968 91.3022 o
89.4474 91.8142 o
90.098 95.7156 o
90.7486 90.8594 o
91.3992 91.8059 o
92.0498 92.9169 o
92.7004 90.8726 o
93.351 95.7519 o
94.0016 91.7673 o
94.6523 91.0348 o
95.3029 93.0202 o
95.9535 90.183 o
96.6041 92.6562 o
97.2547 92.943 o
97.9053 95.208 o
98.5559 92.8013 o
99.2065 92.2291 o
99.8571 92.6991 o
100.508 89.5964 o
101.158 88.584 o
101.809 90.1762 o
102.46 92.2713 o
103.11 88.4038 o
103.761 92.1098 o
104.411 93.1332 o
105.062 91.0957 o
105.713 91.7687 o
106.363 92.0223 o
107.014 91.8662 o
107.664 94.1414 o
108.315 94.17 o
108.966 90.8109 o
109.616 93.7632 o
110.267 90.1901 o
110.918 92.41 o
111.568 95.419 o
112.219 88.2948 o
112.869 89.9533 o
113.52 92.1334 o
114.171 94.0532 o
114.821 91.3139 o
115.472 90.4331 o
116.122 91.6462 o
116.773 93.3471 o
117.424 93.6717 o
118.074 94.7897 o
118.725 90.5342 o
119.375 90.8918 o
120.026 93.7884 o
120.677 88.1298 o
121.327 92.2497 o
121.978 92.2823 o
122.629 91.0716 o
123.279 89.9291 o
123.93 91.8045 o
124.58 92.8655 o
125.231 91.0982 o
125.882 93.196 o
126.532 90.9006 o
127.183 88.4312 o
127.833 89.0235 o
128.484 90.3818 o
129.135 94.0705 o
129.785 91.9897 o
130.436 93.5979 o
131.086 94.9312 o
131.737 89.8651 o
132.388 94.4065 o
133.038 91.862 o
133.689 92.3728 o
134.339 92.735 o
134.99 94.0022 o
135.641 92.8041 o
136.291 96.3891 o
136.942 93.9292 o
137.593 90.5435 o
138.243 92.4989 o
138.894 91.3835 o
139.544 91.5061 o
140.195 94.199 o
140.846 89.1635 o
141.496 95.2351 o
142.147 89.8388 o
142.797 93.2187 o
143.448 90.4652 o
144.099 94.4426 o
144.749 93.7089 o
145.4 90.7349 o
146.05 91.8232 o
146.701 90.7186 o
147.352 88.6262 o
148.002 90.2756 o
148.653 86.6752 o
149.304 89.4849 o
149.954 88.5142 o
150.605 90.3213 o
151.255 92.0017 o
151.906 95.0592 o
152.557 91.053 o
153.207 90.422 o
153.858 97.033 o
154.508 94.2272 o
155.159 92.1946 o
155.81 93.7038 o
156.46 88.5825 o
157.111 94.1577 o
157.761 98.8205 o
158.412 86.8639 o
159.063 93.1056 o
159.713 86.5892 o
160.364 100.217 o
161.015 92.2332 o
161.665 89.9567 o
162.316 91.9905 o
162.966 88.472 o
163.617 89.4943 o
164.268 94.049 o
164.918 90.5448 o
165.569 90.6788 o
166.219 91.1013 o
166.87 90.3777 o
167.521 90.528 o
168.171 92.2427 o
168.822 90.4906 o
169.472 90.3037 o
170.123 92.5271 o
170.774 89.3654 o
171.424 95.8155 o
172.075 90.7414 o
172.725 93.1729 o
173.376 90.513 o
174.027 89.536 o
174.677 87.7355 o
175.328 94.8886 o
175.979 89.5635 o
176.629 94.6265 o
177.28 92.5893 o
177.93 96.9232 o
178.581 91.7543 o
179.232 92.9232 o
179.882 96.7566 o
180.533 97.1011 o
181.183 92.2181 o
181.834 96.3914 o
182.485 91.6223 o
183.135 86.5653 o
183.786 94.5133 o
184.436 105.004 o
185.087 98.7808 o
185.738 97.1999 o
186.388 89.7627 o
187.039 93.8512 o
187.69 88.3413 o
188.34 95.1493 o
188.991 79.6795 o
189.641 89.7914 o
190.292 97.635 o
190.943 90.8566 o
191.593 94.6859 o
192.244 95.3025 o
192.894 81.8471 o
193.545 93.2061 o
194.196 96.0704 o
194.846 97.4115 o
195.497 93.7554 o
196.147 87.3455 o
196.798 96.2924 o
197.449 90.0909 o
198.099 96.0795 o
198.75 99.9565 o
199.401 100.324 o
200.051 95.2305 o
200.702 81.282 o
201.352 95.3696 o
202.003 84.505 o
202.654 92.5514 o
203.304 93.0435 o
203.955 83.78 o
204.605 100.13 o
205.256 98.8664 o
205.907 90.3248 o
206.557 95.0194 o
207.208 111.779 o
207.858 86.1358 o
208.509 91.0426 o
209.16 80.5568 o
209.81 84.0532 o
210.461 85.3501 o
211.112 97.3665 o
211.762 104.093 o
212.413 87.965 o
213.063 115.683 o
213.714 88.8112 o
214.365 82.6456 o
215.015 100.372 o
215.666 75.2879 o
216.316 83.8842 o
216.967 97.2573 o
217.618 86.951 o
218.268 91.0082 o
218.919 101.427 o
219.569 101.417 o
220.22 101.036 o
220.871 100.899 o
221.521 93.8768 o
222.172 95.1441 o
222.822 87.5307 o
223.473 81.2276 o
224.124 93.5631 o
224.774 88.0467 o
225.425 103.252 o
226.076 93.2719 o
226.726 109.13 o
227.377 103.165 o
228.027 93.6469 o
228.678 92.6362 o
229.329 81.007 o
229.979 104.643 o
230.63 86.9631 o
231.28 116.211 o
231.931 105.018 o
232.582 106.634 o
233.232 81.1732 o
233.883 77.4004 o
234.533 90.7405 o
235.184 89.2297 o
235.835 80.475 o
236.485 78.6539 o
237.136 73.7804 o
237.787 96.9023 o
238.437 103.885 o
239.088 83.3866 o
239.738 97.757 o
240.389 75.4467 o
241.04 85.4026 o
241.69 95.4667 o
242.341 87.6768 o
242.991 104.836 o
243.642 70.6638 o
244.293 108.258 o
244.943 107.798 o
245.594 94.3462 o
246.244 81.1205 o
246.895 85.4117 o
247.546 103.149 o
248.196 100.897 o
248.847 93.7203 o
249.498 68.1323 o
250.148 124.964 o
250.799 97.483 o
251.449 106.048 o
252.1 71.9302 o
252.751 80.4685 o
253.401 111.499 o
254.052 84.4521 o
254.702 108.729 o
255.353 101.29 o
256.004 102.462 o
256.654 98.2165 o
257.305 100.802 o
257.955 96.2433 o
258.606 74.6291 o
259.257 67.2548 o
259.907 90.2109 o
260.558 133.882 o
261.208 104.124 o
261.859 73.6363 o
262.51 85.6821 o
263.16 74.0809 o
263.811 94.9354 o
264.462 94.8796 o
265.112 99.8344 o
265.763 86.9748 o
266.413 83.1237 o
267.064 104.619 o
267.715 101.869 o
268.365 94.0626 o
269.016 79.47 o
269.666 73.3173 o
270.317 79.7398 o
270.968 85.6876 o
271.618 104.015 o
272.269 91.4624 o
272.919 96.333 o
273.57 63.3866 o
274.221 77.417 o
274.871 88.033 o
275.522 72.8877 o
276.173 87.464 o
276.823 91.7069 o
277.474 115.656 o
278.124 100.703 o
278.775 112.807 o
279.426 92.4092 o
280.076 85.1939 o
280.727 70.5262 o
281.377 70.711 o
282.028 90.5253 o
282.679 93.2998 o
283.329 78.2286 o
283.98 127.576 o
284.63 81.8903 o
285.281 94.6446 o
285.932 83.538 o
286.582 90.2161 o
287.233 82.4468 o
287.884 101.094 o
288.534 50.7532 o
289.185 106.459 o
289.835 80.9743 o
290.486 75.5642 o
291.137 82.5721 o
291.787 86.7791 o
292.438 85.531 o
293.088 84.385 o
293.739 105.823 o
294.39 66.0933 o
295.04 88.8282 o
295.691 86.2128 o
296.341 72.8152 o
296.992 89.7162 o
297.643 101.056 o
298.293 96.3718 o
298.944 77.9847 o
299.595 64.5685 o
300.245 102.049 o
300.896 85.0185 o
301.546 81.3232 o
302.197 75.381 o
302.848 105.934 o
303.498 73.1563 o
304.149 91.5613 o
304.799 98.0258 o
305.45 91.7664 o
306.101 87.6298 o
306.751 118.938 o
307.402 90.8409 o
308.052 103.675 o
308.703 84.3131 o
309.354 72.9144 o
310.004 119.033 o
310.655 94.1908 o
311.305 98.0889 o
311.956 91.9753 o
312.607 81.0063 o
313.257 101.978 o
313.908 84.3007 o
314.559 77.6998 o
315.209 91.4209 o
315.86 73.8327 o
316.51 90.9256 o
317.161 136.152 o
317.812 96.8355 o
318.462 82.0209 o
319.113 111.727 o
319.763 105.244 o
320.414 90.1747 o
321.065 124.369 o
321.715 92.9412 o
322.366 76.0377 o
323.016 81.6331 o
323.667 114.151 o
324.318 88.5401 o
324.968 84.3007 o
325.619 86.9915 o
326.27 71.2863 o
326.92 94.0605 o
327.571 85.1187 o
328.221 70.3869 o
328.872 46.6727 o
329.523 82.9511 o
330.173 91.9684 o
330.824 81.2461 o
331.474 88.4345 o
332.125 92.4196 o
332.776 87.403 o
333.426 95.6071 o
334.077 80.5178 o
334.727 85.9763 o
335.378 109.218 o
336.029 99.1998 o
336.679 88.1335 o
337.33 84.2274 o
337.981 98.5529 o
338.631 88.2215 o
339.282 97.8067 o
339.932 99.6092 o
340.583 91.7731 o
341.234 83.2854 o
341.884 70.1272 o
342.535 90.5809 o
343.185 94.4788 o
343.836 59.2611 o
344.487 102.598 o
345.137 97.6424 o
345.788 95.5601 o
346.438 104.817 o
347.089 68.8704 o
347.74 89.5051 o
348.39 85.6774 o
349.041 99.3448 o
349.691 90.602 o
350.342 89.3608 o
350.993 98.8535 o
351.643 93.1091 o
352.294 70.2542 o
352.945 78.9833 o
353.595 83.6459 o
354.246 74.5204 o
354.896 93.9042 o
355.547 88.7171 o
356.198 104.969 o
356.848 101.524 o
357.499 147.885 o
358.149 83.1914 o
358.8 123.841 o
359.451 92.5435 o
360.101 116.798 o
360.752 67.4345 o
361.402 91.1253 o
362.053 78.1051 o
362.704 94.0067 o
363.354 81.7757 o
364.005 85.2986 o
364.656 86.6639 o
365.306 79.8337 o
365.957 85.4923 o
366.607 113.938 o
367.258 79.7909 o
367.909 88.7395 o
368.559 74.0646 o
369.21 76.6295 o
369.86 100.207 o
370.511 91.8502 o
371.162 100.271 o
371.812 89.3598 o
372.463 78.5569 o
373.113 97.5558 o
373.764 116.561 o
374.415 72.6965 o
375.065 114.61 o
375.716 92.3353 o
376.367 104.692 o
377.017 88.6933 o
377.668 106.853 o
378.318 66.3075 o
378.969 113.563 o
379.62 87.2013 o
380.27 95.0515 o
380.921 97.4618 o
381.571 79.0225 o
382.222 74.1302 o
382.873 84.5537 o
383.523 97.6273 o
384.174 89.7658 o
384.824 81.0498 o
385.475 83.5571 o
386.126 73.0996 o
386.776 96.6374 o
387.427 99.837 o
388.078 93.522 o
388.728 96.176 o
389.379 92.4223 o
390.029 101.498 o
390.68 102.039 o
391.331 94.6979 o
391.981 53.4591 o
392.632 109.86 o
393.282 80.5071 o
393.933 95.0569 o
394.584 95.2722 o
395.234 106.914 o
395.885 100.409 o
396.535 94.9771 o
397.186 110.595 o
397.837 98.9279 o
398.487 95.0517 o
grestore
1.000 0.498 0.055 setrgbcolor
gsave
357.1 121 57.6 38.02 clipbox
/o {
gsave
newpath
translate
1.0 setlinewidth
1 setlinejoin
0 setlinecap
0 -1.5 m
0.397805 -1.5 0.77937 -1.341951 1.06066 -1.06066 c
1.341951 -0.77937 1.5 -0.397805 1.5 0 c
1.5 0.397805 1.341951 0.77937 1.06066 1.06066 c
0.77937 1.341951 0.397805 1.5 0 1.5 c
-0.397805 1.5 -0.77937 1.341951 -1.06066 1.06066 c
-1.341951 0.77937 -1.5 0.397805 -1.5 0 c
-1.5 -0.397805 -1.341951 -0.77937 -1.06066 -1.06066 c
-0.77937 -1.341951 -0.397805 -1.5 0 -1.5 c
cl

gsave
1.000 0.498 0.055 setrgbcolor
fill
grestore
stroke
grestore
} bind def
73.8327 91.2986 o
74.4833 93.5136 o
75.1339 89.5755 o
75.7846 91.9814 o
76.4352 93.1094 o
77.0858 93.9593 o
77.7364 91.1474 o
78.387 91.1965 o
79.0376 91.0362 o
79.6882 92.5824 o
80.3388 94.9455 o
80.9894 92.6947 o
81.6401 94.3752 o
82.2907 90.5233 o
82.9413 92.9238 o
83.5919 92.8392 o
84.2425 92.2592 o
84.8931 90.8272 o
85.5437 91.5841 o
86.1943 93.9383 o
86.8449 93.1382 o
87.4955 89.7717 o
88.1462 93.0466 o
88.7968 91.5484 o
89.4474 93.0978 o
90.098 92.2352 o
90.7486 91.5355 o
91.3992 91.8912 o
92.0498 93.2628 o
92.7004 89.475 o
93.351 91.6946 o
94.0016 96.0708 o
94.6523 91.2865 o
95.3029 88.8018 o
95.9535 89.3054 o
96.6041 90.9241 o
97.2547 91.0212 o
97.9053 91.5512 o
98.5559 92.0846 o
99.2065 93.0651 o
99.8571 91.9306 o
100.508 90.4232 o
101.158 90.2234 o
101.809 91.9753 o
102.46 93.0534 o
103.11 88.0858 o
103.761 91.8854 o
104.411 94.3248 o
105.062 90.9229 o
105.713 92.333 o
106.363 92.3418 o
107.014 89.0475 o
107.664 92.3547 o
108.315 94.9112 o
108.966 90.7589 o
109.616 92.9056 o
110.267 91.1725 o
110.918 88.6476 o
111.568 90.9094 o
112.219 90.2474 o
112.869 90.7599 o
113.52 90.4093 o
114.171 91.1858 o
114.821 88.6671 o
115.472 90.8759 o
116.122 94.4887 o
116.773 94.4853 o
117.424 93.2063 o
118.074 93.3882 o
118.725 91.5918 o
119.375 92.371 o
120.026 93.1552 o
120.677 88.4117 o
121.327 92.6116 o
121.978 95.9083 o
122.629 94.5589 o
123.279 89.151 o
123.93 91.8305 o
124.58 89.5793 o
125.231 90.7544 o
125.882 90.2365 o
126.532 90.6831 o
127.183 93.9737 o
127.833 88.9701 o
128.484 90.2827 o
129.135 91.6349 o
129.785 93.8209 o
130.436 90.7516 o
131.086 93.2465 o
131.737 91.1705 o
132.388 91.8706 o
133.038 93.6042 o
133.689 93.1029 o
134.339 94.5806 o
134.99 94.0745 o
135.641 87.8062 o
136.291 96.0143 o
136.942 96.1949 o
137.593 95.3357 o
138.243 94.0196 o
138.894 86.8286 o
139.544 101.831 o
140.195 89.3685 o
140.846 86.8079 o
141.496 92.3839 o
142.147 90.1349 o
142.797 90.1529 o
143.448 96.9268 o
144.099 92.0917 o
144.749 95.571 o
145.4 90.8698 o
146.05 94.6631 o
146.701 93.9858 o
147.352 81.8357 o
148.002 89.4079 o
148.653 92.843 o
149.304 93.6925 o
149.954 97.0596 o
150.605 88.4214 o
151.255 86.9951 o
151.906 98.9628 o
152.557 97.9776 o
153.207 90.0044 o
153.858 88.8827 o
154.508 95.6626 o
155.159 88.8472 o
155.81 86.9067 o
156.46 98.3168 o
157.111 87.0021 o
157.761 93.5781 o
158.412 93.7187 o
159.063 93.8065 o
159.713 94.7694 o
160.364 91.7765 o
161.015 87.7347 o
161.665 91.3971 o
162.316 91.1155 o
162.966 87.498 o
163.617 91.6114 o
164.268 88.4709 o
164.918 84.5309 o
165.569 90.8372 o
166.219 89.9059 o
166.87 93.269 o
167.521 93.0877 o
168.171 97.1452 o
168.822 92.5089 o
169.472 97.5753 o
170.123 100.828 o
170.774 86.4766 o
171.424 92.7986 o
172.075 91.8197 o
172.725 89.5749 o
173.376 95.9134 o
174.027 89.3569 o
174.677 102.356 o
175.328 95.7356 o
175.979 94.1019 o
176.629 89.4864 o
177.28 92.5521 o
177.93 80.6706 o
178.581 91.7142 o
179.232 85.7218 o
179.882 81.877 o
180.533 87.3444 o
181.183 98.021 o
181.834 90.0623 o
182.485 96.354 o
183.135 91.8153 o
183.786 102.288 o
184.436 88.3269 o
185.087 78.0482 o
185.738 94.4827 o
186.388 86.7659 o
187.039 94.852 o
187.69 89.1552 o
188.34 93.2922 o
188.991 79.2764 o
189.641 87.1315 o
190.292 91.8823 o
190.943 96.5325 o
191.593 83.7299 o
192.244 88.8513 o
192.894 82.7203 o
193.545 92.6693 o
194.196 79.3098 o
194.846 83.7853 o
195.497 90.3184 o
196.147 88.7153 o
196.798 92.807 o
197.449 88.437 o
198.099 81.3453 o
198.75 87.3178 o
199.401 99.4274 o
200.051 87.9067 o
200.702 105.097 o
201.352 90.5784 o
202.003 95.7588 o
202.654 94.7983 o
203.304 90.0681 o
203.955 85.0512 o
204.605 95.0859 o
205.256 90.386 o
205.907 85.6574 o
206.557 100.458 o
207.208 82.3952 o
207.858 95.9532 o
208.509 82.4182 o
209.16 89.3664 o
209.81 95.0515 o
210.461 105.901 o
211.112 91.052 o
211.762 97.7637 o
212.413 99.5339 o
213.063 90.2698 o
213.714 83.204 o
214.365 98.1135 o
215.015 91.8609 o
215.666 113.556 o
216.316 102.074 o
216.967 82.6137 o
217.618 99.4778 o
218.268 96.5169 o
218.919 81.8946 o
219.569 100.957 o
220.22 84.0967 o
220.871 87.0697 o
221.521 85.0874 o
222.172 105.537 o
222.822 88.9842 o
223.473 106.401 o
224.124 99.2182 o
224.774 96.6321 o
225.425 85.5776 o
226.076 100.026 o
226.726 94.9133 o
227.377 83.0436 o
228.027 103.24 o
228.678 94.3862 o
229.329 97.9104 o
229.979 78.3907 o
230.63 84.0436 o
231.28 93.8838 o
231.931 86.1454 o
232.582 89.6675 o
233.232 90.8059 o
233.883 88.616 o
234.533 79.4017 o
235.184 88.1536 o
235.835 94.8015 o
236.485 99.1836 o
237.136 92.4486 o
237.787 96.5074 o
238.437 96.7309 o
239.088 82.9949 o
239.738 82.3539 o
240.389 86.1931 o
241.04 89.5251 o
241.69 87.3001 o
242.341 88.7022 o
242.991 105.579 o
243.642 100.462 o
244.293 64.0887 o
244.943 110.381 o
245.594 109.148 o
246.244 97.9581 o
246.895 92.5104 o
247.546 80.7337 o
248.196 84.186 o
248.847 93.8587 o
249.498 102.919 o
250.148 101.219 o
250.799 79.6187 o
251.449 68.1678 o
252.1 89.5376 o
252.751 91.684 o
253.401 89.7644 o
254.052 84.9534 o
254.702 96.366 o
255.353 104.991 o
256.004 87.2555 o
256.654 80.981 o
257.305 92.6004 o
257.955 91.4395 o
258.606 83.0358 o
259.257 101.993 o
259.907 87.4414 o
260.558 127.083 o
261.208 91.6754 o
261.859 86.7699 o
262.51 92.0467 o
263.16 90.3766 o
263.811 74.6838 o
264.462 82.1658 o
265.112 97.4498 o
265.763 95.4197 o
266.413 78.494 o
267.064 88.8326 o
267.715 92.9625 o
268.365 90.2946 o
269.016 91.7231 o
269.666 81.6241 o
270.317 64.3954 o
270.968 87.6927 o
271.618 80.755 o
272.269 69.8063 o
272.919 94.096 o
273.57 71.3011 o
274.221 89.8265 o
274.871 89.7884 o
275.522 97.3422 o
276.173 110.269 o
276.823 85.6798 o
277.474 115.044 o
278.124 80.9489 o
278.775 114.002 o
279.426 83.0815 o
280.076 97.8573 o
280.727 81.6118 o
281.377 80.1668 o
282.028 94.7522 o
282.679 80.7698 o
283.329 85.0519 o
283.98 113.435 o
284.63 87.3825 o
285.281 87.8487 o
285.932 109.926 o
286.582 66.6777 o
287.233 75.3695 o
287.884 105.501 o
288.534 86.8275 o
289.185 103.244 o
289.835 89.3519 o
290.486 94.046 o
291.137 86.8933 o
291.787 97.9296 o
292.438 101.943 o
293.088 107.562 o
293.739 107.199 o
294.39 138.113 o
295.04 97.8505 o
295.691 88.8803 o
296.341 88.5889 o
296.992 97.5822 o
297.643 85.0323 o
298.293 98.7936 o
298.944 88.8864 o
299.595 90.2826 o
300.245 94.303 o
300.896 68.3477 o
301.546 82.3245 o
302.197 106.325 o
302.848 116.761 o
303.498 101.93 o
304.149 93.0134 o
304.799 111.837 o
305.45 88.133 o
306.101 88.0994 o
306.751 102.642 o
307.402 83.142 o
308.052 84.1536 o
308.703 86.4511 o
309.354 129.318 o
310.004 95.1318 o
310.655 67.1342 o
311.305 90.221 o
311.956 92.2121 o
312.607 80.9072 o
313.257 80.2207 o
313.908 96.1866 o
314.559 82.0252 o
315.209 101.297 o
315.86 81.6058 o
316.51 96.0616 o
317.161 66.1856 o
317.812 108.807 o
318.462 76.6106 o
319.113 64.1314 o
319.763 107.45 o
320.414 100.96 o
321.065 93.2877 o
321.715 100.54 o
322.366 97.395 o
323.016 98.202 o
323.667 49.8499 o
324.318 92.0266 o
324.968 93.3555 o
325.619 131.184 o
326.27 87.3404 o
326.92 101.172 o
327.571 90.667 o
328.221 73.1499 o
328.872 61.1103 o
329.523 104.625 o
330.173 64.013 o
330.824 96.1958 o
331.474 98.3853 o
332.125 93.4528 o
332.776 106.53 o
333.426 95.1789 o
334.077 72.238 o
334.727 81.6401 o
335.378 80.8767 o
336.029 105.246 o
336.679 93.3764 o
337.33 97.9722 o
337.981 63.2213 o
338.631 79.0644 o
339.282 97.6782 o
339.932 97.1684 o
340.583 95.8784 o
341.234 104.617 o
341.884 115.707 o
342.535 97.1768 o
343.185 110.31 o
343.836 106.486 o
344.487 91.2164 o
345.137 108.531 o
345.788 101.535 o
346.438 89.847 o
347.089 83.5655 o
347.74 98.6451 o
348.39 89.9762 o
349.041 89.023 o
349.691 99.5765 o
350.342 114.294 o
350.993 93.2932 o
351.643 95.8294 o
352.294 92.4302 o
352.945 91.2134 o
353.595 80.8475 o
354.246 76.5774 o
354.896 102.149 o
355.547 89.5746 o
356.198 79.187 o
356.848 97.3746 o
357.499 78.5748 o
358.149 85.3974 o
358.8 100.476 o
359.451 95.9647 o
360.101 93.128 o
360.752 56.7888 o
361.402 97.1564 o
362.053 94.0882 o
362.704 103.729 o
363.354 118.213 o
364.005 77.6106 o
364.656 79.5041 o
365.306 89.2439 o
365.957 107.036 o
366.607 70.7863 o
367.258 100.942 o
367.909 93.0562 o
368.559 91.8903 o
369.21 85.873 o
369.86 95.4754 o
370.511 90.9483 o
371.162 89.4003 o
371.812 66.4421 o
372.463 79.6351 o
373.113 67.8402 o
373.764 99.6206 o
374.415 97.3793 o
375.065 110.217 o
375.716 98.7121 o
376.367 123.019 o
377.017 106.819 o
377.668 94.1332 o
378.318 93.0109 o
378.969 104.558 o
379.62 101.046 o
380.27 90.7699 o
380.921 78.712 o
381.571 77.26 o
382.222 81.4069 o
382.873 74.9189 o
383.523 98.8158 o
384.174 88.8411 o
384.824 69.5659 o
385.475 82.5201 o
386.126 101.238 o
386.776 96.8106 o
387.427 94.9781 o
388.078 91.4784 o
388.728 93.1298 o
389.379 101.396 o
390.029 82.2303 o
390.68 101.917 o
391.331 111.145 o
391.981 81.1664 o
392.632 87.1354 o
393.282 106.885 o
393.933 91.5853 o
394.584 101.665 o
395.234 68.9037 o
395.885 109.19 o
396.535 61.4751 o
397.186 85.6403 o
397.837 90.9177 o
398.487 58.9135 o
grestore
0.173 0.627 0.173 setrgbcolor
gsave
357.1 121 57.6 38.02 clipbox
/o {
gsave
newpath
translate
1.0 setlinewidth
1 setlinejoin
0 setlinecap
0 -1.5 m
0.397805 -1.5 0.77937 -1.341951 1.06066 -1.06066 c
1.341951 -0.77937 1.5 -0.397805 1.5 0 c
1.5 0.397805 1.341951 0.77937 1.06066 1.06066 c
0.77937 1.341951 0.397805 1.5 0 1.5 c
-0.397805 1.5 -0.77937 1.341951 -1.06066 1.06066 c
-1.341951 0.77937 -1.5 0.397805 -1.5 0 c
-1.5 -0.397805 -1.341951 -0.77937 -1.06066 -1.06066 c
-0.77937 -1.341951 -0.397805 -1.5 0 -1.5 c
cl

gsave
0.173 0.627 0.173 setrgbcolor
fill
grestore
stroke
grestore
} bind def
73.8327 89.3392 o
74.4833 92.3268 o
75.1339 93.3599 o
75.7846 92.3528 o
76.4352 90.2855 o
77.0858 90.9855 o
77.7364 92.3244 o
78.387 92.9386 o
79.0376 91.4974 o
79.6882 91.2806 o
80.3388 91.3443 o
80.9894 93.753 o
81.6401 90.1693 o
82.2907 92.1106 o
82.9413 93.4811 o
83.5919 92.6556 o
84.2425 93.3371 o
84.8931 91.2679 o
85.5437 90.6207 o
86.1943 91.6746 o
86.8449 89.6606 o
87.4955 90.8478 o
88.1462 91.8197 o
88.7968 92.2434 o
89.4474 93.5266 o
90.098 91.5946 o
90.7486 90.9588 o
91.3992 89.467 o
92.0498 91.6757 o
92.7004 91.4512 o
93.351 94.4255 o
94.0016 93.5892 o
94.6523 91.4382 o
95.3029 92.2689 o
95.9535 87.8892 o
96.6041 92.5612 o
97.2547 90.1867 o
97.9053 91.2133 o
98.5559 93.1413 o
99.2065 94.7419 o
99.8571 90.2651 o
100.508 91.2218 o
101.158 94.151 o
101.809 93.1592 o
102.46 93.3304 o
103.11 93.8093 o
103.761 92.6944 o
104.411 91.0589 o
105.062 90.0831 o
105.713 93.2064 o
106.363 90.7291 o
107.014 92.6827 o
107.664 89.951 o
108.315 91.9032 o
108.966 93.0349 o
109.616 89.4328 o
110.267 88.2756 o
110.918 92.731 o
111.568 91.6935 o
112.219 87.5313 o
112.869 92.5451 o
113.52 92.0633 o
114.171 88.6513 o
114.821 92.4759 o
115.472 90.2234 o
116.122 93.6113 o
116.773 90.17 o
117.424 92.1425 o
118.074 90.5499 o
118.725 91.2365 o
119.375 94.6777 o
120.026 94.319 o
120.677 86.4379 o
121.327 95.212 o
121.978 87.8388 o
122.629 89.729 o
123.279 90.5415 o
123.93 91.9361 o
124.58 94.191 o
125.231 93.3086 o
125.882 93.5413 o
126.532 88.1986 o
127.183 95.8292 o
127.833 91.8283 o
128.484 91.5373 o
129.135 88.9301 o
129.785 91.4753 o
130.436 92.2075 o
131.086 93.255 o
131.737 91.4555 o
132.388 97.0803 o
133.038 94.0052 o
133.689 91.5184 o
134.339 90.5292 o
134.99 96.2656 o
135.641 88.5184 o
136.291 93.3419 o
136.942 93.2761 o
137.593 93.426 o
138.243 92.3952 o
138.894 93.3793 o
139.544 97.2418 o
140.195 88.6693 o
140.846 90.1121 o
141.496 91.4172 o
142.147 88.4754 o
142.797 88.3828 o
143.448 94.0146 o
144.099 92.7984 o
144.749 88.9888 o
145.4 89.8705 o
146.05 99.091 o
146.701 92.8397 o
147.352 97.3303 o
148.002 93.0212 o
148.653 90.1992 o
149.304 90.1914 o
149.954 95.2747 o
150.605 90.2168 o
151.255 92.1402 o
151.906 88.9764 o
152.557 101.41 o
153.207 90.5163 o
153.858 89.4692 o
154.508 94.7772 o
155.159 88.3337 o
155.81 90.6692 o
156.46 96.7696 o
157.111 84.8599 o
157.761 95.8596 o
158.412 99.85 o
159.063 86.5759 o
159.713 98.2312 o
160.364 89.2312 o
161.015 93.9467 o
161.665 97.8305 o
162.316 95.2769 o
162.966 95.09 o
163.617 90.8191 o
164.268 86.9605 o
164.918 95.4904 o
165.569 94.8444 o
166.219 91.6562 o
166.87 90.1675 o
167.521 89.1361 o
168.171 92.5734 o
168.822 88.9831 o
169.472 95.9938 o
170.123 87.757 o
170.774 84.6194 o
171.424 99.9185 o
172.075 91.4356 o
172.725 92.2978 o
173.376 92.1251 o
174.027 97.8229 o
174.677 101.502 o
175.328 95.0566 o
175.979 90.642 o
176.629 89.2882 o
177.28 93.0014 o
177.93 87.562 o
178.581 84.5392 o
179.232 85.6584 o
179.882 92.3067 o
180.533 82.7919 o
181.183 93.0194 o
181.834 85.1652 o
182.485 108.849 o
183.135 88.4403 o
183.786 91.3295 o
184.436 87.1426 o
185.087 104.24 o
185.738 86.4258 o
186.388 93.898 o
187.039 80.8185 o
187.69 95.2131 o
188.34 92.9898 o
188.991 105.229 o
189.641 97.6822 o
190.292 90.1054 o
190.943 92.8598 o
191.593 88.4361 o
192.244 79.6796 o
192.894 102.663 o
193.545 87.0088 o
194.196 96.2978 o
194.846 102.328 o
195.497 93.3556 o
196.147 92.0892 o
196.798 85.2138 o
197.449 84.3368 o
198.099 97.264 o
198.75 88.1182 o
199.401 84.0722 o
200.051 104.301 o
200.702 100.976 o
201.352 85.5492 o
202.003 90.5347 o
202.654 92.4663 o
203.304 92.7959 o
203.955 97.7305 o
204.605 92.7285 o
205.256 77.8439 o
205.907 101.361 o
206.557 96.2848 o
207.208 87.985 o
207.858 91.1424 o
208.509 94.0735 o
209.16 94.9514 o
209.81 87.1382 o
210.461 88.1231 o
211.112 85.671 o
211.762 81.4266 o
212.413 95.7322 o
213.063 84.0178 o
213.714 98.1433 o
214.365 97.7009 o
215.015 86.4287 o
215.666 103.855 o
216.316 101.741 o
216.967 81.9744 o
217.618 79.2053 o
218.268 90.5088 o
218.919 78.462 o
219.569 81.1373 o
220.22 87.1569 o
220.871 84.4818 o
221.521 95.192 o
222.172 79.7722 o
222.822 99.398 o
223.473 99.1398 o
224.124 116.63 o
224.774 88.863 o
225.425 107.249 o
226.076 73.2844 o
226.726 100.602 o
227.377 76.43 o
228.027 82.8701 o
228.678 74.1882 o
229.329 79.3206 o
229.979 94.6547 o
230.63 96.8612 o
231.28 106.621 o
231.931 86.4466 o
232.582 96.9421 o
233.232 95.7974 o
233.883 96.1153 o
234.533 115.695 o
235.184 93.6641 o
235.835 87.6213 o
236.485 90.0339 o
237.136 92.2745 o
237.787 89.6709 o
238.437 84.3473 o
239.088 92.4099 o
239.738 107.95 o
240.389 98.7777 o
241.04 81.6736 o
241.69 82.9519 o
242.341 86.349 o
242.991 82.5755 o
243.642 86.7386 o
244.293 145.856 o
244.943 100.353 o
245.594 91.8304 o
246.244 86.6887 o
246.895 109.908 o
247.546 89.4402 o
248.196 68.0281 o
248.847 88.7938 o
249.498 94.0801 o
250.148 73.0467 o
250.799 95.0145 o
251.449 131.292 o
252.1 91.8367 o
252.751 73.309 o
253.401 82.4255 o
254.052 87.6499 o
254.702 90.6739 o
255.353 109.745 o
256.004 99.4507 o
256.654 94.0412 o
257.305 64.8088 o
257.955 85.6441 o
258.606 79.5032 o
259.257 84.8444 o
259.907 109.7 o
260.558 43.5142 o
261.208 77.8817 o
261.859 76.9034 o
262.51 109.173 o
263.16 112.972 o
263.811 116.748 o
264.462 104.402 o
265.112 80.9515 o
265.763 67.4166 o
266.413 91.8241 o
267.064 81.9161 o
267.715 98.5664 o
268.365 98.3175 o
269.016 86.8411 o
269.666 82.2218 o
270.317 113.462 o
270.968 100.616 o
271.618 76.6005 o
272.269 124.937 o
272.919 90.409 o
273.57 86.7933 o
274.221 86.329 o
274.871 101.562 o
275.522 88.2382 o
276.173 119.921 o
276.823 82.5487 o
277.474 107.61 o
278.124 92.6569 o
278.775 87.0621 o
279.426 80.3064 o
280.076 103.039 o
280.727 93.3878 o
281.377 81.4319 o
282.028 77.6105 o
282.679 108.321 o
283.329 70.6749 o
283.98 77.7153 o
284.63 95.129 o
285.281 70.6948 o
285.932 86.758 o
286.582 95.9537 o
287.233 99.4603 o
287.884 116.515 o
288.534 77.8162 o
289.185 95.3064 o
289.835 93.4365 o
290.486 90.066 o
291.137 90.7085 o
291.787 106.746 o
292.438 78.9483 o
293.088 79.3596 o
293.739 99.8656 o
294.39 101.471 o
295.04 101.146 o
295.691 67.3031 o
296.341 88.5406 o
296.992 80.2247 o
297.643 73.1758 o
298.293 107.607 o
298.944 71.6225 o
299.595 110.981 o
300.245 107.37 o
300.896 119.41 o
301.546 98.7954 o
302.197 97.0382 o
302.848 65.7803 o
303.498 96.8952 o
304.149 97.8278 o
304.799 86.0001 o
305.45 98.6819 o
306.101 117.343 o
306.751 79.7714 o
307.402 102.893 o
308.052 95.5554 o
308.703 81.2365 o
309.354 82.2418 o
310.004 113.997 o
310.655 48.9001 o
311.305 83.6892 o
311.956 74.3573 o
312.607 68.8435 o
313.257 90.9704 o
313.908 81.7135 o
314.559 84.0939 o
315.209 101.342 o
315.86 95.1722 o
316.51 98.7188 o
317.161 153.478 o
317.812 80.8922 o
318.462 76.2915 o
319.113 112.483 o
319.763 98.9209 o
320.414 90.4264 o
321.065 89.3419 o
321.715 89.7299 o
322.366 96.6985 o
323.016 107.138 o
323.667 133.574 o
324.318 86.6123 o
324.968 72.2035 o
325.619 86.7166 o
326.27 82.6536 o
326.92 71.143 o
327.571 94.1452 o
328.221 69.6837 o
328.872 84.2542 o
329.523 81.5722 o
330.173 119.786 o
330.824 94.5825 o
331.474 102.399 o
332.125 73.3396 o
332.776 65.1425 o
333.426 97.8057 o
334.077 99.253 o
334.727 84.2901 o
335.378 132.677 o
336.029 90.6064 o
336.679 88.3039 o
337.33 91.3061 o
337.981 90.3665 o
338.631 96.3022 o
339.282 109.059 o
339.932 108.231 o
340.583 75.4517 o
341.234 105.98 o
341.884 100.075 o
342.535 75.4675 o
343.185 111.14 o
343.836 86.3521 o
344.487 109.75 o
345.137 102.652 o
345.788 71.274 o
346.438 104.935 o
347.089 68.6252 o
347.74 67.8704 o
348.39 76.3116 o
349.041 98.5618 o
349.691 97.5905 o
350.342 87.7338 o
350.993 96.2182 o
351.643 88.9976 o
352.294 90.9618 o
352.945 88.0501 o
353.595 71.1124 o
354.246 63.3519 o
354.896 71.8436 o
355.547 98.9552 o
356.198 98.2112 o
356.848 83.617 o
357.499 125.597 o
358.149 119.187 o
358.8 94.2755 o
359.451 84.7759 o
360.101 112.388 o
360.752 79.6082 o
361.402 102.597 o
362.053 82.7221 o
362.704 73.1787 o
363.354 91.384 o
364.005 84.1712 o
364.656 86.5047 o
365.306 73.815 o
365.957 92.539 o
366.607 118.557 o
367.258 72.2029 o
367.909 89.9848 o
368.559 96.4845 o
369.21 85.8519 o
369.86 75.2978 o
370.511 67.232 o
371.162 95.9535 o
371.812 91.2582 o
372.463 94.2127 o
373.113 94.5401 o
373.764 93.7941 o
374.415 99.1444 o
375.065 97.3544 o
375.716 78.7675 o
376.367 102.289 o
377.017 116.967 o
377.668 97.193 o
378.318 72.2125 o
378.969 112.199 o
379.62 84.4406 o
380.27 104.049 o
380.921 79.174 o
381.571 85.0226 o
382.222 84.917 o
382.873 103.313 o
383.523 87.3286 o
384.174 85.8744 o
384.824 94.8618 o
385.475 84.1247 o
386.126 88.772 o
386.776 97.3067 o
387.427 90.0366 o
388.078 84.2059 o
388.728 82.4584 o
389.379 94.9077 o
390.029 76.4365 o
390.68 113.207 o
391.331 101.309 o
391.981 54.1658 o
392.632 75.6879 o
393.282 84.9262 o
393.933 88.5724 o
394.584 93.5106 o
395.234 95.465 o
395.885 102.405 o
396.535 97.1612 o
397.186 113.938 o
397.837 92.7432 o
398.487 98.0705 o
grestore
0.800 setlinewidth
0 setlinejoin
2 setlinecap
[] 0 setdash
0.000 setgray
gsave
57.6 38.016 m
57.6 158.976 l
stroke
grestore
gsave
414.72 38.016 m
414.72 158.976 l
stroke
grestore
gsave
57.6 38.016 m
414.72 38.016 l
stroke
grestore
gsave
57.6 158.976 m
414.72 158.976 l
stroke
grestore
1.000 setlinewidth
0 setlinecap
0.800 setgray
gsave
64.6 106.960375 m
121.490625 106.960375 l
122.823958 106.960375 123.490625 107.627042 123.490625 108.960375 c
123.490625 151.976 l
123.490625 153.309333 122.823958 153.976 121.490625 153.976 c
64.6 153.976 l
63.266667 153.976 62.6 153.309333 62.6 151.976 c
62.6 108.960375 l
62.6 107.627042 63.266667 106.960375 64.6 106.960375 c
cl
gsave
1.000 setgray
fill
grestore
stroke
grestore
1 setlinejoin
[] 0 setdash
0.122 0.467 0.706 setrgbcolor
gsave
/o {
gsave
newpath
translate
1.0 setlinewidth
1 setlinejoin
0 setlinecap
0 -1.5 m
0.397805 -1.5 0.77937 -1.341951 1.06066 -1.06066 c
1.341951 -0.77937 1.5 -0.397805 1.5 0 c
1.5 0.397805 1.341951 0.77937 1.06066 1.06066 c
0.77937 1.341951 0.397805 1.5 0 1.5 c
-0.397805 1.5 -0.77937 1.341951 -1.06066 1.06066 c
-1.341951 0.77937 -1.5 0.397805 -1.5 0 c
-1.5 -0.397805 -1.341951 -0.77937 -1.06066 -1.06066 c
-0.77937 -1.341951 -0.397805 -1.5 0 -1.5 c
cl

gsave
0.122 0.467 0.706 setrgbcolor
fill
grestore
stroke
grestore
} bind def
76.6 145.882 o
grestore
0.000 setgray
gsave
94.600000 142.382250 translate
0.000000 rotate
0.000000 0.000000 m /r glyphshow
4.111328 0.000000 m /o glyphshow
10.229492 0.000000 m /l glyphshow
13.007812 0.000000 m /l glyphshow
grestore
1.000 0.498 0.055 setrgbcolor
gsave
/o {
gsave
newpath
translate
1.0 setlinewidth
1 setlinejoin
0 setlinecap
0 -1.5 m
0.397805 -1.5 0.77937 -1.341951 1.06066 -1.06066 c
1.341951 -0.77937 1.5 -0.397805 1.5 0 c
1.5 0.397805 1.341951 0.77937 1.06066 1.06066 c
0.77937 1.341951 0.397805 1.5 0 1.5 c
-0.397805 1.5 -0.77937 1.341951 -1.06066 1.06066 c
-1.341951 0.77937 -1.5 0.397805 -1.5 0 c
-1.5 -0.397805 -1.341951 -0.77937 -1.06066 -1.06066 c
-0.77937 -1.341951 -0.397805 -1.5 0 -1.5 c
cl

gsave
1.000 0.498 0.055 setrgbcolor
fill
grestore
stroke
grestore
} bind def
76.6 131.21 o
grestore
0.000 setgray
gsave
94.600000 127.710375 translate
0.000000 rotate
0.000000 0.000000 m /p glyphshow
6.347656 0.000000 m /i glyphshow
9.125977 0.000000 m /t glyphshow
13.046875 0.000000 m /c glyphshow
18.544922 0.000000 m /h glyphshow
grestore
0.173 0.627 0.173 setrgbcolor
gsave
/o {
gsave
newpath
translate
1.0 setlinewidth
1 setlinejoin
0 setlinecap
0 -1.5 m
0.397805 -1.5 0.77937 -1.341951 1.06066 -1.06066 c
1.341951 -0.77937 1.5 -0.397805 1.5 0 c
1.5 0.397805 1.341951 0.77937 1.06066 1.06066 c
0.77937 1.341951 0.397805 1.5 0 1.5 c
-0.397805 1.5 -0.77937 1.341951 -1.06066 1.06066 c
-1.341951 0.77937 -1.5 0.397805 -1.5 0 c
-1.5 -0.397805 -1.341951 -0.77937 -1.06066 -1.06066 c
-0.77937 -1.341951 -0.397805 -1.5 0 -1.5 c
cl

gsave
0.173 0.627 0.173 setrgbcolor
fill
grestore
stroke
grestore
} bind def
76.6 116.538 o
grestore
0.000 setgray
gsave
94.600000 113.038500 translate
0.000000 rotate
0.000000 0.000000 m /y glyphshow
5.917969 0.000000 m /a glyphshow
12.045898 0.000000 m /w glyphshow
grestore

end
showpage
