%!PS-Adobe-3.0 EPSF-3.0
%%Title: figures/simsetup2.eps
%%Creator: matplotlib version 2.0.0, http://matplotlib.org/
%%CreationDate: Tue Feb 28 10:49:08 2017
%%Orientation: portrait
%%BoundingBox: 75 223 536 568
%%EndComments
%%BeginProlog
/mpldict 8 dict def
mpldict begin
/m { moveto } bind def
/l { lineto } bind def
/r { rlineto } bind def
/c { curveto } bind def
/cl { closepath } bind def
/box {
m
1 index 0 r
0 exch r
neg 0 r
cl
} bind def
/clipbox {
box
clip
newpath
} bind def
%!PS-Adobe-3.0 Resource-Font
%%Title: DejaVu Sans
%%Copyright: Copyright (c) 2003 by Bitstream, Inc. All Rights Reserved. Copyright (c) 2006 by Tavmjong Bah. All Rights Reserved. DejaVu changes are in public domain 
%%Creator: Converted from TrueType to type 3 by PPR
25 dict begin
/_d{bind def}bind def
/_m{moveto}_d
/_l{lineto}_d
/_cl{closepath eofill}_d
/_c{curveto}_d
/_sc{7 -1 roll{setcachedevice}{pop pop pop pop pop pop}ifelse}_d
/_e{exec}_d
/FontName /DejaVuSans def
/PaintType 0 def
/FontMatrix[.001 0 0 .001 0 0]def
/FontBBox[-1021 -463 1793 1232]def
/FontType 3 def
/Encoding [ /zero /one /two /four /six /eight /minus ] def
/FontInfo 10 dict dup begin
/FamilyName (DejaVu Sans) def
/FullName (DejaVu Sans) def
/Notice (Copyright (c) 2003 by Bitstream, Inc. All Rights Reserved. Copyright (c) 2006 by Tavmjong Bah. All Rights Reserved. DejaVu changes are in public domain ) def
/Weight (Book) def
/Version (Version 2.35) def
/ItalicAngle 0.0 def
/isFixedPitch false def
/UnderlinePosition -130 def
/UnderlineThickness 90 def
end readonly def
/CharStrings 7 dict dup begin
/zero{636 0 66 -13 570 742 _sc
318 664 _m
267 664 229 639 203 589 _c
177 539 165 464 165 364 _c
165 264 177 189 203 139 _c
229 89 267 64 318 64 _c
369 64 407 89 433 139 _c
458 189 471 264 471 364 _c
471 464 458 539 433 589 _c
407 639 369 664 318 664 _c
318 742 _m
399 742 461 709 505 645 _c
548 580 570 486 570 364 _c
570 241 548 147 505 83 _c
461 19 399 -13 318 -13 _c
236 -13 173 19 130 83 _c
87 147 66 241 66 364 _c
66 486 87 580 130 645 _c
173 709 236 742 318 742 _c
_cl}_d
/one{636 0 110 0 544 729 _sc
124 83 _m
285 83 _l
285 639 _l
110 604 _l
110 694 _l
284 729 _l
383 729 _l
383 83 _l
544 83 _l
544 0 _l
124 0 _l
124 83 _l
_cl}_d
/two{{636 0 73 0 536 742 _sc
192 83 _m
536 83 _l
536 0 _l
73 0 _l
73 83 _l
110 121 161 173 226 239 _c
290 304 331 346 348 365 _c
380 400 402 430 414 455 _c
426 479 433 504 433 528 _c
433 566 419 598 392 622 _c
365 646 330 659 286 659 _c
255 659 222 653 188 643 _c
154 632 117 616 78 594 _c
78 694 _l
118 710 155 722 189 730 _c
223 738 255 742 284 742 _c
}_e{359 742 419 723 464 685 _c
509 647 532 597 532 534 _c
532 504 526 475 515 449 _c
504 422 484 390 454 354 _c
446 344 420 317 376 272 _c
332 227 271 164 192 83 _c
_cl}_e}_d
/four{636 0 49 0 580 729 _sc
378 643 _m
129 254 _l
378 254 _l
378 643 _l
352 729 _m
476 729 _l
476 254 _l
580 254 _l
580 172 _l
476 172 _l
476 0 _l
378 0 _l
378 172 _l
49 172 _l
49 267 _l
352 729 _l
_cl}_d
/six{{636 0 70 -13 573 742 _sc
330 404 _m
286 404 251 388 225 358 _c
199 328 186 286 186 234 _c
186 181 199 139 225 109 _c
251 79 286 64 330 64 _c
374 64 409 79 435 109 _c
461 139 474 181 474 234 _c
474 286 461 328 435 358 _c
409 388 374 404 330 404 _c
526 713 _m
526 623 _l
501 635 476 644 451 650 _c
425 656 400 659 376 659 _c
310 659 260 637 226 593 _c
}_e{192 549 172 482 168 394 _c
187 422 211 444 240 459 _c
269 474 301 482 336 482 _c
409 482 467 459 509 415 _c
551 371 573 310 573 234 _c
573 159 550 99 506 54 _c
462 9 403 -13 330 -13 _c
246 -13 181 19 137 83 _c
92 147 70 241 70 364 _c
70 479 97 571 152 639 _c
206 707 280 742 372 742 _c
396 742 421 739 447 735 _c
472 730 498 723 526 713 _c
_cl}_e}_d
/eight{{636 0 68 -13 568 742 _sc
318 346 _m
271 346 234 333 207 308 _c
180 283 167 249 167 205 _c
167 161 180 126 207 101 _c
234 76 271 64 318 64 _c
364 64 401 76 428 102 _c
455 127 469 161 469 205 _c
469 249 455 283 429 308 _c
402 333 365 346 318 346 _c
219 388 _m
177 398 144 418 120 447 _c
96 476 85 511 85 553 _c
85 611 105 657 147 691 _c
188 725 245 742 318 742 _c
}_e{390 742 447 725 489 691 _c
530 657 551 611 551 553 _c
551 511 539 476 515 447 _c
491 418 459 398 417 388 _c
464 377 501 355 528 323 _c
554 291 568 251 568 205 _c
568 134 546 80 503 43 _c
459 5 398 -13 318 -13 _c
237 -13 175 5 132 43 _c
89 80 68 134 68 205 _c
68 251 81 291 108 323 _c
134 355 171 377 219 388 _c
183 544 _m
183 506 194 476 218 455 _c
}_e{242 434 275 424 318 424 _c
360 424 393 434 417 455 _c
441 476 453 506 453 544 _c
453 582 441 611 417 632 _c
393 653 360 664 318 664 _c
275 664 242 653 218 632 _c
194 611 183 582 183 544 _c
_cl}_e}_d
/minus{838 0 106 272 732 355 _sc
106 355 _m
732 355 _l
732 272 _l
106 272 _l
106 355 _l
_cl}_d
end readonly def

/BuildGlyph
 {exch begin
 CharStrings exch
 2 copy known not{pop /.notdef}if
 true 3 1 roll get exec
 end}_d

/BuildChar {
 1 index /Encoding get exch get
 1 index /BuildGlyph get exec
}_d

FontName currentdict end definefont pop
end
%%EndProlog
mpldict begin
75.6 223.2 translate
460.8 345.6 0 0 clipbox
gsave
0 0 m
460.8 0 l
460.8 345.6 l
0 345.6 l
cl
1.000 setgray
fill
grestore
gsave
57.6 38.016 m
414.72 38.016 l
414.72 304.128 l
57.6 304.128 l
cl
1.000 setgray
fill
grestore
1.000 setlinewidth
0 setlinejoin
0 setlinecap
[] 0 setdash
0.950 setgray
gsave
104.941774 96.817374 m
207.151387 162.062006 l
205.449705 286.733791 l
97.541237 228.11283 l
gsave
fill
grestore
stroke
grestore
0.900 setgray
gsave
207.151387 162.062006 m
372.72135 125.586046 l
379.648599 254.017258 l
205.449705 286.733791 l
gsave
fill
grestore
stroke
grestore
0.925 setgray
gsave
104.941774 96.817374 m
279.143747 54.335175 l
372.72135 125.586046 l
207.151387 162.062006 l
gsave
fill
grestore
stroke
grestore
0.800 setlinewidth
1 setlinejoin
2 setlinecap
[] 0 setdash
0.000 setgray
gsave
104.941774 96.817374 m
279.143747 54.335175 l
stroke
grestore
0 setlinecap
0.690 setgray
gsave
114.591361 94.464153 m
216.351918 160.035079 l
215.109841 284.919508 l
stroke
grestore
gsave
132.659657 90.057883 m
233.57018 156.241803 l
233.194505 281.523002 l
stroke
grestore
gsave
150.903646 85.608767 m
250.943705 152.414321 l
251.450545 278.09431 l
stroke
grestore
gsave
169.325903 81.116177 m
268.474604 148.552169 l
269.880411 274.632972 l
stroke
grestore
gsave
187.929054 76.579474 m
286.165024 144.654874 l
288.486595 271.138519 l
stroke
grestore
gsave
206.715777 71.998003 m
304.017153 140.721953 l
307.27164 267.610474 l
stroke
grestore
gsave
225.688801 67.371099 m
322.033217 136.752917 l
326.238138 264.04835 l
stroke
grestore
gsave
244.850912 62.698083 m
340.215487 132.747264 l
345.388731 260.451651 l
stroke
grestore
gsave
264.204951 57.978262 m
358.566271 128.704487 l
364.726112 256.819871 l
stroke
grestore
2 setlinecap
0.000 setgray
gsave
115.468064 95.02907 m
112.834685 93.332213 l
stroke
grestore
/DejaVuSans findfont
10.000 scalefont
setfont
gsave
99.904175 73.000983 translate
0.000000 rotate
0.000000 0.000000 m /minus glyphshow
8.378906 0.000000 m /six glyphshow
grestore
gsave
133.529337 90.628278 m
130.917038 88.914956 l
stroke
grestore
gsave
117.970321 68.519355 translate
0.000000 rotate
0.000000 0.000000 m /minus glyphshow
8.378906 0.000000 m /four glyphshow
grestore
gsave
151.766125 86.18472 m
149.175441 84.454692 l
stroke
grestore
gsave
136.212465 63.994067 translate
0.000000 rotate
0.000000 0.000000 m /minus glyphshow
8.378906 0.000000 m /two glyphshow
grestore
gsave
170.180998 81.69777 m
167.612478 79.950791 l
stroke
grestore
gsave
158.820690 59.424479 translate
0.000000 rotate
0.000000 0.000000 m /zero glyphshow
grestore
gsave
188.776579 77.166789 m
186.230784 75.402609 l
stroke
grestore
gsave
177.422634 54.809937 translate
0.000000 rotate
0.000000 0.000000 m /two glyphshow
grestore
gsave
207.555539 72.591126 m
205.033044 70.809489 l
stroke
grestore
gsave
196.208482 50.149774 translate
0.000000 rotate
0.000000 0.000000 m /four glyphshow
grestore
gsave
226.520605 67.970117 m
224.021999 66.170762 l
stroke
grestore
gsave
215.180975 45.443310 translate
0.000000 rotate
0.000000 0.000000 m /six glyphshow
grestore
gsave
245.674557 63.303084 m
243.200443 61.485746 l
stroke
grestore
gsave
234.342910 40.689852 translate
0.000000 rotate
0.000000 0.000000 m /eight glyphshow
grestore
gsave
265.020232 58.589336 m
262.571227 56.753744 l
stroke
grestore
gsave
250.517449 35.888693 translate
0.000000 rotate
0.000000 0.000000 m /one glyphshow
6.362305 0.000000 m /zero glyphshow
grestore
gsave
372.72135 125.586046 m
279.143747 54.335175 l
stroke
grestore
0 setlinecap
0.690 setgray
gsave
106.356277 232.901575 m
113.261422 102.12815 l
286.784267 60.152739 l
stroke
grestore
gsave
122.793251 241.830913 m
128.788807 112.039923 l
301.032992 71.001853 l
stroke
grestore
gsave
138.854458 250.556117 m
143.97903 121.736472 l
314.958264 81.604687 l
stroke
grestore
gsave
154.552638 259.084108 m
158.842954 131.224731 l
328.570974 91.969533 l
stroke
grestore
gsave
169.899961 267.421496 m
173.390982 140.511341 l
341.881528 102.104315 l
stroke
grestore
gsave
184.908059 275.574602 m
187.633079 149.602661 l
354.899877 112.016608 l
stroke
grestore
gsave
199.588058 283.549468 m
201.578793 158.504789 l
367.635537 121.713661 l
stroke
grestore
2 setlinecap
0.000 setgray
gsave
285.332097 60.504021 m
289.691849 59.449391 l
stroke
grestore
gsave
292.103168 40.412830 translate
0.000000 rotate
0.000000 0.000000 m /minus glyphshow
8.378906 0.000000 m /eight glyphshow
grestore
gsave
299.592252 71.345116 m
303.917652 70.314567 l
stroke
grestore
gsave
306.199150 51.395856 translate
0.000000 rotate
0.000000 0.000000 m /minus glyphshow
8.378906 0.000000 m /six glyphshow
grestore
gsave
313.528812 81.940204 m
317.820288 80.93292 l
stroke
grestore
gsave
319.975306 62.129687 translate
0.000000 rotate
0.000000 0.000000 m /minus glyphshow
8.378906 0.000000 m /four glyphshow
grestore
gsave
327.152669 92.297563 m
331.410645 91.312765 l
stroke
grestore
gsave
333.442399 72.622708 translate
0.000000 rotate
0.000000 0.000000 m /minus glyphshow
8.378906 0.000000 m /two glyphshow
grestore
gsave
340.47423 102.425105 m
344.699128 101.462049 l
stroke
grestore
gsave
350.798214 82.882933 translate
0.000000 rotate
0.000000 0.000000 m /zero glyphshow
grestore
gsave
353.503446 112.330396 m
357.695685 111.38837 l
stroke
grestore
gsave
363.677584 92.918025 translate
0.000000 rotate
0.000000 0.000000 m /two glyphshow
grestore
gsave
366.249837 122.020673 m
370.40983 121.098995 l
stroke
grestore
gsave
376.277418 102.735312 translate
0.000000 rotate
0.000000 0.000000 m /four glyphshow
grestore
gsave
372.72135 125.586046 m
379.648599 254.017258 l
stroke
grestore
0 setlinecap
0.690 setgray
gsave
373.141488 133.375407 m
207.047968 169.638844 l
104.493657 104.767584 l
stroke
grestore
gsave
374.233704 153.625107 m
206.779243 189.326684 l
103.328265 125.443203 l
stroke
grestore
gsave
375.344125 174.212308 m
206.506229 209.328794 l
102.1428 146.474926 l
stroke
grestore
gsave
376.473209 195.14552 m
206.228821 229.652759 l
100.936741 167.872032 l
stroke
grestore
gsave
377.62143 216.43354 m
205.946913 250.306411 l
99.709546 189.644127 l
stroke
grestore
gsave
378.789279 238.085465 m
205.660395 271.297837 l
98.460653 211.801155 l
stroke
grestore
2 setlinecap
0.000 setgray
gsave
371.75555 133.678001 m
375.916253 132.769589 l
stroke
grestore
gsave
388.351019 127.739892 translate
0.000000 rotate
0.000000 0.000000 m /zero glyphshow
grestore
gsave
372.835934 153.923114 m
377.032183 153.028466 l
stroke
grestore
gsave
389.592398 147.959878 translate
0.000000 rotate
0.000000 0.000000 m /two glyphshow
grestore
gsave
373.934319 174.505533 m
378.166726 173.625237 l
stroke
grestore
gsave
390.854420 168.516101 translate
0.000000 rotate
0.000000 0.000000 m /four glyphshow
grestore
gsave
375.051157 195.433759 m
379.320351 194.568426 l
stroke
grestore
gsave
392.137604 189.417018 translate
0.000000 rotate
0.000000 0.000000 m /six glyphshow
grestore
gsave
376.186919 216.716581 m
380.493543 215.866847 l
stroke
grestore
gsave
393.442486 210.671373 translate
0.000000 rotate
0.000000 0.000000 m /eight glyphshow
grestore
gsave
377.342089 238.363088 m
381.686805 237.529615 l
stroke
grestore
gsave
391.589936 232.288207 translate
0.000000 rotate
0.000000 0.000000 m /one glyphshow
6.362305 0.000000 m /zero glyphshow
grestore
/p0_0 {
newpath
translate
0 -2.236068 m
0.593012 -2.236068 1.161816 -2.000462 1.581139 -1.581139 c
2.000462 -1.161816 2.236068 -0.593012 2.236068 0 c
2.236068 0.593012 2.000462 1.161816 1.581139 1.581139 c
1.161816 2.000462 0.593012 2.236068 0 2.236068 c
-0.593012 2.236068 -1.161816 2.000462 -1.581139 1.581139 c
-2.000462 1.161816 -2.236068 0.593012 -2.236068 0 c
-2.236068 -0.593012 -2.000462 -1.161816 -1.581139 -1.581139 c
-1.161816 -2.000462 -0.593012 -2.236068 0 -2.236068 c
cl

} bind def
1.000 setlinewidth
0 setlinecap
0.580 0.404 0.741 setrgbcolor
gsave
357.1 266.1 57.6 38.02 clipbox
242.802 191.08 p0_0
gsave
fill
grestore
stroke
grestore
gsave
357.1 266.1 57.6 38.02 clipbox
247.93 189.655 p0_0
gsave
fill
grestore
stroke
grestore
gsave
357.1 266.1 57.6 38.02 clipbox
241.571 191.272 p0_0
gsave
fill
grestore
stroke
grestore
gsave
357.1 266.1 57.6 38.02 clipbox
244.814 196.525 p0_0
gsave
fill
grestore
stroke
grestore
gsave
357.1 266.1 57.6 38.02 clipbox
246.684 189.852 p0_0
gsave
fill
grestore
stroke
grestore
/p1_0 {
newpath
translate
0 -2.236068 m
0.593012 -2.236068 1.161816 -2.000462 1.581139 -1.581139 c
2.000462 -1.161816 2.236068 -0.593012 2.236068 0 c
2.236068 0.593012 2.000462 1.161816 1.581139 1.581139 c
1.161816 2.000462 0.593012 2.236068 0 2.236068 c
-0.593012 2.236068 -1.161816 2.000462 -1.581139 1.581139 c
-2.000462 1.161816 -2.236068 0.593012 -2.236068 0 c
-2.236068 -0.593012 -2.000462 -1.161816 -1.581139 -1.581139 c
-1.161816 -2.000462 -0.593012 -2.236068 0 -2.236068 c
cl

} bind def
0.549 0.337 0.294 setrgbcolor
gsave
357.1 266.1 57.6 38.02 clipbox
217.766 199.586 p1_0
gsave
fill
grestore
stroke
grestore
gsave
357.1 266.1 57.6 38.02 clipbox
222.461 197.782 p1_0
gsave
fill
grestore
stroke
grestore
gsave
357.1 266.1 57.6 38.02 clipbox
215.361 199.363 p1_0
gsave
fill
grestore
stroke
grestore
gsave
357.1 266.1 57.6 38.02 clipbox
219.866 204.938 p1_0
gsave
fill
grestore
stroke
grestore
gsave
357.1 266.1 57.6 38.02 clipbox
220.049 197.564 p1_0
gsave
fill
grestore
stroke
grestore
/p2_0 {
newpath
translate
0 -2.236068 m
0.593012 -2.236068 1.161816 -2.000462 1.581139 -1.581139 c
2.000462 -1.161816 2.236068 -0.593012 2.236068 0 c
2.236068 0.593012 2.000462 1.161816 1.581139 1.581139 c
1.161816 2.000462 0.593012 2.236068 0 2.236068 c
-0.593012 2.236068 -1.161816 2.000462 -1.581139 1.581139 c
-2.000462 1.161816 -2.236068 0.593012 -2.236068 0 c
-2.236068 -0.593012 -2.000462 -1.161816 -1.581139 -1.581139 c
-1.161816 -2.000462 -0.593012 -2.236068 0 -2.236068 c
cl

} bind def
0.839 0.153 0.157 setrgbcolor
gsave
357.1 266.1 57.6 38.02 clipbox
256.93 177.532 p2_0
gsave
fill
grestore
stroke
grestore
gsave
357.1 266.1 57.6 38.02 clipbox
262.304 176.392 p2_0
gsave
fill
grestore
stroke
grestore
gsave
357.1 266.1 57.6 38.02 clipbox
256.935 178.235 p2_0
gsave
fill
grestore
stroke
grestore
gsave
357.1 266.1 57.6 38.02 clipbox
258.691 183.014 p2_0
gsave
fill
grestore
stroke
grestore
gsave
357.1 266.1 57.6 38.02 clipbox
262.29 177.098 p2_0
gsave
fill
grestore
stroke
grestore
2.000 setlinewidth
2 setlinecap
0.122 0.467 0.706 setrgbcolor
gsave
357.1 266.1 57.6 38.02 clipbox
235.735767 134.081506 m
235.735767 134.081506 l
stroke
grestore
1.000 0.498 0.055 setrgbcolor
gsave
357.1 266.1 57.6 38.02 clipbox
235.735767 134.081506 m
249.262663 131.025383 l
stroke
grestore
0.173 0.627 0.173 setrgbcolor
gsave
357.1 266.1 57.6 38.02 clipbox
235.735767 134.081506 m
246.151991 141.103252 l
stroke
grestore
0.839 0.153 0.157 setrgbcolor
gsave
357.1 266.1 57.6 38.02 clipbox
235.735767 134.081506 m
235.703317 149.229479 l
stroke
grestore
0.580 0.404 0.741 setrgbcolor
gsave
357.1 266.1 57.6 38.02 clipbox
235.735767 134.081506 m
259.605717 138.096286 l
stroke
grestore
1.500 setlinewidth
0.549 0.337 0.294 setrgbcolor
gsave
357.1 266.1 57.6 38.02 clipbox
240.232666 138.097571 m
244.908368 142.205355 l
248.07433 145.295818 l
250.671535 148.155643 l
252.876289 150.935901 l
254.661559 153.55644 l
256.043212 155.951678 l
257.219268 158.429436 l
258.156541 160.975894 l
258.746656 163.20187 l
259.121437 165.457181 l
259.265273 167.73127 l
259.164522 170.013217 l
258.807633 172.291841 l
258.185244 174.555793 l
257.458589 176.42298 l
256.539726 178.265459 l
255.426929 180.076691 l
253.834851 182.199846 l
251.963948 184.257807 l
249.817819 186.240001 l
247.402445 188.13627 l
244.726148 189.936941 l
241.799555 191.6329 l
238.63554 193.215652 l
235.249161 194.677379 l
231.657589 196.010998 l
227.233807 197.396616 l
222.59078 198.59076 l
217.76574 199.586499 l
212.799107 200.378623 l
207.734253 200.96372 l
202.617254 201.340257 l
197.496624 201.508638 l
192.42302 201.471278 l
187.448933 201.232647 l
182.628344 200.799328 l
178.01635 200.180056 l
173.668761 199.385746 l
169.641644 198.429518 l
165.99084 197.326696 l
163.202876 196.277965 l
160.7658 195.146669 l
158.712524 193.946248 l
157.317483 192.903554 l
156.22837 191.831919 l
155.461688 190.740806 l
155.090907 189.860543 l
154.943741 188.97943 l
155.027003 188.1029 l
155.346916 187.236532 l
155.909067 186.386033 l
156.718358 185.557224 l
157.778958 184.756016 l
159.463207 183.802444 l
161.550184 182.913146 l
164.042571 182.099967 l
166.940801 181.374726 l
170.242955 180.749134 l
174.732394 180.14616 l
179.784719 179.722609 l
185.38223 179.497027 l
191.501806 179.486922 l
198.114905 179.708538 l
205.187642 180.176628 l
212.680945 180.90424 l
220.550797 181.902524 l
228.748552 183.180545 l
237.221331 184.745133 l
245.912497 186.600752 l
254.762192 188.749406 l
263.707928 191.190572 l
271.189604 193.446185 l
278.655192 195.899719 l
286.066305 198.54684 l
293.384488 201.382035 l
300.571499 204.398657 l
307.589589 207.588974 l
314.401767 210.944233 l
320.972061 214.454731 l
327.265759 218.109895 l
332.079181 221.130576 l
336.678035 224.230445 l
336.678035 224.230445 l
stroke
grestore
2.000 setlinewidth
0.890 0.467 0.761 setrgbcolor
gsave
357.1 266.1 57.6 38.02 clipbox
250.671535 148.155643 m
250.671535 148.155643 l
stroke
grestore
0.498 setgray
gsave
357.1 266.1 57.6 38.02 clipbox
250.671535 148.155643 m
255.768895 147.223343 l
stroke
grestore
0.737 0.741 0.133 setrgbcolor
gsave
357.1 266.1 57.6 38.02 clipbox
250.671535 148.155643 m
253.13806 149.990875 l
stroke
grestore
0.090 0.745 0.812 setrgbcolor
gsave
357.1 266.1 57.6 38.02 clipbox
250.671535 148.155643 m
251.40234 153.446342 l
stroke
grestore
0.122 0.467 0.706 setrgbcolor
gsave
357.1 266.1 57.6 38.02 clipbox
250.671535 148.155643 m
258.220643 149.062342 l
stroke
grestore
1.000 0.498 0.055 setrgbcolor
gsave
357.1 266.1 57.6 38.02 clipbox
258.477467 162.084572 m
258.477467 162.084572 l
stroke
grestore
0.173 0.627 0.173 setrgbcolor
gsave
357.1 266.1 57.6 38.02 clipbox
258.477467 162.084572 m
263.857237 161.112172 l
stroke
grestore
0.839 0.153 0.157 setrgbcolor
gsave
357.1 266.1 57.6 38.02 clipbox
258.477467 162.084572 m
259.743852 163.352784 l
stroke
grestore
0.580 0.404 0.741 setrgbcolor
gsave
357.1 266.1 57.6 38.02 clipbox
258.477467 162.084572 m
259.809551 167.519842 l
stroke
grestore
0.549 0.337 0.294 setrgbcolor
gsave
357.1 266.1 57.6 38.02 clipbox
258.477467 162.084572 m
265.10537 162.383275 l
stroke
grestore
0.890 0.467 0.761 setrgbcolor
gsave
357.1 266.1 57.6 38.02 clipbox
256.930473 177.531852 m
256.930473 177.531852 l
stroke
grestore
0.498 setgray
gsave
357.1 266.1 57.6 38.02 clipbox
256.930473 177.531852 m
262.303665 176.391704 l
stroke
grestore
0.737 0.741 0.133 setrgbcolor
gsave
357.1 266.1 57.6 38.02 clipbox
256.930473 177.531852 m
256.935156 178.234592 l
stroke
grestore
0.090 0.745 0.812 setrgbcolor
gsave
357.1 266.1 57.6 38.02 clipbox
256.930473 177.531852 m
258.691255 183.013626 l
stroke
grestore
0.122 0.467 0.706 setrgbcolor
gsave
357.1 266.1 57.6 38.02 clipbox
256.930473 177.531852 m
262.290493 177.097531 l
stroke
grestore
1.000 0.498 0.055 setrgbcolor
gsave
357.1 266.1 57.6 38.02 clipbox
242.802148 191.079753 m
242.802148 191.079753 l
stroke
grestore
0.173 0.627 0.173 setrgbcolor
gsave
357.1 266.1 57.6 38.02 clipbox
242.802148 191.079753 m
247.929503 189.655065 l
stroke
grestore
0.839 0.153 0.157 setrgbcolor
gsave
357.1 266.1 57.6 38.02 clipbox
242.802148 191.079753 m
241.570521 191.272421 l
stroke
grestore
0.580 0.404 0.741 setrgbcolor
gsave
357.1 266.1 57.6 38.02 clipbox
242.802148 191.079753 m
244.813967 196.524589 l
stroke
grestore
0.549 0.337 0.294 setrgbcolor
gsave
357.1 266.1 57.6 38.02 clipbox
242.802148 191.079753 m
246.683926 189.851858 l
stroke
grestore
0.890 0.467 0.761 setrgbcolor
gsave
357.1 266.1 57.6 38.02 clipbox
217.76574 199.586499 m
217.76574 199.586499 l
stroke
grestore
0.498 setgray
gsave
357.1 266.1 57.6 38.02 clipbox
217.76574 199.586499 m
222.460886 197.782445 l
stroke
grestore
0.737 0.741 0.133 setrgbcolor
gsave
357.1 266.1 57.6 38.02 clipbox
217.76574 199.586499 m
215.361467 199.362982 l
stroke
grestore
0.090 0.745 0.812 setrgbcolor
gsave
357.1 266.1 57.6 38.02 clipbox
217.76574 199.586499 m
219.866463 204.937621 l
stroke
grestore
0.122 0.467 0.706 setrgbcolor
gsave
357.1 266.1 57.6 38.02 clipbox
217.76574 199.586499 m
220.049131 197.564388 l
stroke
grestore
1.000 0.498 0.055 setrgbcolor
gsave
357.1 266.1 57.6 38.02 clipbox
188.151392 201.278833 m
188.151392 201.278833 l
stroke
grestore
0.173 0.627 0.173 setrgbcolor
gsave
357.1 266.1 57.6 38.02 clipbox
188.151392 201.278833 m
192.251273 199.025396 l
stroke
grestore
0.839 0.153 0.157 setrgbcolor
gsave
357.1 266.1 57.6 38.02 clipbox
188.151392 201.278833 m
184.643013 200.751374 l
stroke
grestore
0.580 0.404 0.741 setrgbcolor
gsave
357.1 266.1 57.6 38.02 clipbox
188.151392 201.278833 m
190.190291 206.505575 l
stroke
grestore
0.549 0.337 0.294 setrgbcolor
gsave
357.1 266.1 57.6 38.02 clipbox
188.151392 201.278833 m
188.743414 198.504388 l
stroke
grestore
0.890 0.467 0.761 setrgbcolor
gsave
357.1 266.1 57.6 38.02 clipbox
163.644075 196.458834 m
163.644075 196.458834 l
stroke
grestore
0.498 setgray
gsave
357.1 266.1 57.6 38.02 clipbox
163.644075 196.458834 m
166.969652 193.708447 l
stroke
grestore
0.737 0.741 0.133 setrgbcolor
gsave
357.1 266.1 57.6 38.02 clipbox
163.644075 196.458834 m
159.109481 195.743292 l
stroke
grestore
0.090 0.745 0.812 setrgbcolor
gsave
357.1 266.1 57.6 38.02 clipbox
163.644075 196.458834 m
165.460032 201.544467 l
stroke
grestore
0.122 0.467 0.706 setrgbcolor
gsave
357.1 266.1 57.6 38.02 clipbox
163.644075 196.458834 m
162.444009 192.999412 l
stroke
grestore
1.000 0.498 0.055 setrgbcolor
gsave
357.1 266.1 57.6 38.02 clipbox
155.084565 187.885135 m
155.084565 187.885135 l
stroke
grestore
0.173 0.627 0.173 setrgbcolor
gsave
357.1 266.1 57.6 38.02 clipbox
155.084565 187.885135 m
157.419992 184.61087 l
stroke
grestore
0.839 0.153 0.157 setrgbcolor
gsave
357.1 266.1 57.6 38.02 clipbox
155.084565 187.885135 m
149.657775 187.096785 l
stroke
grestore
0.580 0.404 0.741 setrgbcolor
gsave
357.1 266.1 57.6 38.02 clipbox
155.084565 187.885135 m
156.4834 192.807436 l
stroke
grestore
0.549 0.337 0.294 setrgbcolor
gsave
357.1 266.1 57.6 38.02 clipbox
155.084565 187.885135 m
152.009519 183.827655 l
stroke
grestore
0.890 0.467 0.761 setrgbcolor
gsave
357.1 266.1 57.6 38.02 clipbox
170.951516 180.636991 m
170.951516 180.636991 l
stroke
grestore
0.498 setgray
gsave
357.1 266.1 57.6 38.02 clipbox
170.951516 180.636991 m
172.070521 176.836979 l
stroke
grestore
0.737 0.741 0.133 setrgbcolor
gsave
357.1 266.1 57.6 38.02 clipbox
170.951516 180.636991 m
164.893425 179.897424 l
stroke
grestore
0.090 0.745 0.812 setrgbcolor
gsave
357.1 266.1 57.6 38.02 clipbox
170.951516 180.636991 m
171.706009 185.349141 l
stroke
grestore
0.122 0.467 0.706 setrgbcolor
gsave
357.1 266.1 57.6 38.02 clipbox
170.951516 180.636991 m
166.032966 176.099452 l
stroke
grestore
1.000 0.498 0.055 setrgbcolor
gsave
357.1 266.1 57.6 38.02 clipbox
212.680945 180.90424 m
212.680945 180.90424 l
stroke
grestore
0.173 0.627 0.173 setrgbcolor
gsave
357.1 266.1 57.6 38.02 clipbox
212.680945 180.90424 m
212.433015 176.616083 l
stroke
grestore
0.839 0.153 0.157 setrgbcolor
gsave
357.1 266.1 57.6 38.02 clipbox
212.680945 180.90424 m
206.421933 180.353467 l
stroke
grestore
0.580 0.404 0.741 setrgbcolor
gsave
357.1 266.1 57.6 38.02 clipbox
212.680945 180.90424 m
212.575385 185.329149 l
stroke
grestore
0.549 0.337 0.294 setrgbcolor
gsave
357.1 266.1 57.6 38.02 clipbox
212.680945 180.90424 m
206.19362 176.06262 l
stroke
grestore
0.890 0.467 0.761 setrgbcolor
gsave
357.1 266.1 57.6 38.02 clipbox
271.189604 193.446185 m
271.189604 193.446185 l
stroke
grestore
0.498 setgray
gsave
357.1 266.1 57.6 38.02 clipbox
271.189604 193.446185 m
269.606746 188.766777 l
stroke
grestore
0.737 0.741 0.133 setrgbcolor
gsave
357.1 266.1 57.6 38.02 clipbox
271.189604 193.446185 m
265.275635 193.243874 l
stroke
grestore
0.090 0.745 0.812 setrgbcolor
gsave
357.1 266.1 57.6 38.02 clipbox
271.189604 193.446185 m
270.101453 197.497867 l
stroke
grestore
0.122 0.467 0.706 setrgbcolor
gsave
357.1 266.1 57.6 38.02 clipbox
271.189604 193.446185 m
263.706054 188.556157 l
stroke
grestore
1.000 0.498 0.055 setrgbcolor
gsave
357.1 266.1 57.6 38.02 clipbox
336.678035 224.230445 m
336.678035 224.230445 l
stroke
grestore
0.173 0.627 0.173 setrgbcolor
gsave
357.1 266.1 57.6 38.02 clipbox
336.678035 224.230445 m
333.862423 219.302532 l
stroke
grestore
0.839 0.153 0.157 setrgbcolor
gsave
357.1 266.1 57.6 38.02 clipbox
336.678035 224.230445 m
331.795836 224.62829 l
stroke
grestore
0.580 0.404 0.741 setrgbcolor
gsave
357.1 266.1 57.6 38.02 clipbox
336.678035 224.230445 m
334.491476 227.785814 l
stroke
grestore
0.549 0.337 0.294 setrgbcolor
gsave
357.1 266.1 57.6 38.02 clipbox
336.678035 224.230445 m
328.982468 219.686238 l
stroke
grestore
/p3_0 {
newpath
translate
0 -2.236068 m
0.593012 -2.236068 1.161816 -2.000462 1.581139 -1.581139 c
2.000462 -1.161816 2.236068 -0.593012 2.236068 0 c
2.236068 0.593012 2.000462 1.161816 1.581139 1.581139 c
1.161816 2.000462 0.593012 2.236068 0 2.236068 c
-0.593012 2.236068 -1.161816 2.000462 -1.581139 1.581139 c
-2.000462 1.161816 -2.236068 0.593012 -2.236068 0 c
-2.236068 -0.593012 -2.000462 -1.161816 -1.581139 -1.581139 c
-1.161816 -2.000462 -0.593012 -2.236068 0 -2.236068 c
cl

} bind def
1.000 setlinewidth
0 setlinecap
0.173 0.627 0.173 setrgbcolor
gsave
357.1 266.1 57.6 38.02 clipbox
258.477 162.085 p3_0
gsave
fill
grestore
stroke
grestore
gsave
357.1 266.1 57.6 38.02 clipbox
263.857 161.112 p3_0
gsave
fill
grestore
stroke
grestore
gsave
357.1 266.1 57.6 38.02 clipbox
259.744 163.353 p3_0
gsave
fill
grestore
stroke
grestore
gsave
357.1 266.1 57.6 38.02 clipbox
259.81 167.52 p3_0
gsave
fill
grestore
stroke
grestore
gsave
357.1 266.1 57.6 38.02 clipbox
265.105 162.383 p3_0
gsave
fill
grestore
stroke
grestore
/p4_0 {
newpath
translate
0 -2.236068 m
0.593012 -2.236068 1.161816 -2.000462 1.581139 -1.581139 c
2.000462 -1.161816 2.236068 -0.593012 2.236068 0 c
2.236068 0.593012 2.000462 1.161816 1.581139 1.581139 c
1.161816 2.000462 0.593012 2.236068 0 2.236068 c
-0.593012 2.236068 -1.161816 2.000462 -1.581139 1.581139 c
-2.000462 1.161816 -2.236068 0.593012 -2.236068 0 c
-2.236068 -0.593012 -2.000462 -1.161816 -1.581139 -1.581139 c
-1.161816 -2.000462 -0.593012 -2.236068 0 -2.236068 c
cl

} bind def
0.122 0.467 0.706 setrgbcolor
gsave
357.1 266.1 57.6 38.02 clipbox
235.736 134.082 p4_0
gsave
fill
grestore
stroke
grestore
gsave
357.1 266.1 57.6 38.02 clipbox
249.263 131.025 p4_0
gsave
fill
grestore
stroke
grestore
gsave
357.1 266.1 57.6 38.02 clipbox
246.152 141.103 p4_0
gsave
fill
grestore
stroke
grestore
gsave
357.1 266.1 57.6 38.02 clipbox
235.703 149.229 p4_0
gsave
fill
grestore
stroke
grestore
gsave
357.1 266.1 57.6 38.02 clipbox
259.606 138.096 p4_0
gsave
fill
grestore
stroke
grestore
/p5_0 {
newpath
translate
0 -2.236068 m
0.593012 -2.236068 1.161816 -2.000462 1.581139 -1.581139 c
2.000462 -1.161816 2.236068 -0.593012 2.236068 0 c
2.236068 0.593012 2.000462 1.161816 1.581139 1.581139 c
1.161816 2.000462 0.593012 2.236068 0 2.236068 c
-0.593012 2.236068 -1.161816 2.000462 -1.581139 1.581139 c
-2.000462 1.161816 -2.236068 0.593012 -2.236068 0 c
-2.236068 -0.593012 -2.000462 -1.161816 -1.581139 -1.581139 c
-1.161816 -2.000462 -0.593012 -2.236068 0 -2.236068 c
cl

} bind def
1.000 0.498 0.055 setrgbcolor
gsave
357.1 266.1 57.6 38.02 clipbox
250.672 148.156 p5_0
gsave
fill
grestore
stroke
grestore
gsave
357.1 266.1 57.6 38.02 clipbox
255.769 147.223 p5_0
gsave
fill
grestore
stroke
grestore
gsave
357.1 266.1 57.6 38.02 clipbox
253.138 149.991 p5_0
gsave
fill
grestore
stroke
grestore
gsave
357.1 266.1 57.6 38.02 clipbox
251.402 153.446 p5_0
gsave
fill
grestore
stroke
grestore
gsave
357.1 266.1 57.6 38.02 clipbox
258.221 149.062 p5_0
gsave
fill
grestore
stroke
grestore
/p6_0 {
newpath
translate
0 -2.236068 m
0.593012 -2.236068 1.161816 -2.000462 1.581139 -1.581139 c
2.000462 -1.161816 2.236068 -0.593012 2.236068 0 c
2.236068 0.593012 2.000462 1.161816 1.581139 1.581139 c
1.161816 2.000462 0.593012 2.236068 0 2.236068 c
-0.593012 2.236068 -1.161816 2.000462 -1.581139 1.581139 c
-2.000462 1.161816 -2.236068 0.593012 -2.236068 0 c
-2.236068 -0.593012 -2.000462 -1.161816 -1.581139 -1.581139 c
-1.161816 -2.000462 -0.593012 -2.236068 0 -2.236068 c
cl

} bind def
0.890 0.467 0.761 setrgbcolor
gsave
357.1 266.1 57.6 38.02 clipbox
188.151 201.279 p6_0
gsave
fill
grestore
stroke
grestore
gsave
357.1 266.1 57.6 38.02 clipbox
192.251 199.025 p6_0
gsave
fill
grestore
stroke
grestore
gsave
357.1 266.1 57.6 38.02 clipbox
184.643 200.751 p6_0
gsave
fill
grestore
stroke
grestore
gsave
357.1 266.1 57.6 38.02 clipbox
190.19 206.506 p6_0
gsave
fill
grestore
stroke
grestore
gsave
357.1 266.1 57.6 38.02 clipbox
188.743 198.504 p6_0
gsave
fill
grestore
stroke
grestore
/p7_0 {
newpath
translate
0 -2.236068 m
0.593012 -2.236068 1.161816 -2.000462 1.581139 -1.581139 c
2.000462 -1.161816 2.236068 -0.593012 2.236068 0 c
2.236068 0.593012 2.000462 1.161816 1.581139 1.581139 c
1.161816 2.000462 0.593012 2.236068 0 2.236068 c
-0.593012 2.236068 -1.161816 2.000462 -1.581139 1.581139 c
-2.000462 1.161816 -2.236068 0.593012 -2.236068 0 c
-2.236068 -0.593012 -2.000462 -1.161816 -1.581139 -1.581139 c
-1.161816 -2.000462 -0.593012 -2.236068 0 -2.236068 c
cl

} bind def
0.498 setgray
gsave
357.1 266.1 57.6 38.02 clipbox
163.644 196.459 p7_0
gsave
fill
grestore
stroke
grestore
gsave
357.1 266.1 57.6 38.02 clipbox
166.97 193.708 p7_0
gsave
fill
grestore
stroke
grestore
gsave
357.1 266.1 57.6 38.02 clipbox
159.109 195.743 p7_0
gsave
fill
grestore
stroke
grestore
gsave
357.1 266.1 57.6 38.02 clipbox
165.46 201.544 p7_0
gsave
fill
grestore
stroke
grestore
gsave
357.1 266.1 57.6 38.02 clipbox
162.444 192.999 p7_0
gsave
fill
grestore
stroke
grestore
/p8_0 {
newpath
translate
0 -2.236068 m
0.593012 -2.236068 1.161816 -2.000462 1.581139 -1.581139 c
2.000462 -1.161816 2.236068 -0.593012 2.236068 0 c
2.236068 0.593012 2.000462 1.161816 1.581139 1.581139 c
1.161816 2.000462 0.593012 2.236068 0 2.236068 c
-0.593012 2.236068 -1.161816 2.000462 -1.581139 1.581139 c
-2.000462 1.161816 -2.236068 0.593012 -2.236068 0 c
-2.236068 -0.593012 -2.000462 -1.161816 -1.581139 -1.581139 c
-1.161816 -2.000462 -0.593012 -2.236068 0 -2.236068 c
cl

} bind def
0.737 0.741 0.133 setrgbcolor
gsave
357.1 266.1 57.6 38.02 clipbox
155.085 187.885 p8_0
gsave
fill
grestore
stroke
grestore
gsave
357.1 266.1 57.6 38.02 clipbox
157.42 184.611 p8_0
gsave
fill
grestore
stroke
grestore
gsave
357.1 266.1 57.6 38.02 clipbox
149.658 187.097 p8_0
gsave
fill
grestore
stroke
grestore
gsave
357.1 266.1 57.6 38.02 clipbox
156.483 192.807 p8_0
gsave
fill
grestore
stroke
grestore
gsave
357.1 266.1 57.6 38.02 clipbox
152.01 183.828 p8_0
gsave
fill
grestore
stroke
grestore
/p9_0 {
newpath
translate
0 -2.236068 m
0.593012 -2.236068 1.161816 -2.000462 1.581139 -1.581139 c
2.000462 -1.161816 2.236068 -0.593012 2.236068 0 c
2.236068 0.593012 2.000462 1.161816 1.581139 1.581139 c
1.161816 2.000462 0.593012 2.236068 0 2.236068 c
-0.593012 2.236068 -1.161816 2.000462 -1.581139 1.581139 c
-2.000462 1.161816 -2.236068 0.593012 -2.236068 0 c
-2.236068 -0.593012 -2.000462 -1.161816 -1.581139 -1.581139 c
-1.161816 -2.000462 -0.593012 -2.236068 0 -2.236068 c
cl

} bind def
0.173 0.627 0.173 setrgbcolor
gsave
357.1 266.1 57.6 38.02 clipbox
336.678 224.23 p9_0
gsave
fill
grestore
stroke
grestore
gsave
357.1 266.1 57.6 38.02 clipbox
333.862 219.303 p9_0
gsave
fill
grestore
stroke
grestore
gsave
357.1 266.1 57.6 38.02 clipbox
331.796 224.628 p9_0
gsave
fill
grestore
stroke
grestore
gsave
357.1 266.1 57.6 38.02 clipbox
334.491 227.786 p9_0
gsave
fill
grestore
stroke
grestore
gsave
357.1 266.1 57.6 38.02 clipbox
328.982 219.686 p9_0
gsave
fill
grestore
stroke
grestore
/pa_0 {
newpath
translate
0 -2.236068 m
0.593012 -2.236068 1.161816 -2.000462 1.581139 -1.581139 c
2.000462 -1.161816 2.236068 -0.593012 2.236068 0 c
2.236068 0.593012 2.000462 1.161816 1.581139 1.581139 c
1.161816 2.000462 0.593012 2.236068 0 2.236068 c
-0.593012 2.236068 -1.161816 2.000462 -1.581139 1.581139 c
-2.000462 1.161816 -2.236068 0.593012 -2.236068 0 c
-2.236068 -0.593012 -2.000462 -1.161816 -1.581139 -1.581139 c
-1.161816 -2.000462 -0.593012 -2.236068 0 -2.236068 c
cl

} bind def
0.090 0.745 0.812 setrgbcolor
gsave
357.1 266.1 57.6 38.02 clipbox
170.952 180.637 pa_0
gsave
fill
grestore
stroke
grestore
gsave
357.1 266.1 57.6 38.02 clipbox
172.071 176.837 pa_0
gsave
fill
grestore
stroke
grestore
gsave
357.1 266.1 57.6 38.02 clipbox
164.893 179.897 pa_0
gsave
fill
grestore
stroke
grestore
gsave
357.1 266.1 57.6 38.02 clipbox
171.706 185.349 pa_0
gsave
fill
grestore
stroke
grestore
gsave
357.1 266.1 57.6 38.02 clipbox
166.033 176.099 pa_0
gsave
fill
grestore
stroke
grestore
/pb_0 {
newpath
translate
0 -2.236068 m
0.593012 -2.236068 1.161816 -2.000462 1.581139 -1.581139 c
2.000462 -1.161816 2.236068 -0.593012 2.236068 0 c
2.236068 0.593012 2.000462 1.161816 1.581139 1.581139 c
1.161816 2.000462 0.593012 2.236068 0 2.236068 c
-0.593012 2.236068 -1.161816 2.000462 -1.581139 1.581139 c
-2.000462 1.161816 -2.236068 0.593012 -2.236068 0 c
-2.236068 -0.593012 -2.000462 -1.161816 -1.581139 -1.581139 c
-1.161816 -2.000462 -0.593012 -2.236068 0 -2.236068 c
cl

} bind def
0.122 0.467 0.706 setrgbcolor
gsave
357.1 266.1 57.6 38.02 clipbox
212.681 180.904 pb_0
gsave
fill
grestore
stroke
grestore
gsave
357.1 266.1 57.6 38.02 clipbox
212.433 176.616 pb_0
gsave
fill
grestore
stroke
grestore
gsave
357.1 266.1 57.6 38.02 clipbox
206.422 180.353 pb_0
gsave
fill
grestore
stroke
grestore
gsave
357.1 266.1 57.6 38.02 clipbox
212.575 185.329 pb_0
gsave
fill
grestore
stroke
grestore
gsave
357.1 266.1 57.6 38.02 clipbox
206.194 176.063 pb_0
gsave
fill
grestore
stroke
grestore
/pc_0 {
newpath
translate
0 -2.236068 m
0.593012 -2.236068 1.161816 -2.000462 1.581139 -1.581139 c
2.000462 -1.161816 2.236068 -0.593012 2.236068 0 c
2.236068 0.593012 2.000462 1.161816 1.581139 1.581139 c
1.161816 2.000462 0.593012 2.236068 0 2.236068 c
-0.593012 2.236068 -1.161816 2.000462 -1.581139 1.581139 c
-2.000462 1.161816 -2.236068 0.593012 -2.236068 0 c
-2.236068 -0.593012 -2.000462 -1.161816 -1.581139 -1.581139 c
-1.161816 -2.000462 -0.593012 -2.236068 0 -2.236068 c
cl

} bind def
1.000 0.498 0.055 setrgbcolor
gsave
357.1 266.1 57.6 38.02 clipbox
271.19 193.446 pc_0
gsave
fill
grestore
stroke
grestore
gsave
357.1 266.1 57.6 38.02 clipbox
269.607 188.767 pc_0
gsave
fill
grestore
stroke
grestore
gsave
357.1 266.1 57.6 38.02 clipbox
265.276 193.244 pc_0
gsave
fill
grestore
stroke
grestore
gsave
357.1 266.1 57.6 38.02 clipbox
270.101 197.498 pc_0
gsave
fill
grestore
stroke
grestore
gsave
357.1 266.1 57.6 38.02 clipbox
263.706 188.556 pc_0
gsave
fill
grestore
stroke
grestore

end
showpage
