%!PS-Adobe-3.0 EPSF-3.0
%%Title: figures/simsetup1.eps
%%Creator: matplotlib version 2.0.0, http://matplotlib.org/
%%CreationDate: Tue Feb 28 10:49:08 2017
%%Orientation: portrait
%%BoundingBox: 75 223 536 568
%%EndComments
%%BeginProlog
/mpldict 8 dict def
mpldict begin
/m { moveto } bind def
/l { lineto } bind def
/r { rlineto } bind def
/c { curveto } bind def
/cl { closepath } bind def
/box {
m
1 index 0 r
0 exch r
neg 0 r
cl
} bind def
/clipbox {
box
clip
newpath
} bind def
%!PS-Adobe-3.0 Resource-Font
%%Title: DejaVu Sans
%%Copyright: Copyright (c) 2003 by Bitstream, Inc. All Rights Reserved. Copyright (c) 2006 by Tavmjong Bah. All Rights Reserved. DejaVu changes are in public domain 
%%Creator: Converted from TrueType to type 3 by PPR
25 dict begin
/_d{bind def}bind def
/_m{moveto}_d
/_l{lineto}_d
/_cl{closepath eofill}_d
/_c{curveto}_d
/_sc{7 -1 roll{setcachedevice}{pop pop pop pop pop pop}ifelse}_d
/_e{exec}_d
/FontName /DejaVuSans def
/PaintType 0 def
/FontMatrix[.001 0 0 .001 0 0]def
/FontBBox[-1021 -463 1793 1232]def
/FontType 3 def
/Encoding [ /zero /one /two /three /four /five /six /minus ] def
/FontInfo 10 dict dup begin
/FamilyName (DejaVu Sans) def
/FullName (DejaVu Sans) def
/Notice (Copyright (c) 2003 by Bitstream, Inc. All Rights Reserved. Copyright (c) 2006 by Tavmjong Bah. All Rights Reserved. DejaVu changes are in public domain ) def
/Weight (Book) def
/Version (Version 2.35) def
/ItalicAngle 0.0 def
/isFixedPitch false def
/UnderlinePosition -130 def
/UnderlineThickness 90 def
end readonly def
/CharStrings 8 dict dup begin
/zero{636 0 66 -13 570 742 _sc
318 664 _m
267 664 229 639 203 589 _c
177 539 165 464 165 364 _c
165 264 177 189 203 139 _c
229 89 267 64 318 64 _c
369 64 407 89 433 139 _c
458 189 471 264 471 364 _c
471 464 458 539 433 589 _c
407 639 369 664 318 664 _c
318 742 _m
399 742 461 709 505 645 _c
548 580 570 486 570 364 _c
570 241 548 147 505 83 _c
461 19 399 -13 318 -13 _c
236 -13 173 19 130 83 _c
87 147 66 241 66 364 _c
66 486 87 580 130 645 _c
173 709 236 742 318 742 _c
_cl}_d
/one{636 0 110 0 544 729 _sc
124 83 _m
285 83 _l
285 639 _l
110 604 _l
110 694 _l
284 729 _l
383 729 _l
383 83 _l
544 83 _l
544 0 _l
124 0 _l
124 83 _l
_cl}_d
/two{{636 0 73 0 536 742 _sc
192 83 _m
536 83 _l
536 0 _l
73 0 _l
73 83 _l
110 121 161 173 226 239 _c
290 304 331 346 348 365 _c
380 400 402 430 414 455 _c
426 479 433 504 433 528 _c
433 566 419 598 392 622 _c
365 646 330 659 286 659 _c
255 659 222 653 188 643 _c
154 632 117 616 78 594 _c
78 694 _l
118 710 155 722 189 730 _c
223 738 255 742 284 742 _c
}_e{359 742 419 723 464 685 _c
509 647 532 597 532 534 _c
532 504 526 475 515 449 _c
504 422 484 390 454 354 _c
446 344 420 317 376 272 _c
332 227 271 164 192 83 _c
_cl}_e}_d
/three{{636 0 76 -13 556 742 _sc
406 393 _m
453 383 490 362 516 330 _c
542 298 556 258 556 212 _c
556 140 531 84 482 45 _c
432 6 362 -13 271 -13 _c
240 -13 208 -10 176 -4 _c
144 1 110 10 76 22 _c
76 117 _l
103 101 133 89 166 81 _c
198 73 232 69 268 69 _c
330 69 377 81 409 105 _c
441 129 458 165 458 212 _c
458 254 443 288 413 312 _c
383 336 341 349 287 349 _c
}_e{202 349 _l
202 430 _l
291 430 _l
339 430 376 439 402 459 _c
428 478 441 506 441 543 _c
441 580 427 609 401 629 _c
374 649 336 659 287 659 _c
260 659 231 656 200 650 _c
169 644 135 635 98 623 _c
98 711 _l
135 721 170 729 203 734 _c
235 739 266 742 296 742 _c
370 742 429 725 473 691 _c
517 657 539 611 539 553 _c
539 513 527 479 504 451 _c
481 423 448 403 406 393 _c
_cl}_e}_d
/four{636 0 49 0 580 729 _sc
378 643 _m
129 254 _l
378 254 _l
378 643 _l
352 729 _m
476 729 _l
476 254 _l
580 254 _l
580 172 _l
476 172 _l
476 0 _l
378 0 _l
378 172 _l
49 172 _l
49 267 _l
352 729 _l
_cl}_d
/five{{636 0 77 -13 549 729 _sc
108 729 _m
495 729 _l
495 646 _l
198 646 _l
198 467 _l
212 472 227 476 241 478 _c
255 480 270 482 284 482 _c
365 482 429 459 477 415 _c
525 370 549 310 549 234 _c
549 155 524 94 475 51 _c
426 8 357 -13 269 -13 _c
238 -13 207 -10 175 -6 _c
143 -1 111 6 77 17 _c
77 116 _l
106 100 136 88 168 80 _c
199 72 232 69 267 69 _c
}_e{323 69 368 83 401 113 _c
433 143 450 183 450 234 _c
450 284 433 324 401 354 _c
368 384 323 399 267 399 _c
241 399 214 396 188 390 _c
162 384 135 375 108 363 _c
108 729 _l
_cl}_e}_d
/six{{636 0 70 -13 573 742 _sc
330 404 _m
286 404 251 388 225 358 _c
199 328 186 286 186 234 _c
186 181 199 139 225 109 _c
251 79 286 64 330 64 _c
374 64 409 79 435 109 _c
461 139 474 181 474 234 _c
474 286 461 328 435 358 _c
409 388 374 404 330 404 _c
526 713 _m
526 623 _l
501 635 476 644 451 650 _c
425 656 400 659 376 659 _c
310 659 260 637 226 593 _c
}_e{192 549 172 482 168 394 _c
187 422 211 444 240 459 _c
269 474 301 482 336 482 _c
409 482 467 459 509 415 _c
551 371 573 310 573 234 _c
573 159 550 99 506 54 _c
462 9 403 -13 330 -13 _c
246 -13 181 19 137 83 _c
92 147 70 241 70 364 _c
70 479 97 571 152 639 _c
206 707 280 742 372 742 _c
396 742 421 739 447 735 _c
472 730 498 723 526 713 _c
_cl}_e}_d
/minus{838 0 106 272 732 355 _sc
106 355 _m
732 355 _l
732 272 _l
106 272 _l
106 355 _l
_cl}_d
end readonly def

/BuildGlyph
 {exch begin
 CharStrings exch
 2 copy known not{pop /.notdef}if
 true 3 1 roll get exec
 end}_d

/BuildChar {
 1 index /Encoding get exch get
 1 index /BuildGlyph get exec
}_d

FontName currentdict end definefont pop
end
%%EndProlog
mpldict begin
75.6 223.2 translate
460.8 345.6 0 0 clipbox
gsave
0 0 m
460.8 0 l
460.8 345.6 l
0 345.6 l
cl
1.000 setgray
fill
grestore
gsave
57.6 38.016 m
414.72 38.016 l
414.72 304.128 l
57.6 304.128 l
cl
1.000 setgray
fill
grestore
1.000 setlinewidth
0 setlinejoin
0 setlinecap
[] 0 setdash
0.950 setgray
gsave
104.941774 96.817374 m
207.151387 162.062006 l
205.449705 286.733791 l
97.541237 228.11283 l
gsave
fill
grestore
stroke
grestore
0.900 setgray
gsave
207.151387 162.062006 m
372.72135 125.586046 l
379.648599 254.017258 l
205.449705 286.733791 l
gsave
fill
grestore
stroke
grestore
0.925 setgray
gsave
104.941774 96.817374 m
279.143747 54.335175 l
372.72135 125.586046 l
207.151387 162.062006 l
gsave
fill
grestore
stroke
grestore
0.800 setlinewidth
1 setlinejoin
2 setlinecap
[] 0 setdash
0.000 setgray
gsave
104.941774 96.817374 m
279.143747 54.335175 l
stroke
grestore
0 setlinecap
0.690 setgray
gsave
112.407974 94.99661 m
214.270437 160.493641 l
212.924176 285.33 l
stroke
grestore
gsave
134.267288 89.665834 m
235.101597 155.904424 l
234.803378 281.220838 l
stroke
grestore
gsave
156.38417 84.272246 m
256.160355 151.265065 l
256.933811 277.064491 l
stroke
grestore
gsave
178.763199 78.814728 m
277.450459 146.57474 l
279.319828 272.860142 l
stroke
grestore
gsave
201.409064 73.292137 m
298.975744 141.832603 l
301.965883 268.606955 l
stroke
grestore
gsave
224.326566 67.703304 m
320.740129 137.037791 l
324.876533 264.304075 l
stroke
grestore
gsave
247.520622 62.047027 m
342.747619 132.189422 l
348.056443 259.950624 l
stroke
grestore
gsave
270.996267 56.32208 m
365.00231 127.286593 l
371.510386 255.545707 l
stroke
grestore
2 setlinecap
0.000 setgray
gsave
113.285518 95.560867 m
110.649614 93.865994 l
stroke
grestore
/DejaVuSans findfont
10.000 scalefont
setfont
gsave
97.721069 73.542541 translate
0.000000 rotate
0.000000 0.000000 m /minus glyphshow
8.378906 0.000000 m /one glyphshow
grestore
gsave
135.136338 90.236718 m
132.52593 88.521927 l
stroke
grestore
gsave
123.765275 68.120597 translate
0.000000 rotate
0.000000 0.000000 m /zero glyphshow
grestore
gsave
157.244464 84.849874 m
154.660338 83.114812 l
stroke
grestore
gsave
145.879997 62.634648 translate
0.000000 rotate
0.000000 0.000000 m /one glyphshow
grestore
gsave
179.614468 79.39922 m
177.057433 77.643526 l
stroke
grestore
gsave
168.257331 57.083553 translate
0.000000 rotate
0.000000 0.000000 m /two glyphshow
grestore
gsave
202.25103 73.883618 m
199.721918 72.10692 l
stroke
grestore
gsave
190.901981 51.466146 translate
0.000000 rotate
0.000000 0.000000 m /three glyphshow
grestore
gsave
225.158945 68.301898 m
222.658612 66.503818 l
stroke
grestore
gsave
213.818766 45.781230 translate
0.000000 rotate
0.000000 0.000000 m /four glyphshow
grestore
gsave
248.34312 62.652864 m
245.872447 60.833014 l
stroke
grestore
gsave
237.012623 40.027582 translate
0.000000 rotate
0.000000 0.000000 m /five glyphshow
grestore
gsave
271.808584 56.935293 m
269.368478 55.093273 l
stroke
grestore
gsave
260.488606 34.203948 translate
0.000000 rotate
0.000000 0.000000 m /six glyphshow
grestore
gsave
372.72135 125.586046 m
279.143747 54.335175 l
stroke
grestore
0 setlinecap
0.690 setgray
gsave
104.930092 232.126804 m
111.915028 101.268691 l
285.548062 59.21148 l
stroke
grestore
gsave
124.810294 242.926666 m
130.695501 113.257045 l
302.78167 72.333312 l
stroke
grestore
gsave
144.142663 253.428919 m
148.984318 124.931555 l
319.5437 85.096081 l
stroke
grestore
gsave
162.949534 263.645697 m
166.800537 136.304386 l
335.853248 97.514325 l
stroke
grestore
gsave
181.252048 273.588484 m
184.162243 147.387083 l
351.728392 109.601809 l
stroke
grestore
gsave
199.070224 283.268156 m
201.086609 158.190607 l
367.186258 121.371575 l
stroke
grestore
2 setlinecap
0.000 setgray
gsave
284.094906 59.563462 m
288.457621 58.50673 l
stroke
grestore
gsave
295.067722 39.459960 translate
0.000000 rotate
0.000000 0.000000 m /zero glyphshow
grestore
gsave
301.342341 72.675599 m
305.6635 71.647986 l
stroke
grestore
gsave
312.116594 52.743760 translate
0.000000 rotate
0.000000 0.000000 m /one glyphshow
grestore
gsave
318.11799 85.429067 m
322.398219 84.429386 l
stroke
grestore
gsave
328.699174 65.664244 translate
0.000000 rotate
0.000000 0.000000 m /two glyphshow
grestore
gsave
334.440952 97.838384 m
338.68087 96.865512 l
stroke
grestore
gsave
344.834335 78.236118 translate
0.000000 rotate
0.000000 0.000000 m /three glyphshow
grestore
gsave
350.329304 109.917296 m
354.529527 108.970168 l
stroke
grestore
gsave
360.539944 90.473301 translate
0.000000 rotate
0.000000 0.000000 m /four glyphshow
grestore
gsave
365.800177 121.678825 m
369.961313 120.756433 l
stroke
grestore
gsave
375.832928 102.388983 translate
0.000000 rotate
0.000000 0.000000 m /five glyphshow
grestore
gsave
372.72135 125.586046 m
379.648599 254.017258 l
stroke
grestore
0 setlinecap
0.690 setgray
gsave
373.141488 133.375407 m
207.047968 169.638844 l
104.493657 104.767584 l
stroke
grestore
gsave
374.307744 154.997795 m
206.761034 190.660795 l
103.249242 126.84517 l
stroke
grestore
gsave
375.494767 177.00521 m
206.469206 212.041245 l
101.981928 149.329026 l
stroke
grestore
gsave
376.703117 199.40803 m
206.172358 233.789443 l
100.691076 172.230473 l
stroke
grestore
gsave
377.933375 222.217006 m
205.870361 255.914959 l
99.376024 195.561252 l
stroke
grestore
gsave
379.186141 245.443286 m
205.563078 278.427699 l
98.036086 219.333551 l
stroke
grestore
2 setlinecap
0.000 setgray
gsave
371.75555 133.678001 m
375.916253 132.769589 l
stroke
grestore
gsave
388.351019 127.739892 translate
0.000000 rotate
0.000000 0.000000 m /zero glyphshow
grestore
gsave
372.909171 155.295487 m
377.107831 154.401785 l
stroke
grestore
gsave
389.676547 149.330525 translate
0.000000 rotate
0.000000 0.000000 m /one glyphshow
grestore
gsave
374.083327 177.297777 m
378.320642 176.419456 l
stroke
grestore
gsave
391.025625 171.304741 translate
0.000000 rotate
0.000000 0.000000 m /two glyphshow
grestore
gsave
375.278572 199.695238 m
379.555259 198.832998 l
stroke
grestore
gsave
392.398885 193.672853 translate
0.000000 rotate
0.000000 0.000000 m /three glyphshow
grestore
gsave
376.495478 222.498613 m
380.812275 221.653183 l
stroke
grestore
gsave
393.796984 216.445550 translate
0.000000 rotate
0.000000 0.000000 m /four glyphshow
grestore
gsave
377.73464 245.719037 m
382.092306 244.891181 l
stroke
grestore
gsave
395.220602 239.633908 translate
0.000000 rotate
0.000000 0.000000 m /five glyphshow
grestore
2.000 setlinewidth
0 setlinecap
0.000 0.000 1.000 setrgbcolor
gsave
357.1 266.1 57.6 38.02 clipbox
177.527756 126.048627 m
159.420251 114.260513 l
stroke
grestore
gsave
357.1 266.1 57.6 38.02 clipbox
177.527756 126.048627 m
172.377277 120.98879 l
stroke
grestore
gsave
357.1 266.1 57.6 38.02 clipbox
177.527756 126.048627 m
172.282867 124.343354 l
stroke
grestore
gsave
357.1 266.1 57.6 38.02 clipbox
334.028354 239.335607 m
317.935772 229.01294 l
stroke
grestore
gsave
357.1 266.1 57.6 38.02 clipbox
334.028354 239.335607 m
329.348232 234.609366 l
stroke
grestore
gsave
357.1 266.1 57.6 38.02 clipbox
334.028354 239.335607 m
329.470455 238.138459 l
stroke
grestore
/p0_0 {
newpath
translate
0 -2.236068 m
0.593012 -2.236068 1.161816 -2.000462 1.581139 -1.581139 c
2.000462 -1.161816 2.236068 -0.593012 2.236068 0 c
2.236068 0.593012 2.000462 1.161816 1.581139 1.581139 c
1.161816 2.000462 0.593012 2.236068 0 2.236068 c
-0.593012 2.236068 -1.161816 2.000462 -1.581139 1.581139 c
-2.000462 1.161816 -2.236068 0.593012 -2.236068 0 c
-2.236068 -0.593012 -2.000462 -1.161816 -1.581139 -1.581139 c
-1.161816 -2.000462 -0.593012 -2.236068 0 -2.236068 c
cl

} bind def
1.000 setlinewidth
1.000 0.498 0.055 setrgbcolor
gsave
357.1 266.1 57.6 38.02 clipbox
301.403 218.408 p0_0
gsave
fill
grestore
stroke
grestore
gsave
357.1 266.1 57.6 38.02 clipbox
312.962 216.089 p0_0
gsave
fill
grestore
stroke
grestore
gsave
357.1 266.1 57.6 38.02 clipbox
309.726 223.747 p0_0
gsave
fill
grestore
stroke
grestore
gsave
357.1 266.1 57.6 38.02 clipbox
301.68 230.008 p0_0
gsave
fill
grestore
stroke
grestore
gsave
357.1 266.1 57.6 38.02 clipbox
321.23 221.459 p0_0
gsave
fill
grestore
stroke
grestore
2.000 setlinewidth
2 setlinecap
0.122 0.467 0.706 setrgbcolor
gsave
357.1 266.1 57.6 38.02 clipbox
140.820531 102.151963 m
140.820531 102.151963 l
stroke
grestore
1.000 0.498 0.055 setrgbcolor
gsave
357.1 266.1 57.6 38.02 clipbox
140.820531 102.151963 m
174.09641 94.161683 l
stroke
grestore
0.173 0.627 0.173 setrgbcolor
gsave
357.1 266.1 57.6 38.02 clipbox
140.820531 102.151963 m
168.534301 120.193824 l
stroke
grestore
0.839 0.153 0.157 setrgbcolor
gsave
357.1 266.1 57.6 38.02 clipbox
140.820531 102.151963 m
139.440377 135.48193 l
stroke
grestore
0.580 0.404 0.741 setrgbcolor
gsave
357.1 266.1 57.6 38.02 clipbox
140.820531 102.151963 m
201.379854 112.521001 l
stroke
grestore
0.549 0.337 0.294 setrgbcolor
gsave
357.1 266.1 57.6 38.02 clipbox
301.403431 218.408186 m
301.403431 218.408186 l
stroke
grestore
0.890 0.467 0.761 setrgbcolor
gsave
357.1 266.1 57.6 38.02 clipbox
301.403431 218.408186 m
312.96227 216.089018 l
stroke
grestore
0.498 setgray
gsave
357.1 266.1 57.6 38.02 clipbox
301.403431 218.408186 m
309.72569 223.746542 l
stroke
grestore
0.737 0.741 0.133 setrgbcolor
gsave
357.1 266.1 57.6 38.02 clipbox
301.403431 218.408186 m
301.67986 230.00752 l
stroke
grestore
0.090 0.745 0.812 setrgbcolor
gsave
357.1 266.1 57.6 38.02 clipbox
301.403431 218.408186 m
321.230235 221.458785 l
stroke
grestore
0 setlinecap
0.000 setgray
gsave
357.1 266.1 57.6 38.02 clipbox
185.319621 91.46674 m
162.939211 96.840775 l
stroke
grestore
gsave
357.1 266.1 57.6 38.02 clipbox
185.319621 91.46674 m
178.851228 91.319219 l
stroke
grestore
gsave
357.1 266.1 57.6 38.02 clipbox
185.319621 91.46674 m
178.762852 94.744312 l
stroke
grestore
/p1_0 {
newpath
translate
0 -2.236068 m
0.593012 -2.236068 1.161816 -2.000462 1.581139 -1.581139 c
2.000462 -1.161816 2.236068 -0.593012 2.236068 0 c
2.236068 0.593012 2.000462 1.161816 1.581139 1.581139 c
1.161816 2.000462 0.593012 2.236068 0 2.236068 c
-0.593012 2.236068 -1.161816 2.000462 -1.581139 1.581139 c
-2.000462 1.161816 -2.236068 0.593012 -2.236068 0 c
-2.236068 -0.593012 -2.000462 -1.161816 -1.581139 -1.581139 c
-1.161816 -2.000462 -0.593012 -2.236068 0 -2.236068 c
cl

} bind def
1.000 setlinewidth
0.122 0.467 0.706 setrgbcolor
gsave
357.1 266.1 57.6 38.02 clipbox
140.821 102.152 p1_0
gsave
fill
grestore
stroke
grestore
gsave
357.1 266.1 57.6 38.02 clipbox
174.096 94.1617 p1_0
gsave
fill
grestore
stroke
grestore
gsave
357.1 266.1 57.6 38.02 clipbox
168.534 120.194 p1_0
gsave
fill
grestore
stroke
grestore
gsave
357.1 266.1 57.6 38.02 clipbox
139.44 135.482 p1_0
gsave
fill
grestore
stroke
grestore
gsave
357.1 266.1 57.6 38.02 clipbox
201.38 112.521 p1_0
gsave
fill
grestore
stroke
grestore
2.000 setlinewidth
0.000 setgray
gsave
357.1 266.1 57.6 38.02 clipbox
348.051314 209.048742 m
324.589457 213.756136 l
stroke
grestore
gsave
357.1 266.1 57.6 38.02 clipbox
348.051314 209.048742 m
341.152354 208.614308 l
stroke
grestore
gsave
357.1 266.1 57.6 38.02 clipbox
348.051314 209.048742 m
341.295584 212.225458 l
stroke
grestore
0.000 0.500 0.000 setrgbcolor
gsave
357.1 266.1 57.6 38.02 clipbox
138.971835 146.79697 m
139.904635 124.270353 l
stroke
grestore
gsave
357.1 266.1 57.6 38.02 clipbox
138.971835 146.79697 m
137.51118 140.625279 l
stroke
grestore
gsave
357.1 266.1 57.6 38.02 clipbox
138.971835 146.79697 m
140.978232 139.827531 l
stroke
grestore
gsave
357.1 266.1 57.6 38.02 clipbox
302.524536 265.451231 m
301.95883 241.713482 l
stroke
grestore
gsave
357.1 266.1 57.6 38.02 clipbox
302.524536 265.451231 m
300.541894 258.873364 l
stroke
grestore
gsave
357.1 266.1 57.6 38.02 clipbox
302.524536 265.451231 m
304.178851 258.181024 l
stroke
grestore

end
showpage
